{"paperId":"96ceaf18e68414910c10af95c86932f48c36e07f","indicators":[{"word":"fires","begin":3039,"end":3043,"sentenceIndex":12,"sentenceBegin":2904,"sentenceEnd":3085}]}
{"paperId":"2a9ce4bd09d2a6b43d947e70edab361c6bbd06c0","indicators":[{"word":"tobacco","begin":984,"end":990,"sentenceIndex":6,"sentenceBegin":965,"sentenceEnd":1014}]}
{"paperId":"2706c559ba505d2c8327164e9dafef256fd8e73a","indicators":[{"word":"smoke","begin":329,"end":333,"sentenceIndex":1,"sentenceBegin":140,"sentenceEnd":366}]}
