{"paperId":"80e832abbbb7cec5967238ab2ed1b415175242b2","indicators":[{"word":"smoke","begin":760,"end":764,"sentenceIndex":3,"sentenceBegin":469,"sentenceEnd":792}]}
{"paperId":"01ee4349707fbc92a6585cd9ca69b153e661f274","indicators":[{"word":"fires","begin":848,"end":852,"sentenceIndex":4,"sentenceBegin":723,"sentenceEnd":873}]}
{"paperId":"97d9aba89629fb5b0b763d54d7884a82ecf78f84","indicators":[{"word":"vapor","begin":79,"end":83,"sentenceIndex":0,"sentenceBegin":0,"sentenceEnd":186}]}
{"paperId":"ffbb614c5a4d631f7e5823416591c585d7778d06","indicators":[{"word":"cannabis","begin":380,"end":387,"sentenceIndex":2,"sentenceBegin":210,"sentenceEnd":437}]}
{"paperId":"c7c7682fec09e30dfff947bfaa3dc783a6b49723","indicators":[{"word":"weeds","begin":509,"end":513,"sentenceIndex":1,"sentenceBegin":305,"sentenceEnd":531}]}
{"paperId":"0091c1f23d5fea2faf6c1e9e52e4a2281869c69a","indicators":[{"word":"firing","begin":896,"end":901,"sentenceIndex":2,"sentenceBegin":679,"sentenceEnd":930}]}
{"paperId":"fcae60dc1a37f467c1d95884787e1e3283dc769e","indicators":[{"word":"tobacco","begin":656,"end":662,"sentenceIndex":4,"sentenceBegin":538,"sentenceEnd":692}]}
{"paperId":"fcae60dc1a37f467c1d95884787e1e3283dc769e","indicators":[{"word":"smoke","begin":194,"end":198,"sentenceIndex":0,"sentenceBegin":0,"sentenceEnd":250},{"word":"fumes","begin":203,"end":207,"sentenceIndex":0,"sentenceBegin":0,"sentenceEnd":250}]}
{"paperId":"fcae60dc1a37f467c1d95884787e1e3283dc769e","indicators":[{"word":"fumes","begin":38,"end":42,"sentenceIndex":0,"sentenceBegin":0,"sentenceEnd":120}]}
{"paperId":"fcae60dc1a37f467c1d95884787e1e3283dc769e","indicators":[{"word":"vapor","begin":39,"end":43,"sentenceIndex":0,"sentenceBegin":0,"sentenceEnd":55},{"word":"vapor","begin":112,"end":116,"sentenceIndex":1,"sentenceBegin":57,"sentenceEnd":240},{"word":"vapor","begin":296,"end":300,"sentenceIndex":2,"sentenceBegin":242,"sentenceEnd":388}]}
