{"paperId":"33db094e90e39f558529c568e0d0e373fe21bf7b","indicators":[{"word":"smog","begin":42,"end":45,"sentenceIndex":0,"sentenceBegin":0,"sentenceEnd":98}]}
{"paperId":"81629aed7cd62883709a5662084e0b208b6822fd","indicators":[{"word":"cigarette","begin":52,"end":60,"sentenceIndex":0,"sentenceBegin":0,"sentenceEnd":147},{"word":"smoke","begin":62,"end":66,"sentenceIndex":0,"sentenceBegin":0,"sentenceEnd":147}]}
{"paperId":"81629aed7cd62883709a5662084e0b208b6822fd","indicators":[{"word":"cigarette","begin":658,"end":666,"sentenceIndex":3,"sentenceBegin":565,"sentenceEnd":843},{"word":"smoke","begin":668,"end":672,"sentenceIndex":3,"sentenceBegin":565,"sentenceEnd":843}]}
{"paperId":"81629aed7cd62883709a5662084e0b208b6822fd","indicators":[{"word":"smoking","begin":567,"end":573,"sentenceIndex":4,"sentenceBegin":474,"sentenceEnd":658}]}
{"paperId":"81629aed7cd62883709a5662084e0b208b6822fd","indicators":[{"word":"cigarette","begin":797,"end":805,"sentenceIndex":7,"sentenceBegin":786,"sentenceEnd":894},{"word":"smoking","begin":807,"end":813,"sentenceIndex":7,"sentenceBegin":786,"sentenceEnd":894},{"word":"tobacco","begin":1037,"end":1043,"sentenceIndex":8,"sentenceBegin":896,"sentenceEnd":1050},{"word":"smoke","begin":1045,"end":1049,"sentenceIndex":8,"sentenceBegin":896,"sentenceEnd":1050},{"word":"smoking","begin":1173,"end":1179,"sentenceIndex":9,"sentenceBegin":1052,"sentenceEnd":1203}]}
{"paperId":"81629aed7cd62883709a5662084e0b208b6822fd","indicators":[{"word":"cigarette","begin":553,"end":561,"sentenceIndex":2,"sentenceBegin":424,"sentenceEnd":571}]}
{"paperId":"e0c972eea9dcf0f10e68a22a6462cb11a4413b58","indicators":[{"word":"smoking","begin":1955,"end":1961,"sentenceIndex":6,"sentenceBegin":1583,"sentenceEnd":2030}]}
{"paperId":"3c3f097f19bb3dbbf56eb0f099af81054b305752","indicators":[{"word":"tobacco","begin":807,"end":813,"sentenceIndex":5,"sentenceBegin":732,"sentenceEnd":814}]}
