{"paperId":"cf3c99d79ba19d158762e28ad13608aef4aa6b70","indicators":[{"word":"smoking","begin":1298,"end":1304,"sentenceIndex":7,"sentenceBegin":1220,"sentenceEnd":1311}]}
{"paperId":"cf3c99d79ba19d158762e28ad13608aef4aa6b70","indicators":[{"word":"cigarette","begin":174,"end":182,"sentenceIndex":1,"sentenceBegin":153,"sentenceEnd":390},{"word":"smoke","begin":184,"end":188,"sentenceIndex":1,"sentenceBegin":153,"sentenceEnd":390}]}
{"paperId":"86260af807c5a47b00cfb16c2844a6239bac8a55","indicators":[{"word":"smoke","begin":238,"end":242,"sentenceIndex":1,"sentenceBegin":218,"sentenceEnd":525}]}
