{"paperId":"6448c25b3a8d2f818f50dbc0f3aa59d7d4ce32a1","indicators":[{"word":"tobacco","begin":868,"end":874,"sentenceIndex":5,"sentenceBegin":785,"sentenceEnd":1019},{"word":"smoke","begin":876,"end":880,"sentenceIndex":5,"sentenceBegin":785,"sentenceEnd":1019}]}
{"paperId":"479c1236e0f613ed3d9983407e6bd58272f9037d","indicators":[{"word":"tobacco","begin":1552,"end":1558,"sentenceIndex":7,"sentenceBegin":683,"sentenceEnd":1729}]}
{"paperId":"479c1236e0f613ed3d9983407e6bd58272f9037d","indicators":[{"word":"smoking","begin":847,"end":853,"sentenceIndex":2,"sentenceBegin":544,"sentenceEnd":990}]}
{"paperId":"ee7f542cfef82442685f12e96e7fde307c54c14f","indicators":[{"word":"tobacco","begin":557,"end":563,"sentenceIndex":3,"sentenceBegin":466,"sentenceEnd":640}]}
{"paperId":"0776048a4cfc1bc12d7b814acb1bb17d9960f9fd","indicators":[{"word":"vapor","begin":246,"end":250,"sentenceIndex":2,"sentenceBegin":199,"sentenceEnd":346}]}
{"paperId":"13a16ec011a5b21f44352ee9f5e4d2cedab343ed","indicators":[{"word":"tobacco","begin":557,"end":563,"sentenceIndex":3,"sentenceBegin":466,"sentenceEnd":640}]}
{"paperId":"86e0e7b9e0748c357c2de753f37cb41c77e041ae","indicators":[{"word":"tobacco","begin":12,"end":18,"sentenceIndex":0,"sentenceBegin":0,"sentenceEnd":101},{"word":"smoke","begin":20,"end":24,"sentenceIndex":0,"sentenceBegin":0,"sentenceEnd":101},{"word":"tobacco","begin":164,"end":170,"sentenceIndex":1,"sentenceBegin":103,"sentenceEnd":328},{"word":"smoke","begin":172,"end":176,"sentenceIndex":1,"sentenceBegin":103,"sentenceEnd":328},{"word":"smoking","begin":293,"end":299,"sentenceIndex":1,"sentenceBegin":103,"sentenceEnd":328}]}
{"paperId":"461ab5de2af4ec7cfc7382d46fc110f4472571d6","indicators":[{"word":"fires","begin":1545,"end":1549,"sentenceIndex":15,"sentenceBegin":1375,"sentenceEnd":1561}]}
{"paperId":"461ab5de2af4ec7cfc7382d46fc110f4472571d6","indicators":[{"word":"fires","begin":256,"end":260,"sentenceIndex":2,"sentenceBegin":162,"sentenceEnd":306}]}
{"paperId":"461ab5de2af4ec7cfc7382d46fc110f4472571d6","indicators":[{"word":"fires","begin":748,"end":752,"sentenceIndex":4,"sentenceBegin":621,"sentenceEnd":908}]}
{"paperId":"90c0fc2057c831cd2bbacec0be2bd1084c36400c","indicators":[{"word":"cigarette","begin":826,"end":834,"sentenceIndex":7,"sentenceBegin":772,"sentenceEnd":843},{"word":"smoking","begin":836,"end":842,"sentenceIndex":7,"sentenceBegin":772,"sentenceEnd":843}]}
{"paperId":"90c0fc2057c831cd2bbacec0be2bd1084c36400c","indicators":[{"word":"cigarette","begin":871,"end":879,"sentenceIndex":6,"sentenceBegin":805,"sentenceEnd":898},{"word":"smoking","begin":881,"end":887,"sentenceIndex":6,"sentenceBegin":805,"sentenceEnd":898},{"word":"cigarette","begin":959,"end":967,"sentenceIndex":7,"sentenceBegin":900,"sentenceEnd":1094},{"word":"smoke","begin":969,"end":973,"sentenceIndex":7,"sentenceBegin":900,"sentenceEnd":1094},{"word":"smoking","begin":992,"end":998,"sentenceIndex":7,"sentenceBegin":900,"sentenceEnd":1094}]}
{"paperId":"90c0fc2057c831cd2bbacec0be2bd1084c36400c","indicators":[{"word":"fumes","begin":1232,"end":1236,"sentenceIndex":6,"sentenceBegin":1118,"sentenceEnd":1308}]}
{"paperId":"5ab9416ec94f04bee4c01e65d9393c8184c55479","indicators":[{"word":"tobacco","begin":97,"end":103,"sentenceIndex":0,"sentenceBegin":0,"sentenceEnd":124},{"word":"tobacco","begin":1540,"end":1546,"sentenceIndex":11,"sentenceBegin":1502,"sentenceEnd":1696}]}
{"paperId":"5ab9416ec94f04bee4c01e65d9393c8184c55479","indicators":[{"word":"tobacco","begin":81,"end":87,"sentenceIndex":0,"sentenceBegin":0,"sentenceEnd":147}]}
{"paperId":"5ab9416ec94f04bee4c01e65d9393c8184c55479","indicators":[{"word":"tobacco","begin":6,"end":12,"sentenceIndex":0,"sentenceBegin":0,"sentenceEnd":32},{"word":"tobacco","begin":725,"end":731,"sentenceIndex":8,"sentenceBegin":688,"sentenceEnd":792},{"word":"tobacco","begin":1058,"end":1064,"sentenceIndex":11,"sentenceBegin":992,"sentenceEnd":1127}]}
{"paperId":"5ab9416ec94f04bee4c01e65d9393c8184c55479","indicators":[{"word":"tobacco","begin":1651,"end":1657,"sentenceIndex":14,"sentenceBegin":1537,"sentenceEnd":1672}]}
{"paperId":"5efae4eb4c986da7483e7628d420be2a29df90d0","indicators":[{"word":"tobacco","begin":1171,"end":1177,"sentenceIndex":3,"sentenceBegin":971,"sentenceEnd":1203},{"word":"smoke","begin":1179,"end":1183,"sentenceIndex":3,"sentenceBegin":971,"sentenceEnd":1203}]}
