{"paperId":"13a67f797b2941007743f4191599f82820335f94","indicators":[{"word":"tobacco","begin":186,"end":192,"sentenceIndex":0,"sentenceBegin":0,"sentenceEnd":290},{"word":"tobacco","begin":670,"end":676,"sentenceIndex":2,"sentenceBegin":665,"sentenceEnd":965}]}
{"paperId":"13a67f797b2941007743f4191599f82820335f94","indicators":[{"word":"smoking","begin":257,"end":263,"sentenceIndex":1,"sentenceBegin":231,"sentenceEnd":474}]}
{"paperId":"0a5bffb944734d4afefd2ce3a49ae78ec1f12a18","indicators":[{"word":"smoke","begin":164,"end":168,"sentenceIndex":2,"sentenceBegin":162,"sentenceEnd":228}]}
{"paperId":"ba498f505c74a29959cda94f0b6f8d1272f19131","indicators":[{"word":"smoking","begin":57,"end":63,"sentenceIndex":0,"sentenceBegin":0,"sentenceEnd":233}]}
