{"paperId":"6d327ca3f48a7c1b986ff9870304b123fffbad9b","indicators":[{"word":"fires","begin":382,"end":386,"sentenceIndex":1,"sentenceBegin":118,"sentenceEnd":485}]}
{"paperId":"6d327ca3f48a7c1b986ff9870304b123fffbad9b","indicators":[{"word":"smoke","begin":268,"end":272,"sentenceIndex":2,"sentenceBegin":264,"sentenceEnd":489},{"word":"smoke","begin":1066,"end":1070,"sentenceIndex":7,"sentenceBegin":979,"sentenceEnd":1166}]}
{"paperId":"6d327ca3f48a7c1b986ff9870304b123fffbad9b","indicators":[{"word":"fires","begin":624,"end":628,"sentenceIndex":2,"sentenceBegin":414,"sentenceEnd":629}]}
{"paperId":"a499f04e9aa69eea34e3450f3011d575972c90b5","indicators":[{"word":"smoking","begin":248,"end":254,"sentenceIndex":1,"sentenceBegin":191,"sentenceEnd":361}]}
{"paperId":"49961f6e32312ed8d1fba45c2bc906674b04da4d","indicators":[{"word":"tobacco","begin":162,"end":168,"sentenceIndex":0,"sentenceBegin":0,"sentenceEnd":209}]}
{"paperId":"49961f6e32312ed8d1fba45c2bc906674b04da4d","indicators":[{"word":"tobacco","begin":845,"end":851,"sentenceIndex":8,"sentenceBegin":757,"sentenceEnd":949}]}
{"paperId":"f816537d34fec5cc29ae5c992c64e83f58541e5b","indicators":[{"word":"smog","begin":58,"end":61,"sentenceIndex":0,"sentenceBegin":0,"sentenceEnd":184}]}
{"paperId":"f816537d34fec5cc29ae5c992c64e83f58541e5b","indicators":[{"word":"tobacco","begin":544,"end":550,"sentenceIndex":5,"sentenceBegin":448,"sentenceEnd":571},{"word":"smoke","begin":552,"end":556,"sentenceIndex":5,"sentenceBegin":448,"sentenceEnd":571}]}
{"paperId":"f816537d34fec5cc29ae5c992c64e83f58541e5b","indicators":[{"word":"smog","begin":3900,"end":3903,"sentenceIndex":41,"sentenceBegin":3845,"sentenceEnd":4013}]}
{"paperId":"f816537d34fec5cc29ae5c992c64e83f58541e5b","indicators":[{"word":"smog","begin":55,"end":58,"sentenceIndex":0,"sentenceBegin":0,"sentenceEnd":258}]}
{"paperId":"d600d07469f8268d91c9790b6fa39607b6a5f89b","indicators":[{"word":"smoking","begin":768,"end":774,"sentenceIndex":3,"sentenceBegin":608,"sentenceEnd":958}]}
{"paperId":"165185dcf86a5f0265ddd9bf550d68a01f3fd9c6","indicators":[{"word":"cigarette","begin":1349,"end":1357,"sentenceIndex":7,"sentenceBegin":1255,"sentenceEnd":1604},{"word":"smoking","begin":1359,"end":1365,"sentenceIndex":7,"sentenceBegin":1255,"sentenceEnd":1604}]}
{"paperId":"165185dcf86a5f0265ddd9bf550d68a01f3fd9c6","indicators":[{"word":"tobacco","begin":707,"end":713,"sentenceIndex":3,"sentenceBegin":599,"sentenceEnd":801}]}
{"paperId":"c24908e104243b7e2746f6e32b360588ed7e9d20","indicators":[{"word":"smoke","begin":1458,"end":1462,"sentenceIndex":7,"sentenceBegin":1225,"sentenceEnd":1554}]}
