{"paperId":"5d98d889c1739957886a3c27dc6552e695fee2f7","indicators":[{"word":"tobacco","begin":287,"end":293,"sentenceIndex":1,"sentenceBegin":117,"sentenceEnd":344},{"word":"smoke","begin":295,"end":299,"sentenceIndex":1,"sentenceBegin":117,"sentenceEnd":344}]}
{"paperId":"5d98d889c1739957886a3c27dc6552e695fee2f7","indicators":[{"word":"tobacco","begin":140,"end":146,"sentenceIndex":1,"sentenceBegin":100,"sentenceEnd":240},{"word":"smoke","begin":148,"end":152,"sentenceIndex":1,"sentenceBegin":100,"sentenceEnd":240}]}
{"paperId":"d4147c3df65fb378821ec21f5171668cdd76ceae","indicators":[{"word":"smoked","begin":414,"end":419,"sentenceIndex":3,"sentenceBegin":298,"sentenceEnd":420}]}
{"paperId":"c65053651f82f5f79b5a4e0677dee08fae83787f","indicators":[{"word":"tobacco","begin":2681,"end":2687,"sentenceIndex":27,"sentenceBegin":2537,"sentenceEnd":2707}]}
{"paperId":"422ba1058ef4ab555ac1a874029c600f71d80520","indicators":[{"word":"smoking","begin":1078,"end":1084,"sentenceIndex":6,"sentenceBegin":925,"sentenceEnd":1127}]}
{"paperId":"422ba1058ef4ab555ac1a874029c600f71d80520","indicators":[{"word":"smoking","begin":404,"end":410,"sentenceIndex":1,"sentenceBegin":218,"sentenceEnd":449}]}
{"paperId":"c61dff4c277d87714af42ea265f73fcb1a74af84","indicators":[{"word":"tobacco","begin":373,"end":379,"sentenceIndex":4,"sentenceBegin":300,"sentenceEnd":477},{"word":"tobacco","begin":466,"end":472,"sentenceIndex":4,"sentenceBegin":300,"sentenceEnd":477}]}
{"paperId":"b195c8906e92f6c12c13d064dde216339f8c6736","indicators":[{"word":"smoking","begin":27,"end":33,"sentenceIndex":0,"sentenceBegin":0,"sentenceEnd":85}]}
