{"paperId":"f7126472ff5dceca928653561765bd96aa895097","indicators":[{"word":"smoking","begin":505,"end":511,"sentenceIndex":1,"sentenceBegin":235,"sentenceEnd":729}]}
{"paperId":"f7126472ff5dceca928653561765bd96aa895097","indicators":[{"word":"smoking","begin":629,"end":635,"sentenceIndex":3,"sentenceBegin":453,"sentenceEnd":786},{"word":"smoking","begin":1508,"end":1514,"sentenceIndex":7,"sentenceBegin":1272,"sentenceEnd":1665}]}
{"paperId":"c3e8df89ae8483ad09682ea77f013e9845253b57","indicators":[{"word":"smoking","begin":75,"end":81,"sentenceIndex":0,"sentenceBegin":0,"sentenceEnd":198}]}
