{"paperId":"57c022b030a7d5ef314c5de61c248d55af840da5","indicators":[{"word":"vapor","begin":365,"end":369,"sentenceIndex":1,"sentenceBegin":286,"sentenceEnd":376},{"word":"vapor","begin":560,"end":564,"sentenceIndex":3,"sentenceBegin":544,"sentenceEnd":663}]}
{"paperId":"57c022b030a7d5ef314c5de61c248d55af840da5","indicators":[{"word":"vapor","begin":597,"end":601,"sentenceIndex":3,"sentenceBegin":528,"sentenceEnd":631}]}
{"paperId":"57c022b030a7d5ef314c5de61c248d55af840da5","indicators":[{"word":"vapor","begin":96,"end":100,"sentenceIndex":1,"sentenceBegin":59,"sentenceEnd":222}]}
{"paperId":"f475c055c4630c81ab519125a20ba96cd3e17e4a","indicators":[{"word":"tobacco","begin":125,"end":131,"sentenceIndex":0,"sentenceBegin":0,"sentenceEnd":303}]}
{"paperId":"e61073165a90a0926cf545eb40469c7586a6c530","indicators":[{"word":"tobacco","begin":284,"end":290,"sentenceIndex":0,"sentenceBegin":0,"sentenceEnd":301}]}
