{"paperId":"1bd27e8bda56233613dcdb18364da1b7b41a8fab","indicators":[{"word":"smoking","begin":766,"end":772,"sentenceIndex":5,"sentenceBegin":674,"sentenceEnd":773}]}
{"paperId":"1bd27e8bda56233613dcdb18364da1b7b41a8fab","indicators":[{"word":"smoke","begin":756,"end":760,"sentenceIndex":7,"sentenceBegin":673,"sentenceEnd":825},{"word":"smoke","begin":798,"end":802,"sentenceIndex":7,"sentenceBegin":673,"sentenceEnd":825},{"word":"smoking","begin":857,"end":863,"sentenceIndex":8,"sentenceBegin":827,"sentenceEnd":914}]}
{"paperId":"39b557ab42e265c37acee079b474c73708f197c7","indicators":[{"word":"vapor","begin":160,"end":164,"sentenceIndex":1,"sentenceBegin":89,"sentenceEnd":320}]}
{"paperId":"8a9647242101bc27e6eb9ee5023a02ffca6a9273","indicators":[{"word":"tobacco","begin":555,"end":561,"sentenceIndex":3,"sentenceBegin":349,"sentenceEnd":566}]}
{"paperId":"3089e3c7f5ed6a4162563a68d44486910ad30b9e","indicators":[{"word":"smoking","begin":107,"end":113,"sentenceIndex":0,"sentenceBegin":0,"sentenceEnd":122}]}
{"paperId":"3089e3c7f5ed6a4162563a68d44486910ad30b9e","indicators":[{"word":"smoking","begin":195,"end":201,"sentenceIndex":1,"sentenceBegin":147,"sentenceEnd":216}]}
{"paperId":"3089e3c7f5ed6a4162563a68d44486910ad30b9e","indicators":[{"word":"smoking","begin":465,"end":471,"sentenceIndex":2,"sentenceBegin":367,"sentenceEnd":511}]}
{"paperId":"3089e3c7f5ed6a4162563a68d44486910ad30b9e","indicators":[{"word":"smoking","begin":361,"end":367,"sentenceIndex":1,"sentenceBegin":262,"sentenceEnd":443}]}
