{"paperId":"93edb6118d67de8bf75d1950e896d79b84597ee0","indicators":[{"word":"tobacco","begin":70,"end":76,"sentenceIndex":0,"sentenceBegin":0,"sentenceEnd":85},{"word":"tobacco","begin":171,"end":177,"sentenceIndex":1,"sentenceBegin":87,"sentenceEnd":276},{"word":"smoke","begin":179,"end":183,"sentenceIndex":1,"sentenceBegin":87,"sentenceEnd":276}]}
{"paperId":"3376756c39e4c0481a322729b71f4a61889ac6f8","indicators":[{"word":"tobacco","begin":656,"end":662,"sentenceIndex":3,"sentenceBegin":517,"sentenceEnd":690},{"word":"smoke","begin":664,"end":668,"sentenceIndex":3,"sentenceBegin":517,"sentenceEnd":690}]}
{"paperId":"3376756c39e4c0481a322729b71f4a61889ac6f8","indicators":[{"word":"tobacco","begin":1097,"end":1103,"sentenceIndex":5,"sentenceBegin":973,"sentenceEnd":1181},{"word":"smoke","begin":1105,"end":1109,"sentenceIndex":5,"sentenceBegin":973,"sentenceEnd":1181},{"word":"smoking","begin":1267,"end":1273,"sentenceIndex":6,"sentenceBegin":1183,"sentenceEnd":1274}]}
{"paperId":"4eaf1db6079bb5ea809a31d365f5bc0769fbe782","indicators":[{"word":"tobacco","begin":115,"end":121,"sentenceIndex":0,"sentenceBegin":0,"sentenceEnd":199}]}
{"paperId":"9e8d0be5a1c275b93166a545b964efd663cb71f0","indicators":[{"word":"smoke","begin":644,"end":648,"sentenceIndex":3,"sentenceBegin":518,"sentenceEnd":665}]}
