{"paperId":"b698ab538fb82fccf2bd1c9db1d24058b52cd7c0","indicators":[{"word":"fires","begin":1391,"end":1395,"sentenceIndex":7,"sentenceBegin":1143,"sentenceEnd":1422}]}
{"paperId":"30e0d37ac4b4360802b1c717c0ad52de23be7609","indicators":[{"word":"tobacco","begin":556,"end":562,"sentenceIndex":5,"sentenceBegin":553,"sentenceEnd":657},{"word":"tobacco","begin":762,"end":768,"sentenceIndex":7,"sentenceBegin":706,"sentenceEnd":876}]}
{"paperId":"30e0d37ac4b4360802b1c717c0ad52de23be7609","indicators":[{"word":"tobacco","begin":450,"end":456,"sentenceIndex":2,"sentenceBegin":317,"sentenceEnd":488},{"word":"tobacco","begin":1920,"end":1926,"sentenceIndex":11,"sentenceBegin":1774,"sentenceEnd":2007},{"word":"tobacco","begin":2114,"end":2120,"sentenceIndex":12,"sentenceBegin":2009,"sentenceEnd":2162}]}
{"paperId":"30e0d37ac4b4360802b1c717c0ad52de23be7609","indicators":[{"word":"tobacco","begin":121,"end":127,"sentenceIndex":2,"sentenceBegin":94,"sentenceEnd":182},{"word":"tobacco","begin":195,"end":201,"sentenceIndex":3,"sentenceBegin":184,"sentenceEnd":259}]}
{"paperId":"30e0d37ac4b4360802b1c717c0ad52de23be7609","indicators":[{"word":"tobacco","begin":176,"end":182,"sentenceIndex":2,"sentenceBegin":165,"sentenceEnd":242}]}
{"paperId":"30e0d37ac4b4360802b1c717c0ad52de23be7609","indicators":[{"word":"tobacco","begin":34,"end":40,"sentenceIndex":0,"sentenceBegin":0,"sentenceEnd":130}]}
{"paperId":"2989858b8038cee84d62e4494c6f5e41b52bb227","indicators":[{"word":"weeding","begin":656,"end":662,"sentenceIndex":2,"sentenceBegin":568,"sentenceEnd":735}]}
