{"paperId":"3498e7e96b742565d9041107cae12e667b394f9f","indicators":[{"word":"tobacco","begin":1615,"end":1621,"sentenceIndex":10,"sentenceBegin":1541,"sentenceEnd":1748},{"word":"smoke","begin":1623,"end":1627,"sentenceIndex":10,"sentenceBegin":1541,"sentenceEnd":1748}]}
{"paperId":"ade689674af76cec6cf041c53d4cca6c568be779","indicators":[{"word":"smoking","begin":411,"end":417,"sentenceIndex":2,"sentenceBegin":222,"sentenceEnd":661}]}
{"paperId":"b8a7332d48db65636bc254233c62dff28bb20fcc","indicators":[{"word":"cigarette","begin":182,"end":190,"sentenceIndex":0,"sentenceBegin":0,"sentenceEnd":228},{"word":"smoke","begin":192,"end":196,"sentenceIndex":0,"sentenceBegin":0,"sentenceEnd":228},{"word":"smoking","begin":239,"end":245,"sentenceIndex":1,"sentenceBegin":230,"sentenceEnd":335},{"word":"smoked","begin":521,"end":526,"sentenceIndex":2,"sentenceBegin":336,"sentenceEnd":551},{"word":"smoke","begin":561,"end":565,"sentenceIndex":3,"sentenceBegin":553,"sentenceEnd":699}]}
