{"paperId":"ed72b1768af79acb915279c8776907650f97db26","indicators":[{"word":"puffs","begin":186,"end":190,"sentenceIndex":1,"sentenceBegin":138,"sentenceEnd":280}]}
{"paperId":"65fbafec255609adce7b2b77a2eece3caaccb690","indicators":[{"word":"smoking","begin":1462,"end":1468,"sentenceIndex":4,"sentenceBegin":1009,"sentenceEnd":1619}]}
{"paperId":"c00623b3cff6a2c744b31aeccace9229a3e74676","indicators":[{"word":"smoke","begin":372,"end":376,"sentenceIndex":3,"sentenceBegin":254,"sentenceEnd":636}]}
{"paperId":"f6c64b3c009e3a7d8242de2a985b98cb6227fa14","indicators":[{"word":"smoking","begin":1126,"end":1132,"sentenceIndex":6,"sentenceBegin":897,"sentenceEnd":1140}]}
{"paperId":"f6c64b3c009e3a7d8242de2a985b98cb6227fa14","indicators":[{"word":"smoking","begin":747,"end":753,"sentenceIndex":3,"sentenceBegin":563,"sentenceEnd":777}]}
