{"paperId":"66bffe926972c130c5b6239868ae422a8c7d7229","indicators":[{"word":"smoking","begin":232,"end":238,"sentenceIndex":1,"sentenceBegin":161,"sentenceEnd":277}]}
{"paperId":"66bffe926972c130c5b6239868ae422a8c7d7229","indicators":[{"word":"smoking","begin":803,"end":809,"sentenceIndex":3,"sentenceBegin":776,"sentenceEnd":890}]}
{"paperId":"66bffe926972c130c5b6239868ae422a8c7d7229","indicators":[{"word":"smoking","begin":593,"end":599,"sentenceIndex":8,"sentenceBegin":550,"sentenceEnd":654},{"word":"smoked","begin":692,"end":697,"sentenceIndex":9,"sentenceBegin":656,"sentenceEnd":774},{"word":"smoking","begin":704,"end":710,"sentenceIndex":9,"sentenceBegin":656,"sentenceEnd":774}]}
{"paperId":"5941308b55c17b419ef1cb7fd77fb60bafa27389","indicators":[{"word":"pots","begin":499,"end":502,"sentenceIndex":12,"sentenceBegin":419,"sentenceEnd":544}]}
{"paperId":"77c55c7c7f8fcaae1a69418d866cb33e70e2b94e","indicators":[{"word":"vapor","begin":97,"end":101,"sentenceIndex":1,"sentenceBegin":65,"sentenceEnd":166}]}
{"paperId":"9f234fa9b0d6d7c0809106111104ad8843f3a931","indicators":[{"word":"fires","begin":678,"end":682,"sentenceIndex":8,"sentenceBegin":612,"sentenceEnd":683}]}
