{"paperId":"e2fbe8d2a00bf0e7041a1b7c9e08c80ef87cb5cb","indicators":[{"word":"tobacco","begin":344,"end":350,"sentenceIndex":0,"sentenceBegin":0,"sentenceEnd":380}]}
{"paperId":"e2fbe8d2a00bf0e7041a1b7c9e08c80ef87cb5cb","indicators":[{"word":"tobacco","begin":583,"end":589,"sentenceIndex":12,"sentenceBegin":581,"sentenceEnd":826},{"word":"tobacco","begin":771,"end":777,"sentenceIndex":12,"sentenceBegin":581,"sentenceEnd":826}]}
{"paperId":"9be7957d51cfaedd78afcf5ed391a366d8e34f29","indicators":[{"word":"pot","begin":503,"end":505,"sentenceIndex":2,"sentenceBegin":435,"sentenceEnd":802}]}
{"paperId":"29bea86b0ba016595710141d2e9ad5775438fbfa","indicators":[{"word":"pot","begin":503,"end":505,"sentenceIndex":2,"sentenceBegin":435,"sentenceEnd":802}]}
