{"paperId":"288e7ca4114dc7e51395a0defa211b9cf67297f2","indicators":[{"word":"cigarettes","begin":597,"end":606,"sentenceIndex":4,"sentenceBegin":549,"sentenceEnd":700},{"word":"smoked","begin":625,"end":630,"sentenceIndex":4,"sentenceBegin":549,"sentenceEnd":700}]}
{"paperId":"dd89b06b6c37edcdf12fe3165609256b22aa667c","indicators":[{"word":"vapor","begin":357,"end":361,"sentenceIndex":4,"sentenceBegin":328,"sentenceEnd":508},{"word":"vapor","begin":487,"end":491,"sentenceIndex":4,"sentenceBegin":328,"sentenceEnd":508}]}
{"paperId":"f53d10b5f8b57b179da04fb8900aec3c32783409","indicators":[{"word":"tobacco","begin":883,"end":889,"sentenceIndex":3,"sentenceBegin":655,"sentenceEnd":902}]}
{"paperId":"f53d10b5f8b57b179da04fb8900aec3c32783409","indicators":[{"word":"tobacco","begin":293,"end":299,"sentenceIndex":2,"sentenceBegin":278,"sentenceEnd":499}]}
