{"paperId":"240688a5e42b8cb41a65023846705179bc9efeb2","indicators":[{"word":"vapor","begin":32,"end":36,"sentenceIndex":0,"sentenceBegin":0,"sentenceEnd":214},{"word":"vapor","begin":245,"end":249,"sentenceIndex":1,"sentenceBegin":216,"sentenceEnd":259},{"word":"vapor","begin":277,"end":281,"sentenceIndex":2,"sentenceBegin":261,"sentenceEnd":291}]}
{"paperId":"240688a5e42b8cb41a65023846705179bc9efeb2","indicators":[{"word":"vapor","begin":338,"end":342,"sentenceIndex":3,"sentenceBegin":19,"sentenceEnd":639}]}
{"paperId":"5cfd5be645a6e09295ed49d75bd460853208f21a","indicators":[{"word":"smoking","begin":447,"end":453,"sentenceIndex":2,"sentenceBegin":274,"sentenceEnd":490}]}
{"paperId":"dc1cdee079fdcb1a95202db6cad74a9dda253d0c","indicators":[{"word":"tobacco","begin":1499,"end":1505,"sentenceIndex":8,"sentenceBegin":1459,"sentenceEnd":1684}]}
