{"paperId":"be698a2a47d1bb64cf1a09d10d4ea99b90eee3b3","indicators":[{"word":"tobacco","begin":2093,"end":2099,"sentenceIndex":21,"sentenceBegin":2073,"sentenceEnd":2294}]}
{"paperId":"be698a2a47d1bb64cf1a09d10d4ea99b90eee3b3","indicators":[{"word":"smoking","begin":753,"end":759,"sentenceIndex":1,"sentenceBegin":520,"sentenceEnd":868}]}
{"paperId":"be698a2a47d1bb64cf1a09d10d4ea99b90eee3b3","indicators":[{"word":"smoking","begin":130,"end":136,"sentenceIndex":0,"sentenceBegin":0,"sentenceEnd":144},{"word":"smoking","begin":254,"end":260,"sentenceIndex":2,"sentenceBegin":228,"sentenceEnd":415},{"word":"cigarette","begin":377,"end":385,"sentenceIndex":2,"sentenceBegin":228,"sentenceEnd":415},{"word":"cigarette","begin":431,"end":439,"sentenceIndex":3,"sentenceBegin":417,"sentenceEnd":465},{"word":"cigarette","begin":456,"end":464,"sentenceIndex":3,"sentenceBegin":417,"sentenceEnd":465},{"word":"cigarette","begin":481,"end":489,"sentenceIndex":4,"sentenceBegin":467,"sentenceEnd":523},{"word":"tobacco","begin":502,"end":508,"sentenceIndex":4,"sentenceBegin":467,"sentenceEnd":523},{"word":"smoked","begin":559,"end":564,"sentenceIndex":6,"sentenceBegin":539,"sentenceEnd":590},{"word":"cigarette","begin":622,"end":630,"sentenceIndex":7,"sentenceBegin":592,"sentenceEnd":631},{"word":"tobacco","begin":659,"end":665,"sentenceIndex":8,"sentenceBegin":633,"sentenceEnd":680}]}
{"paperId":"be698a2a47d1bb64cf1a09d10d4ea99b90eee3b3","indicators":[{"word":"cigarettes","begin":212,"end":221,"sentenceIndex":0,"sentenceBegin":0,"sentenceEnd":239},{"word":"smoked","begin":223,"end":228,"sentenceIndex":0,"sentenceBegin":0,"sentenceEnd":239}]}
{"paperId":"be698a2a47d1bb64cf1a09d10d4ea99b90eee3b3","indicators":[{"word":"cigarettes","begin":206,"end":215,"sentenceIndex":0,"sentenceBegin":0,"sentenceEnd":218},{"word":"cigarettes","begin":580,"end":589,"sentenceIndex":4,"sentenceBegin":478,"sentenceEnd":604}]}
{"paperId":"be698a2a47d1bb64cf1a09d10d4ea99b90eee3b3","indicators":[{"word":"smoking","begin":184,"end":190,"sentenceIndex":0,"sentenceBegin":0,"sentenceEnd":333},{"word":"cigarettes","begin":270,"end":279,"sentenceIndex":0,"sentenceBegin":0,"sentenceEnd":333},{"word":"tobacco","begin":312,"end":318,"sentenceIndex":0,"sentenceBegin":0,"sentenceEnd":333},{"word":"cigarette","begin":479,"end":487,"sentenceIndex":2,"sentenceBegin":350,"sentenceEnd":490},{"word":"tobacco","begin":617,"end":623,"sentenceIndex":3,"sentenceBegin":492,"sentenceEnd":635}]}
{"paperId":"be698a2a47d1bb64cf1a09d10d4ea99b90eee3b3","indicators":[{"word":"smoking","begin":77,"end":83,"sentenceIndex":0,"sentenceBegin":0,"sentenceEnd":276},{"word":"smoked","begin":108,"end":113,"sentenceIndex":0,"sentenceBegin":0,"sentenceEnd":276},{"word":"smoke","begin":263,"end":267,"sentenceIndex":0,"sentenceBegin":0,"sentenceEnd":276},{"word":"smoke","begin":351,"end":355,"sentenceIndex":1,"sentenceBegin":278,"sentenceEnd":358},{"word":"smoking","begin":446,"end":452,"sentenceIndex":3,"sentenceBegin":416,"sentenceEnd":484},{"word":"cigarettes","begin":467,"end":476,"sentenceIndex":3,"sentenceBegin":416,"sentenceEnd":484},{"word":"smoking","begin":508,"end":514,"sentenceIndex":4,"sentenceBegin":486,"sentenceEnd":546},{"word":"cigarettes","begin":529,"end":538,"sentenceIndex":4,"sentenceBegin":486,"sentenceEnd":546},{"word":"smoke","begin":639,"end":643,"sentenceIndex":6,"sentenceBegin":603,"sentenceEnd":656},{"word":"cigarettes","begin":645,"end":654,"sentenceIndex":6,"sentenceBegin":603,"sentenceEnd":656},{"word":"smoke","begin":694,"end":698,"sentenceIndex":7,"sentenceBegin":658,"sentenceEnd":722},{"word":"cigarettes","begin":711,"end":720,"sentenceIndex":7,"sentenceBegin":658,"sentenceEnd":722},{"word":"smoke","begin":760,"end":764,"sentenceIndex":8,"sentenceBegin":724,"sentenceEnd":796},{"word":"tobacco","begin":773,"end":779,"sentenceIndex":8,"sentenceBegin":724,"sentenceEnd":796},{"word":"cigarettes","begin":781,"end":790,"sentenceIndex":8,"sentenceBegin":724,"sentenceEnd":796}]}
{"paperId":"be698a2a47d1bb64cf1a09d10d4ea99b90eee3b3","indicators":[{"word":"smoking","begin":58,"end":64,"sentenceIndex":0,"sentenceBegin":0,"sentenceEnd":115}]}
{"paperId":"be698a2a47d1bb64cf1a09d10d4ea99b90eee3b3","indicators":[{"word":"cigarette","begin":235,"end":243,"sentenceIndex":2,"sentenceBegin":202,"sentenceEnd":423},{"word":"cigarette","begin":321,"end":329,"sentenceIndex":2,"sentenceBegin":202,"sentenceEnd":423},{"word":"tobacco","begin":342,"end":348,"sentenceIndex":2,"sentenceBegin":202,"sentenceEnd":423},{"word":"cigarette","begin":382,"end":390,"sentenceIndex":2,"sentenceBegin":202,"sentenceEnd":423},{"word":"cigarette","begin":407,"end":415,"sentenceIndex":2,"sentenceBegin":202,"sentenceEnd":423},{"word":"tobacco","begin":487,"end":493,"sentenceIndex":3,"sentenceBegin":425,"sentenceEnd":579},{"word":"cigarette","begin":537,"end":545,"sentenceIndex":3,"sentenceBegin":425,"sentenceEnd":579}]}
{"paperId":"be698a2a47d1bb64cf1a09d10d4ea99b90eee3b3","indicators":[{"word":"tobacco","begin":423,"end":429,"sentenceIndex":2,"sentenceBegin":386,"sentenceEnd":549},{"word":"tobacco","begin":468,"end":474,"sentenceIndex":2,"sentenceBegin":386,"sentenceEnd":549},{"word":"tobacco","begin":704,"end":710,"sentenceIndex":4,"sentenceBegin":616,"sentenceEnd":780},{"word":"tobacco","begin":809,"end":815,"sentenceIndex":5,"sentenceBegin":782,"sentenceEnd":1049},{"word":"tobacco","begin":854,"end":860,"sentenceIndex":5,"sentenceBegin":782,"sentenceEnd":1049},{"word":"cigarettes","begin":902,"end":911,"sentenceIndex":5,"sentenceBegin":782,"sentenceEnd":1049}]}
{"paperId":"be698a2a47d1bb64cf1a09d10d4ea99b90eee3b3","indicators":[{"word":"tobacco","begin":399,"end":405,"sentenceIndex":1,"sentenceBegin":301,"sentenceEnd":583},{"word":"tobacco","begin":640,"end":646,"sentenceIndex":2,"sentenceBegin":585,"sentenceEnd":900},{"word":"cigarettes","begin":797,"end":806,"sentenceIndex":2,"sentenceBegin":585,"sentenceEnd":900}]}
{"paperId":"be698a2a47d1bb64cf1a09d10d4ea99b90eee3b3","indicators":[{"word":"smoking","begin":245,"end":251,"sentenceIndex":0,"sentenceBegin":0,"sentenceEnd":446},{"word":"cigarettes","begin":331,"end":340,"sentenceIndex":0,"sentenceBegin":0,"sentenceEnd":446},{"word":"tobacco","begin":373,"end":379,"sentenceIndex":0,"sentenceBegin":0,"sentenceEnd":446},{"word":"tobacco","begin":560,"end":566,"sentenceIndex":1,"sentenceBegin":448,"sentenceEnd":630},{"word":"tobacco","begin":695,"end":701,"sentenceIndex":2,"sentenceBegin":632,"sentenceEnd":780},{"word":"tobacco","begin":865,"end":871,"sentenceIndex":3,"sentenceBegin":782,"sentenceEnd":934},{"word":"tobacco","begin":973,"end":979,"sentenceIndex":4,"sentenceBegin":936,"sentenceEnd":1144},{"word":"smoke","begin":1052,"end":1056,"sentenceIndex":4,"sentenceBegin":936,"sentenceEnd":1144}]}
{"paperId":"be698a2a47d1bb64cf1a09d10d4ea99b90eee3b3","indicators":[{"word":"smoke","begin":200,"end":204,"sentenceIndex":0,"sentenceBegin":0,"sentenceEnd":315},{"word":"smoking","begin":414,"end":420,"sentenceIndex":1,"sentenceBegin":317,"sentenceEnd":547},{"word":"cigarettes","begin":431,"end":440,"sentenceIndex":1,"sentenceBegin":317,"sentenceEnd":547},{"word":"smoking","begin":527,"end":533,"sentenceIndex":1,"sentenceBegin":317,"sentenceEnd":547}]}
{"paperId":"be698a2a47d1bb64cf1a09d10d4ea99b90eee3b3","indicators":[{"word":"smoking","begin":84,"end":90,"sentenceIndex":0,"sentenceBegin":0,"sentenceEnd":168},{"word":"cigarette","begin":350,"end":358,"sentenceIndex":2,"sentenceBegin":264,"sentenceEnd":448},{"word":"tobacco","begin":381,"end":387,"sentenceIndex":2,"sentenceBegin":264,"sentenceEnd":448},{"word":"cigarette","begin":584,"end":592,"sentenceIndex":3,"sentenceBegin":450,"sentenceEnd":710}]}
{"paperId":"be698a2a47d1bb64cf1a09d10d4ea99b90eee3b3","indicators":[{"word":"cigarettes","begin":108,"end":117,"sentenceIndex":0,"sentenceBegin":0,"sentenceEnd":145},{"word":"cigarettes","begin":299,"end":308,"sentenceIndex":1,"sentenceBegin":147,"sentenceEnd":678},{"word":"cigarettes","begin":322,"end":331,"sentenceIndex":1,"sentenceBegin":147,"sentenceEnd":678},{"word":"smoked","begin":333,"end":338,"sentenceIndex":1,"sentenceBegin":147,"sentenceEnd":678},{"word":"cigarette","begin":545,"end":553,"sentenceIndex":1,"sentenceBegin":147,"sentenceEnd":678},{"word":"smoking","begin":555,"end":561,"sentenceIndex":1,"sentenceBegin":147,"sentenceEnd":678},{"word":"cigarette","begin":805,"end":813,"sentenceIndex":2,"sentenceBegin":680,"sentenceEnd":844},{"word":"cigarettes","begin":1098,"end":1107,"sentenceIndex":4,"sentenceBegin":944,"sentenceEnd":1172},{"word":"smoking","begin":1236,"end":1242,"sentenceIndex":5,"sentenceBegin":1174,"sentenceEnd":1297},{"word":"cigarette","begin":1355,"end":1363,"sentenceIndex":6,"sentenceBegin":1299,"sentenceEnd":1684},{"word":"cigarette","begin":1512,"end":1520,"sentenceIndex":6,"sentenceBegin":1299,"sentenceEnd":1684},{"word":"cigarettes","begin":1849,"end":1858,"sentenceIndex":8,"sentenceBegin":1756,"sentenceEnd":1873},{"word":"smoking","begin":1973,"end":1979,"sentenceIndex":9,"sentenceBegin":1875,"sentenceEnd":2125},{"word":"cigarette","begin":3307,"end":3315,"sentenceIndex":16,"sentenceBegin":3200,"sentenceEnd":3426},{"word":"smoking","begin":3492,"end":3498,"sentenceIndex":17,"sentenceBegin":3428,"sentenceEnd":3733},{"word":"smoking","begin":3883,"end":3889,"sentenceIndex":18,"sentenceBegin":3735,"sentenceEnd":4124},{"word":"smoking","begin":3923,"end":3929,"sentenceIndex":18,"sentenceBegin":3735,"sentenceEnd":4124}]}
{"paperId":"be698a2a47d1bb64cf1a09d10d4ea99b90eee3b3","indicators":[{"word":"smoking","begin":424,"end":430,"sentenceIndex":2,"sentenceBegin":330,"sentenceEnd":519},{"word":"cigarettes","begin":723,"end":732,"sentenceIndex":3,"sentenceBegin":521,"sentenceEnd":733}]}
{"paperId":"215e667edcc02054361258755a4db8bca18a4e9b","indicators":[{"word":"smoking","begin":1275,"end":1281,"sentenceIndex":7,"sentenceBegin":1131,"sentenceEnd":1355}]}
{"paperId":"e5cbf870581f4c0bba40c496623aa733281e82c8","indicators":[{"word":"smoking","begin":37,"end":43,"sentenceIndex":0,"sentenceBegin":0,"sentenceEnd":130}]}
{"paperId":"c6202f96bd4b2aea699d5fbe867f311498dca3aa","indicators":[{"word":"tobacco","begin":330,"end":336,"sentenceIndex":1,"sentenceBegin":164,"sentenceEnd":347}]}
{"paperId":"20302536f923c0ef6184655e79be80a88e0a98db","indicators":[{"word":"smoking","begin":558,"end":564,"sentenceIndex":2,"sentenceBegin":476,"sentenceEnd":593}]}
