{"paperId":"7199a81fb005467b02274e99864aa9e88fa279f8","indicators":[{"word":"tobacco","begin":257,"end":263,"sentenceIndex":3,"sentenceBegin":229,"sentenceEnd":315}]}
{"paperId":"7199a81fb005467b02274e99864aa9e88fa279f8","indicators":[{"word":"tobacco","begin":856,"end":862,"sentenceIndex":5,"sentenceBegin":853,"sentenceEnd":1007}]}
{"paperId":"b66db251cc37c4d2a71936cd1c5ccad959757633","indicators":[{"word":"smoking","begin":605,"end":611,"sentenceIndex":5,"sentenceBegin":592,"sentenceEnd":760}]}
{"paperId":"0e3462773aacc3a0ed8f93b65f26735d532fce23","indicators":[{"word":"tobacco","begin":140,"end":146,"sentenceIndex":0,"sentenceBegin":0,"sentenceEnd":459}]}
{"paperId":"0e3462773aacc3a0ed8f93b65f26735d532fce23","indicators":[{"word":"tobacco","begin":532,"end":538,"sentenceIndex":3,"sentenceBegin":467,"sentenceEnd":724}]}
{"paperId":"5baa1d21e6334a0af38c31d852992e7e6ad2402c","indicators":[{"word":"vapor","begin":449,"end":453,"sentenceIndex":3,"sentenceBegin":432,"sentenceEnd":531}]}
