{"paperId":"d1e1f76d0764e679749a4203590665917aef1f86","indicators":[{"word":"cigarette","begin":505,"end":513,"sentenceIndex":2,"sentenceBegin":363,"sentenceEnd":522},{"word":"smoke","begin":587,"end":591,"sentenceIndex":3,"sentenceBegin":524,"sentenceEnd":626}]}
{"paperId":"d1e1f76d0764e679749a4203590665917aef1f86","indicators":[{"word":"fires","begin":125,"end":129,"sentenceIndex":0,"sentenceBegin":0,"sentenceEnd":268},{"word":"smoke","begin":402,"end":406,"sentenceIndex":2,"sentenceBegin":353,"sentenceEnd":407},{"word":"fires","begin":1036,"end":1040,"sentenceIndex":5,"sentenceBegin":934,"sentenceEnd":1041}]}
{"paperId":"1db8cf8ef599170f2fa751da9100d360319f6d81","indicators":[{"word":"vapor","begin":135,"end":139,"sentenceIndex":0,"sentenceBegin":0,"sentenceEnd":245}]}
{"paperId":"1db8cf8ef599170f2fa751da9100d360319f6d81","indicators":[{"word":"vapor","begin":3,"end":7,"sentenceIndex":0,"sentenceBegin":0,"sentenceEnd":109}]}
{"paperId":"93dffbe2dbaf6a930a6ba69004962a4ccc4a4ddb","indicators":[{"word":"smoking","begin":1086,"end":1092,"sentenceIndex":6,"sentenceBegin":939,"sentenceEnd":1185}]}
{"paperId":"93dffbe2dbaf6a930a6ba69004962a4ccc4a4ddb","indicators":[{"word":"smoking","begin":1119,"end":1125,"sentenceIndex":4,"sentenceBegin":838,"sentenceEnd":1133}]}
