{"paperId":"cd4c1cf5b68f3a39351371841f12dabb7c03eeea","indicators":[{"word":"smoking","begin":3715,"end":3721,"sentenceIndex":21,"sentenceBegin":3428,"sentenceEnd":3799}]}
{"paperId":"79f00b710ef36e1f905f7d4ac5328a3ea56c0fc0","indicators":[{"word":"smoking","begin":351,"end":357,"sentenceIndex":1,"sentenceBegin":85,"sentenceEnd":508}]}
{"paperId":"79f00b710ef36e1f905f7d4ac5328a3ea56c0fc0","indicators":[{"word":"smoking","begin":266,"end":272,"sentenceIndex":0,"sentenceBegin":0,"sentenceEnd":433},{"word":"smoking","begin":708,"end":714,"sentenceIndex":1,"sentenceBegin":435,"sentenceEnd":1260},{"word":"smoking","begin":1093,"end":1099,"sentenceIndex":1,"sentenceBegin":435,"sentenceEnd":1260},{"word":"smoking","begin":1535,"end":1541,"sentenceIndex":2,"sentenceBegin":1262,"sentenceEnd":1677}]}
{"paperId":"70d5429f9f3f1dd6217b84d8c1c1b1a7db368cef","indicators":[{"word":"tobacco","begin":72,"end":78,"sentenceIndex":0,"sentenceBegin":0,"sentenceEnd":253}]}
