{"paperId":"6ff089187feaca34bce964cc052bd1fa0f016d40","indicators":[{"word":"firing","begin":508,"end":513,"sentenceIndex":2,"sentenceBegin":398,"sentenceEnd":571}]}
{"paperId":"6ff089187feaca34bce964cc052bd1fa0f016d40","indicators":[{"word":"firing","begin":531,"end":536,"sentenceIndex":3,"sentenceBegin":458,"sentenceEnd":618}]}
{"paperId":"7870d49a4b0f82653877a41e6b1e71a71ff07fbf","indicators":[{"word":"smoking","begin":1684,"end":1690,"sentenceIndex":17,"sentenceBegin":1614,"sentenceEnd":1791},{"word":"cigarette","begin":1738,"end":1746,"sentenceIndex":17,"sentenceBegin":1614,"sentenceEnd":1791},{"word":"smoke","begin":1783,"end":1787,"sentenceIndex":17,"sentenceBegin":1614,"sentenceEnd":1791}]}
{"paperId":"cbbe1ec84207e5051b1d358495fba09cbecc2dad","indicators":[{"word":"smoke","begin":349,"end":353,"sentenceIndex":2,"sentenceBegin":260,"sentenceEnd":369}]}
{"paperId":"e4386084ac2c16660c0919c89cbb77567556c395","indicators":[{"word":"smoking","begin":201,"end":207,"sentenceIndex":1,"sentenceBegin":134,"sentenceEnd":427}]}
{"paperId":"e4386084ac2c16660c0919c89cbb77567556c395","indicators":[{"word":"smoking","begin":201,"end":207,"sentenceIndex":1,"sentenceBegin":134,"sentenceEnd":406}]}
{"paperId":"6e89e0154952e63fca1a63b30028be2e8c7e3725","indicators":[{"word":"vapors","begin":762,"end":767,"sentenceIndex":6,"sentenceBegin":680,"sentenceEnd":768}]}
{"paperId":"6e89e0154952e63fca1a63b30028be2e8c7e3725","indicators":[{"word":"vapor","begin":282,"end":286,"sentenceIndex":1,"sentenceBegin":206,"sentenceEnd":435}]}
{"paperId":"e776f53df553e8f486d67457611ee9bce92c74c4","indicators":[{"word":"cigarette","begin":186,"end":194,"sentenceIndex":1,"sentenceBegin":141,"sentenceEnd":338},{"word":"smoking","begin":196,"end":202,"sentenceIndex":1,"sentenceBegin":141,"sentenceEnd":338},{"word":"smoking","begin":831,"end":837,"sentenceIndex":4,"sentenceBegin":587,"sentenceEnd":924}]}
{"paperId":"e776f53df553e8f486d67457611ee9bce92c74c4","indicators":[{"word":"tobacco","begin":438,"end":444,"sentenceIndex":6,"sentenceBegin":438,"sentenceEnd":449}]}
{"paperId":"8ef88c681fa58f06406348a43ad1d63ab73c3b0e","indicators":[{"word":"tobacco","begin":183,"end":189,"sentenceIndex":1,"sentenceBegin":159,"sentenceEnd":322}]}
{"paperId":"94b10e24e70a8ed53ed20d1b5086e3e8873dd709","indicators":[{"word":"cigarette","begin":207,"end":215,"sentenceIndex":0,"sentenceBegin":0,"sentenceEnd":324},{"word":"smoking","begin":217,"end":223,"sentenceIndex":0,"sentenceBegin":0,"sentenceEnd":324}]}
{"paperId":"94b10e24e70a8ed53ed20d1b5086e3e8873dd709","indicators":[{"word":"tobacco","begin":134,"end":140,"sentenceIndex":0,"sentenceBegin":0,"sentenceEnd":190},{"word":"smoking","begin":142,"end":148,"sentenceIndex":0,"sentenceBegin":0,"sentenceEnd":190}]}
{"paperId":"c13eebf1afe4b82fafc456b7969129bdd5244fc6","indicators":[{"word":"weed","begin":195,"end":198,"sentenceIndex":1,"sentenceBegin":61,"sentenceEnd":199}]}
{"paperId":"0cc828ff4caf234a7aba0a5e604939af5ab3c9e0","indicators":[{"word":"vapor","begin":633,"end":637,"sentenceIndex":1,"sentenceBegin":471,"sentenceEnd":723}]}
{"paperId":"0cc828ff4caf234a7aba0a5e604939af5ab3c9e0","indicators":[{"word":"vapor","begin":695,"end":699,"sentenceIndex":4,"sentenceBegin":482,"sentenceEnd":767},{"word":"vapor","begin":846,"end":850,"sentenceIndex":5,"sentenceBegin":769,"sentenceEnd":886},{"word":"vapor","begin":1069,"end":1073,"sentenceIndex":6,"sentenceBegin":888,"sentenceEnd":1119}]}
{"paperId":"0cc828ff4caf234a7aba0a5e604939af5ab3c9e0","indicators":[{"word":"vapor","begin":593,"end":597,"sentenceIndex":3,"sentenceBegin":502,"sentenceEnd":667}]}
{"paperId":"0cc828ff4caf234a7aba0a5e604939af5ab3c9e0","indicators":[{"word":"vapor","begin":842,"end":846,"sentenceIndex":7,"sentenceBegin":645,"sentenceEnd":956}]}
