{"paperId":"04af84a05b74df6500b8f04040b763b8a67eeb36","indicators":[{"word":"smoking","begin":223,"end":229,"sentenceIndex":0,"sentenceBegin":0,"sentenceEnd":256}]}
{"paperId":"75c09abecc85a8a31b51d47e67d0c7a7862f235c","indicators":[{"word":"weeding","begin":1072,"end":1078,"sentenceIndex":6,"sentenceBegin":942,"sentenceEnd":1211}]}
{"paperId":"38283418faaf0f762fc76d25f6b6c8a04f81132b","indicators":[{"word":"pots","begin":253,"end":256,"sentenceIndex":1,"sentenceBegin":101,"sentenceEnd":295},{"word":"pots","begin":409,"end":412,"sentenceIndex":2,"sentenceBegin":297,"sentenceEnd":582}]}
{"paperId":"38283418faaf0f762fc76d25f6b6c8a04f81132b","indicators":[{"word":"cigarette","begin":878,"end":886,"sentenceIndex":4,"sentenceBegin":656,"sentenceEnd":919},{"word":"smoking","begin":888,"end":894,"sentenceIndex":4,"sentenceBegin":656,"sentenceEnd":919}]}
{"paperId":"ede1f9339afe2a20198c18f5f4542804a8740dae","indicators":[{"word":"smoke","begin":468,"end":472,"sentenceIndex":5,"sentenceBegin":413,"sentenceEnd":486}]}
{"paperId":"d1e58c7be2c5d5cda855f92c5d50d7b0b9ba815d","indicators":[{"word":"vapor","begin":17,"end":21,"sentenceIndex":0,"sentenceBegin":0,"sentenceEnd":129},{"word":"vapor","begin":239,"end":243,"sentenceIndex":1,"sentenceBegin":131,"sentenceEnd":280}]}
{"paperId":"d1e58c7be2c5d5cda855f92c5d50d7b0b9ba815d","indicators":[{"word":"vapor","begin":110,"end":114,"sentenceIndex":1,"sentenceBegin":87,"sentenceEnd":363}]}
{"paperId":"d1e58c7be2c5d5cda855f92c5d50d7b0b9ba815d","indicators":[{"word":"vapor","begin":946,"end":950,"sentenceIndex":5,"sentenceBegin":928,"sentenceEnd":993}]}
{"paperId":"bca9f4ffe445882f2de559b938d83a69e90d2224","indicators":[{"word":"smoking","begin":980,"end":986,"sentenceIndex":5,"sentenceBegin":844,"sentenceEnd":1110}]}
{"paperId":"6f779376c8f76658fa6ab19c24748a56ee00aa49","indicators":[{"word":"vapor","begin":716,"end":720,"sentenceIndex":5,"sentenceBegin":657,"sentenceEnd":884}]}
