{"paperId":"dafc17c07befd2b040bdf2e79a7bf5eb4b7f7841","indicators":[{"word":"smoking","begin":126,"end":132,"sentenceIndex":1,"sentenceBegin":74,"sentenceEnd":207}]}
{"paperId":"f4de27e0660ffd7f15e0336a349a68539f1cf2a5","indicators":[{"word":"vapor","begin":250,"end":254,"sentenceIndex":1,"sentenceBegin":84,"sentenceEnd":264}]}
{"paperId":"f4de27e0660ffd7f15e0336a349a68539f1cf2a5","indicators":[{"word":"vapor","begin":65,"end":69,"sentenceIndex":0,"sentenceBegin":0,"sentenceEnd":115}]}
{"paperId":"202aef03c7f1b5becefe22f2733028a3ed915d69","indicators":[{"word":"cigarette","begin":1039,"end":1047,"sentenceIndex":7,"sentenceBegin":979,"sentenceEnd":1119},{"word":"smoking","begin":1049,"end":1055,"sentenceIndex":7,"sentenceBegin":979,"sentenceEnd":1119}]}
{"paperId":"202aef03c7f1b5becefe22f2733028a3ed915d69","indicators":[{"word":"smoking","begin":524,"end":530,"sentenceIndex":3,"sentenceBegin":489,"sentenceEnd":592}]}
{"paperId":"f7633defe3df2845c992fbc7ae2ac92e0cd5a574","indicators":[{"word":"smoking","begin":1054,"end":1060,"sentenceIndex":5,"sentenceBegin":935,"sentenceEnd":1079}]}
