{"paperId":"99f6ca41bcf6a11e4a3c722d5e00a9bfec79ca19","indicators":[{"word":"tobacco","begin":322,"end":328,"sentenceIndex":2,"sentenceBegin":225,"sentenceEnd":375}]}
{"paperId":"c73aa8452ccd63758df52737aae67450f078e76b","indicators":[{"word":"vapor","begin":88,"end":92,"sentenceIndex":0,"sentenceBegin":0,"sentenceEnd":194}]}
{"paperId":"bbc889298dbd6cb98a0d00e8544a4fad9801c730","indicators":[{"word":"smoke","begin":314,"end":318,"sentenceIndex":2,"sentenceBegin":191,"sentenceEnd":331}]}
{"paperId":"bbc889298dbd6cb98a0d00e8544a4fad9801c730","indicators":[{"word":"cigarette","begin":209,"end":217,"sentenceIndex":1,"sentenceBegin":96,"sentenceEnd":224},{"word":"smoke","begin":219,"end":223,"sentenceIndex":1,"sentenceBegin":96,"sentenceEnd":224}]}
{"paperId":"bbc889298dbd6cb98a0d00e8544a4fad9801c730","indicators":[{"word":"fumes","begin":683,"end":687,"sentenceIndex":5,"sentenceBegin":548,"sentenceEnd":696},{"word":"cigarette","begin":1143,"end":1151,"sentenceIndex":10,"sentenceBegin":1073,"sentenceEnd":1158},{"word":"smoke","begin":1153,"end":1157,"sentenceIndex":10,"sentenceBegin":1073,"sentenceEnd":1158}]}
{"paperId":"bbc889298dbd6cb98a0d00e8544a4fad9801c730","indicators":[{"word":"smoke","begin":92,"end":96,"sentenceIndex":0,"sentenceBegin":0,"sentenceEnd":197}]}
{"paperId":"084730ad52ec598976332e8ce55afa4b8b55c25a","indicators":[{"word":"tobacco","begin":1192,"end":1198,"sentenceIndex":7,"sentenceBegin":1121,"sentenceEnd":1444}]}
{"paperId":"084730ad52ec598976332e8ce55afa4b8b55c25a","indicators":[{"word":"vapor","begin":379,"end":383,"sentenceIndex":1,"sentenceBegin":169,"sentenceEnd":409}]}
