{"paperId":"72de8909d11cdd5673e08a463fb6c6e0c4268854","indicators":[{"word":"cigarettes","begin":122,"end":131,"sentenceIndex":0,"sentenceBegin":0,"sentenceEnd":183}]}
{"paperId":"893d040a5b7af79ca21cc673d382db2230e29718","indicators":[{"word":"cigarette","begin":604,"end":612,"sentenceIndex":7,"sentenceBegin":559,"sentenceEnd":666},{"word":"smoke","begin":614,"end":618,"sentenceIndex":7,"sentenceBegin":559,"sentenceEnd":666},{"word":"smoke","begin":710,"end":714,"sentenceIndex":8,"sentenceBegin":668,"sentenceEnd":789}]}
{"paperId":"de562be49e01ca34319b504cbacad8d665d2d232","indicators":[{"word":"smoking","begin":2552,"end":2558,"sentenceIndex":20,"sentenceBegin":2397,"sentenceEnd":2622}]}
{"paperId":"5c0beb565af7a9bcad425207e8b5141540ff3778","indicators":[{"word":"smoking","begin":61,"end":67,"sentenceIndex":1,"sentenceBegin":53,"sentenceEnd":251},{"word":"tobacco","begin":387,"end":393,"sentenceIndex":2,"sentenceBegin":253,"sentenceEnd":570},{"word":"tobacco","begin":465,"end":471,"sentenceIndex":2,"sentenceBegin":253,"sentenceEnd":570},{"word":"smoking","begin":634,"end":640,"sentenceIndex":3,"sentenceBegin":572,"sentenceEnd":656},{"word":"tobacco","begin":813,"end":819,"sentenceIndex":5,"sentenceBegin":733,"sentenceEnd":887}]}
{"paperId":"5c0beb565af7a9bcad425207e8b5141540ff3778","indicators":[{"word":"tobacco","begin":38,"end":44,"sentenceIndex":0,"sentenceBegin":0,"sentenceEnd":104}]}
{"paperId":"5c0beb565af7a9bcad425207e8b5141540ff3778","indicators":[{"word":"smoking","begin":79,"end":85,"sentenceIndex":0,"sentenceBegin":0,"sentenceEnd":206},{"word":"tobacco","begin":121,"end":127,"sentenceIndex":0,"sentenceBegin":0,"sentenceEnd":206},{"word":"smoking","begin":129,"end":135,"sentenceIndex":0,"sentenceBegin":0,"sentenceEnd":206},{"word":"tobacco","begin":171,"end":177,"sentenceIndex":0,"sentenceBegin":0,"sentenceEnd":206},{"word":"smoking","begin":179,"end":185,"sentenceIndex":0,"sentenceBegin":0,"sentenceEnd":206},{"word":"smoking","begin":468,"end":474,"sentenceIndex":2,"sentenceBegin":355,"sentenceEnd":490}]}
{"paperId":"5c0beb565af7a9bcad425207e8b5141540ff3778","indicators":[{"word":"smoking","begin":8,"end":14,"sentenceIndex":0,"sentenceBegin":0,"sentenceEnd":272},{"word":"smoking","begin":42,"end":48,"sentenceIndex":0,"sentenceBegin":0,"sentenceEnd":272},{"word":"tobacco","begin":520,"end":526,"sentenceIndex":2,"sentenceBegin":419,"sentenceEnd":649},{"word":"smoking","begin":528,"end":534,"sentenceIndex":2,"sentenceBegin":419,"sentenceEnd":649}]}
{"paperId":"5c0beb565af7a9bcad425207e8b5141540ff3778","indicators":[{"word":"tobacco","begin":558,"end":564,"sentenceIndex":3,"sentenceBegin":465,"sentenceEnd":586}]}
{"paperId":"5c0beb565af7a9bcad425207e8b5141540ff3778","indicators":[{"word":"cigarette","begin":793,"end":801,"sentenceIndex":2,"sentenceBegin":746,"sentenceEnd":938},{"word":"cigarette","begin":819,"end":827,"sentenceIndex":2,"sentenceBegin":746,"sentenceEnd":938},{"word":"smoking","begin":829,"end":835,"sentenceIndex":2,"sentenceBegin":746,"sentenceEnd":938},{"word":"smoking","begin":863,"end":869,"sentenceIndex":2,"sentenceBegin":746,"sentenceEnd":938}]}
{"paperId":"5c0beb565af7a9bcad425207e8b5141540ff3778","indicators":[{"word":"smoking","begin":144,"end":150,"sentenceIndex":1,"sentenceBegin":90,"sentenceEnd":422},{"word":"tobacco","begin":158,"end":164,"sentenceIndex":1,"sentenceBegin":90,"sentenceEnd":422}]}
{"paperId":"5c0beb565af7a9bcad425207e8b5141540ff3778","indicators":[{"word":"tobacco","begin":548,"end":554,"sentenceIndex":3,"sentenceBegin":243,"sentenceEnd":638},{"word":"smoking","begin":556,"end":562,"sentenceIndex":3,"sentenceBegin":243,"sentenceEnd":638},{"word":"tobacco","begin":818,"end":824,"sentenceIndex":4,"sentenceBegin":640,"sentenceEnd":833},{"word":"smoking","begin":826,"end":832,"sentenceIndex":4,"sentenceBegin":640,"sentenceEnd":833}]}
{"paperId":"5c0beb565af7a9bcad425207e8b5141540ff3778","indicators":[{"word":"tobacco","begin":83,"end":89,"sentenceIndex":0,"sentenceBegin":0,"sentenceEnd":115},{"word":"tobacco","begin":507,"end":513,"sentenceIndex":3,"sentenceBegin":470,"sentenceEnd":564}]}
{"paperId":"5c0beb565af7a9bcad425207e8b5141540ff3778","indicators":[{"word":"tobacco","begin":1556,"end":1562,"sentenceIndex":12,"sentenceBegin":1460,"sentenceEnd":1689},{"word":"tobacco","begin":1769,"end":1775,"sentenceIndex":13,"sentenceBegin":1691,"sentenceEnd":1938}]}
{"paperId":"5c0beb565af7a9bcad425207e8b5141540ff3778","indicators":[{"word":"tobacco","begin":831,"end":837,"sentenceIndex":6,"sentenceBegin":686,"sentenceEnd":848}]}
{"paperId":"5c0beb565af7a9bcad425207e8b5141540ff3778","indicators":[{"word":"tobacco","begin":49,"end":55,"sentenceIndex":0,"sentenceBegin":0,"sentenceEnd":151},{"word":"tobacco","begin":125,"end":131,"sentenceIndex":0,"sentenceBegin":0,"sentenceEnd":151}]}
{"paperId":"5c0beb565af7a9bcad425207e8b5141540ff3778","indicators":[{"word":"tobacco","begin":380,"end":386,"sentenceIndex":2,"sentenceBegin":285,"sentenceEnd":551},{"word":"smoking","begin":388,"end":394,"sentenceIndex":2,"sentenceBegin":285,"sentenceEnd":551},{"word":"smoking","begin":693,"end":699,"sentenceIndex":3,"sentenceBegin":553,"sentenceEnd":911},{"word":"smoking","begin":742,"end":748,"sentenceIndex":3,"sentenceBegin":553,"sentenceEnd":911},{"word":"smoking","begin":898,"end":904,"sentenceIndex":3,"sentenceBegin":553,"sentenceEnd":911},{"word":"tobacco","begin":1125,"end":1131,"sentenceIndex":5,"sentenceBegin":1046,"sentenceEnd":1146},{"word":"smoking","begin":1169,"end":1175,"sentenceIndex":6,"sentenceBegin":1148,"sentenceEnd":1334},{"word":"tobacco","begin":1177,"end":1183,"sentenceIndex":6,"sentenceBegin":1148,"sentenceEnd":1334},{"word":"smoking","begin":1191,"end":1197,"sentenceIndex":6,"sentenceBegin":1148,"sentenceEnd":1334},{"word":"smoking","begin":1265,"end":1271,"sentenceIndex":6,"sentenceBegin":1148,"sentenceEnd":1334},{"word":"tobacco","begin":1436,"end":1442,"sentenceIndex":7,"sentenceBegin":1336,"sentenceEnd":1503},{"word":"cigarettes","begin":1611,"end":1620,"sentenceIndex":9,"sentenceBegin":1519,"sentenceEnd":1634},{"word":"smoked","begin":1622,"end":1627,"sentenceIndex":9,"sentenceBegin":1519,"sentenceEnd":1634},{"word":"tobacco","begin":2377,"end":2383,"sentenceIndex":15,"sentenceBegin":2307,"sentenceEnd":2409},{"word":"smoking","begin":2385,"end":2391,"sentenceIndex":15,"sentenceBegin":2307,"sentenceEnd":2409},{"word":"tobacco","begin":3501,"end":3507,"sentenceIndex":23,"sentenceBegin":3339,"sentenceEnd":3701},{"word":"smoking","begin":3509,"end":3515,"sentenceIndex":23,"sentenceBegin":3339,"sentenceEnd":3701},{"word":"tobacco","begin":3591,"end":3597,"sentenceIndex":23,"sentenceBegin":3339,"sentenceEnd":3701},{"word":"smoking","begin":3599,"end":3605,"sentenceIndex":23,"sentenceBegin":3339,"sentenceEnd":3701}]}
{"paperId":"5c0beb565af7a9bcad425207e8b5141540ff3778","indicators":[{"word":"tobacco","begin":302,"end":308,"sentenceIndex":2,"sentenceBegin":196,"sentenceEnd":424},{"word":"smoking","begin":310,"end":316,"sentenceIndex":2,"sentenceBegin":196,"sentenceEnd":424}]}
{"paperId":"5c0beb565af7a9bcad425207e8b5141540ff3778","indicators":[{"word":"tobacco","begin":251,"end":257,"sentenceIndex":1,"sentenceBegin":83,"sentenceEnd":266},{"word":"smoking","begin":259,"end":265,"sentenceIndex":1,"sentenceBegin":83,"sentenceEnd":266},{"word":"tobacco","begin":504,"end":510,"sentenceIndex":3,"sentenceBegin":311,"sentenceEnd":623},{"word":"smoking","begin":713,"end":719,"sentenceIndex":4,"sentenceBegin":624,"sentenceEnd":730}]}
{"paperId":"5c0beb565af7a9bcad425207e8b5141540ff3778","indicators":[{"word":"smoking","begin":105,"end":111,"sentenceIndex":1,"sentenceBegin":53,"sentenceEnd":139}]}
{"paperId":"5c0beb565af7a9bcad425207e8b5141540ff3778","indicators":[{"word":"smoking","begin":104,"end":110,"sentenceIndex":1,"sentenceBegin":64,"sentenceEnd":183},{"word":"smoking","begin":255,"end":261,"sentenceIndex":2,"sentenceBegin":184,"sentenceEnd":272}]}
{"paperId":"5c0beb565af7a9bcad425207e8b5141540ff3778","indicators":[{"word":"smoking","begin":182,"end":188,"sentenceIndex":2,"sentenceBegin":126,"sentenceEnd":232}]}
{"paperId":"5c0beb565af7a9bcad425207e8b5141540ff3778","indicators":[{"word":"tobacco","begin":85,"end":91,"sentenceIndex":1,"sentenceBegin":15,"sentenceEnd":141},{"word":"cigarettes","begin":114,"end":123,"sentenceIndex":1,"sentenceBegin":15,"sentenceEnd":141}]}
{"paperId":"5c0beb565af7a9bcad425207e8b5141540ff3778","indicators":[{"word":"smoking","begin":33,"end":39,"sentenceIndex":1,"sentenceBegin":14,"sentenceEnd":101}]}
{"paperId":"5c0beb565af7a9bcad425207e8b5141540ff3778","indicators":[{"word":"smoking","begin":57,"end":63,"sentenceIndex":1,"sentenceBegin":18,"sentenceEnd":255}]}
{"paperId":"5c0beb565af7a9bcad425207e8b5141540ff3778","indicators":[{"word":"tobacco","begin":645,"end":651,"sentenceIndex":4,"sentenceBegin":417,"sentenceEnd":669},{"word":"tobacco","begin":742,"end":748,"sentenceIndex":5,"sentenceBegin":671,"sentenceEnd":802}]}
