{"paperId":"011b8a7002da6c0fae7ca76c127567a6462daf5d","indicators":[{"word":"vapor","begin":141,"end":145,"sentenceIndex":1,"sentenceBegin":110,"sentenceEnd":363},{"word":"vapor","begin":199,"end":203,"sentenceIndex":1,"sentenceBegin":110,"sentenceEnd":363},{"word":"vapor","begin":280,"end":284,"sentenceIndex":1,"sentenceBegin":110,"sentenceEnd":363}]}
{"paperId":"011b8a7002da6c0fae7ca76c127567a6462daf5d","indicators":[{"word":"vapor","begin":957,"end":961,"sentenceIndex":8,"sentenceBegin":911,"sentenceEnd":1082}]}
{"paperId":"5d386e1ac67bedc4617aad9e423fe00e4e0d55fa","indicators":[{"word":"smoking","begin":524,"end":530,"sentenceIndex":3,"sentenceBegin":437,"sentenceEnd":569}]}
{"paperId":"bb9892aba76445fdd978eb63466b609ecc6706bc","indicators":[{"word":"smoke","begin":617,"end":621,"sentenceIndex":3,"sentenceBegin":475,"sentenceEnd":636}]}
{"paperId":"bb9892aba76445fdd978eb63466b609ecc6706bc","indicators":[{"word":"smoking","begin":662,"end":668,"sentenceIndex":2,"sentenceBegin":471,"sentenceEnd":669}]}
{"paperId":"bb9892aba76445fdd978eb63466b609ecc6706bc","indicators":[{"word":"smoking","begin":171,"end":177,"sentenceIndex":0,"sentenceBegin":0,"sentenceEnd":212}]}
{"paperId":"b696d208705fcb1925693c5f0d118733bb557ea6","indicators":[{"word":"smoking","begin":92,"end":98,"sentenceIndex":0,"sentenceBegin":0,"sentenceEnd":247},{"word":"smoking","begin":556,"end":562,"sentenceIndex":3,"sentenceBegin":468,"sentenceEnd":651}]}
{"paperId":"b696d208705fcb1925693c5f0d118733bb557ea6","indicators":[{"word":"tobacco","begin":367,"end":373,"sentenceIndex":4,"sentenceBegin":341,"sentenceEnd":451}]}
{"paperId":"b696d208705fcb1925693c5f0d118733bb557ea6","indicators":[{"word":"smoking","begin":388,"end":394,"sentenceIndex":2,"sentenceBegin":276,"sentenceEnd":475}]}
{"paperId":"b696d208705fcb1925693c5f0d118733bb557ea6","indicators":[{"word":"smoking","begin":158,"end":164,"sentenceIndex":1,"sentenceBegin":84,"sentenceEnd":208}]}
{"paperId":"a9aff60ddb932bda86a908412d7a5319ca925c01","indicators":[{"word":"smoking","begin":427,"end":433,"sentenceIndex":2,"sentenceBegin":305,"sentenceEnd":572}]}
