{"paperId":"a79fc846b3a790158548524ec16a4dd60ff6f62f","indicators":[{"word":"tobacco","begin":92,"end":98,"sentenceIndex":0,"sentenceBegin":0,"sentenceEnd":236}]}
{"paperId":"332095308585d48bec6384ec06cddc4b075d63a8","indicators":[{"word":"smoking","begin":536,"end":542,"sentenceIndex":2,"sentenceBegin":364,"sentenceEnd":554}]}
{"paperId":"332095308585d48bec6384ec06cddc4b075d63a8","indicators":[{"word":"smoking","begin":28,"end":34,"sentenceIndex":0,"sentenceBegin":0,"sentenceEnd":189},{"word":"smoking","begin":435,"end":441,"sentenceIndex":7,"sentenceBegin":404,"sentenceEnd":452}]}
{"paperId":"332095308585d48bec6384ec06cddc4b075d63a8","indicators":[{"word":"smoking","begin":750,"end":756,"sentenceIndex":2,"sentenceBegin":399,"sentenceEnd":851}]}
{"paperId":"332095308585d48bec6384ec06cddc4b075d63a8","indicators":[{"word":"smoking","begin":632,"end":638,"sentenceIndex":2,"sentenceBegin":431,"sentenceEnd":719}]}
{"paperId":"332095308585d48bec6384ec06cddc4b075d63a8","indicators":[{"word":"smoking","begin":62,"end":68,"sentenceIndex":0,"sentenceBegin":0,"sentenceEnd":143},{"word":"smoking","begin":261,"end":267,"sentenceIndex":1,"sentenceBegin":145,"sentenceEnd":369},{"word":"smoking","begin":457,"end":463,"sentenceIndex":2,"sentenceBegin":371,"sentenceEnd":506}]}
{"paperId":"09f8496c2b3ffc34f098b4270a90b1b2ef3b3cec","indicators":[{"word":"smoking","begin":637,"end":643,"sentenceIndex":5,"sentenceBegin":566,"sentenceEnd":670}]}
{"paperId":"fdda0941127acd3e1b0092b77e53e9ef8c9b8cbc","indicators":[{"word":"smoking","begin":172,"end":178,"sentenceIndex":0,"sentenceBegin":0,"sentenceEnd":179},{"word":"smoking","begin":1149,"end":1155,"sentenceIndex":7,"sentenceBegin":1056,"sentenceEnd":1194}]}
