{"paperId":"da309b7481a117d1aad2212d42ad3b7c0c68abf3","indicators":[{"word":"vapor","begin":88,"end":92,"sentenceIndex":0,"sentenceBegin":0,"sentenceEnd":136}]}
{"paperId":"dca71f5b3bb92d985fcff9d222ef08ba269db395","indicators":[{"word":"smoking","begin":600,"end":606,"sentenceIndex":2,"sentenceBegin":478,"sentenceEnd":740}]}
{"paperId":"e1c6d85e866ce75b1d465804e8d9341605973ec5","indicators":[{"word":"vapor","begin":947,"end":951,"sentenceIndex":6,"sentenceBegin":912,"sentenceEnd":1057}]}
{"paperId":"e1c6d85e866ce75b1d465804e8d9341605973ec5","indicators":[{"word":"vapor","begin":476,"end":480,"sentenceIndex":6,"sentenceBegin":459,"sentenceEnd":481}]}
{"paperId":"e1c6d85e866ce75b1d465804e8d9341605973ec5","indicators":[{"word":"vapor","begin":904,"end":908,"sentenceIndex":13,"sentenceBegin":886,"sentenceEnd":962}]}
{"paperId":"004cdca54ee0bfc6d8f8d54e679804556f06bfe5","indicators":[{"word":"vapor","begin":302,"end":306,"sentenceIndex":2,"sentenceBegin":270,"sentenceEnd":307}]}
{"paperId":"004cdca54ee0bfc6d8f8d54e679804556f06bfe5","indicators":[{"word":"vapor","begin":87,"end":91,"sentenceIndex":0,"sentenceBegin":0,"sentenceEnd":148}]}
{"paperId":"03928ce797bb4ed6359cd1f98b32c3720252f13b","indicators":[{"word":"weeds","begin":113,"end":117,"sentenceIndex":0,"sentenceBegin":0,"sentenceEnd":227}]}
{"paperId":"5fc1142d41159cecba1144c7747ecba32d77dfc0","indicators":[{"word":"smoking","begin":73,"end":79,"sentenceIndex":0,"sentenceBegin":0,"sentenceEnd":247}]}
{"paperId":"5fc1142d41159cecba1144c7747ecba32d77dfc0","indicators":[{"word":"tobacco","begin":203,"end":209,"sentenceIndex":2,"sentenceBegin":185,"sentenceEnd":226}]}
{"paperId":"5fc1142d41159cecba1144c7747ecba32d77dfc0","indicators":[{"word":"smoke","begin":77,"end":81,"sentenceIndex":1,"sentenceBegin":69,"sentenceEnd":197},{"word":"smoking","begin":145,"end":151,"sentenceIndex":1,"sentenceBegin":69,"sentenceEnd":197},{"word":"tobacco","begin":160,"end":166,"sentenceIndex":1,"sentenceBegin":69,"sentenceEnd":197},{"word":"smoke","begin":209,"end":213,"sentenceIndex":2,"sentenceBegin":199,"sentenceEnd":331},{"word":"smoking","begin":277,"end":283,"sentenceIndex":2,"sentenceBegin":199,"sentenceEnd":331},{"word":"cigarette","begin":292,"end":300,"sentenceIndex":2,"sentenceBegin":199,"sentenceEnd":331}]}
