{"paperId":"f61ed78f4760fc38ba1857ddfff8642facbf5dad","indicators":[{"word":"vapor","begin":2682,"end":2686,"sentenceIndex":16,"sentenceBegin":2495,"sentenceEnd":2758},{"word":"vapor","begin":2730,"end":2734,"sentenceIndex":16,"sentenceBegin":2495,"sentenceEnd":2758}]}
{"paperId":"f61ed78f4760fc38ba1857ddfff8642facbf5dad","indicators":[{"word":"smoking","begin":1086,"end":1092,"sentenceIndex":4,"sentenceBegin":875,"sentenceEnd":1125}]}
{"paperId":"50d0f5fd4187d914ff40cacb3c436edc5b5bcc00","indicators":[{"word":"fumes","begin":2425,"end":2429,"sentenceIndex":13,"sentenceBegin":2327,"sentenceEnd":2564}]}
{"paperId":"50d0f5fd4187d914ff40cacb3c436edc5b5bcc00","indicators":[{"word":"cigarette","begin":514,"end":522,"sentenceIndex":5,"sentenceBegin":502,"sentenceEnd":597},{"word":"smoke","begin":524,"end":528,"sentenceIndex":5,"sentenceBegin":502,"sentenceEnd":597},{"word":"cigarette","begin":610,"end":618,"sentenceIndex":6,"sentenceBegin":599,"sentenceEnd":686},{"word":"smoke","begin":620,"end":624,"sentenceIndex":6,"sentenceBegin":599,"sentenceEnd":686}]}
{"paperId":"fb4aaa9a622606c362b4eb0695016c296a9e7bb8","indicators":[{"word":"cigarette","begin":694,"end":702,"sentenceIndex":2,"sentenceBegin":504,"sentenceEnd":718},{"word":"smoking","begin":704,"end":710,"sentenceIndex":2,"sentenceBegin":504,"sentenceEnd":718}]}
{"paperId":"fb4aaa9a622606c362b4eb0695016c296a9e7bb8","indicators":[{"word":"cigarette","begin":558,"end":566,"sentenceIndex":3,"sentenceBegin":410,"sentenceEnd":614},{"word":"smoking","begin":568,"end":574,"sentenceIndex":3,"sentenceBegin":410,"sentenceEnd":614}]}
{"paperId":"fb4aaa9a622606c362b4eb0695016c296a9e7bb8","indicators":[{"word":"cigarette","begin":582,"end":590,"sentenceIndex":4,"sentenceBegin":371,"sentenceEnd":617},{"word":"smoking","begin":592,"end":598,"sentenceIndex":4,"sentenceBegin":371,"sentenceEnd":617}]}
{"paperId":"0badd4c283a6967ff84402b13967a1be02ad522d","indicators":[{"word":"tobacco","begin":2163,"end":2169,"sentenceIndex":8,"sentenceBegin":1791,"sentenceEnd":2283},{"word":"smoke","begin":2171,"end":2175,"sentenceIndex":8,"sentenceBegin":1791,"sentenceEnd":2283},{"word":"pot","begin":2272,"end":2274,"sentenceIndex":8,"sentenceBegin":1791,"sentenceEnd":2283}]}
{"paperId":"336a3bfa467c4c7b1e75852eae04ba60d1efaaf5","indicators":[{"word":"vapor","begin":263,"end":267,"sentenceIndex":2,"sentenceBegin":188,"sentenceEnd":280}]}
{"paperId":"720c8b9b39a102fde71ab2a6ec0305e14a97f32d","indicators":[{"word":"tobacco","begin":770,"end":776,"sentenceIndex":4,"sentenceBegin":706,"sentenceEnd":858}]}
{"paperId":"dde02f11923815e6a16a31dd6298c46b109c5dfa","indicators":[{"word":"tobacco","begin":334,"end":340,"sentenceIndex":1,"sentenceBegin":230,"sentenceEnd":387}]}
{"paperId":"dde02f11923815e6a16a31dd6298c46b109c5dfa","indicators":[{"word":"tobacco","begin":700,"end":706,"sentenceIndex":5,"sentenceBegin":628,"sentenceEnd":838}]}
{"paperId":"abb2b5fe18d90fbec4532d74e2b6ed97ad961bab","indicators":[{"word":"smoking","begin":443,"end":449,"sentenceIndex":1,"sentenceBegin":223,"sentenceEnd":576}]}
