{"paperId":"8b478a28315d64c252456c44fe8ead59d389f615","indicators":[{"word":"vapor","begin":67,"end":71,"sentenceIndex":0,"sentenceBegin":0,"sentenceEnd":286}]}
{"paperId":"0ce0545645fdbedcd7326085925e704e4dda720e","indicators":[{"word":"smoking","begin":636,"end":642,"sentenceIndex":2,"sentenceBegin":377,"sentenceEnd":650}]}
{"paperId":"0ce0545645fdbedcd7326085925e704e4dda720e","indicators":[{"word":"smoking","begin":166,"end":172,"sentenceIndex":0,"sentenceBegin":0,"sentenceEnd":213}]}
{"paperId":"0ce0545645fdbedcd7326085925e704e4dda720e","indicators":[{"word":"smoking","begin":791,"end":797,"sentenceIndex":5,"sentenceBegin":621,"sentenceEnd":880}]}
{"paperId":"0ce0545645fdbedcd7326085925e704e4dda720e","indicators":[{"word":"smoking","begin":33,"end":39,"sentenceIndex":0,"sentenceBegin":0,"sentenceEnd":241},{"word":"smoking","begin":512,"end":518,"sentenceIndex":4,"sentenceBegin":477,"sentenceEnd":701}]}
{"paperId":"de3ae7971891058db2f4b36cd216531e6f533332","indicators":[{"word":"vapor","begin":237,"end":241,"sentenceIndex":0,"sentenceBegin":0,"sentenceEnd":269}]}
{"paperId":"a05c89b5c575b5821c129518058f6755cbd08cb0","indicators":[{"word":"fired","begin":1540,"end":1544,"sentenceIndex":13,"sentenceBegin":1480,"sentenceEnd":1545}]}
