{"paperId":"696057b5cabed9bad2410e2bb55edf15c9f5cfe6","indicators":[{"word":"smoking","begin":169,"end":175,"sentenceIndex":0,"sentenceBegin":0,"sentenceEnd":185}]}
{"paperId":"1038bb44c06e9429393d9a40c07b53d2baf850c9","indicators":[{"word":"puffed","begin":357,"end":362,"sentenceIndex":2,"sentenceBegin":275,"sentenceEnd":420}]}
{"paperId":"35f87236f769cd0f221f42dacf85961b38300e1a","indicators":[{"word":"smoke","begin":175,"end":179,"sentenceIndex":3,"sentenceBegin":149,"sentenceEnd":203},{"word":"cigarettes","begin":181,"end":190,"sentenceIndex":3,"sentenceBegin":149,"sentenceEnd":203}]}
{"paperId":"35f87236f769cd0f221f42dacf85961b38300e1a","indicators":[{"word":"smoking","begin":846,"end":852,"sentenceIndex":8,"sentenceBegin":824,"sentenceEnd":901}]}
{"paperId":"63e208f8bb6d536d9b0e1848f5cbca6d53ccf60b","indicators":[{"word":"tobacco","begin":56,"end":62,"sentenceIndex":0,"sentenceBegin":0,"sentenceEnd":96},{"word":"smoke","begin":64,"end":68,"sentenceIndex":0,"sentenceBegin":0,"sentenceEnd":96},{"word":"smoke","begin":433,"end":437,"sentenceIndex":2,"sentenceBegin":274,"sentenceEnd":454},{"word":"smoke","begin":589,"end":593,"sentenceIndex":3,"sentenceBegin":456,"sentenceEnd":610},{"word":"smoke","begin":714,"end":718,"sentenceIndex":4,"sentenceBegin":612,"sentenceEnd":819}]}
{"paperId":"63e208f8bb6d536d9b0e1848f5cbca6d53ccf60b","indicators":[{"word":"tobacco","begin":83,"end":89,"sentenceIndex":1,"sentenceBegin":60,"sentenceEnd":318},{"word":"smoke","begin":91,"end":95,"sentenceIndex":1,"sentenceBegin":60,"sentenceEnd":318},{"word":"tobacco","begin":611,"end":617,"sentenceIndex":3,"sentenceBegin":432,"sentenceEnd":638},{"word":"smoke","begin":619,"end":623,"sentenceIndex":3,"sentenceBegin":432,"sentenceEnd":638}]}
{"paperId":"63e208f8bb6d536d9b0e1848f5cbca6d53ccf60b","indicators":[{"word":"tobacco","begin":59,"end":65,"sentenceIndex":0,"sentenceBegin":0,"sentenceEnd":181},{"word":"smoke","begin":67,"end":71,"sentenceIndex":0,"sentenceBegin":0,"sentenceEnd":181},{"word":"smoke","begin":313,"end":317,"sentenceIndex":1,"sentenceBegin":183,"sentenceEnd":395},{"word":"smoke","begin":385,"end":389,"sentenceIndex":1,"sentenceBegin":183,"sentenceEnd":395},{"word":"tobacco","begin":443,"end":449,"sentenceIndex":2,"sentenceBegin":397,"sentenceEnd":580},{"word":"smoke","begin":451,"end":455,"sentenceIndex":2,"sentenceBegin":397,"sentenceEnd":580},{"word":"smoke","begin":746,"end":750,"sentenceIndex":3,"sentenceBegin":582,"sentenceEnd":762}]}
{"paperId":"63e208f8bb6d536d9b0e1848f5cbca6d53ccf60b","indicators":[{"word":"tobacco","begin":58,"end":64,"sentenceIndex":1,"sentenceBegin":20,"sentenceEnd":135},{"word":"smoke","begin":66,"end":70,"sentenceIndex":1,"sentenceBegin":20,"sentenceEnd":135},{"word":"smoking","begin":91,"end":97,"sentenceIndex":1,"sentenceBegin":20,"sentenceEnd":135},{"word":"tobacco","begin":230,"end":236,"sentenceIndex":2,"sentenceBegin":137,"sentenceEnd":336},{"word":"smoke","begin":238,"end":242,"sentenceIndex":2,"sentenceBegin":137,"sentenceEnd":336},{"word":"cigarettes","begin":290,"end":299,"sentenceIndex":2,"sentenceBegin":137,"sentenceEnd":336}]}
{"paperId":"63e208f8bb6d536d9b0e1848f5cbca6d53ccf60b","indicators":[{"word":"smoke","begin":46,"end":50,"sentenceIndex":0,"sentenceBegin":0,"sentenceEnd":99}]}
{"paperId":"63e208f8bb6d536d9b0e1848f5cbca6d53ccf60b","indicators":[{"word":"smoke","begin":81,"end":85,"sentenceIndex":0,"sentenceBegin":0,"sentenceEnd":151},{"word":"smoke","begin":1443,"end":1447,"sentenceIndex":9,"sentenceBegin":1379,"sentenceEnd":1476}]}
{"paperId":"63e208f8bb6d536d9b0e1848f5cbca6d53ccf60b","indicators":[{"word":"cigarettes","begin":462,"end":471,"sentenceIndex":3,"sentenceBegin":335,"sentenceEnd":531},{"word":"smoked","begin":473,"end":478,"sentenceIndex":3,"sentenceBegin":335,"sentenceEnd":531},{"word":"smoke","begin":507,"end":511,"sentenceIndex":3,"sentenceBegin":335,"sentenceEnd":531},{"word":"tobacco","begin":956,"end":962,"sentenceIndex":6,"sentenceBegin":772,"sentenceEnd":1048},{"word":"smoke","begin":964,"end":968,"sentenceIndex":6,"sentenceBegin":772,"sentenceEnd":1048},{"word":"tobacco","begin":1332,"end":1338,"sentenceIndex":8,"sentenceBegin":1143,"sentenceEnd":1345},{"word":"smoke","begin":1340,"end":1344,"sentenceIndex":8,"sentenceBegin":1143,"sentenceEnd":1345}]}
{"paperId":"63e208f8bb6d536d9b0e1848f5cbca6d53ccf60b","indicators":[{"word":"tobacco","begin":151,"end":157,"sentenceIndex":0,"sentenceBegin":0,"sentenceEnd":183},{"word":"smoke","begin":159,"end":163,"sentenceIndex":0,"sentenceBegin":0,"sentenceEnd":183}]}
{"paperId":"63e208f8bb6d536d9b0e1848f5cbca6d53ccf60b","indicators":[{"word":"tobacco","begin":35,"end":41,"sentenceIndex":0,"sentenceBegin":0,"sentenceEnd":179},{"word":"smoke","begin":43,"end":47,"sentenceIndex":0,"sentenceBegin":0,"sentenceEnd":179},{"word":"tobacco","begin":161,"end":167,"sentenceIndex":0,"sentenceBegin":0,"sentenceEnd":179},{"word":"smoke","begin":169,"end":173,"sentenceIndex":0,"sentenceBegin":0,"sentenceEnd":179},{"word":"tobacco","begin":431,"end":437,"sentenceIndex":3,"sentenceBegin":384,"sentenceEnd":535}]}
{"paperId":"63e208f8bb6d536d9b0e1848f5cbca6d53ccf60b","indicators":[{"word":"tobacco","begin":101,"end":107,"sentenceIndex":0,"sentenceBegin":0,"sentenceEnd":210},{"word":"tobacco","begin":1373,"end":1379,"sentenceIndex":9,"sentenceBegin":1324,"sentenceEnd":1550},{"word":"smoke","begin":1381,"end":1385,"sentenceIndex":9,"sentenceBegin":1324,"sentenceEnd":1550}]}
{"paperId":"63e208f8bb6d536d9b0e1848f5cbca6d53ccf60b","indicators":[{"word":"smog","begin":441,"end":444,"sentenceIndex":1,"sentenceBegin":251,"sentenceEnd":530},{"word":"tobacco","begin":627,"end":633,"sentenceIndex":2,"sentenceBegin":532,"sentenceEnd":891},{"word":"smoke","begin":635,"end":639,"sentenceIndex":2,"sentenceBegin":532,"sentenceEnd":891},{"word":"tobacco","begin":760,"end":766,"sentenceIndex":2,"sentenceBegin":532,"sentenceEnd":891},{"word":"smoke","begin":768,"end":772,"sentenceIndex":2,"sentenceBegin":532,"sentenceEnd":891}]}
{"paperId":"63e208f8bb6d536d9b0e1848f5cbca6d53ccf60b","indicators":[{"word":"tobacco","begin":384,"end":390,"sentenceIndex":3,"sentenceBegin":306,"sentenceEnd":406},{"word":"smoke","begin":392,"end":396,"sentenceIndex":3,"sentenceBegin":306,"sentenceEnd":406},{"word":"tobacco","begin":461,"end":467,"sentenceIndex":4,"sentenceBegin":408,"sentenceEnd":635},{"word":"smoke","begin":469,"end":473,"sentenceIndex":4,"sentenceBegin":408,"sentenceEnd":635}]}
{"paperId":"63e208f8bb6d536d9b0e1848f5cbca6d53ccf60b","indicators":[{"word":"tobacco","begin":86,"end":92,"sentenceIndex":0,"sentenceBegin":0,"sentenceEnd":108},{"word":"smoke","begin":94,"end":98,"sentenceIndex":0,"sentenceBegin":0,"sentenceEnd":108},{"word":"smoke","begin":548,"end":552,"sentenceIndex":5,"sentenceBegin":476,"sentenceEnd":565}]}
