{"paperId":"2a3f86815b63cacd10134d82084191c9a8054d35","indicators":[{"word":"tobacco","begin":985,"end":991,"sentenceIndex":6,"sentenceBegin":885,"sentenceEnd":1026}]}
{"paperId":"e2f60e5591cd49879f53df7d80bcbe5ed970b553","indicators":[{"word":"smoke","begin":82,"end":86,"sentenceIndex":0,"sentenceBegin":0,"sentenceEnd":120}]}
{"paperId":"e2f60e5591cd49879f53df7d80bcbe5ed970b553","indicators":[{"word":"smoke","begin":75,"end":79,"sentenceIndex":2,"sentenceBegin":75,"sentenceEnd":173}]}
{"paperId":"14c0f5333f6f42585b9b00c7d884e203c7e0a145","indicators":[{"word":"cigarette","begin":553,"end":561,"sentenceIndex":4,"sentenceBegin":467,"sentenceEnd":613},{"word":"smoking","begin":563,"end":569,"sentenceIndex":4,"sentenceBegin":467,"sentenceEnd":613}]}
{"paperId":"14c0f5333f6f42585b9b00c7d884e203c7e0a145","indicators":[{"word":"cigarette","begin":1049,"end":1057,"sentenceIndex":9,"sentenceBegin":963,"sentenceEnd":1170},{"word":"smoking","begin":1059,"end":1065,"sentenceIndex":9,"sentenceBegin":963,"sentenceEnd":1170}]}
{"paperId":"14c0f5333f6f42585b9b00c7d884e203c7e0a145","indicators":[{"word":"smoking","begin":749,"end":755,"sentenceIndex":5,"sentenceBegin":726,"sentenceEnd":904}]}
{"paperId":"14c0f5333f6f42585b9b00c7d884e203c7e0a145","indicators":[{"word":"smoked","begin":471,"end":476,"sentenceIndex":3,"sentenceBegin":332,"sentenceEnd":523}]}
{"paperId":"14c0f5333f6f42585b9b00c7d884e203c7e0a145","indicators":[{"word":"smoking","begin":52,"end":58,"sentenceIndex":0,"sentenceBegin":0,"sentenceEnd":141}]}
{"paperId":"14c0f5333f6f42585b9b00c7d884e203c7e0a145","indicators":[{"word":"cigarette","begin":771,"end":779,"sentenceIndex":4,"sentenceBegin":691,"sentenceEnd":812},{"word":"smoking","begin":781,"end":787,"sentenceIndex":4,"sentenceBegin":691,"sentenceEnd":812}]}
{"paperId":"14c0f5333f6f42585b9b00c7d884e203c7e0a145","indicators":[{"word":"smoking","begin":36,"end":42,"sentenceIndex":0,"sentenceBegin":0,"sentenceEnd":82},{"word":"smoking","begin":136,"end":142,"sentenceIndex":1,"sentenceBegin":84,"sentenceEnd":143}]}
{"paperId":"14c0f5333f6f42585b9b00c7d884e203c7e0a145","indicators":[{"word":"cigarette","begin":138,"end":146,"sentenceIndex":0,"sentenceBegin":0,"sentenceEnd":240},{"word":"smoking","begin":148,"end":154,"sentenceIndex":0,"sentenceBegin":0,"sentenceEnd":240},{"word":"smoking","begin":312,"end":318,"sentenceIndex":1,"sentenceBegin":242,"sentenceEnd":436},{"word":"smoking","begin":369,"end":375,"sentenceIndex":1,"sentenceBegin":242,"sentenceEnd":436}]}
{"paperId":"14c0f5333f6f42585b9b00c7d884e203c7e0a145","indicators":[{"word":"fumes","begin":665,"end":669,"sentenceIndex":4,"sentenceBegin":624,"sentenceEnd":777},{"word":"smoke","begin":672,"end":676,"sentenceIndex":4,"sentenceBegin":624,"sentenceEnd":777},{"word":"smoke","begin":814,"end":818,"sentenceIndex":5,"sentenceBegin":779,"sentenceEnd":938},{"word":"smoke","begin":827,"end":831,"sentenceIndex":5,"sentenceBegin":779,"sentenceEnd":938}]}
{"paperId":"14c0f5333f6f42585b9b00c7d884e203c7e0a145","indicators":[{"word":"smoking","begin":116,"end":122,"sentenceIndex":0,"sentenceBegin":0,"sentenceEnd":133},{"word":"smoking","begin":689,"end":695,"sentenceIndex":4,"sentenceBegin":612,"sentenceEnd":770}]}
{"paperId":"14c0f5333f6f42585b9b00c7d884e203c7e0a145","indicators":[{"word":"smoke","begin":105,"end":109,"sentenceIndex":0,"sentenceBegin":0,"sentenceEnd":219},{"word":"fumes","begin":112,"end":116,"sentenceIndex":0,"sentenceBegin":0,"sentenceEnd":219}]}
{"paperId":"14c0f5333f6f42585b9b00c7d884e203c7e0a145","indicators":[{"word":"cigarette","begin":576,"end":584,"sentenceIndex":4,"sentenceBegin":522,"sentenceEnd":632},{"word":"smoking","begin":586,"end":592,"sentenceIndex":4,"sentenceBegin":522,"sentenceEnd":632},{"word":"smoking","begin":932,"end":938,"sentenceIndex":8,"sentenceBegin":857,"sentenceEnd":949}]}
{"paperId":"a65f03b50c805f68f660f6c4eb87ee3ce0284e4f","indicators":[{"word":"smoking","begin":476,"end":482,"sentenceIndex":3,"sentenceBegin":463,"sentenceEnd":574}]}
{"paperId":"7392f117da2db47792a8a7450f3cadee63afe74d","indicators":[{"word":"smoke","begin":161,"end":165,"sentenceIndex":1,"sentenceBegin":59,"sentenceEnd":191}]}
{"paperId":"98d6d4361313fb52d3611cd4940ff2c85b08ab2c","indicators":[{"word":"smoking","begin":1616,"end":1622,"sentenceIndex":12,"sentenceBegin":1552,"sentenceEnd":1707}]}
{"paperId":"806c9306aa9075c075011e40574ae7c4c2d12537","indicators":[{"word":"tobacco","begin":394,"end":400,"sentenceIndex":3,"sentenceBegin":318,"sentenceEnd":485},{"word":"smoke","begin":402,"end":406,"sentenceIndex":3,"sentenceBegin":318,"sentenceEnd":485}]}
