{"paperId":"cbd4e4f3fa41434e1823d57918ebe513af09ef89","indicators":[{"word":"fires","begin":1080,"end":1084,"sentenceIndex":6,"sentenceBegin":923,"sentenceEnd":1123}]}
{"paperId":"2c4f7ab83c2f6bcc8fbfaeb8bc5b9f511bc5f763","indicators":[{"word":"cigarette","begin":592,"end":600,"sentenceIndex":2,"sentenceBegin":497,"sentenceEnd":820},{"word":"smoking","begin":602,"end":608,"sentenceIndex":2,"sentenceBegin":497,"sentenceEnd":820}]}
{"paperId":"c0bb0dd7d476d4888d87e3b3e44496cb3ca97ade","indicators":[{"word":"smoking","begin":90,"end":96,"sentenceIndex":0,"sentenceBegin":0,"sentenceEnd":97}]}
{"paperId":"c0bb0dd7d476d4888d87e3b3e44496cb3ca97ade","indicators":[{"word":"smoking","begin":455,"end":461,"sentenceIndex":2,"sentenceBegin":371,"sentenceEnd":477}]}
{"paperId":"050e196ecf3a4808617c6d99d74ae1ff41b71b97","indicators":[{"word":"weeds","begin":516,"end":520,"sentenceIndex":3,"sentenceBegin":489,"sentenceEnd":535},{"word":"weeds","begin":1400,"end":1404,"sentenceIndex":9,"sentenceBegin":1301,"sentenceEnd":1543}]}
{"paperId":"050e196ecf3a4808617c6d99d74ae1ff41b71b97","indicators":[{"word":"weeds","begin":2199,"end":2203,"sentenceIndex":10,"sentenceBegin":2063,"sentenceEnd":2234}]}
{"paperId":"050e196ecf3a4808617c6d99d74ae1ff41b71b97","indicators":[{"word":"weed","begin":992,"end":995,"sentenceIndex":11,"sentenceBegin":988,"sentenceEnd":1023}]}
{"paperId":"75964abb7d9b187aab3a205e851fa6c646e9f96b","indicators":[{"word":"tobacco","begin":919,"end":925,"sentenceIndex":4,"sentenceBegin":705,"sentenceEnd":970}]}
{"paperId":"fe817bf2cc5f310e1f37e696365f7fc3194e06f4","indicators":[{"word":"tobacco","begin":611,"end":617,"sentenceIndex":3,"sentenceBegin":505,"sentenceEnd":705}]}
{"paperId":"fe817bf2cc5f310e1f37e696365f7fc3194e06f4","indicators":[{"word":"tobacco","begin":813,"end":819,"sentenceIndex":4,"sentenceBegin":594,"sentenceEnd":851}]}
{"paperId":"fe817bf2cc5f310e1f37e696365f7fc3194e06f4","indicators":[{"word":"tobacco","begin":807,"end":813,"sentenceIndex":6,"sentenceBegin":773,"sentenceEnd":873}]}
{"paperId":"fe817bf2cc5f310e1f37e696365f7fc3194e06f4","indicators":[{"word":"tobacco","begin":229,"end":235,"sentenceIndex":0,"sentenceBegin":0,"sentenceEnd":314}]}
{"paperId":"fe817bf2cc5f310e1f37e696365f7fc3194e06f4","indicators":[{"word":"tobacco","begin":173,"end":179,"sentenceIndex":0,"sentenceBegin":0,"sentenceEnd":302},{"word":"tobacco","begin":343,"end":349,"sentenceIndex":1,"sentenceBegin":304,"sentenceEnd":408}]}
{"paperId":"fe817bf2cc5f310e1f37e696365f7fc3194e06f4","indicators":[{"word":"tobacco","begin":144,"end":150,"sentenceIndex":0,"sentenceBegin":0,"sentenceEnd":158},{"word":"tobacco","begin":476,"end":482,"sentenceIndex":1,"sentenceBegin":160,"sentenceEnd":490},{"word":"tobacco","begin":770,"end":776,"sentenceIndex":3,"sentenceBegin":640,"sentenceEnd":957}]}
{"paperId":"fe817bf2cc5f310e1f37e696365f7fc3194e06f4","indicators":[{"word":"tobacco","begin":264,"end":270,"sentenceIndex":1,"sentenceBegin":134,"sentenceEnd":326},{"word":"tobacco","begin":470,"end":476,"sentenceIndex":3,"sentenceBegin":337,"sentenceEnd":484}]}
{"paperId":"fe817bf2cc5f310e1f37e696365f7fc3194e06f4","indicators":[{"word":"tobacco","begin":533,"end":539,"sentenceIndex":4,"sentenceBegin":418,"sentenceEnd":684}]}
{"paperId":"fe817bf2cc5f310e1f37e696365f7fc3194e06f4","indicators":[{"word":"tobacco","begin":158,"end":164,"sentenceIndex":0,"sentenceBegin":0,"sentenceEnd":193},{"word":"tobacco","begin":611,"end":617,"sentenceIndex":3,"sentenceBegin":477,"sentenceEnd":625},{"word":"tobacco","begin":897,"end":903,"sentenceIndex":6,"sentenceBegin":819,"sentenceEnd":1055}]}
{"paperId":"c2a5393aff15e17796bc0515d215e2067d88a67e","indicators":[{"word":"cigarettes","begin":139,"end":148,"sentenceIndex":0,"sentenceBegin":0,"sentenceEnd":164}]}
{"paperId":"06d53ed3f7d9a9ea66965bbe0bfcba4916d4dd91","indicators":[{"word":"smoking","begin":998,"end":1004,"sentenceIndex":4,"sentenceBegin":836,"sentenceEnd":1096}]}
{"paperId":"06906292927b54ef61b68fbe689965730726813a","indicators":[{"word":"smoke","begin":3924,"end":3928,"sentenceIndex":27,"sentenceBegin":3807,"sentenceEnd":3991}]}
{"paperId":"06906292927b54ef61b68fbe689965730726813a","indicators":[{"word":"cigarette","begin":1802,"end":1810,"sentenceIndex":12,"sentenceBegin":1749,"sentenceEnd":1882},{"word":"smoke","begin":1812,"end":1816,"sentenceIndex":12,"sentenceBegin":1749,"sentenceEnd":1882}]}
{"paperId":"06906292927b54ef61b68fbe689965730726813a","indicators":[{"word":"smoke","begin":1130,"end":1134,"sentenceIndex":7,"sentenceBegin":1030,"sentenceEnd":1162}]}
{"paperId":"1fe7d2cd1fe124c520fd6854ac34c13ff28e13dd","indicators":[{"word":"cigarettes","begin":445,"end":454,"sentenceIndex":4,"sentenceBegin":398,"sentenceEnd":518}]}
{"paperId":"871bc5983e4188a32f9cfda1adb07fdbf760f891","indicators":[{"word":"smoking","begin":1607,"end":1613,"sentenceIndex":10,"sentenceBegin":1476,"sentenceEnd":1668}]}
{"paperId":"871bc5983e4188a32f9cfda1adb07fdbf760f891","indicators":[{"word":"smoking","begin":78,"end":84,"sentenceIndex":0,"sentenceBegin":0,"sentenceEnd":153},{"word":"smoking","begin":389,"end":395,"sentenceIndex":3,"sentenceBegin":376,"sentenceEnd":545},{"word":"smoking","begin":563,"end":569,"sentenceIndex":4,"sentenceBegin":547,"sentenceEnd":652}]}
