{"paperId":"4b74491f1ce3962a0a1b3daa7e5967650912519e","indicators":[{"word":"smoking","begin":1334,"end":1340,"sentenceIndex":6,"sentenceBegin":1264,"sentenceEnd":1526}]}
{"paperId":"f1d92c740ecb6d711507ed6e483472c8e1ecb3a6","indicators":[{"word":"pots","begin":57,"end":60,"sentenceIndex":0,"sentenceBegin":0,"sentenceEnd":173}]}
{"paperId":"b0e58b0895e742a7fb777875464edf77315600b5","indicators":[{"word":"firing","begin":1210,"end":1215,"sentenceIndex":6,"sentenceBegin":1153,"sentenceEnd":1242},{"word":"firing","begin":1359,"end":1364,"sentenceIndex":7,"sentenceBegin":1244,"sentenceEnd":1418},{"word":"firing","begin":1511,"end":1516,"sentenceIndex":8,"sentenceBegin":1420,"sentenceEnd":1529},{"word":"firing","begin":2083,"end":2088,"sentenceIndex":13,"sentenceBegin":2011,"sentenceEnd":2159}]}
{"paperId":"e5d09c9bd59c599daabbc7ca49638a2635656510","indicators":[{"word":"smoke","begin":333,"end":337,"sentenceIndex":6,"sentenceBegin":319,"sentenceEnd":392}]}
{"paperId":"5d0d0bd116976e1412c10a84902894999df4a342","indicators":[{"word":"smoking","begin":447,"end":453,"sentenceIndex":4,"sentenceBegin":332,"sentenceEnd":481}]}
{"paperId":"5d0d0bd116976e1412c10a84902894999df4a342","indicators":[{"word":"vapor","begin":655,"end":659,"sentenceIndex":2,"sentenceBegin":587,"sentenceEnd":817}]}
{"paperId":"88352584f90078201f4c798a17ddf3b5e3714af4","indicators":[{"word":"vapor","begin":429,"end":433,"sentenceIndex":1,"sentenceBegin":287,"sentenceEnd":435}]}
{"paperId":"82204a9701acb01ef25d9bd2901551efa215c4b2","indicators":[{"word":"smoking","begin":218,"end":224,"sentenceIndex":1,"sentenceBegin":208,"sentenceEnd":474}]}
{"paperId":"82204a9701acb01ef25d9bd2901551efa215c4b2","indicators":[{"word":"smoke","begin":592,"end":596,"sentenceIndex":3,"sentenceBegin":464,"sentenceEnd":640},{"word":"smoking","begin":698,"end":704,"sentenceIndex":4,"sentenceBegin":642,"sentenceEnd":744}]}
{"paperId":"82204a9701acb01ef25d9bd2901551efa215c4b2","indicators":[{"word":"smoking","begin":151,"end":157,"sentenceIndex":1,"sentenceBegin":141,"sentenceEnd":231},{"word":"smoke","begin":252,"end":256,"sentenceIndex":2,"sentenceBegin":233,"sentenceEnd":443},{"word":"cigarette","begin":635,"end":643,"sentenceIndex":4,"sentenceBegin":602,"sentenceEnd":752},{"word":"smoke","begin":645,"end":649,"sentenceIndex":4,"sentenceBegin":602,"sentenceEnd":752}]}
{"paperId":"82204a9701acb01ef25d9bd2901551efa215c4b2","indicators":[{"word":"smoke","begin":245,"end":249,"sentenceIndex":1,"sentenceBegin":158,"sentenceEnd":274},{"word":"smoke","begin":314,"end":318,"sentenceIndex":2,"sentenceBegin":276,"sentenceEnd":410},{"word":"smoke","begin":527,"end":531,"sentenceIndex":4,"sentenceBegin":511,"sentenceEnd":670}]}
{"paperId":"82204a9701acb01ef25d9bd2901551efa215c4b2","indicators":[{"word":"smoking","begin":254,"end":260,"sentenceIndex":1,"sentenceBegin":115,"sentenceEnd":405},{"word":"cigarette","begin":439,"end":447,"sentenceIndex":2,"sentenceBegin":407,"sentenceEnd":556},{"word":"smoke","begin":449,"end":453,"sentenceIndex":2,"sentenceBegin":407,"sentenceEnd":556},{"word":"cigarette","begin":585,"end":593,"sentenceIndex":3,"sentenceBegin":558,"sentenceEnd":804},{"word":"smoke","begin":595,"end":599,"sentenceIndex":3,"sentenceBegin":558,"sentenceEnd":804},{"word":"cigarette","begin":947,"end":955,"sentenceIndex":5,"sentenceBegin":920,"sentenceEnd":1009},{"word":"smoke","begin":957,"end":961,"sentenceIndex":5,"sentenceBegin":920,"sentenceEnd":1009},{"word":"smoke","begin":1056,"end":1060,"sentenceIndex":6,"sentenceBegin":1011,"sentenceEnd":1178},{"word":"cigarette","begin":1204,"end":1212,"sentenceIndex":7,"sentenceBegin":1180,"sentenceEnd":1230},{"word":"smoke","begin":1214,"end":1218,"sentenceIndex":7,"sentenceBegin":1180,"sentenceEnd":1230},{"word":"cigarette","begin":1276,"end":1284,"sentenceIndex":9,"sentenceBegin":1244,"sentenceEnd":1395},{"word":"smoke","begin":1286,"end":1290,"sentenceIndex":9,"sentenceBegin":1244,"sentenceEnd":1395},{"word":"cigarette","begin":1765,"end":1773,"sentenceIndex":12,"sentenceBegin":1760,"sentenceEnd":1977},{"word":"smoking","begin":1775,"end":1781,"sentenceIndex":12,"sentenceBegin":1760,"sentenceEnd":1977},{"word":"cigarettes","begin":1798,"end":1807,"sentenceIndex":12,"sentenceBegin":1760,"sentenceEnd":1977}]}
{"paperId":"82204a9701acb01ef25d9bd2901551efa215c4b2","indicators":[{"word":"cigarettes","begin":22,"end":31,"sentenceIndex":0,"sentenceBegin":0,"sentenceEnd":94},{"word":"cigarette","begin":107,"end":115,"sentenceIndex":1,"sentenceBegin":96,"sentenceEnd":217}]}
{"paperId":"82204a9701acb01ef25d9bd2901551efa215c4b2","indicators":[{"word":"smoke","begin":338,"end":342,"sentenceIndex":2,"sentenceBegin":306,"sentenceEnd":507},{"word":"cigarettes","begin":360,"end":369,"sentenceIndex":2,"sentenceBegin":306,"sentenceEnd":507}]}
