{"paperId":"35c8688f69e56f75afc2fdad6b55657b4307f147","indicators":[{"word":"smoking","begin":120,"end":126,"sentenceIndex":0,"sentenceBegin":0,"sentenceEnd":184}]}
{"paperId":"77a22d098db8e0d4b1af3f3fd4f71cc80a762e0c","indicators":[{"word":"tobacco","begin":1460,"end":1466,"sentenceIndex":6,"sentenceBegin":1330,"sentenceEnd":1508}]}
{"paperId":"77a22d098db8e0d4b1af3f3fd4f71cc80a762e0c","indicators":[{"word":"tobacco","begin":1106,"end":1112,"sentenceIndex":4,"sentenceBegin":1043,"sentenceEnd":1295}]}
{"paperId":"f2d558db3f7f90855973b54167f14667900217cb","indicators":[{"word":"vapor","begin":93,"end":97,"sentenceIndex":1,"sentenceBegin":50,"sentenceEnd":142}]}
{"paperId":"6917631a37ea88f367ce3c017e482958e10e1c6b","indicators":[{"word":"smog","begin":530,"end":533,"sentenceIndex":4,"sentenceBegin":478,"sentenceEnd":558}]}
{"paperId":"6917631a37ea88f367ce3c017e482958e10e1c6b","indicators":[{"word":"fires","begin":82,"end":86,"sentenceIndex":0,"sentenceBegin":0,"sentenceEnd":87}]}
