{"paperId":"6e91ac0687ffd1e8266bdabf49744a11a59c599b","indicators":[{"word":"smoking","begin":157,"end":163,"sentenceIndex":1,"sentenceBegin":94,"sentenceEnd":231}]}
{"paperId":"6e91ac0687ffd1e8266bdabf49744a11a59c599b","indicators":[{"word":"smoking","begin":300,"end":306,"sentenceIndex":1,"sentenceBegin":160,"sentenceEnd":395}]}
{"paperId":"6e91ac0687ffd1e8266bdabf49744a11a59c599b","indicators":[{"word":"smoke","begin":823,"end":827,"sentenceIndex":7,"sentenceBegin":651,"sentenceEnd":883}]}
