{"paperId":"323253e9a29fdfa540349850d904eec9d42945bd","indicators":[{"word":"tobacco","begin":184,"end":190,"sentenceIndex":0,"sentenceBegin":0,"sentenceEnd":199},{"word":"smoking","begin":192,"end":198,"sentenceIndex":0,"sentenceBegin":0,"sentenceEnd":199},{"word":"vapor","begin":502,"end":506,"sentenceIndex":3,"sentenceBegin":409,"sentenceEnd":538}]}
{"paperId":"323253e9a29fdfa540349850d904eec9d42945bd","indicators":[{"word":"tobacco","begin":388,"end":394,"sentenceIndex":1,"sentenceBegin":262,"sentenceEnd":494}]}
{"paperId":"323253e9a29fdfa540349850d904eec9d42945bd","indicators":[{"word":"vapor","begin":177,"end":181,"sentenceIndex":1,"sentenceBegin":154,"sentenceEnd":338}]}
