{"paperId":"373707fee08b2817f25bb383953d6624a314b67f","indicators":[{"word":"tobacco","begin":377,"end":383,"sentenceIndex":0,"sentenceBegin":0,"sentenceEnd":623},{"word":"smoking","begin":385,"end":391,"sentenceIndex":0,"sentenceBegin":0,"sentenceEnd":623}]}
{"paperId":"373707fee08b2817f25bb383953d6624a314b67f","indicators":[{"word":"tobacco","begin":377,"end":383,"sentenceIndex":2,"sentenceBegin":304,"sentenceEnd":390},{"word":"smoke","begin":385,"end":389,"sentenceIndex":2,"sentenceBegin":304,"sentenceEnd":390}]}
{"paperId":"fbdedf51f9ee660bf9d1c90d80d4a3273bec88d5","indicators":[{"word":"smoking","begin":608,"end":614,"sentenceIndex":4,"sentenceBegin":525,"sentenceEnd":716}]}
