{"paperId":"d27d5cf033f288c14028b3aff1433e3366488137","indicators":[{"word":"fires","begin":1165,"end":1169,"sentenceIndex":3,"sentenceBegin":1099,"sentenceEnd":1420}]}
{"paperId":"9507dd99d6754bf58e653bcc76a83b3c0f33ae19","indicators":[{"word":"smoke","begin":552,"end":556,"sentenceIndex":6,"sentenceBegin":467,"sentenceEnd":575}]}
{"paperId":"ecb051d664b2de44d4b7c3aec58f211ada114865","indicators":[{"word":"smoke","begin":888,"end":892,"sentenceIndex":10,"sentenceBegin":841,"sentenceEnd":893}]}
