{"paperId":"7827a971206cdb5608919549c41a9275ad7362ec","indicators":[{"word":"fired","begin":388,"end":392,"sentenceIndex":2,"sentenceBegin":233,"sentenceEnd":433}]}
{"paperId":"7827a971206cdb5608919549c41a9275ad7362ec","indicators":[{"word":"cigarette","begin":769,"end":777,"sentenceIndex":3,"sentenceBegin":527,"sentenceEnd":797},{"word":"smoke","begin":779,"end":783,"sentenceIndex":3,"sentenceBegin":527,"sentenceEnd":797}]}
{"paperId":"d5893ccaf0c595dc97f6615cecfdf6551aa3e547","indicators":[{"word":"pots","begin":221,"end":224,"sentenceIndex":1,"sentenceBegin":73,"sentenceEnd":275}]}
{"paperId":"d5893ccaf0c595dc97f6615cecfdf6551aa3e547","indicators":[{"word":"pot","begin":343,"end":345,"sentenceIndex":2,"sentenceBegin":219,"sentenceEnd":499}]}
{"paperId":"b0b22168217c9aa7294842ccd6d8810283bd659e","indicators":[{"word":"smoking","begin":307,"end":313,"sentenceIndex":4,"sentenceBegin":294,"sentenceEnd":351}]}
{"paperId":"b0b22168217c9aa7294842ccd6d8810283bd659e","indicators":[{"word":"smoking","begin":1917,"end":1923,"sentenceIndex":11,"sentenceBegin":1764,"sentenceEnd":1941},{"word":"smoking","begin":2214,"end":2220,"sentenceIndex":13,"sentenceBegin":2083,"sentenceEnd":2725}]}
{"paperId":"b0b22168217c9aa7294842ccd6d8810283bd659e","indicators":[{"word":"fires","begin":96,"end":100,"sentenceIndex":1,"sentenceBegin":65,"sentenceEnd":172}]}
{"paperId":"b0b22168217c9aa7294842ccd6d8810283bd659e","indicators":[{"word":"smoke","begin":65,"end":69,"sentenceIndex":0,"sentenceBegin":0,"sentenceEnd":303},{"word":"fumes","begin":160,"end":164,"sentenceIndex":0,"sentenceBegin":0,"sentenceEnd":303}]}
{"paperId":"b0b22168217c9aa7294842ccd6d8810283bd659e","indicators":[{"word":"smoke","begin":292,"end":296,"sentenceIndex":2,"sentenceBegin":246,"sentenceEnd":297}]}
{"paperId":"b0b22168217c9aa7294842ccd6d8810283bd659e","indicators":[{"word":"fires","begin":70,"end":74,"sentenceIndex":0,"sentenceBegin":0,"sentenceEnd":75},{"word":"smoke","begin":152,"end":156,"sentenceIndex":1,"sentenceBegin":77,"sentenceEnd":168},{"word":"smoke","begin":233,"end":237,"sentenceIndex":2,"sentenceBegin":170,"sentenceEnd":297},{"word":"fires","begin":292,"end":296,"sentenceIndex":2,"sentenceBegin":170,"sentenceEnd":297},{"word":"smoke","begin":326,"end":330,"sentenceIndex":3,"sentenceBegin":299,"sentenceEnd":527},{"word":"smoke","begin":423,"end":427,"sentenceIndex":3,"sentenceBegin":299,"sentenceEnd":527},{"word":"smoke","begin":479,"end":483,"sentenceIndex":3,"sentenceBegin":299,"sentenceEnd":527},{"word":"smoke","begin":536,"end":540,"sentenceIndex":4,"sentenceBegin":529,"sentenceEnd":638},{"word":"fires","begin":767,"end":771,"sentenceIndex":6,"sentenceBegin":716,"sentenceEnd":821},{"word":"smoke","begin":805,"end":809,"sentenceIndex":6,"sentenceBegin":716,"sentenceEnd":821}]}
{"paperId":"b0b22168217c9aa7294842ccd6d8810283bd659e","indicators":[{"word":"vapor","begin":36,"end":40,"sentenceIndex":0,"sentenceBegin":0,"sentenceEnd":168},{"word":"smoke","begin":195,"end":199,"sentenceIndex":1,"sentenceBegin":170,"sentenceEnd":302},{"word":"smoke","begin":364,"end":368,"sentenceIndex":2,"sentenceBegin":304,"sentenceEnd":414},{"word":"smoke","begin":519,"end":523,"sentenceIndex":3,"sentenceBegin":416,"sentenceEnd":615}]}
{"paperId":"b0b22168217c9aa7294842ccd6d8810283bd659e","indicators":[{"word":"fires","begin":179,"end":183,"sentenceIndex":1,"sentenceBegin":85,"sentenceEnd":205},{"word":"fires","begin":200,"end":204,"sentenceIndex":1,"sentenceBegin":85,"sentenceEnd":205}]}
{"paperId":"b0b22168217c9aa7294842ccd6d8810283bd659e","indicators":[{"word":"smoke","begin":23,"end":27,"sentenceIndex":0,"sentenceBegin":0,"sentenceEnd":101}]}
{"paperId":"b0b22168217c9aa7294842ccd6d8810283bd659e","indicators":[{"word":"smoke","begin":24,"end":28,"sentenceIndex":0,"sentenceBegin":0,"sentenceEnd":80}]}
{"paperId":"b0b22168217c9aa7294842ccd6d8810283bd659e","indicators":[{"word":"smoke","begin":362,"end":366,"sentenceIndex":4,"sentenceBegin":277,"sentenceEnd":378}]}
{"paperId":"b0b22168217c9aa7294842ccd6d8810283bd659e","indicators":[{"word":"smoke","begin":239,"end":243,"sentenceIndex":2,"sentenceBegin":197,"sentenceEnd":309}]}
{"paperId":"b0b22168217c9aa7294842ccd6d8810283bd659e","indicators":[{"word":"smoke","begin":187,"end":191,"sentenceIndex":1,"sentenceBegin":149,"sentenceEnd":294}]}
{"paperId":"b0b22168217c9aa7294842ccd6d8810283bd659e","indicators":[{"word":"fires","begin":111,"end":115,"sentenceIndex":0,"sentenceBegin":0,"sentenceEnd":116},{"word":"fires","begin":142,"end":146,"sentenceIndex":1,"sentenceBegin":118,"sentenceEnd":172},{"word":"smoke","begin":184,"end":188,"sentenceIndex":2,"sentenceBegin":174,"sentenceEnd":296},{"word":"smoke","begin":367,"end":371,"sentenceIndex":3,"sentenceBegin":298,"sentenceEnd":372},{"word":"smoke","begin":539,"end":543,"sentenceIndex":6,"sentenceBegin":512,"sentenceEnd":602}]}
{"paperId":"b0b22168217c9aa7294842ccd6d8810283bd659e","indicators":[{"word":"smoke","begin":131,"end":135,"sentenceIndex":1,"sentenceBegin":90,"sentenceEnd":158},{"word":"fires","begin":153,"end":157,"sentenceIndex":1,"sentenceBegin":90,"sentenceEnd":158},{"word":"smoke","begin":178,"end":182,"sentenceIndex":2,"sentenceBegin":160,"sentenceEnd":235},{"word":"tobacco","begin":255,"end":261,"sentenceIndex":3,"sentenceBegin":237,"sentenceEnd":365},{"word":"smoke","begin":263,"end":267,"sentenceIndex":3,"sentenceBegin":237,"sentenceEnd":365}]}
{"paperId":"b0b22168217c9aa7294842ccd6d8810283bd659e","indicators":[{"word":"fires","begin":319,"end":323,"sentenceIndex":4,"sentenceBegin":314,"sentenceEnd":401},{"word":"smoke","begin":341,"end":345,"sentenceIndex":4,"sentenceBegin":314,"sentenceEnd":401},{"word":"smoke","begin":492,"end":496,"sentenceIndex":5,"sentenceBegin":403,"sentenceEnd":558}]}
{"paperId":"b0b22168217c9aa7294842ccd6d8810283bd659e","indicators":[{"word":"smoke","begin":244,"end":248,"sentenceIndex":1,"sentenceBegin":133,"sentenceEnd":260}]}
{"paperId":"b0b22168217c9aa7294842ccd6d8810283bd659e","indicators":[{"word":"fires","begin":243,"end":247,"sentenceIndex":1,"sentenceBegin":238,"sentenceEnd":373},{"word":"fires","begin":264,"end":268,"sentenceIndex":1,"sentenceBegin":238,"sentenceEnd":373},{"word":"fires","begin":286,"end":290,"sentenceIndex":1,"sentenceBegin":238,"sentenceEnd":373},{"word":"smoke","begin":368,"end":372,"sentenceIndex":1,"sentenceBegin":238,"sentenceEnd":373}]}
{"paperId":"b0b22168217c9aa7294842ccd6d8810283bd659e","indicators":[{"word":"smoke","begin":306,"end":310,"sentenceIndex":1,"sentenceBegin":132,"sentenceEnd":328}]}
{"paperId":"b0b22168217c9aa7294842ccd6d8810283bd659e","indicators":[{"word":"smoked","begin":100,"end":105,"sentenceIndex":1,"sentenceBegin":50,"sentenceEnd":106},{"word":"smoking","begin":231,"end":237,"sentenceIndex":3,"sentenceBegin":165,"sentenceEnd":289},{"word":"smoking","begin":565,"end":571,"sentenceIndex":6,"sentenceBegin":477,"sentenceEnd":584},{"word":"smoking","begin":705,"end":711,"sentenceIndex":7,"sentenceBegin":586,"sentenceEnd":712},{"word":"smoking","begin":729,"end":735,"sentenceIndex":8,"sentenceBegin":714,"sentenceEnd":833}]}
{"paperId":"b0b22168217c9aa7294842ccd6d8810283bd659e","indicators":[{"word":"smoking","begin":986,"end":992,"sentenceIndex":6,"sentenceBegin":907,"sentenceEnd":1006},{"word":"smoked","begin":1218,"end":1223,"sentenceIndex":8,"sentenceBegin":1128,"sentenceEnd":1298},{"word":"vapors","begin":1244,"end":1249,"sentenceIndex":8,"sentenceBegin":1128,"sentenceEnd":1298}]}
{"paperId":"b0b22168217c9aa7294842ccd6d8810283bd659e","indicators":[{"word":"smoked","begin":73,"end":78,"sentenceIndex":1,"sentenceBegin":46,"sentenceEnd":197},{"word":"vapors","begin":100,"end":105,"sentenceIndex":1,"sentenceBegin":46,"sentenceEnd":197}]}
{"paperId":"b0b22168217c9aa7294842ccd6d8810283bd659e","indicators":[{"word":"smoked","begin":146,"end":151,"sentenceIndex":1,"sentenceBegin":134,"sentenceEnd":152}]}
{"paperId":"b0b22168217c9aa7294842ccd6d8810283bd659e","indicators":[{"word":"smoking","begin":385,"end":391,"sentenceIndex":3,"sentenceBegin":325,"sentenceEnd":392}]}
{"paperId":"b0b22168217c9aa7294842ccd6d8810283bd659e","indicators":[{"word":"smoking","begin":119,"end":125,"sentenceIndex":0,"sentenceBegin":0,"sentenceEnd":126},{"word":"smoking","begin":621,"end":627,"sentenceIndex":4,"sentenceBegin":567,"sentenceEnd":628},{"word":"smoking","begin":716,"end":722,"sentenceIndex":5,"sentenceBegin":630,"sentenceEnd":723},{"word":"smoking","begin":1160,"end":1166,"sentenceIndex":9,"sentenceBegin":1116,"sentenceEnd":1335},{"word":"tobacco","begin":1205,"end":1211,"sentenceIndex":9,"sentenceBegin":1116,"sentenceEnd":1335},{"word":"smoke","begin":1213,"end":1217,"sentenceIndex":9,"sentenceBegin":1116,"sentenceEnd":1335},{"word":"tobacco","begin":1328,"end":1334,"sentenceIndex":9,"sentenceBegin":1116,"sentenceEnd":1335},{"word":"smoking","begin":1372,"end":1378,"sentenceIndex":10,"sentenceBegin":1337,"sentenceEnd":1456},{"word":"tobacco","begin":1435,"end":1441,"sentenceIndex":10,"sentenceBegin":1337,"sentenceEnd":1456},{"word":"smoking","begin":1443,"end":1449,"sentenceIndex":10,"sentenceBegin":1337,"sentenceEnd":1456},{"word":"smoke","begin":1468,"end":1472,"sentenceIndex":11,"sentenceBegin":1458,"sentenceEnd":1577},{"word":"tobacco","begin":1484,"end":1490,"sentenceIndex":11,"sentenceBegin":1458,"sentenceEnd":1577},{"word":"smoke","begin":1492,"end":1496,"sentenceIndex":11,"sentenceBegin":1458,"sentenceEnd":1577},{"word":"tobacco","begin":1836,"end":1842,"sentenceIndex":13,"sentenceBegin":1762,"sentenceEnd":1898},{"word":"smoking","begin":1986,"end":1992,"sentenceIndex":15,"sentenceBegin":1968,"sentenceEnd":2072}]}
{"paperId":"b0b22168217c9aa7294842ccd6d8810283bd659e","indicators":[{"word":"smoke","begin":346,"end":350,"sentenceIndex":3,"sentenceBegin":266,"sentenceEnd":414}]}
{"paperId":"b0b22168217c9aa7294842ccd6d8810283bd659e","indicators":[{"word":"smoking","begin":103,"end":109,"sentenceIndex":1,"sentenceBegin":88,"sentenceEnd":150},{"word":"smoke","begin":208,"end":212,"sentenceIndex":2,"sentenceBegin":152,"sentenceEnd":247}]}
{"paperId":"b0b22168217c9aa7294842ccd6d8810283bd659e","indicators":[{"word":"smoke","begin":159,"end":163,"sentenceIndex":1,"sentenceBegin":114,"sentenceEnd":321}]}
{"paperId":"b0b22168217c9aa7294842ccd6d8810283bd659e","indicators":[{"word":"smoking","begin":101,"end":107,"sentenceIndex":0,"sentenceBegin":0,"sentenceEnd":108},{"word":"smoke","begin":168,"end":172,"sentenceIndex":1,"sentenceBegin":110,"sentenceEnd":376},{"word":"tobacco","begin":209,"end":215,"sentenceIndex":1,"sentenceBegin":110,"sentenceEnd":376}]}
{"paperId":"b0b22168217c9aa7294842ccd6d8810283bd659e","indicators":[{"word":"smoking","begin":547,"end":553,"sentenceIndex":5,"sentenceBegin":465,"sentenceEnd":590}]}
{"paperId":"b0b22168217c9aa7294842ccd6d8810283bd659e","indicators":[{"word":"smoking","begin":853,"end":859,"sentenceIndex":8,"sentenceBegin":795,"sentenceEnd":860}]}
{"paperId":"b0b22168217c9aa7294842ccd6d8810283bd659e","indicators":[{"word":"smoke","begin":191,"end":195,"sentenceIndex":1,"sentenceBegin":92,"sentenceEnd":223}]}
{"paperId":"b0b22168217c9aa7294842ccd6d8810283bd659e","indicators":[{"word":"tobacco","begin":313,"end":319,"sentenceIndex":2,"sentenceBegin":240,"sentenceEnd":413}]}
{"paperId":"8c93a69ce8eb2ba0885364e7e4fff86d2dce93a3","indicators":[{"word":"tobacco","begin":43,"end":49,"sentenceIndex":0,"sentenceBegin":0,"sentenceEnd":145}]}
{"paperId":"8c93a69ce8eb2ba0885364e7e4fff86d2dce93a3","indicators":[{"word":"tobacco","begin":227,"end":233,"sentenceIndex":1,"sentenceBegin":184,"sentenceEnd":328}]}
{"paperId":"f8e1f736e9f950ab793f509f0c0e59cf6ddce4a4","indicators":[{"word":"smoking","begin":448,"end":454,"sentenceIndex":4,"sentenceBegin":414,"sentenceEnd":473}]}
{"paperId":"f8e1f736e9f950ab793f509f0c0e59cf6ddce4a4","indicators":[{"word":"cigarette","begin":62,"end":70,"sentenceIndex":0,"sentenceBegin":0,"sentenceEnd":80}]}
{"paperId":"f8e1f736e9f950ab793f509f0c0e59cf6ddce4a4","indicators":[{"word":"cigarette","begin":177,"end":185,"sentenceIndex":0,"sentenceBegin":0,"sentenceEnd":524},{"word":"smoking","begin":187,"end":193,"sentenceIndex":0,"sentenceBegin":0,"sentenceEnd":524},{"word":"cigarette","begin":355,"end":363,"sentenceIndex":0,"sentenceBegin":0,"sentenceEnd":524}]}
{"paperId":"f8e1f736e9f950ab793f509f0c0e59cf6ddce4a4","indicators":[{"word":"cigarettes","begin":62,"end":71,"sentenceIndex":0,"sentenceBegin":0,"sentenceEnd":80}]}
{"paperId":"f8e1f736e9f950ab793f509f0c0e59cf6ddce4a4","indicators":[{"word":"smoking","begin":573,"end":579,"sentenceIndex":11,"sentenceBegin":548,"sentenceEnd":598},{"word":"cigarette","begin":651,"end":659,"sentenceIndex":12,"sentenceBegin":600,"sentenceEnd":744},{"word":"smoking","begin":661,"end":667,"sentenceIndex":12,"sentenceBegin":600,"sentenceEnd":744}]}
{"paperId":"f8e1f736e9f950ab793f509f0c0e59cf6ddce4a4","indicators":[{"word":"cigarette","begin":309,"end":317,"sentenceIndex":2,"sentenceBegin":265,"sentenceEnd":465}]}
{"paperId":"f8e1f736e9f950ab793f509f0c0e59cf6ddce4a4","indicators":[{"word":"smoking","begin":679,"end":685,"sentenceIndex":5,"sentenceBegin":526,"sentenceEnd":744}]}
{"paperId":"9fed87e98cfecd6d39370ef5d81894d276eefaa4","indicators":[{"word":"tobacco","begin":1430,"end":1436,"sentenceIndex":10,"sentenceBegin":1212,"sentenceEnd":1444},{"word":"smoke","begin":1438,"end":1442,"sentenceIndex":10,"sentenceBegin":1212,"sentenceEnd":1444}]}
{"paperId":"9fed87e98cfecd6d39370ef5d81894d276eefaa4","indicators":[{"word":"tobacco","begin":421,"end":427,"sentenceIndex":2,"sentenceBegin":235,"sentenceEnd":581},{"word":"smoke","begin":429,"end":433,"sentenceIndex":2,"sentenceBegin":235,"sentenceEnd":581},{"word":"tobacco","begin":2039,"end":2045,"sentenceIndex":16,"sentenceBegin":2021,"sentenceEnd":2124},{"word":"smoke","begin":2047,"end":2051,"sentenceIndex":16,"sentenceBegin":2021,"sentenceEnd":2124}]}
{"paperId":"9fed87e98cfecd6d39370ef5d81894d276eefaa4","indicators":[{"word":"smoke","begin":870,"end":874,"sentenceIndex":3,"sentenceBegin":858,"sentenceEnd":1031}]}
{"paperId":"9fed87e98cfecd6d39370ef5d81894d276eefaa4","indicators":[{"word":"tobacco","begin":3455,"end":3461,"sentenceIndex":22,"sentenceBegin":3442,"sentenceEnd":3540},{"word":"smoke","begin":3463,"end":3467,"sentenceIndex":22,"sentenceBegin":3442,"sentenceEnd":3540}]}
{"paperId":"9fed87e98cfecd6d39370ef5d81894d276eefaa4","indicators":[{"word":"smoking","begin":531,"end":537,"sentenceIndex":3,"sentenceBegin":393,"sentenceEnd":538}]}
{"paperId":"9fed87e98cfecd6d39370ef5d81894d276eefaa4","indicators":[{"word":"tobacco","begin":14,"end":20,"sentenceIndex":0,"sentenceBegin":0,"sentenceEnd":93},{"word":"smoke","begin":22,"end":26,"sentenceIndex":0,"sentenceBegin":0,"sentenceEnd":93},{"word":"smoke","begin":215,"end":219,"sentenceIndex":2,"sentenceBegin":188,"sentenceEnd":343},{"word":"smoke","begin":292,"end":296,"sentenceIndex":2,"sentenceBegin":188,"sentenceEnd":343},{"word":"cigarette","begin":334,"end":342,"sentenceIndex":2,"sentenceBegin":188,"sentenceEnd":343},{"word":"tobacco","begin":447,"end":453,"sentenceIndex":4,"sentenceBegin":416,"sentenceEnd":482},{"word":"smoke","begin":455,"end":459,"sentenceIndex":4,"sentenceBegin":416,"sentenceEnd":482},{"word":"smoking","begin":745,"end":751,"sentenceIndex":7,"sentenceBegin":671,"sentenceEnd":789},{"word":"smoking","begin":1000,"end":1006,"sentenceIndex":9,"sentenceBegin":906,"sentenceEnd":1065},{"word":"tobacco","begin":1428,"end":1434,"sentenceIndex":12,"sentenceBegin":1410,"sentenceEnd":1522},{"word":"smoke","begin":1436,"end":1440,"sentenceIndex":12,"sentenceBegin":1410,"sentenceEnd":1522},{"word":"smoking","begin":1585,"end":1591,"sentenceIndex":13,"sentenceBegin":1524,"sentenceEnd":1608},{"word":"smoking","begin":1995,"end":2001,"sentenceIndex":16,"sentenceBegin":1821,"sentenceEnd":2010},{"word":"smoking","begin":2221,"end":2227,"sentenceIndex":18,"sentenceBegin":2212,"sentenceEnd":2374},{"word":"smoked","begin":2475,"end":2480,"sentenceIndex":19,"sentenceBegin":2376,"sentenceEnd":2481},{"word":"smoking","begin":2520,"end":2526,"sentenceIndex":20,"sentenceBegin":2483,"sentenceEnd":2597},{"word":"smoke","begin":2796,"end":2800,"sentenceIndex":21,"sentenceBegin":2599,"sentenceEnd":2810},{"word":"smoking","begin":2848,"end":2854,"sentenceIndex":22,"sentenceBegin":2812,"sentenceEnd":3042},{"word":"smoking","begin":2996,"end":3002,"sentenceIndex":22,"sentenceBegin":2812,"sentenceEnd":3042},{"word":"smoking","begin":3221,"end":3227,"sentenceIndex":24,"sentenceBegin":3172,"sentenceEnd":3327},{"word":"smoking","begin":3394,"end":3400,"sentenceIndex":25,"sentenceBegin":3329,"sentenceEnd":3423},{"word":"tobacco","begin":3748,"end":3754,"sentenceIndex":27,"sentenceBegin":3695,"sentenceEnd":3828},{"word":"tobacco","begin":3809,"end":3815,"sentenceIndex":27,"sentenceBegin":3695,"sentenceEnd":3828},{"word":"smoking","begin":3901,"end":3907,"sentenceIndex":28,"sentenceBegin":3830,"sentenceEnd":3928}]}
{"paperId":"9fed87e98cfecd6d39370ef5d81894d276eefaa4","indicators":[{"word":"smoke","begin":163,"end":167,"sentenceIndex":0,"sentenceBegin":0,"sentenceEnd":285},{"word":"smoking","begin":1246,"end":1252,"sentenceIndex":8,"sentenceBegin":1207,"sentenceEnd":1253},{"word":"cigarette","begin":1273,"end":1281,"sentenceIndex":9,"sentenceBegin":1255,"sentenceEnd":1419},{"word":"smoking","begin":1283,"end":1289,"sentenceIndex":9,"sentenceBegin":1255,"sentenceEnd":1419},{"word":"smoke","begin":1489,"end":1493,"sentenceIndex":10,"sentenceBegin":1421,"sentenceEnd":1502},{"word":"tobacco","begin":1578,"end":1584,"sentenceIndex":11,"sentenceBegin":1504,"sentenceEnd":1661},{"word":"smoking","begin":1586,"end":1592,"sentenceIndex":11,"sentenceBegin":1504,"sentenceEnd":1661},{"word":"tobacco","begin":1724,"end":1730,"sentenceIndex":12,"sentenceBegin":1663,"sentenceEnd":1935},{"word":"tobacco","begin":1805,"end":1811,"sentenceIndex":12,"sentenceBegin":1663,"sentenceEnd":1935},{"word":"smoking","begin":1813,"end":1819,"sentenceIndex":12,"sentenceBegin":1663,"sentenceEnd":1935},{"word":"tobacco","begin":1881,"end":1887,"sentenceIndex":12,"sentenceBegin":1663,"sentenceEnd":1935},{"word":"smoking","begin":1889,"end":1895,"sentenceIndex":12,"sentenceBegin":1663,"sentenceEnd":1935}]}
{"paperId":"9fed87e98cfecd6d39370ef5d81894d276eefaa4","indicators":[{"word":"tobacco","begin":1469,"end":1475,"sentenceIndex":9,"sentenceBegin":1301,"sentenceEnd":1511},{"word":"smoke","begin":1477,"end":1481,"sentenceIndex":9,"sentenceBegin":1301,"sentenceEnd":1511}]}
{"paperId":"9fed87e98cfecd6d39370ef5d81894d276eefaa4","indicators":[{"word":"smoking","begin":2114,"end":2120,"sentenceIndex":12,"sentenceBegin":2028,"sentenceEnd":2149},{"word":"fumes","begin":3505,"end":3509,"sentenceIndex":22,"sentenceBegin":3417,"sentenceEnd":3616},{"word":"smoke","begin":3669,"end":3673,"sentenceIndex":23,"sentenceBegin":3618,"sentenceEnd":3764}]}
{"paperId":"9fed87e98cfecd6d39370ef5d81894d276eefaa4","indicators":[{"word":"smoking","begin":3703,"end":3709,"sentenceIndex":25,"sentenceBegin":3532,"sentenceEnd":3751}]}
{"paperId":"9fed87e98cfecd6d39370ef5d81894d276eefaa4","indicators":[{"word":"smoked","begin":748,"end":753,"sentenceIndex":6,"sentenceBegin":692,"sentenceEnd":853}]}
{"paperId":"0137786bac23ca2e851262f4341738ddc59344c4","indicators":[{"word":"smoking","begin":196,"end":202,"sentenceIndex":2,"sentenceBegin":182,"sentenceEnd":284}]}
{"paperId":"0137786bac23ca2e851262f4341738ddc59344c4","indicators":[{"word":"fires","begin":304,"end":308,"sentenceIndex":2,"sentenceBegin":200,"sentenceEnd":355}]}
{"paperId":"0137786bac23ca2e851262f4341738ddc59344c4","indicators":[{"word":"smoking","begin":793,"end":799,"sentenceIndex":3,"sentenceBegin":570,"sentenceEnd":946}]}
{"paperId":"b7657b4a61a238d51ad87c51728de292c4dd1ecf","indicators":[{"word":"pot","begin":1180,"end":1182,"sentenceIndex":12,"sentenceBegin":1131,"sentenceEnd":1468},{"word":"pot","begin":1391,"end":1393,"sentenceIndex":12,"sentenceBegin":1131,"sentenceEnd":1468},{"word":"pot","begin":1549,"end":1551,"sentenceIndex":13,"sentenceBegin":1470,"sentenceEnd":1732},{"word":"pot","begin":1626,"end":1628,"sentenceIndex":13,"sentenceBegin":1470,"sentenceEnd":1732},{"word":"pot","begin":1912,"end":1914,"sentenceIndex":14,"sentenceBegin":1734,"sentenceEnd":2103}]}
{"paperId":"b7657b4a61a238d51ad87c51728de292c4dd1ecf","indicators":[{"word":"fumes","begin":774,"end":778,"sentenceIndex":7,"sentenceBegin":710,"sentenceEnd":853}]}
{"paperId":"a979eff1eb01615100a380d6f2500dbb69a3e583","indicators":[{"word":"tobacco","begin":129,"end":135,"sentenceIndex":0,"sentenceBegin":0,"sentenceEnd":145}]}
{"paperId":"5260a71df26d9c28551f04bdf43fabf540beb9ab","indicators":[{"word":"smoking","begin":727,"end":733,"sentenceIndex":3,"sentenceBegin":547,"sentenceEnd":822}]}
{"paperId":"5260a71df26d9c28551f04bdf43fabf540beb9ab","indicators":[{"word":"smoking","begin":767,"end":773,"sentenceIndex":5,"sentenceBegin":629,"sentenceEnd":774}]}
{"paperId":"9347c26d199102fa71e3f18218bd474c4d2586e3","indicators":[{"word":"smoking","begin":50,"end":56,"sentenceIndex":0,"sentenceBegin":0,"sentenceEnd":92}]}
{"paperId":"9347c26d199102fa71e3f18218bd474c4d2586e3","indicators":[{"word":"smoking","begin":552,"end":558,"sentenceIndex":6,"sentenceBegin":533,"sentenceEnd":590}]}
{"paperId":"9347c26d199102fa71e3f18218bd474c4d2586e3","indicators":[{"word":"smoking","begin":203,"end":209,"sentenceIndex":3,"sentenceBegin":199,"sentenceEnd":310},{"word":"smoking","begin":303,"end":309,"sentenceIndex":3,"sentenceBegin":199,"sentenceEnd":310},{"word":"smoking","begin":353,"end":359,"sentenceIndex":4,"sentenceBegin":312,"sentenceEnd":410},{"word":"smoking","begin":425,"end":431,"sentenceIndex":5,"sentenceBegin":412,"sentenceEnd":539},{"word":"smoking","begin":503,"end":509,"sentenceIndex":5,"sentenceBegin":412,"sentenceEnd":539}]}
{"paperId":"9347c26d199102fa71e3f18218bd474c4d2586e3","indicators":[{"word":"smoking","begin":1645,"end":1651,"sentenceIndex":13,"sentenceBegin":1608,"sentenceEnd":1652}]}
{"paperId":"9347c26d199102fa71e3f18218bd474c4d2586e3","indicators":[{"word":"puffs","begin":408,"end":412,"sentenceIndex":2,"sentenceBegin":316,"sentenceEnd":464},{"word":"puffs","begin":429,"end":433,"sentenceIndex":2,"sentenceBegin":316,"sentenceEnd":464}]}
{"paperId":"9347c26d199102fa71e3f18218bd474c4d2586e3","indicators":[{"word":"smoking","begin":70,"end":76,"sentenceIndex":0,"sentenceBegin":0,"sentenceEnd":161},{"word":"smoking","begin":379,"end":385,"sentenceIndex":2,"sentenceBegin":289,"sentenceEnd":386}]}
{"paperId":"9347c26d199102fa71e3f18218bd474c4d2586e3","indicators":[{"word":"smoking","begin":784,"end":790,"sentenceIndex":10,"sentenceBegin":741,"sentenceEnd":856},{"word":"smoking","begin":823,"end":829,"sentenceIndex":10,"sentenceBegin":741,"sentenceEnd":856}]}
{"paperId":"9347c26d199102fa71e3f18218bd474c4d2586e3","indicators":[{"word":"smoking","begin":281,"end":287,"sentenceIndex":1,"sentenceBegin":129,"sentenceEnd":306}]}
{"paperId":"9347c26d199102fa71e3f18218bd474c4d2586e3","indicators":[{"word":"smoking","begin":209,"end":215,"sentenceIndex":2,"sentenceBegin":199,"sentenceEnd":326}]}
{"paperId":"9347c26d199102fa71e3f18218bd474c4d2586e3","indicators":[{"word":"smoking","begin":441,"end":447,"sentenceIndex":5,"sentenceBegin":319,"sentenceEnd":455}]}
{"paperId":"9347c26d199102fa71e3f18218bd474c4d2586e3","indicators":[{"word":"smoking","begin":301,"end":307,"sentenceIndex":2,"sentenceBegin":274,"sentenceEnd":414}]}
{"paperId":"9347c26d199102fa71e3f18218bd474c4d2586e3","indicators":[{"word":"smoking","begin":221,"end":227,"sentenceIndex":1,"sentenceBegin":193,"sentenceEnd":320}]}
{"paperId":"9347c26d199102fa71e3f18218bd474c4d2586e3","indicators":[{"word":"smoking","begin":28,"end":34,"sentenceIndex":0,"sentenceBegin":0,"sentenceEnd":147}]}
{"paperId":"9347c26d199102fa71e3f18218bd474c4d2586e3","indicators":[{"word":"smoking","begin":245,"end":251,"sentenceIndex":2,"sentenceBegin":202,"sentenceEnd":337}]}
{"paperId":"9347c26d199102fa71e3f18218bd474c4d2586e3","indicators":[{"word":"smoking","begin":242,"end":248,"sentenceIndex":2,"sentenceBegin":233,"sentenceEnd":371},{"word":"smoking","begin":414,"end":420,"sentenceIndex":3,"sentenceBegin":373,"sentenceEnd":571}]}
{"paperId":"9347c26d199102fa71e3f18218bd474c4d2586e3","indicators":[{"word":"smoking","begin":139,"end":145,"sentenceIndex":1,"sentenceBegin":91,"sentenceEnd":152}]}
{"paperId":"9347c26d199102fa71e3f18218bd474c4d2586e3","indicators":[{"word":"smoking","begin":221,"end":227,"sentenceIndex":3,"sentenceBegin":202,"sentenceEnd":236},{"word":"smoking","begin":832,"end":838,"sentenceIndex":8,"sentenceBegin":780,"sentenceEnd":880},{"word":"smoked","begin":854,"end":859,"sentenceIndex":8,"sentenceBegin":780,"sentenceEnd":880},{"word":"smoking","begin":1158,"end":1164,"sentenceIndex":12,"sentenceBegin":1126,"sentenceEnd":1307}]}
{"paperId":"9347c26d199102fa71e3f18218bd474c4d2586e3","indicators":[{"word":"smoking","begin":600,"end":606,"sentenceIndex":4,"sentenceBegin":484,"sentenceEnd":626}]}
{"paperId":"6547b7e8f4c29300eff589a61ec0825cd79d583e","indicators":[{"word":"fired","begin":342,"end":346,"sentenceIndex":2,"sentenceBegin":281,"sentenceEnd":449}]}
{"paperId":"6547b7e8f4c29300eff589a61ec0825cd79d583e","indicators":[{"word":"fires","begin":374,"end":378,"sentenceIndex":1,"sentenceBegin":270,"sentenceEnd":477},{"word":"fires","begin":928,"end":932,"sentenceIndex":4,"sentenceBegin":722,"sentenceEnd":999}]}
{"paperId":"6547b7e8f4c29300eff589a61ec0825cd79d583e","indicators":[{"word":"tobacco","begin":621,"end":627,"sentenceIndex":2,"sentenceBegin":338,"sentenceEnd":680}]}
{"paperId":"6547b7e8f4c29300eff589a61ec0825cd79d583e","indicators":[{"word":"smoking","begin":887,"end":893,"sentenceIndex":3,"sentenceBegin":273,"sentenceEnd":1242}]}
{"paperId":"6547b7e8f4c29300eff589a61ec0825cd79d583e","indicators":[{"word":"smoking","begin":635,"end":641,"sentenceIndex":3,"sentenceBegin":310,"sentenceEnd":1774}]}
{"paperId":"6547b7e8f4c29300eff589a61ec0825cd79d583e","indicators":[{"word":"smoking","begin":385,"end":391,"sentenceIndex":1,"sentenceBegin":214,"sentenceEnd":427}]}
{"paperId":"b76aa2d95289244776692eaf2c39d09bccf089a4","indicators":[{"word":"tobacco","begin":3084,"end":3090,"sentenceIndex":27,"sentenceBegin":3016,"sentenceEnd":3159}]}
