{"paperId":"f3ee67afa3aba69127b3d2aa261c7da12f38a803","indicators":[{"word":"smoking","begin":1070,"end":1076,"sentenceIndex":5,"sentenceBegin":1034,"sentenceEnd":1258}]}
{"paperId":"392ffca5f8d4c7ba8b2ac2cbf027d0c58d4030ed","indicators":[{"word":"vapor","begin":202,"end":206,"sentenceIndex":1,"sentenceBegin":86,"sentenceEnd":213}]}
{"paperId":"392ffca5f8d4c7ba8b2ac2cbf027d0c58d4030ed","indicators":[{"word":"vapor","begin":510,"end":514,"sentenceIndex":4,"sentenceBegin":470,"sentenceEnd":606},{"word":"vapor","begin":969,"end":973,"sentenceIndex":8,"sentenceBegin":860,"sentenceEnd":1042}]}
{"paperId":"392ffca5f8d4c7ba8b2ac2cbf027d0c58d4030ed","indicators":[{"word":"vapor","begin":692,"end":696,"sentenceIndex":6,"sentenceBegin":641,"sentenceEnd":773}]}
