{"paperId":"faf6ebb5569adcfc62728f1893751805839695d7","indicators":[{"word":"cigarettes","begin":301,"end":310,"sentenceIndex":1,"sentenceBegin":200,"sentenceEnd":345}]}
{"paperId":"faf6ebb5569adcfc62728f1893751805839695d7","indicators":[{"word":"smoking","begin":568,"end":574,"sentenceIndex":5,"sentenceBegin":429,"sentenceEnd":934}]}
{"paperId":"faf6ebb5569adcfc62728f1893751805839695d7","indicators":[{"word":"smoking","begin":197,"end":203,"sentenceIndex":1,"sentenceBegin":118,"sentenceEnd":270}]}
{"paperId":"faf6ebb5569adcfc62728f1893751805839695d7","indicators":[{"word":"smoking","begin":153,"end":159,"sentenceIndex":0,"sentenceBegin":0,"sentenceEnd":264}]}
