{"paperId":"4ae5e7e6123e0c906e1d719efcfd1550e247f56b","indicators":[{"word":"smoke","begin":1183,"end":1187,"sentenceIndex":3,"sentenceBegin":921,"sentenceEnd":1220}]}
{"paperId":"4ae5e7e6123e0c906e1d719efcfd1550e247f56b","indicators":[{"word":"smoke","begin":767,"end":771,"sentenceIndex":4,"sentenceBegin":758,"sentenceEnd":791}]}
{"paperId":"4ae5e7e6123e0c906e1d719efcfd1550e247f56b","indicators":[{"word":"smoke","begin":455,"end":459,"sentenceIndex":3,"sentenceBegin":439,"sentenceEnd":471}]}
{"paperId":"e45ee31c7500b8e9d7b05b77c4ad9e1cdd24883e","indicators":[{"word":"tobacco","begin":1089,"end":1095,"sentenceIndex":6,"sentenceBegin":982,"sentenceEnd":1209},{"word":"smoke","begin":1097,"end":1101,"sentenceIndex":6,"sentenceBegin":982,"sentenceEnd":1209},{"word":"tobacco","begin":1196,"end":1202,"sentenceIndex":6,"sentenceBegin":982,"sentenceEnd":1209},{"word":"smoke","begin":1204,"end":1208,"sentenceIndex":6,"sentenceBegin":982,"sentenceEnd":1209},{"word":"tobacco","begin":1672,"end":1678,"sentenceIndex":9,"sentenceBegin":1547,"sentenceEnd":1778},{"word":"smoke","begin":1680,"end":1684,"sentenceIndex":9,"sentenceBegin":1547,"sentenceEnd":1778}]}
