{"paperId":"63f3dbec0f5c2d13e98dcbca95824db0fcbf5c73","indicators":[{"word":"weed","begin":345,"end":348,"sentenceIndex":5,"sentenceBegin":273,"sentenceEnd":618},{"word":"weed","begin":1012,"end":1015,"sentenceIndex":10,"sentenceBegin":949,"sentenceEnd":1027}]}
{"paperId":"63f3dbec0f5c2d13e98dcbca95824db0fcbf5c73","indicators":[{"word":"weed","begin":1095,"end":1098,"sentenceIndex":10,"sentenceBegin":994,"sentenceEnd":1152},{"word":"weed","begin":2051,"end":2054,"sentenceIndex":18,"sentenceBegin":2044,"sentenceEnd":2201}]}
{"paperId":"63f3dbec0f5c2d13e98dcbca95824db0fcbf5c73","indicators":[{"word":"weed","begin":783,"end":786,"sentenceIndex":5,"sentenceBegin":740,"sentenceEnd":901},{"word":"weed","begin":877,"end":880,"sentenceIndex":5,"sentenceBegin":740,"sentenceEnd":901}]}
{"paperId":"63f3dbec0f5c2d13e98dcbca95824db0fcbf5c73","indicators":[{"word":"weed","begin":422,"end":425,"sentenceIndex":4,"sentenceBegin":400,"sentenceEnd":606}]}
{"paperId":"63f3dbec0f5c2d13e98dcbca95824db0fcbf5c73","indicators":[{"word":"weed","begin":334,"end":337,"sentenceIndex":2,"sentenceBegin":252,"sentenceEnd":415},{"word":"weed","begin":492,"end":495,"sentenceIndex":3,"sentenceBegin":417,"sentenceEnd":591},{"word":"weed","begin":939,"end":942,"sentenceIndex":9,"sentenceBegin":837,"sentenceEnd":957}]}
{"paperId":"63f3dbec0f5c2d13e98dcbca95824db0fcbf5c73","indicators":[{"word":"weed","begin":394,"end":397,"sentenceIndex":2,"sentenceBegin":264,"sentenceEnd":577},{"word":"weed","begin":482,"end":485,"sentenceIndex":2,"sentenceBegin":264,"sentenceEnd":577},{"word":"weed","begin":562,"end":565,"sentenceIndex":2,"sentenceBegin":264,"sentenceEnd":577}]}
{"paperId":"63f3dbec0f5c2d13e98dcbca95824db0fcbf5c73","indicators":[{"word":"weed","begin":309,"end":312,"sentenceIndex":2,"sentenceBegin":136,"sentenceEnd":342},{"word":"weed","begin":975,"end":978,"sentenceIndex":8,"sentenceBegin":868,"sentenceEnd":992}]}
{"paperId":"63f3dbec0f5c2d13e98dcbca95824db0fcbf5c73","indicators":[{"word":"weeds","begin":2552,"end":2556,"sentenceIndex":21,"sentenceBegin":2489,"sentenceEnd":2600}]}
{"paperId":"63f3dbec0f5c2d13e98dcbca95824db0fcbf5c73","indicators":[{"word":"weed","begin":562,"end":565,"sentenceIndex":4,"sentenceBegin":447,"sentenceEnd":622}]}
{"paperId":"169eb7d3419808c29066e6e5ed091a8d54bc214a","indicators":[{"word":"tobacco","begin":575,"end":581,"sentenceIndex":4,"sentenceBegin":562,"sentenceEnd":679}]}
{"paperId":"a652b715bf1d0fbe2c4a33718fe570a1b1759c9e","indicators":[{"word":"smoking","begin":2208,"end":2214,"sentenceIndex":9,"sentenceBegin":2198,"sentenceEnd":2444},{"word":"cigarette","begin":2353,"end":2361,"sentenceIndex":9,"sentenceBegin":2198,"sentenceEnd":2444},{"word":"smoking","begin":2363,"end":2369,"sentenceIndex":9,"sentenceBegin":2198,"sentenceEnd":2444}]}
