{"paperId":"e79238c6aab0695806a2eddc84a4f7e134bb9395","indicators":[{"word":"smoking","begin":397,"end":403,"sentenceIndex":1,"sentenceBegin":159,"sentenceEnd":446}]}
{"paperId":"1b1e09cef6d76111b87a35a718c28cf86267d2c0","indicators":[{"word":"vapor","begin":200,"end":204,"sentenceIndex":0,"sentenceBegin":0,"sentenceEnd":214}]}
{"paperId":"a8e48551d8f6d917f8f0d64d44171c5180c3fd02","indicators":[{"word":"vapor","begin":998,"end":1002,"sentenceIndex":5,"sentenceBegin":902,"sentenceEnd":1077}]}
{"paperId":"a8e48551d8f6d917f8f0d64d44171c5180c3fd02","indicators":[{"word":"vapor","begin":168,"end":172,"sentenceIndex":0,"sentenceBegin":0,"sentenceEnd":231}]}
{"paperId":"3ae4cc1c1b639a21e95972d63cfe5822b96d136d","indicators":[{"word":"pots","begin":106,"end":109,"sentenceIndex":1,"sentenceBegin":76,"sentenceEnd":198}]}
{"paperId":"ff34c772e37156609477e7f0fa4aba793171f806","indicators":[{"word":"fires","begin":180,"end":184,"sentenceIndex":0,"sentenceBegin":0,"sentenceEnd":214}]}
{"paperId":"ff34c772e37156609477e7f0fa4aba793171f806","indicators":[{"word":"smog","begin":274,"end":277,"sentenceIndex":2,"sentenceBegin":156,"sentenceEnd":392},{"word":"smog","begin":427,"end":430,"sentenceIndex":3,"sentenceBegin":394,"sentenceEnd":580}]}
