{"paperId":"090d17f77880602fcae81dcf93e72970c42b508d","indicators":[{"word":"smoking","begin":491,"end":497,"sentenceIndex":3,"sentenceBegin":304,"sentenceEnd":556}]}
{"paperId":"090d17f77880602fcae81dcf93e72970c42b508d","indicators":[{"word":"smoking","begin":111,"end":117,"sentenceIndex":0,"sentenceBegin":0,"sentenceEnd":118},{"word":"smoking","begin":177,"end":183,"sentenceIndex":1,"sentenceBegin":120,"sentenceEnd":281}]}
{"paperId":"090d17f77880602fcae81dcf93e72970c42b508d","indicators":[{"word":"smoking","begin":370,"end":376,"sentenceIndex":1,"sentenceBegin":215,"sentenceEnd":394}]}
{"paperId":"090d17f77880602fcae81dcf93e72970c42b508d","indicators":[{"word":"smoking","begin":245,"end":251,"sentenceIndex":1,"sentenceBegin":114,"sentenceEnd":351}]}
{"paperId":"98c4a6564e0874970a8434b8e2316d2333c1fbe2","indicators":[{"word":"tobacco","begin":26,"end":32,"sentenceIndex":0,"sentenceBegin":0,"sentenceEnd":133}]}
{"paperId":"379da3c50aa52fdc31677e140730bcca461507f4","indicators":[{"word":"puff","begin":671,"end":674,"sentenceIndex":8,"sentenceBegin":624,"sentenceEnd":684},{"word":"smoke","begin":679,"end":683,"sentenceIndex":8,"sentenceBegin":624,"sentenceEnd":684}]}
{"paperId":"379da3c50aa52fdc31677e140730bcca461507f4","indicators":[{"word":"pot","begin":906,"end":908,"sentenceIndex":6,"sentenceBegin":777,"sentenceEnd":1143}]}
{"paperId":"898adc22b8d5710146cd8b103497b8a8d7b68a7c","indicators":[{"word":"cigarette","begin":1371,"end":1379,"sentenceIndex":10,"sentenceBegin":1312,"sentenceEnd":1602},{"word":"smoke","begin":1381,"end":1385,"sentenceIndex":10,"sentenceBegin":1312,"sentenceEnd":1602}]}
{"paperId":"898adc22b8d5710146cd8b103497b8a8d7b68a7c","indicators":[{"word":"cigarette","begin":1266,"end":1274,"sentenceIndex":9,"sentenceBegin":1252,"sentenceEnd":1514},{"word":"smoke","begin":1276,"end":1280,"sentenceIndex":9,"sentenceBegin":1252,"sentenceEnd":1514}]}
{"paperId":"898adc22b8d5710146cd8b103497b8a8d7b68a7c","indicators":[{"word":"smoke","begin":1063,"end":1067,"sentenceIndex":7,"sentenceBegin":1036,"sentenceEnd":1126},{"word":"smoking","begin":1073,"end":1079,"sentenceIndex":7,"sentenceBegin":1036,"sentenceEnd":1126},{"word":"smoking","begin":1604,"end":1610,"sentenceIndex":13,"sentenceBegin":1568,"sentenceEnd":1772}]}
{"paperId":"c8e11bd3e14d4e681675fd8063c2896692d9e674","indicators":[{"word":"smoking","begin":998,"end":1004,"sentenceIndex":28,"sentenceBegin":989,"sentenceEnd":1208}]}
{"paperId":"c8e11bd3e14d4e681675fd8063c2896692d9e674","indicators":[{"word":"smoking","begin":159,"end":165,"sentenceIndex":1,"sentenceBegin":108,"sentenceEnd":289}]}
{"paperId":"dc8966c49f9e7f0506b4eebb1787151aa30ed61c","indicators":[{"word":"firing","begin":1139,"end":1144,"sentenceIndex":5,"sentenceBegin":920,"sentenceEnd":1349},{"word":"firing","begin":1801,"end":1806,"sentenceIndex":8,"sentenceBegin":1703,"sentenceEnd":1919},{"word":"firing","begin":2008,"end":2013,"sentenceIndex":9,"sentenceBegin":1921,"sentenceEnd":2024}]}
{"paperId":"dc8966c49f9e7f0506b4eebb1787151aa30ed61c","indicators":[{"word":"firing","begin":4,"end":9,"sentenceIndex":0,"sentenceBegin":0,"sentenceEnd":182},{"word":"firing","begin":334,"end":339,"sentenceIndex":1,"sentenceBegin":184,"sentenceEnd":390}]}
{"paperId":"dc8966c49f9e7f0506b4eebb1787151aa30ed61c","indicators":[{"word":"firing","begin":4,"end":9,"sentenceIndex":0,"sentenceBegin":0,"sentenceEnd":182},{"word":"firing","begin":336,"end":341,"sentenceIndex":1,"sentenceBegin":184,"sentenceEnd":392}]}
{"paperId":"dc8966c49f9e7f0506b4eebb1787151aa30ed61c","indicators":[{"word":"firing","begin":502,"end":507,"sentenceIndex":2,"sentenceBegin":498,"sentenceEnd":694}]}
{"paperId":"dc8966c49f9e7f0506b4eebb1787151aa30ed61c","indicators":[{"word":"firing","begin":566,"end":571,"sentenceIndex":1,"sentenceBegin":228,"sentenceEnd":600}]}
{"paperId":"dc8966c49f9e7f0506b4eebb1787151aa30ed61c","indicators":[{"word":"firing","begin":195,"end":200,"sentenceIndex":0,"sentenceBegin":0,"sentenceEnd":286}]}
