{"paperId":"6091444b4f7495b1b4cb0c72b6f30da73ccf867d","indicators":[{"word":"vapor","begin":1254,"end":1258,"sentenceIndex":10,"sentenceBegin":1189,"sentenceEnd":1269}]}
{"paperId":"dd38cb141bba91047cfe990e378febf95087082b","indicators":[{"word":"vapor","begin":349,"end":353,"sentenceIndex":2,"sentenceBegin":251,"sentenceEnd":435},{"word":"vapor","begin":703,"end":707,"sentenceIndex":4,"sentenceBegin":591,"sentenceEnd":771}]}
{"paperId":"f85e5c4d06d71bb5920f969bdaf3a632e05ceb3d","indicators":[{"word":"cigarette","begin":1477,"end":1485,"sentenceIndex":10,"sentenceBegin":1371,"sentenceEnd":1680},{"word":"smoke","begin":1487,"end":1491,"sentenceIndex":10,"sentenceBegin":1371,"sentenceEnd":1680}]}
{"paperId":"f85e5c4d06d71bb5920f969bdaf3a632e05ceb3d","indicators":[{"word":"cigarette","begin":640,"end":648,"sentenceIndex":2,"sentenceBegin":571,"sentenceEnd":801},{"word":"smoke","begin":650,"end":654,"sentenceIndex":2,"sentenceBegin":571,"sentenceEnd":801}]}
{"paperId":"f85e5c4d06d71bb5920f969bdaf3a632e05ceb3d","indicators":[{"word":"smoke","begin":1755,"end":1759,"sentenceIndex":22,"sentenceBegin":1745,"sentenceEnd":1808}]}
{"paperId":"f85e5c4d06d71bb5920f969bdaf3a632e05ceb3d","indicators":[{"word":"smoke","begin":10,"end":14,"sentenceIndex":0,"sentenceBegin":0,"sentenceEnd":140},{"word":"smoking","begin":406,"end":412,"sentenceIndex":2,"sentenceBegin":260,"sentenceEnd":439}]}
{"paperId":"f85e5c4d06d71bb5920f969bdaf3a632e05ceb3d","indicators":[{"word":"cigarette","begin":1036,"end":1044,"sentenceIndex":7,"sentenceBegin":957,"sentenceEnd":1207}]}
{"paperId":"f85e5c4d06d71bb5920f969bdaf3a632e05ceb3d","indicators":[{"word":"tobacco","begin":30,"end":36,"sentenceIndex":0,"sentenceBegin":0,"sentenceEnd":107},{"word":"smoke","begin":38,"end":42,"sentenceIndex":0,"sentenceBegin":0,"sentenceEnd":107},{"word":"cigarette","begin":175,"end":183,"sentenceIndex":1,"sentenceBegin":109,"sentenceEnd":392},{"word":"smoke","begin":185,"end":189,"sentenceIndex":1,"sentenceBegin":109,"sentenceEnd":392}]}
{"paperId":"f85e5c4d06d71bb5920f969bdaf3a632e05ceb3d","indicators":[{"word":"smoking","begin":1851,"end":1857,"sentenceIndex":11,"sentenceBegin":1815,"sentenceEnd":1953}]}
{"paperId":"f85e5c4d06d71bb5920f969bdaf3a632e05ceb3d","indicators":[{"word":"smoking","begin":90,"end":96,"sentenceIndex":1,"sentenceBegin":82,"sentenceEnd":136},{"word":"smoking","begin":146,"end":152,"sentenceIndex":2,"sentenceBegin":138,"sentenceEnd":319}]}
{"paperId":"f85e5c4d06d71bb5920f969bdaf3a632e05ceb3d","indicators":[{"word":"cigarette","begin":631,"end":639,"sentenceIndex":2,"sentenceBegin":526,"sentenceEnd":739},{"word":"smoking","begin":641,"end":647,"sentenceIndex":2,"sentenceBegin":526,"sentenceEnd":739}]}
