{"paperId":"7bb16527d25a0b4b24225b0cfca57efb84f2d511","indicators":[{"word":"smoking","begin":603,"end":609,"sentenceIndex":7,"sentenceBegin":505,"sentenceEnd":684}]}
{"paperId":"7bb16527d25a0b4b24225b0cfca57efb84f2d511","indicators":[{"word":"vapor","begin":38,"end":42,"sentenceIndex":0,"sentenceBegin":0,"sentenceEnd":105}]}
{"paperId":"7bb16527d25a0b4b24225b0cfca57efb84f2d511","indicators":[{"word":"smoking","begin":147,"end":153,"sentenceIndex":0,"sentenceBegin":0,"sentenceEnd":440}]}
{"paperId":"7bb16527d25a0b4b24225b0cfca57efb84f2d511","indicators":[{"word":"smoked","begin":298,"end":303,"sentenceIndex":2,"sentenceBegin":267,"sentenceEnd":356}]}
{"paperId":"67e14e52cccec13912ed117ddcad3eaabe6464d1","indicators":[{"word":"smoking","begin":603,"end":609,"sentenceIndex":7,"sentenceBegin":505,"sentenceEnd":684}]}
{"paperId":"67e14e52cccec13912ed117ddcad3eaabe6464d1","indicators":[{"word":"vapor","begin":38,"end":42,"sentenceIndex":0,"sentenceBegin":0,"sentenceEnd":105}]}
{"paperId":"67e14e52cccec13912ed117ddcad3eaabe6464d1","indicators":[{"word":"smoking","begin":147,"end":153,"sentenceIndex":0,"sentenceBegin":0,"sentenceEnd":440}]}
{"paperId":"67e14e52cccec13912ed117ddcad3eaabe6464d1","indicators":[{"word":"smoked","begin":298,"end":303,"sentenceIndex":2,"sentenceBegin":267,"sentenceEnd":356}]}
