{"paperId":"02ba0428f3f002c61ee3543957fa41dbca4dc6a6","indicators":[{"word":"smoking","begin":862,"end":868,"sentenceIndex":3,"sentenceBegin":566,"sentenceEnd":1085},{"word":"smoking","begin":1298,"end":1304,"sentenceIndex":4,"sentenceBegin":1087,"sentenceEnd":1305}]}
{"paperId":"738384412cda278edc38daf9fda0a58777eb0548","indicators":[{"word":"smoking","begin":254,"end":260,"sentenceIndex":2,"sentenceBegin":246,"sentenceEnd":489}]}
{"paperId":"e8f7192873a7eab54d8f845f5bf5fc450cbe2e37","indicators":[{"word":"tobacco","begin":451,"end":457,"sentenceIndex":2,"sentenceBegin":255,"sentenceEnd":473}]}
