{"paperId":"aa1c79fbd60c7b7270b8bdaad66d86ee31993c83","indicators":[{"word":"fires","begin":26,"end":30,"sentenceIndex":0,"sentenceBegin":0,"sentenceEnd":239}]}
{"paperId":"aa1c79fbd60c7b7270b8bdaad66d86ee31993c83","indicators":[{"word":"fires","begin":627,"end":631,"sentenceIndex":2,"sentenceBegin":599,"sentenceEnd":757}]}
{"paperId":"aa1c79fbd60c7b7270b8bdaad66d86ee31993c83","indicators":[{"word":"fires","begin":99,"end":103,"sentenceIndex":0,"sentenceBegin":0,"sentenceEnd":166}]}
{"paperId":"aa1c79fbd60c7b7270b8bdaad66d86ee31993c83","indicators":[{"word":"fires","begin":46,"end":50,"sentenceIndex":0,"sentenceBegin":0,"sentenceEnd":111}]}
{"paperId":"fbb2b307ad6be9561286c3b8a9114d283fb2e224","indicators":[{"word":"smoking","begin":30,"end":36,"sentenceIndex":0,"sentenceBegin":0,"sentenceEnd":200}]}
{"paperId":"fbb2b307ad6be9561286c3b8a9114d283fb2e224","indicators":[{"word":"smoking","begin":163,"end":169,"sentenceIndex":1,"sentenceBegin":75,"sentenceEnd":255}]}
{"paperId":"fbb2b307ad6be9561286c3b8a9114d283fb2e224","indicators":[{"word":"cigarette","begin":602,"end":610,"sentenceIndex":0,"sentenceBegin":0,"sentenceEnd":1784},{"word":"smoking","begin":612,"end":618,"sentenceIndex":0,"sentenceBegin":0,"sentenceEnd":1784},{"word":"smoking","begin":1755,"end":1761,"sentenceIndex":0,"sentenceBegin":0,"sentenceEnd":1784},{"word":"cigarettes","begin":1819,"end":1828,"sentenceIndex":1,"sentenceBegin":1786,"sentenceEnd":1864},{"word":"smoked","begin":1858,"end":1863,"sentenceIndex":1,"sentenceBegin":1786,"sentenceEnd":1864}]}
{"paperId":"fbb2b307ad6be9561286c3b8a9114d283fb2e224","indicators":[{"word":"smoking","begin":306,"end":312,"sentenceIndex":2,"sentenceBegin":289,"sentenceEnd":370}]}
{"paperId":"fbb2b307ad6be9561286c3b8a9114d283fb2e224","indicators":[{"word":"smoking","begin":1139,"end":1145,"sentenceIndex":7,"sentenceBegin":1090,"sentenceEnd":1373}]}
{"paperId":"791afe1d829e56b23ce1f098c66cdb4fc4b1eb34","indicators":[{"word":"cigarette","begin":1542,"end":1550,"sentenceIndex":7,"sentenceBegin":1466,"sentenceEnd":1671},{"word":"smoke","begin":1552,"end":1556,"sentenceIndex":7,"sentenceBegin":1466,"sentenceEnd":1671}]}
