{"paperId":"3dfce0f1586b904eb6afcda376c0295d3de6c295","indicators":[{"word":"smoking","begin":70,"end":76,"sentenceIndex":0,"sentenceBegin":0,"sentenceEnd":187}]}
{"paperId":"b4469e2e744671d3fef2791ddebc3acef1b07a81","indicators":[{"word":"smoking","begin":374,"end":380,"sentenceIndex":1,"sentenceBegin":165,"sentenceEnd":433}]}
{"paperId":"197bcfb1ad1f7cad28d53e797cc9e99007a527c8","indicators":[{"word":"smoking","begin":106,"end":112,"sentenceIndex":1,"sentenceBegin":71,"sentenceEnd":208}]}
{"paperId":"197bcfb1ad1f7cad28d53e797cc9e99007a527c8","indicators":[{"word":"smoking","begin":461,"end":467,"sentenceIndex":1,"sentenceBegin":198,"sentenceEnd":529}]}
