{"paperId":"38ec93d5b504ad3c6ef2e428fe6a3be6eac4c0ce","indicators":[{"word":"cigarette","begin":216,"end":224,"sentenceIndex":2,"sentenceBegin":198,"sentenceEnd":367},{"word":"smoke","begin":226,"end":230,"sentenceIndex":2,"sentenceBegin":198,"sentenceEnd":367}]}
{"paperId":"38ec93d5b504ad3c6ef2e428fe6a3be6eac4c0ce","indicators":[{"word":"smoking","begin":89,"end":95,"sentenceIndex":0,"sentenceBegin":0,"sentenceEnd":103},{"word":"smoked","begin":146,"end":151,"sentenceIndex":1,"sentenceBegin":105,"sentenceEnd":299},{"word":"smoked","begin":320,"end":325,"sentenceIndex":2,"sentenceBegin":301,"sentenceEnd":559},{"word":"smoke","begin":423,"end":427,"sentenceIndex":2,"sentenceBegin":301,"sentenceEnd":559},{"word":"tobacco","begin":486,"end":492,"sentenceIndex":2,"sentenceBegin":301,"sentenceEnd":559},{"word":"tobacco","begin":546,"end":552,"sentenceIndex":2,"sentenceBegin":301,"sentenceEnd":559},{"word":"smoke","begin":554,"end":558,"sentenceIndex":2,"sentenceBegin":301,"sentenceEnd":559},{"word":"smoke","begin":600,"end":604,"sentenceIndex":3,"sentenceBegin":561,"sentenceEnd":623},{"word":"smoke","begin":658,"end":662,"sentenceIndex":4,"sentenceBegin":625,"sentenceEnd":755},{"word":"fires","begin":696,"end":700,"sentenceIndex":4,"sentenceBegin":625,"sentenceEnd":755}]}
{"paperId":"5ea1cd367141130fc2307241db5c8ca4e188c75d","indicators":[{"word":"smoking","begin":376,"end":382,"sentenceIndex":1,"sentenceBegin":256,"sentenceEnd":447}]}
{"paperId":"5ea1cd367141130fc2307241db5c8ca4e188c75d","indicators":[{"word":"smoking","begin":64,"end":70,"sentenceIndex":0,"sentenceBegin":0,"sentenceEnd":146},{"word":"smoking","begin":234,"end":240,"sentenceIndex":1,"sentenceBegin":148,"sentenceEnd":243}]}
{"paperId":"06b8e827d718d809f2dce3e9c2bb86bd5c964dcb","indicators":[{"word":"vapor","begin":649,"end":653,"sentenceIndex":4,"sentenceBegin":561,"sentenceEnd":703},{"word":"vapor","begin":1751,"end":1755,"sentenceIndex":12,"sentenceBegin":1718,"sentenceEnd":1918},{"word":"vapor","begin":1879,"end":1883,"sentenceIndex":12,"sentenceBegin":1718,"sentenceEnd":1918}]}
{"paperId":"06b8e827d718d809f2dce3e9c2bb86bd5c964dcb","indicators":[{"word":"vapor","begin":126,"end":130,"sentenceIndex":0,"sentenceBegin":0,"sentenceEnd":243}]}
{"paperId":"06b8e827d718d809f2dce3e9c2bb86bd5c964dcb","indicators":[{"word":"vapor","begin":111,"end":115,"sentenceIndex":3,"sentenceBegin":83,"sentenceEnd":226}]}
{"paperId":"06b8e827d718d809f2dce3e9c2bb86bd5c964dcb","indicators":[{"word":"vapor","begin":19,"end":23,"sentenceIndex":0,"sentenceBegin":0,"sentenceEnd":178},{"word":"vapors","begin":271,"end":276,"sentenceIndex":2,"sentenceBegin":240,"sentenceEnd":400},{"word":"vapor","begin":531,"end":535,"sentenceIndex":3,"sentenceBegin":402,"sentenceEnd":542},{"word":"vapor","begin":1474,"end":1478,"sentenceIndex":9,"sentenceBegin":1454,"sentenceEnd":1609},{"word":"vapor","begin":1616,"end":1620,"sentenceIndex":10,"sentenceBegin":1611,"sentenceEnd":1727}]}
{"paperId":"06b8e827d718d809f2dce3e9c2bb86bd5c964dcb","indicators":[{"word":"vapor","begin":482,"end":486,"sentenceIndex":6,"sentenceBegin":456,"sentenceEnd":565},{"word":"vapors","begin":1029,"end":1034,"sentenceIndex":9,"sentenceBegin":882,"sentenceEnd":1035}]}
{"paperId":"06b8e827d718d809f2dce3e9c2bb86bd5c964dcb","indicators":[{"word":"vapors","begin":1190,"end":1195,"sentenceIndex":8,"sentenceBegin":1051,"sentenceEnd":1246},{"word":"vapor","begin":1509,"end":1513,"sentenceIndex":10,"sentenceBegin":1411,"sentenceEnd":1534}]}
{"paperId":"06b8e827d718d809f2dce3e9c2bb86bd5c964dcb","indicators":[{"word":"vapor","begin":24,"end":28,"sentenceIndex":0,"sentenceBegin":0,"sentenceEnd":157},{"word":"vapor","begin":745,"end":749,"sentenceIndex":6,"sentenceBegin":680,"sentenceEnd":756},{"word":"vapor","begin":1151,"end":1155,"sentenceIndex":11,"sentenceBegin":1059,"sentenceEnd":1190},{"word":"vapors","begin":1255,"end":1260,"sentenceIndex":12,"sentenceBegin":1192,"sentenceEnd":1261}]}
{"paperId":"06b8e827d718d809f2dce3e9c2bb86bd5c964dcb","indicators":[{"word":"vapor","begin":1113,"end":1117,"sentenceIndex":7,"sentenceBegin":1067,"sentenceEnd":1194}]}
{"paperId":"06b8e827d718d809f2dce3e9c2bb86bd5c964dcb","indicators":[{"word":"vapors","begin":161,"end":166,"sentenceIndex":1,"sentenceBegin":78,"sentenceEnd":208}]}
{"paperId":"06b8e827d718d809f2dce3e9c2bb86bd5c964dcb","indicators":[{"word":"vapors","begin":65,"end":70,"sentenceIndex":0,"sentenceBegin":0,"sentenceEnd":134}]}
{"paperId":"06b8e827d718d809f2dce3e9c2bb86bd5c964dcb","indicators":[{"word":"vapor","begin":2857,"end":2861,"sentenceIndex":20,"sentenceBegin":2677,"sentenceEnd":2875},{"word":"vapor","begin":2983,"end":2987,"sentenceIndex":21,"sentenceBegin":2877,"sentenceEnd":3033},{"word":"vapor","begin":3362,"end":3366,"sentenceIndex":26,"sentenceBegin":3356,"sentenceEnd":3536}]}
{"paperId":"06b8e827d718d809f2dce3e9c2bb86bd5c964dcb","indicators":[{"word":"vapor","begin":3184,"end":3188,"sentenceIndex":24,"sentenceBegin":3034,"sentenceEnd":3245}]}
{"paperId":"06b8e827d718d809f2dce3e9c2bb86bd5c964dcb","indicators":[{"word":"vapor","begin":290,"end":294,"sentenceIndex":2,"sentenceBegin":271,"sentenceEnd":455}]}
{"paperId":"06b8e827d718d809f2dce3e9c2bb86bd5c964dcb","indicators":[{"word":"vapors","begin":673,"end":678,"sentenceIndex":8,"sentenceBegin":515,"sentenceEnd":679},{"word":"vapors","begin":5543,"end":5548,"sentenceIndex":44,"sentenceBegin":5418,"sentenceEnd":5560}]}
{"paperId":"114710320a34df0aeae9ac18d3ae6c0c969377e7","indicators":[{"word":"smoking","begin":99,"end":105,"sentenceIndex":0,"sentenceBegin":0,"sentenceEnd":138},{"word":"smoke","begin":152,"end":156,"sentenceIndex":1,"sentenceBegin":140,"sentenceEnd":308},{"word":"smoking","begin":186,"end":192,"sentenceIndex":1,"sentenceBegin":140,"sentenceEnd":308},{"word":"smoking","begin":319,"end":325,"sentenceIndex":2,"sentenceBegin":310,"sentenceEnd":469},{"word":"smoke","begin":642,"end":646,"sentenceIndex":3,"sentenceBegin":471,"sentenceEnd":814},{"word":"smoking","begin":714,"end":720,"sentenceIndex":3,"sentenceBegin":471,"sentenceEnd":814},{"word":"tobacco","begin":842,"end":848,"sentenceIndex":4,"sentenceBegin":816,"sentenceEnd":1051},{"word":"smoke","begin":850,"end":854,"sentenceIndex":4,"sentenceBegin":816,"sentenceEnd":1051},{"word":"smoking","begin":1062,"end":1068,"sentenceIndex":5,"sentenceBegin":1053,"sentenceEnd":1150},{"word":"smoking","begin":1223,"end":1229,"sentenceIndex":6,"sentenceBegin":1152,"sentenceEnd":1314},{"word":"smoking","begin":1397,"end":1403,"sentenceIndex":7,"sentenceBegin":1316,"sentenceEnd":1474},{"word":"tobacco","begin":1606,"end":1612,"sentenceIndex":8,"sentenceBegin":1476,"sentenceEnd":1683},{"word":"smoke","begin":1614,"end":1618,"sentenceIndex":8,"sentenceBegin":1476,"sentenceEnd":1683}]}
{"paperId":"114710320a34df0aeae9ac18d3ae6c0c969377e7","indicators":[{"word":"smoke","begin":560,"end":564,"sentenceIndex":3,"sentenceBegin":526,"sentenceEnd":822}]}
{"paperId":"114710320a34df0aeae9ac18d3ae6c0c969377e7","indicators":[{"word":"tobacco","begin":452,"end":458,"sentenceIndex":1,"sentenceBegin":211,"sentenceEnd":497}]}
{"paperId":"114710320a34df0aeae9ac18d3ae6c0c969377e7","indicators":[{"word":"tobacco","begin":72,"end":78,"sentenceIndex":0,"sentenceBegin":0,"sentenceEnd":208},{"word":"smoke","begin":80,"end":84,"sentenceIndex":0,"sentenceBegin":0,"sentenceEnd":208}]}
{"paperId":"114710320a34df0aeae9ac18d3ae6c0c969377e7","indicators":[{"word":"tobacco","begin":310,"end":316,"sentenceIndex":2,"sentenceBegin":209,"sentenceEnd":349},{"word":"smoke","begin":318,"end":322,"sentenceIndex":2,"sentenceBegin":209,"sentenceEnd":349}]}
{"paperId":"9e61bd6c5144017a9405d0c8bd84b09608eef00b","indicators":[{"word":"vapor","begin":282,"end":286,"sentenceIndex":2,"sentenceBegin":222,"sentenceEnd":293}]}
{"paperId":"9e61bd6c5144017a9405d0c8bd84b09608eef00b","indicators":[{"word":"vapor","begin":184,"end":188,"sentenceIndex":0,"sentenceBegin":0,"sentenceEnd":222}]}
{"paperId":"9e61bd6c5144017a9405d0c8bd84b09608eef00b","indicators":[{"word":"vapor","begin":185,"end":189,"sentenceIndex":1,"sentenceBegin":133,"sentenceEnd":201}]}
