{"paperId":"df8ad25b3979056ceca8815c91d79efdec5f4f9e","indicators":[{"word":"smoking","begin":3472,"end":3478,"sentenceIndex":19,"sentenceBegin":3301,"sentenceEnd":3507},{"word":"smoking","begin":3972,"end":3978,"sentenceIndex":22,"sentenceBegin":3739,"sentenceEnd":4078}]}
{"paperId":"df8ad25b3979056ceca8815c91d79efdec5f4f9e","indicators":[{"word":"smoking","begin":278,"end":284,"sentenceIndex":1,"sentenceBegin":176,"sentenceEnd":421}]}
{"paperId":"becef58fd196717784624efec41d78758b13c959","indicators":[{"word":"smoking","begin":3472,"end":3478,"sentenceIndex":19,"sentenceBegin":3301,"sentenceEnd":3507},{"word":"smoking","begin":3972,"end":3978,"sentenceIndex":22,"sentenceBegin":3739,"sentenceEnd":4078}]}
{"paperId":"becef58fd196717784624efec41d78758b13c959","indicators":[{"word":"smoking","begin":278,"end":284,"sentenceIndex":1,"sentenceBegin":176,"sentenceEnd":421}]}
{"paperId":"94397d7d7dbb362b167ba30c155c1cd02cd94d77","indicators":[{"word":"smoking","begin":3472,"end":3478,"sentenceIndex":19,"sentenceBegin":3301,"sentenceEnd":3507},{"word":"smoking","begin":3972,"end":3978,"sentenceIndex":22,"sentenceBegin":3739,"sentenceEnd":4078}]}
{"paperId":"94397d7d7dbb362b167ba30c155c1cd02cd94d77","indicators":[{"word":"smoking","begin":278,"end":284,"sentenceIndex":1,"sentenceBegin":176,"sentenceEnd":421}]}
{"paperId":"4cdb6a1242ea80f27e5f9cad36826f794bb7e80d","indicators":[{"word":"smoking","begin":3472,"end":3478,"sentenceIndex":19,"sentenceBegin":3301,"sentenceEnd":3507},{"word":"smoking","begin":3972,"end":3978,"sentenceIndex":22,"sentenceBegin":3739,"sentenceEnd":4078}]}
{"paperId":"4cdb6a1242ea80f27e5f9cad36826f794bb7e80d","indicators":[{"word":"smoking","begin":278,"end":284,"sentenceIndex":1,"sentenceBegin":176,"sentenceEnd":421}]}
{"paperId":"19cceaebefd2e6db1428997fa917452617d8e9a0","indicators":[{"word":"smoking","begin":3472,"end":3478,"sentenceIndex":19,"sentenceBegin":3301,"sentenceEnd":3507},{"word":"smoking","begin":3972,"end":3978,"sentenceIndex":22,"sentenceBegin":3739,"sentenceEnd":4078}]}
{"paperId":"19cceaebefd2e6db1428997fa917452617d8e9a0","indicators":[{"word":"smoking","begin":278,"end":284,"sentenceIndex":1,"sentenceBegin":176,"sentenceEnd":421}]}
{"paperId":"ab8ab6362602a57b327581ddd915fa436d274bc2","indicators":[{"word":"tobacco","begin":676,"end":682,"sentenceIndex":3,"sentenceBegin":606,"sentenceEnd":840},{"word":"tobacco","begin":1064,"end":1070,"sentenceIndex":6,"sentenceBegin":1011,"sentenceEnd":1139}]}
{"paperId":"ab8ab6362602a57b327581ddd915fa436d274bc2","indicators":[{"word":"tobacco","begin":2889,"end":2895,"sentenceIndex":19,"sentenceBegin":2645,"sentenceEnd":2927},{"word":"smoking","begin":2897,"end":2903,"sentenceIndex":19,"sentenceBegin":2645,"sentenceEnd":2927}]}
{"paperId":"ab8ab6362602a57b327581ddd915fa436d274bc2","indicators":[{"word":"tobacco","begin":2062,"end":2068,"sentenceIndex":16,"sentenceBegin":2040,"sentenceEnd":2133}]}
{"paperId":"4ca5d854d3f99440b507fd7dfae73c8ad6fc45d5","indicators":[{"word":"smoked","begin":34,"end":39,"sentenceIndex":0,"sentenceBegin":0,"sentenceEnd":96}]}
{"paperId":"4ca5d854d3f99440b507fd7dfae73c8ad6fc45d5","indicators":[{"word":"smoked","begin":954,"end":959,"sentenceIndex":7,"sentenceBegin":922,"sentenceEnd":1040}]}
{"paperId":"48699491bf7a4dafd65d11a0cf2f028370544432","indicators":[{"word":"tobacco","begin":529,"end":535,"sentenceIndex":2,"sentenceBegin":362,"sentenceEnd":560}]}
{"paperId":"48699491bf7a4dafd65d11a0cf2f028370544432","indicators":[{"word":"smoking","begin":1687,"end":1693,"sentenceIndex":12,"sentenceBegin":1592,"sentenceEnd":1713},{"word":"smoking","begin":1811,"end":1817,"sentenceIndex":13,"sentenceBegin":1715,"sentenceEnd":1830},{"word":"smoking","begin":1903,"end":1909,"sentenceIndex":14,"sentenceBegin":1832,"sentenceEnd":1957},{"word":"smoking","begin":1912,"end":1918,"sentenceIndex":14,"sentenceBegin":1832,"sentenceEnd":1957},{"word":"smoking","begin":1981,"end":1987,"sentenceIndex":15,"sentenceBegin":1959,"sentenceEnd":2040},{"word":"smoking","begin":2137,"end":2143,"sentenceIndex":17,"sentenceBegin":2114,"sentenceEnd":2233},{"word":"smoking","begin":2171,"end":2177,"sentenceIndex":17,"sentenceBegin":2114,"sentenceEnd":2233},{"word":"smoking","begin":2263,"end":2269,"sentenceIndex":18,"sentenceBegin":2235,"sentenceEnd":2408}]}
{"paperId":"85dfb59af4c4ec824f1f62c645e5b91a6e3cc814","indicators":[{"word":"pot","begin":507,"end":509,"sentenceIndex":1,"sentenceBegin":228,"sentenceEnd":556}]}
{"paperId":"aa9cb127e3791a3bf7aea4c1d0ab2066d757edbc","indicators":[{"word":"puff","begin":225,"end":228,"sentenceIndex":1,"sentenceBegin":70,"sentenceEnd":234}]}
{"paperId":"9e34c6eb56bcd0ab2d12ce399a631ad7c85f33bd","indicators":[{"word":"smoking","begin":776,"end":782,"sentenceIndex":8,"sentenceBegin":713,"sentenceEnd":880}]}
{"paperId":"9e34c6eb56bcd0ab2d12ce399a631ad7c85f33bd","indicators":[{"word":"smoking","begin":754,"end":760,"sentenceIndex":5,"sentenceBegin":545,"sentenceEnd":831}]}
{"paperId":"9e34c6eb56bcd0ab2d12ce399a631ad7c85f33bd","indicators":[{"word":"smoking","begin":605,"end":611,"sentenceIndex":2,"sentenceBegin":75,"sentenceEnd":809}]}
{"paperId":"9e34c6eb56bcd0ab2d12ce399a631ad7c85f33bd","indicators":[{"word":"tobacco","begin":665,"end":671,"sentenceIndex":5,"sentenceBegin":608,"sentenceEnd":684}]}
{"paperId":"9e34c6eb56bcd0ab2d12ce399a631ad7c85f33bd","indicators":[{"word":"smoking","begin":356,"end":362,"sentenceIndex":1,"sentenceBegin":317,"sentenceEnd":438}]}
{"paperId":"3e656b573daa51b1346e42473b52225895ed3661","indicators":[{"word":"tobacco","begin":1356,"end":1362,"sentenceIndex":6,"sentenceBegin":1211,"sentenceEnd":1363}]}
{"paperId":"a02f53bba04cb55cd70c09e2299f3ab1556943fb","indicators":[{"word":"tobacco","begin":1892,"end":1898,"sentenceIndex":14,"sentenceBegin":1878,"sentenceEnd":1980},{"word":"smoke","begin":1900,"end":1904,"sentenceIndex":14,"sentenceBegin":1878,"sentenceEnd":1980}]}
{"paperId":"c0ebd086b04e72135b905a174c10892de417d29e","indicators":[{"word":"vapor","begin":300,"end":304,"sentenceIndex":2,"sentenceBegin":263,"sentenceEnd":490}]}
{"paperId":"c0ebd086b04e72135b905a174c10892de417d29e","indicators":[{"word":"vapors","begin":2278,"end":2283,"sentenceIndex":13,"sentenceBegin":1979,"sentenceEnd":2285}]}
{"paperId":"c0ebd086b04e72135b905a174c10892de417d29e","indicators":[{"word":"smoke","begin":4851,"end":4855,"sentenceIndex":35,"sentenceBegin":4727,"sentenceEnd":4856}]}
{"paperId":"c0ebd086b04e72135b905a174c10892de417d29e","indicators":[{"word":"firing","begin":6355,"end":6360,"sentenceIndex":41,"sentenceBegin":6050,"sentenceEnd":6369},{"word":"firing","begin":7016,"end":7021,"sentenceIndex":49,"sentenceBegin":6892,"sentenceEnd":7027},{"word":"firing","begin":7788,"end":7793,"sentenceIndex":56,"sentenceBegin":7656,"sentenceEnd":7794}]}
{"paperId":"c0ebd086b04e72135b905a174c10892de417d29e","indicators":[{"word":"firing","begin":973,"end":978,"sentenceIndex":9,"sentenceBegin":866,"sentenceEnd":1158},{"word":"firing","begin":1273,"end":1278,"sentenceIndex":11,"sentenceBegin":1258,"sentenceEnd":1315}]}
{"paperId":"60437c89516aee76f3fceb48abe43ee78d29de27","indicators":[{"word":"smoking","begin":20,"end":26,"sentenceIndex":0,"sentenceBegin":0,"sentenceEnd":103},{"word":"smoking","begin":237,"end":243,"sentenceIndex":2,"sentenceBegin":197,"sentenceEnd":278}]}
{"paperId":"60437c89516aee76f3fceb48abe43ee78d29de27","indicators":[{"word":"smoking","begin":305,"end":311,"sentenceIndex":2,"sentenceBegin":212,"sentenceEnd":465},{"word":"cigarette","begin":441,"end":449,"sentenceIndex":2,"sentenceBegin":212,"sentenceEnd":465},{"word":"smoked","begin":451,"end":456,"sentenceIndex":2,"sentenceBegin":212,"sentenceEnd":465},{"word":"smoked","begin":725,"end":730,"sentenceIndex":6,"sentenceBegin":671,"sentenceEnd":972}]}
{"paperId":"60437c89516aee76f3fceb48abe43ee78d29de27","indicators":[{"word":"smoking","begin":710,"end":716,"sentenceIndex":5,"sentenceBegin":628,"sentenceEnd":732}]}
{"paperId":"71ae4b14455f6eab8b48991e357c86cf25cf652c","indicators":[{"word":"tobacco","begin":1722,"end":1728,"sentenceIndex":14,"sentenceBegin":1619,"sentenceEnd":1794}]}
{"paperId":"71ae4b14455f6eab8b48991e357c86cf25cf652c","indicators":[{"word":"smoking","begin":1320,"end":1326,"sentenceIndex":9,"sentenceBegin":1192,"sentenceEnd":1337}]}
{"paperId":"71ae4b14455f6eab8b48991e357c86cf25cf652c","indicators":[{"word":"smoking","begin":185,"end":191,"sentenceIndex":2,"sentenceBegin":134,"sentenceEnd":211}]}
{"paperId":"71ae4b14455f6eab8b48991e357c86cf25cf652c","indicators":[{"word":"smoking","begin":1392,"end":1398,"sentenceIndex":11,"sentenceBegin":1319,"sentenceEnd":1561},{"word":"cigarette","begin":2537,"end":2545,"sentenceIndex":22,"sentenceBegin":2515,"sentenceEnd":2575},{"word":"smoke","begin":2547,"end":2551,"sentenceIndex":22,"sentenceBegin":2515,"sentenceEnd":2575}]}
{"paperId":"71ae4b14455f6eab8b48991e357c86cf25cf652c","indicators":[{"word":"smoking","begin":167,"end":173,"sentenceIndex":1,"sentenceBegin":123,"sentenceEnd":241},{"word":"smoking","begin":695,"end":701,"sentenceIndex":6,"sentenceBegin":681,"sentenceEnd":766}]}
{"paperId":"44e57a105957f7f359dae33f6dc8973af2f360df","indicators":[{"word":"smoking","begin":5980,"end":5986,"sentenceIndex":43,"sentenceBegin":5970,"sentenceEnd":5995},{"word":"smoking","begin":6597,"end":6603,"sentenceIndex":60,"sentenceBegin":6585,"sentenceEnd":6611}]}
{"paperId":"54f7f652e2e9f0c01799ff760caaa75d43a0fdb0","indicators":[{"word":"cigarette","begin":139,"end":147,"sentenceIndex":0,"sentenceBegin":0,"sentenceEnd":177},{"word":"smoking","begin":675,"end":681,"sentenceIndex":4,"sentenceBegin":441,"sentenceEnd":717}]}
{"paperId":"54f7f652e2e9f0c01799ff760caaa75d43a0fdb0","indicators":[{"word":"smoking","begin":423,"end":429,"sentenceIndex":2,"sentenceBegin":365,"sentenceEnd":752}]}
{"paperId":"54f7f652e2e9f0c01799ff760caaa75d43a0fdb0","indicators":[{"word":"smoking","begin":260,"end":266,"sentenceIndex":2,"sentenceBegin":247,"sentenceEnd":409}]}
{"paperId":"54f7f652e2e9f0c01799ff760caaa75d43a0fdb0","indicators":[{"word":"smoking","begin":46,"end":52,"sentenceIndex":0,"sentenceBegin":0,"sentenceEnd":352}]}
{"paperId":"54f7f652e2e9f0c01799ff760caaa75d43a0fdb0","indicators":[{"word":"smoking","begin":514,"end":520,"sentenceIndex":3,"sentenceBegin":413,"sentenceEnd":628}]}
{"paperId":"54f7f652e2e9f0c01799ff760caaa75d43a0fdb0","indicators":[{"word":"smoking","begin":177,"end":183,"sentenceIndex":1,"sentenceBegin":143,"sentenceEnd":352}]}
{"paperId":"54f7f652e2e9f0c01799ff760caaa75d43a0fdb0","indicators":[{"word":"vapor","begin":212,"end":216,"sentenceIndex":1,"sentenceBegin":132,"sentenceEnd":335}]}
{"paperId":"54f7f652e2e9f0c01799ff760caaa75d43a0fdb0","indicators":[{"word":"smoking","begin":373,"end":379,"sentenceIndex":3,"sentenceBegin":304,"sentenceEnd":492}]}
{"paperId":"54f7f652e2e9f0c01799ff760caaa75d43a0fdb0","indicators":[{"word":"smoking","begin":492,"end":498,"sentenceIndex":1,"sentenceBegin":274,"sentenceEnd":560}]}
{"paperId":"54f7f652e2e9f0c01799ff760caaa75d43a0fdb0","indicators":[{"word":"smoking","begin":460,"end":466,"sentenceIndex":4,"sentenceBegin":433,"sentenceEnd":526}]}
{"paperId":"c51a83b27c3ced74cf15ecdf79f47b217b1d9a9c","indicators":[{"word":"firing","begin":5805,"end":5810,"sentenceIndex":39,"sentenceBegin":5786,"sentenceEnd":6005}]}
{"paperId":"c51a83b27c3ced74cf15ecdf79f47b217b1d9a9c","indicators":[{"word":"smoking","begin":166,"end":172,"sentenceIndex":0,"sentenceBegin":0,"sentenceEnd":305},{"word":"smoking","begin":2634,"end":2640,"sentenceIndex":17,"sentenceBegin":2468,"sentenceEnd":2641}]}
{"paperId":"53e3ada6e125f35ee678f054a59a0806235a5d9b","indicators":[{"word":"smoking","begin":1621,"end":1627,"sentenceIndex":12,"sentenceBegin":1541,"sentenceEnd":1663}]}
{"paperId":"9e1407863d5baeb2fd73a98d5fe80ce387c55646","indicators":[{"word":"smoking","begin":2913,"end":2919,"sentenceIndex":22,"sentenceBegin":2768,"sentenceEnd":3008},{"word":"smoked","begin":3619,"end":3624,"sentenceIndex":29,"sentenceBegin":3486,"sentenceEnd":3717}]}
{"paperId":"9e1407863d5baeb2fd73a98d5fe80ce387c55646","indicators":[{"word":"smoking","begin":3946,"end":3952,"sentenceIndex":25,"sentenceBegin":3796,"sentenceEnd":4029},{"word":"cannabis","begin":3979,"end":3986,"sentenceIndex":25,"sentenceBegin":3796,"sentenceEnd":4029},{"word":"smoking","begin":4633,"end":4639,"sentenceIndex":30,"sentenceBegin":4540,"sentenceEnd":4675},{"word":"cannabis","begin":4663,"end":4670,"sentenceIndex":30,"sentenceBegin":4540,"sentenceEnd":4675},{"word":"cannabis","begin":5132,"end":5139,"sentenceIndex":33,"sentenceBegin":5053,"sentenceEnd":5181},{"word":"smoked","begin":5234,"end":5239,"sentenceIndex":34,"sentenceBegin":5183,"sentenceEnd":5322}]}
{"paperId":"a83cc9ccc67078d0cc83ad1876ed56340cef2f02","indicators":[{"word":"pot","begin":1028,"end":1030,"sentenceIndex":7,"sentenceBegin":985,"sentenceEnd":1120}]}
{"paperId":"a83cc9ccc67078d0cc83ad1876ed56340cef2f02","indicators":[{"word":"pot","begin":4740,"end":4742,"sentenceIndex":34,"sentenceBegin":4671,"sentenceEnd":4861}]}
{"paperId":"e44ccc59c4b47efc05e1c45782a7017f94e58f8a","indicators":[{"word":"cigarette","begin":692,"end":700,"sentenceIndex":6,"sentenceBegin":566,"sentenceEnd":1165},{"word":"smoking","begin":702,"end":708,"sentenceIndex":6,"sentenceBegin":566,"sentenceEnd":1165}]}
{"paperId":"e44ccc59c4b47efc05e1c45782a7017f94e58f8a","indicators":[{"word":"smoking","begin":377,"end":383,"sentenceIndex":2,"sentenceBegin":223,"sentenceEnd":462}]}
{"paperId":"e44ccc59c4b47efc05e1c45782a7017f94e58f8a","indicators":[{"word":"smoking","begin":1210,"end":1216,"sentenceIndex":11,"sentenceBegin":1187,"sentenceEnd":1313},{"word":"smoking","begin":1386,"end":1392,"sentenceIndex":12,"sentenceBegin":1315,"sentenceEnd":1476},{"word":"smoking","begin":2362,"end":2368,"sentenceIndex":19,"sentenceBegin":2283,"sentenceEnd":2369}]}
