{"paperId":"ffe9ca8d06f53d3b2c6ab8cc9bb56f8ec7e47506","indicators":[{"word":"smoking","begin":327,"end":333,"sentenceIndex":2,"sentenceBegin":204,"sentenceEnd":477}]}
{"paperId":"70542f1f1a2ced1e26658f62372e882da4c2b366","indicators":[{"word":"fume","begin":1237,"end":1240,"sentenceIndex":6,"sentenceBegin":1229,"sentenceEnd":1351}]}
{"paperId":"f7f429f4c379158f6501344560b28afa71fb7e3e","indicators":[{"word":"smoking","begin":896,"end":902,"sentenceIndex":1,"sentenceBegin":368,"sentenceEnd":1079}]}
{"paperId":"8f8ce6862a873117e07782cda4bbbfe19dbd9cd4","indicators":[{"word":"smoking","begin":400,"end":406,"sentenceIndex":2,"sentenceBegin":361,"sentenceEnd":475}]}
{"paperId":"83f1f588d9b4176873e39dfe0fd3e4db7bb0161e","indicators":[{"word":"smoke","begin":137,"end":141,"sentenceIndex":0,"sentenceBegin":0,"sentenceEnd":194}]}
{"paperId":"d04d63e56673f57ed326ebf2314e5b8192266a79","indicators":[{"word":"pots","begin":471,"end":474,"sentenceIndex":2,"sentenceBegin":366,"sentenceEnd":475}]}
{"paperId":"fdcf8309d26eae0e94846942fc347babc5365514","indicators":[{"word":"tobacco","begin":3683,"end":3689,"sentenceIndex":24,"sentenceBegin":3623,"sentenceEnd":3822}]}
{"paperId":"fdcf8309d26eae0e94846942fc347babc5365514","indicators":[{"word":"tobacco","begin":153,"end":159,"sentenceIndex":1,"sentenceBegin":110,"sentenceEnd":202}]}
{"paperId":"fdcf8309d26eae0e94846942fc347babc5365514","indicators":[{"word":"smoking","begin":660,"end":666,"sentenceIndex":6,"sentenceBegin":607,"sentenceEnd":740}]}
