{"paperId":"5d3612cd95331a2f0c43ef9d03ce583b5ff8c995","indicators":[{"word":"smoke","begin":183,"end":187,"sentenceIndex":1,"sentenceBegin":130,"sentenceEnd":271},{"word":"smoking","begin":226,"end":232,"sentenceIndex":1,"sentenceBegin":130,"sentenceEnd":271},{"word":"cigarettes","begin":236,"end":245,"sentenceIndex":1,"sentenceBegin":130,"sentenceEnd":271},{"word":"smoking","begin":307,"end":313,"sentenceIndex":2,"sentenceBegin":273,"sentenceEnd":412}]}
{"paperId":"5d3612cd95331a2f0c43ef9d03ce583b5ff8c995","indicators":[{"word":"smoking","begin":151,"end":157,"sentenceIndex":0,"sentenceBegin":0,"sentenceEnd":246}]}
{"paperId":"4243c383fd1f5076f864347e451e91976b3881f9","indicators":[{"word":"smoke","begin":416,"end":420,"sentenceIndex":2,"sentenceBegin":357,"sentenceEnd":503},{"word":"tobacco","begin":422,"end":428,"sentenceIndex":2,"sentenceBegin":357,"sentenceEnd":503}]}
{"paperId":"4243c383fd1f5076f864347e451e91976b3881f9","indicators":[{"word":"smoking","begin":126,"end":132,"sentenceIndex":2,"sentenceBegin":75,"sentenceEnd":295}]}
{"paperId":"4243c383fd1f5076f864347e451e91976b3881f9","indicators":[{"word":"tobacco","begin":112,"end":118,"sentenceIndex":0,"sentenceBegin":0,"sentenceEnd":226}]}
{"paperId":"b8f14403606246d14849fa4851da1657d65c3d92","indicators":[{"word":"smoking","begin":1060,"end":1066,"sentenceIndex":5,"sentenceBegin":1026,"sentenceEnd":1123},{"word":"smoking","begin":1930,"end":1936,"sentenceIndex":9,"sentenceBegin":1651,"sentenceEnd":2178},{"word":"smoking","begin":2757,"end":2763,"sentenceIndex":14,"sentenceBegin":2667,"sentenceEnd":2770},{"word":"smoking","begin":3611,"end":3617,"sentenceIndex":20,"sentenceBegin":3553,"sentenceEnd":3781},{"word":"smoking","begin":4782,"end":4788,"sentenceIndex":26,"sentenceBegin":4680,"sentenceEnd":4807}]}
{"paperId":"b8f14403606246d14849fa4851da1657d65c3d92","indicators":[{"word":"smoked","begin":17,"end":22,"sentenceIndex":0,"sentenceBegin":0,"sentenceEnd":131},{"word":"cigarettes","begin":27,"end":36,"sentenceIndex":0,"sentenceBegin":0,"sentenceEnd":131}]}
{"paperId":"aae9028bc39c23fd877b0059777933774b7bf2e0","indicators":[{"word":"vapor","begin":47,"end":51,"sentenceIndex":0,"sentenceBegin":0,"sentenceEnd":176}]}
