{"paperId":"d13f54d8707821fa9b45551e625d3babaa656ea6","indicators":[{"word":"smoking","begin":1105,"end":1111,"sentenceIndex":6,"sentenceBegin":1087,"sentenceEnd":1179}]}
{"paperId":"d13f54d8707821fa9b45551e625d3babaa656ea6","indicators":[{"word":"smoking","begin":161,"end":167,"sentenceIndex":0,"sentenceBegin":0,"sentenceEnd":357},{"word":"tobacco","begin":191,"end":197,"sentenceIndex":0,"sentenceBegin":0,"sentenceEnd":357},{"word":"smoke","begin":199,"end":203,"sentenceIndex":0,"sentenceBegin":0,"sentenceEnd":357},{"word":"smoking","begin":418,"end":424,"sentenceIndex":1,"sentenceBegin":358,"sentenceEnd":465},{"word":"smoking","begin":503,"end":509,"sentenceIndex":2,"sentenceBegin":467,"sentenceEnd":757},{"word":"smoking","begin":843,"end":849,"sentenceIndex":3,"sentenceBegin":759,"sentenceEnd":1017},{"word":"smoking","begin":1259,"end":1265,"sentenceIndex":4,"sentenceBegin":1019,"sentenceEnd":1802},{"word":"smoking","begin":1403,"end":1409,"sentenceIndex":4,"sentenceBegin":1019,"sentenceEnd":1802},{"word":"smoking","begin":1620,"end":1626,"sentenceIndex":4,"sentenceBegin":1019,"sentenceEnd":1802},{"word":"smoking","begin":1690,"end":1696,"sentenceIndex":4,"sentenceBegin":1019,"sentenceEnd":1802},{"word":"smoking","begin":1728,"end":1734,"sentenceIndex":4,"sentenceBegin":1019,"sentenceEnd":1802}]}
{"paperId":"d13f54d8707821fa9b45551e625d3babaa656ea6","indicators":[{"word":"cigarette","begin":1582,"end":1590,"sentenceIndex":8,"sentenceBegin":1524,"sentenceEnd":1722},{"word":"smoking","begin":1592,"end":1598,"sentenceIndex":8,"sentenceBegin":1524,"sentenceEnd":1722}]}
{"paperId":"fe37eb66fb77ca43a0b87f5282435487ddceca22","indicators":[{"word":"smoke","begin":257,"end":261,"sentenceIndex":1,"sentenceBegin":162,"sentenceEnd":306}]}
{"paperId":"2e71350d5ec38a60246970094c16acfb8536cc4b","indicators":[{"word":"smoke","begin":12,"end":16,"sentenceIndex":0,"sentenceBegin":0,"sentenceEnd":102}]}
