{"paperId":"a7691bee0606526138f9eb6698bb801843dcd1a3","indicators":[{"word":"smoke","begin":53,"end":57,"sentenceIndex":0,"sentenceBegin":0,"sentenceEnd":260},{"word":"smoke","begin":87,"end":91,"sentenceIndex":0,"sentenceBegin":0,"sentenceEnd":260},{"word":"vapor","begin":149,"end":153,"sentenceIndex":0,"sentenceBegin":0,"sentenceEnd":260},{"word":"smoke","begin":397,"end":401,"sentenceIndex":2,"sentenceBegin":377,"sentenceEnd":488},{"word":"smoke","begin":623,"end":627,"sentenceIndex":3,"sentenceBegin":490,"sentenceEnd":699},{"word":"smoke","begin":726,"end":730,"sentenceIndex":4,"sentenceBegin":701,"sentenceEnd":788}]}
{"paperId":"a7691bee0606526138f9eb6698bb801843dcd1a3","indicators":[{"word":"smoke","begin":617,"end":621,"sentenceIndex":3,"sentenceBegin":593,"sentenceEnd":731},{"word":"vapor","begin":668,"end":672,"sentenceIndex":3,"sentenceBegin":593,"sentenceEnd":731},{"word":"smoke","begin":795,"end":799,"sentenceIndex":4,"sentenceBegin":733,"sentenceEnd":948},{"word":"smoke","begin":838,"end":842,"sentenceIndex":4,"sentenceBegin":733,"sentenceEnd":948},{"word":"smoke","begin":905,"end":909,"sentenceIndex":4,"sentenceBegin":733,"sentenceEnd":948},{"word":"smoke","begin":984,"end":988,"sentenceIndex":5,"sentenceBegin":950,"sentenceEnd":1096},{"word":"smoke","begin":1062,"end":1066,"sentenceIndex":5,"sentenceBegin":950,"sentenceEnd":1096},{"word":"smoke","begin":1144,"end":1148,"sentenceIndex":6,"sentenceBegin":1098,"sentenceEnd":1385},{"word":"smoke","begin":1192,"end":1196,"sentenceIndex":6,"sentenceBegin":1098,"sentenceEnd":1385}]}
{"paperId":"3c0df01093bae8ce2748b00bb01a628c79149b2c","indicators":[{"word":"tobacco","begin":246,"end":252,"sentenceIndex":1,"sentenceBegin":119,"sentenceEnd":293}]}
{"paperId":"658e6f83e1348900667f14313ff45a131cebeace","indicators":[{"word":"tobacco","begin":282,"end":288,"sentenceIndex":1,"sentenceBegin":5,"sentenceEnd":389}]}
{"paperId":"658e6f83e1348900667f14313ff45a131cebeace","indicators":[{"word":"tobacco","begin":530,"end":536,"sentenceIndex":1,"sentenceBegin":297,"sentenceEnd":1056},{"word":"tobacco","begin":673,"end":679,"sentenceIndex":1,"sentenceBegin":297,"sentenceEnd":1056},{"word":"tobacco","begin":724,"end":730,"sentenceIndex":1,"sentenceBegin":297,"sentenceEnd":1056}]}
{"paperId":"3838b2df869ddff46732b32e670b41985fa5f799","indicators":[{"word":"smoking","begin":340,"end":346,"sentenceIndex":0,"sentenceBegin":0,"sentenceEnd":403}]}
