{"paperId":"1e4be0854ef4be9c55d2f9f2a27db2f8e8e4e136","indicators":[{"word":"smoking","begin":69,"end":75,"sentenceIndex":0,"sentenceBegin":0,"sentenceEnd":124}]}
{"paperId":"4c460df2e226944f68548cd0be4469391cc7a41b","indicators":[{"word":"smoke","begin":352,"end":356,"sentenceIndex":1,"sentenceBegin":294,"sentenceEnd":471}]}
{"paperId":"c55fdbdf1ff3c8389836d1e2db7d120dcc6e646a","indicators":[{"word":"tobacco","begin":1310,"end":1316,"sentenceIndex":7,"sentenceBegin":996,"sentenceEnd":1426},{"word":"smoke","begin":1318,"end":1322,"sentenceIndex":7,"sentenceBegin":996,"sentenceEnd":1426}]}
