{"paperId":"8f9f22f0d245cf41e5047230fa1c907b47a734ac","indicators":[{"word":"smoking","begin":759,"end":765,"sentenceIndex":3,"sentenceBegin":404,"sentenceEnd":766}]}
{"paperId":"8f9f22f0d245cf41e5047230fa1c907b47a734ac","indicators":[{"word":"smoking","begin":143,"end":149,"sentenceIndex":1,"sentenceBegin":15,"sentenceEnd":383}]}
{"paperId":"8f9f22f0d245cf41e5047230fa1c907b47a734ac","indicators":[{"word":"smoking","begin":512,"end":518,"sentenceIndex":3,"sentenceBegin":309,"sentenceEnd":544}]}
{"paperId":"c5a2342f2be367597c69efa11ae83c1a5dc98525","indicators":[{"word":"smoking","begin":604,"end":610,"sentenceIndex":1,"sentenceBegin":432,"sentenceEnd":622},{"word":"cigarettes","begin":612,"end":621,"sentenceIndex":1,"sentenceBegin":432,"sentenceEnd":622}]}
