{"paperId":"639778b4d707b45a6aca5e289ae3d6cd9722ff2e","indicators":[{"word":"smoking","begin":1285,"end":1291,"sentenceIndex":7,"sentenceBegin":1228,"sentenceEnd":1469},{"word":"smoking","begin":1736,"end":1742,"sentenceIndex":9,"sentenceBegin":1728,"sentenceEnd":1876}]}
{"paperId":"639778b4d707b45a6aca5e289ae3d6cd9722ff2e","indicators":[{"word":"smoking","begin":1013,"end":1019,"sentenceIndex":5,"sentenceBegin":966,"sentenceEnd":1201}]}
{"paperId":"f2a9cdee5bb36cffa2a9cef520a7d79d8dd93563","indicators":[{"word":"smoke","begin":758,"end":762,"sentenceIndex":4,"sentenceBegin":587,"sentenceEnd":773},{"word":"smoke","begin":1006,"end":1010,"sentenceIndex":6,"sentenceBegin":971,"sentenceEnd":1231},{"word":"smoke","begin":2221,"end":2225,"sentenceIndex":11,"sentenceBegin":2211,"sentenceEnd":2342},{"word":"smoke","begin":2371,"end":2375,"sentenceIndex":12,"sentenceBegin":2344,"sentenceEnd":2434}]}
