{"paperId":"dcd78e744a290195f90a2d9cb26b653bef89435c","indicators":[{"word":"tobacco","begin":2030,"end":2036,"sentenceIndex":12,"sentenceBegin":1823,"sentenceEnd":2164}]}
{"paperId":"a188077530b3758029048129a53c8cdd870a60f3","indicators":[{"word":"vapor","begin":969,"end":973,"sentenceIndex":5,"sentenceBegin":905,"sentenceEnd":1071}]}
{"paperId":"a188077530b3758029048129a53c8cdd870a60f3","indicators":[{"word":"vapor","begin":57,"end":61,"sentenceIndex":0,"sentenceBegin":0,"sentenceEnd":133}]}
{"paperId":"a188077530b3758029048129a53c8cdd870a60f3","indicators":[{"word":"vapor","begin":57,"end":61,"sentenceIndex":0,"sentenceBegin":0,"sentenceEnd":198}]}
{"paperId":"749c4dec6f5641cd973b97cfd1b8ef97aef9eabd","indicators":[{"word":"fires","begin":935,"end":939,"sentenceIndex":7,"sentenceBegin":885,"sentenceEnd":1132}]}
{"paperId":"a5d44eaf14b7ed5402af3501540147d36b314824","indicators":[{"word":"smoke","begin":587,"end":591,"sentenceIndex":3,"sentenceBegin":524,"sentenceEnd":694}]}
{"paperId":"a5d44eaf14b7ed5402af3501540147d36b314824","indicators":[{"word":"smoke","begin":587,"end":591,"sentenceIndex":3,"sentenceBegin":487,"sentenceEnd":648},{"word":"smoke","begin":707,"end":711,"sentenceIndex":4,"sentenceBegin":650,"sentenceEnd":798}]}
{"paperId":"a5d44eaf14b7ed5402af3501540147d36b314824","indicators":[{"word":"smoke","begin":60,"end":64,"sentenceIndex":0,"sentenceBegin":0,"sentenceEnd":131},{"word":"smoke","begin":259,"end":263,"sentenceIndex":2,"sentenceBegin":255,"sentenceEnd":291},{"word":"smoke","begin":379,"end":383,"sentenceIndex":3,"sentenceBegin":293,"sentenceEnd":472},{"word":"smoke","begin":495,"end":499,"sentenceIndex":4,"sentenceBegin":474,"sentenceEnd":585},{"word":"smoke","begin":621,"end":625,"sentenceIndex":5,"sentenceBegin":587,"sentenceEnd":731},{"word":"smoke","begin":756,"end":760,"sentenceIndex":6,"sentenceBegin":733,"sentenceEnd":870},{"word":"smoke","begin":905,"end":909,"sentenceIndex":7,"sentenceBegin":872,"sentenceEnd":1018},{"word":"smoke","begin":950,"end":954,"sentenceIndex":7,"sentenceBegin":872,"sentenceEnd":1018},{"word":"smoke","begin":1040,"end":1044,"sentenceIndex":8,"sentenceBegin":1020,"sentenceEnd":1079},{"word":"smoke","begin":1134,"end":1138,"sentenceIndex":9,"sentenceBegin":1081,"sentenceEnd":1195},{"word":"smoke","begin":1613,"end":1617,"sentenceIndex":12,"sentenceBegin":1500,"sentenceEnd":1683},{"word":"smoke","begin":1759,"end":1763,"sentenceIndex":14,"sentenceBegin":1717,"sentenceEnd":1776},{"word":"smoke","begin":1862,"end":1866,"sentenceIndex":15,"sentenceBegin":1778,"sentenceEnd":1949},{"word":"smoke","begin":2129,"end":2133,"sentenceIndex":16,"sentenceBegin":1951,"sentenceEnd":2147}]}
{"paperId":"a5d44eaf14b7ed5402af3501540147d36b314824","indicators":[{"word":"smoke","begin":172,"end":176,"sentenceIndex":1,"sentenceBegin":85,"sentenceEnd":188},{"word":"smoke","begin":726,"end":730,"sentenceIndex":7,"sentenceBegin":590,"sentenceEnd":740}]}
{"paperId":"a5d44eaf14b7ed5402af3501540147d36b314824","indicators":[{"word":"smoke","begin":98,"end":102,"sentenceIndex":0,"sentenceBegin":0,"sentenceEnd":200},{"word":"smoke","begin":744,"end":748,"sentenceIndex":6,"sentenceBegin":676,"sentenceEnd":749}]}
{"paperId":"a5d44eaf14b7ed5402af3501540147d36b314824","indicators":[{"word":"smoke","begin":187,"end":191,"sentenceIndex":0,"sentenceBegin":0,"sentenceEnd":199}]}
{"paperId":"a5d44eaf14b7ed5402af3501540147d36b314824","indicators":[{"word":"smoke","begin":57,"end":61,"sentenceIndex":0,"sentenceBegin":0,"sentenceEnd":166},{"word":"smoke","begin":105,"end":109,"sentenceIndex":0,"sentenceBegin":0,"sentenceEnd":166},{"word":"smoke","begin":430,"end":434,"sentenceIndex":2,"sentenceBegin":371,"sentenceEnd":494},{"word":"smoke","begin":540,"end":544,"sentenceIndex":3,"sentenceBegin":496,"sentenceEnd":568}]}
{"paperId":"a5d44eaf14b7ed5402af3501540147d36b314824","indicators":[{"word":"smoke","begin":9,"end":13,"sentenceIndex":0,"sentenceBegin":0,"sentenceEnd":85},{"word":"smoke","begin":111,"end":115,"sentenceIndex":1,"sentenceBegin":87,"sentenceEnd":216}]}
{"paperId":"a5d44eaf14b7ed5402af3501540147d36b314824","indicators":[{"word":"smoke","begin":73,"end":77,"sentenceIndex":0,"sentenceBegin":0,"sentenceEnd":100}]}
{"paperId":"a5d44eaf14b7ed5402af3501540147d36b314824","indicators":[{"word":"smoke","begin":29,"end":33,"sentenceIndex":0,"sentenceBegin":0,"sentenceEnd":66}]}
{"paperId":"a5d44eaf14b7ed5402af3501540147d36b314824","indicators":[{"word":"smoke","begin":69,"end":73,"sentenceIndex":0,"sentenceBegin":0,"sentenceEnd":198},{"word":"smoke","begin":164,"end":168,"sentenceIndex":0,"sentenceBegin":0,"sentenceEnd":198},{"word":"smoke","begin":434,"end":438,"sentenceIndex":3,"sentenceBegin":351,"sentenceEnd":500}]}
{"paperId":"a5d44eaf14b7ed5402af3501540147d36b314824","indicators":[{"word":"smoke","begin":296,"end":300,"sentenceIndex":1,"sentenceBegin":179,"sentenceEnd":337}]}
{"paperId":"a5d44eaf14b7ed5402af3501540147d36b314824","indicators":[{"word":"smoke","begin":450,"end":454,"sentenceIndex":7,"sentenceBegin":438,"sentenceEnd":493},{"word":"smoke","begin":476,"end":480,"sentenceIndex":7,"sentenceBegin":438,"sentenceEnd":493},{"word":"smoke","begin":608,"end":612,"sentenceIndex":9,"sentenceBegin":583,"sentenceEnd":693},{"word":"smoke","begin":699,"end":703,"sentenceIndex":10,"sentenceBegin":695,"sentenceEnd":861},{"word":"smoke","begin":779,"end":783,"sentenceIndex":10,"sentenceBegin":695,"sentenceEnd":861},{"word":"smoke","begin":905,"end":909,"sentenceIndex":12,"sentenceBegin":879,"sentenceEnd":962},{"word":"smoke","begin":1053,"end":1057,"sentenceIndex":15,"sentenceBegin":1045,"sentenceEnd":1064},{"word":"smoke","begin":1224,"end":1228,"sentenceIndex":18,"sentenceBegin":1198,"sentenceEnd":1275}]}
