{"paperId":"9e9aaaacb26e95ceec9d7465ce65972e1fd84a7a","indicators":[{"word":"fume","begin":146,"end":149,"sentenceIndex":0,"sentenceBegin":0,"sentenceEnd":234},{"word":"tobacco","begin":1579,"end":1585,"sentenceIndex":10,"sentenceBegin":1444,"sentenceEnd":1662},{"word":"smoke","begin":1587,"end":1591,"sentenceIndex":10,"sentenceBegin":1444,"sentenceEnd":1662}]}
{"paperId":"0257972a954e28aa23013f8a197c3dba95263229","indicators":[{"word":"fired","begin":361,"end":365,"sentenceIndex":3,"sentenceBegin":335,"sentenceEnd":387}]}
{"paperId":"4ccf92a10161f9693cbeb8681298a224613b1275","indicators":[{"word":"smoke","begin":667,"end":671,"sentenceIndex":3,"sentenceBegin":581,"sentenceEnd":681}]}
{"paperId":"b9cfa51a20b411553782bea2df83efb708eb5baa","indicators":[{"word":"cigarette","begin":1145,"end":1153,"sentenceIndex":5,"sentenceBegin":982,"sentenceEnd":1160},{"word":"smoke","begin":1155,"end":1159,"sentenceIndex":5,"sentenceBegin":982,"sentenceEnd":1160}]}
{"paperId":"3710e2103c08529734356e27c858a5f266a83244","indicators":[{"word":"tobacco","begin":2867,"end":2873,"sentenceIndex":18,"sentenceBegin":2718,"sentenceEnd":3024}]}
{"paperId":"aa7fca3d5bcd3cf20701f65e94403fcd66159f2b","indicators":[{"word":"vapor","begin":771,"end":775,"sentenceIndex":3,"sentenceBegin":524,"sentenceEnd":835}]}
{"paperId":"bc0eeb2bcd49eacb4545b8a56b4e70b0360d2043","indicators":[{"word":"vapor","begin":811,"end":815,"sentenceIndex":4,"sentenceBegin":604,"sentenceEnd":834}]}
