{"paperId":"aaa9c4d0448ad52a4b6bd3eb5374414ce23e68f3","indicators":[{"word":"smoking","begin":422,"end":428,"sentenceIndex":2,"sentenceBegin":273,"sentenceEnd":449}]}
{"paperId":"78e39a957cc704ddc919e704459258e55178f574","indicators":[{"word":"smoking","begin":1067,"end":1073,"sentenceIndex":5,"sentenceBegin":878,"sentenceEnd":1074}]}
{"paperId":"78e39a957cc704ddc919e704459258e55178f574","indicators":[{"word":"smoking","begin":1975,"end":1981,"sentenceIndex":11,"sentenceBegin":1769,"sentenceEnd":2056}]}
{"paperId":"785b4fd92a0b90e2a4240595dfd0a8df68814188","indicators":[{"word":"smoking","begin":1180,"end":1186,"sentenceIndex":8,"sentenceBegin":961,"sentenceEnd":1208}]}
{"paperId":"9759372186923259321dfef84e484242523242aa","indicators":[{"word":"smoking","begin":1599,"end":1605,"sentenceIndex":20,"sentenceBegin":1484,"sentenceEnd":1667}]}
{"paperId":"9759372186923259321dfef84e484242523242aa","indicators":[{"word":"tobacco","begin":702,"end":708,"sentenceIndex":3,"sentenceBegin":606,"sentenceEnd":832}]}
{"paperId":"bd03989f50be745c024e74eec7ff32d0d5cc30d4","indicators":[{"word":"cigarette","begin":211,"end":219,"sentenceIndex":0,"sentenceBegin":0,"sentenceEnd":323},{"word":"smoking","begin":221,"end":227,"sentenceIndex":0,"sentenceBegin":0,"sentenceEnd":323}]}
{"paperId":"87f8af3ffb4677f381c9c7b4e0f3fe34e3979e4c","indicators":[{"word":"fires","begin":1319,"end":1323,"sentenceIndex":9,"sentenceBegin":800,"sentenceEnd":1432}]}
