{"paperId":"87fa087f549d0f3bc1448b5f66864cf58984b6ea","indicators":[{"word":"smoking","begin":572,"end":578,"sentenceIndex":3,"sentenceBegin":432,"sentenceEnd":803}]}
{"paperId":"87fa087f549d0f3bc1448b5f66864cf58984b6ea","indicators":[{"word":"smoking","begin":485,"end":491,"sentenceIndex":4,"sentenceBegin":432,"sentenceEnd":579}]}
{"paperId":"87fa087f549d0f3bc1448b5f66864cf58984b6ea","indicators":[{"word":"smoking","begin":517,"end":523,"sentenceIndex":3,"sentenceBegin":508,"sentenceEnd":647}]}
{"paperId":"87fa087f549d0f3bc1448b5f66864cf58984b6ea","indicators":[{"word":"smoking","begin":1334,"end":1340,"sentenceIndex":11,"sentenceBegin":1303,"sentenceEnd":1376}]}
