{"paperId":"b9cb404426faeb54df8732bb11ec0f94b4e6710b","indicators":[{"word":"smoking","begin":49,"end":55,"sentenceIndex":0,"sentenceBegin":0,"sentenceEnd":111}]}
{"paperId":"fa280d5f127621cd42685ceb8dd6e3b6e051106a","indicators":[{"word":"tobacco","begin":409,"end":415,"sentenceIndex":0,"sentenceBegin":0,"sentenceEnd":444}]}
{"paperId":"fa280d5f127621cd42685ceb8dd6e3b6e051106a","indicators":[{"word":"tobacco","begin":465,"end":471,"sentenceIndex":3,"sentenceBegin":426,"sentenceEnd":488}]}
{"paperId":"fa280d5f127621cd42685ceb8dd6e3b6e051106a","indicators":[{"word":"tobacco","begin":210,"end":216,"sentenceIndex":0,"sentenceBegin":0,"sentenceEnd":225},{"word":"tobacco","begin":386,"end":392,"sentenceIndex":1,"sentenceBegin":227,"sentenceEnd":459},{"word":"tobacco","begin":676,"end":682,"sentenceIndex":2,"sentenceBegin":461,"sentenceEnd":691}]}
{"paperId":"fa280d5f127621cd42685ceb8dd6e3b6e051106a","indicators":[{"word":"tobacco","begin":449,"end":455,"sentenceIndex":1,"sentenceBegin":264,"sentenceEnd":499},{"word":"tobacco","begin":778,"end":784,"sentenceIndex":3,"sentenceBegin":717,"sentenceEnd":961},{"word":"cigarettes","begin":863,"end":872,"sentenceIndex":3,"sentenceBegin":717,"sentenceEnd":961}]}
{"paperId":"fa280d5f127621cd42685ceb8dd6e3b6e051106a","indicators":[{"word":"tobacco","begin":415,"end":421,"sentenceIndex":0,"sentenceBegin":0,"sentenceEnd":1003},{"word":"tobacco","begin":615,"end":621,"sentenceIndex":0,"sentenceBegin":0,"sentenceEnd":1003},{"word":"tobacco","begin":754,"end":760,"sentenceIndex":0,"sentenceBegin":0,"sentenceEnd":1003},{"word":"tobacco","begin":944,"end":950,"sentenceIndex":0,"sentenceBegin":0,"sentenceEnd":1003}]}
{"paperId":"fa280d5f127621cd42685ceb8dd6e3b6e051106a","indicators":[{"word":"tobacco","begin":709,"end":715,"sentenceIndex":3,"sentenceBegin":583,"sentenceEnd":787}]}
{"paperId":"60a3c6f441aff320017f61160b124818112fd4e1","indicators":[{"word":"smoking","begin":622,"end":628,"sentenceIndex":4,"sentenceBegin":547,"sentenceEnd":651}]}
{"paperId":"b7bf262f26d5b7587025e9bb2acd529b129e8dd8","indicators":[{"word":"tobacco","begin":31,"end":37,"sentenceIndex":0,"sentenceBegin":0,"sentenceEnd":141}]}
{"paperId":"b7bf262f26d5b7587025e9bb2acd529b129e8dd8","indicators":[{"word":"tobacco","begin":423,"end":429,"sentenceIndex":4,"sentenceBegin":422,"sentenceEnd":447}]}
{"paperId":"b7bf262f26d5b7587025e9bb2acd529b129e8dd8","indicators":[{"word":"smoking","begin":73,"end":79,"sentenceIndex":0,"sentenceBegin":0,"sentenceEnd":138}]}
{"paperId":"f0c59334d5915eeff928ac8542aecafe243988eb","indicators":[{"word":"weeding","begin":1839,"end":1845,"sentenceIndex":10,"sentenceBegin":1773,"sentenceEnd":1930}]}
{"paperId":"f0c59334d5915eeff928ac8542aecafe243988eb","indicators":[{"word":"tobacco","begin":684,"end":690,"sentenceIndex":6,"sentenceBegin":642,"sentenceEnd":743}]}
{"paperId":"f0c59334d5915eeff928ac8542aecafe243988eb","indicators":[{"word":"tobacco","begin":72,"end":78,"sentenceIndex":0,"sentenceBegin":0,"sentenceEnd":203}]}
{"paperId":"f0c59334d5915eeff928ac8542aecafe243988eb","indicators":[{"word":"tobacco","begin":367,"end":373,"sentenceIndex":2,"sentenceBegin":242,"sentenceEnd":495}]}
{"paperId":"f0c59334d5915eeff928ac8542aecafe243988eb","indicators":[{"word":"fires","begin":231,"end":235,"sentenceIndex":1,"sentenceBegin":81,"sentenceEnd":244}]}
{"paperId":"df00dae042a148c2be3d0d1aa08d75c142f467fa","indicators":[{"word":"smoking","begin":805,"end":811,"sentenceIndex":5,"sentenceBegin":545,"sentenceEnd":828}]}
