{"paperId":"f78e42ceb8806f8b8cb4f58de4391cb3ba81bde3","indicators":[{"word":"firing","begin":29,"end":34,"sentenceIndex":0,"sentenceBegin":0,"sentenceEnd":117}]}
{"paperId":"687d5a409dcfcf11bc43c781c63138f19b3328bd","indicators":[{"word":"firing","begin":514,"end":519,"sentenceIndex":4,"sentenceBegin":510,"sentenceEnd":680},{"word":"firing","begin":710,"end":715,"sentenceIndex":5,"sentenceBegin":682,"sentenceEnd":874},{"word":"firing","begin":789,"end":794,"sentenceIndex":5,"sentenceBegin":682,"sentenceEnd":874}]}
{"paperId":"99a3774ff408724afcda0708fc3c3223c0c74c6a","indicators":[{"word":"cigarette","begin":943,"end":951,"sentenceIndex":5,"sentenceBegin":841,"sentenceEnd":1121},{"word":"smoke","begin":953,"end":957,"sentenceIndex":5,"sentenceBegin":841,"sentenceEnd":1121}]}
{"paperId":"316c73a11f0ca258c4d40d515023a15704ef146d","indicators":[{"word":"tobacco","begin":1267,"end":1273,"sentenceIndex":7,"sentenceBegin":1257,"sentenceEnd":1485}]}
{"paperId":"91a672be533dd4bc35a9415bbef7470bc4ba3505","indicators":[{"word":"vapor","begin":289,"end":293,"sentenceIndex":5,"sentenceBegin":183,"sentenceEnd":380}]}
