{"paperId":"62ab015a6740ff4283ef2be166bc6e2181ecb49e","indicators":[{"word":"smoking","begin":326,"end":332,"sentenceIndex":3,"sentenceBegin":183,"sentenceEnd":461}]}
{"paperId":"62ab015a6740ff4283ef2be166bc6e2181ecb49e","indicators":[{"word":"smoking","begin":2109,"end":2115,"sentenceIndex":15,"sentenceBegin":2046,"sentenceEnd":2242}]}
{"paperId":"9ae6cb033d897375701030b434e9f8bd3a22c801","indicators":[{"word":"smoking","begin":33,"end":39,"sentenceIndex":0,"sentenceBegin":0,"sentenceEnd":167}]}
{"paperId":"cfcc3c2e1ffe559ada6e0bc0445b12c46953852a","indicators":[{"word":"smoking","begin":547,"end":553,"sentenceIndex":3,"sentenceBegin":457,"sentenceEnd":701}]}
