{"paperId":"f90706bbb06cb2fa2992200bddfa2a3305f52b67","indicators":[{"word":"smoke","begin":772,"end":776,"sentenceIndex":4,"sentenceBegin":723,"sentenceEnd":911}]}
{"paperId":"f90706bbb06cb2fa2992200bddfa2a3305f52b67","indicators":[{"word":"smoking","begin":439,"end":445,"sentenceIndex":5,"sentenceBegin":370,"sentenceEnd":446}]}
{"paperId":"a19bb174be837fd7a2cbee20a107a21cf5c23465","indicators":[{"word":"smoking","begin":127,"end":133,"sentenceIndex":0,"sentenceBegin":0,"sentenceEnd":383}]}
{"paperId":"617cab118c7bd531d1b418bd487935b250342f42","indicators":[{"word":"smoke","begin":178,"end":182,"sentenceIndex":0,"sentenceBegin":0,"sentenceEnd":230},{"word":"smoke","begin":431,"end":435,"sentenceIndex":2,"sentenceBegin":380,"sentenceEnd":465},{"word":"smoke","begin":1177,"end":1181,"sentenceIndex":5,"sentenceBegin":976,"sentenceEnd":1310}]}
{"paperId":"924dc69ab73fbedf0c55ba2f7cd22e76710512ea","indicators":[{"word":"tobacco","begin":637,"end":643,"sentenceIndex":4,"sentenceBegin":419,"sentenceEnd":771},{"word":"smoke","begin":645,"end":649,"sentenceIndex":4,"sentenceBegin":419,"sentenceEnd":771}]}
{"paperId":"924dc69ab73fbedf0c55ba2f7cd22e76710512ea","indicators":[{"word":"tobacco","begin":711,"end":717,"sentenceIndex":5,"sentenceBegin":621,"sentenceEnd":851}]}
