{"paperId":"d991b861db1ee7ad1e3ceb451f1db173bceb5e06","indicators":[{"word":"fires","begin":89,"end":93,"sentenceIndex":0,"sentenceBegin":0,"sentenceEnd":852}]}
{"paperId":"d991b861db1ee7ad1e3ceb451f1db173bceb5e06","indicators":[{"word":"smog","begin":819,"end":822,"sentenceIndex":4,"sentenceBegin":803,"sentenceEnd":871}]}
{"paperId":"920acf7b75dd6f84138e5352f7b28aad1973c327","indicators":[{"word":"smoking","begin":649,"end":655,"sentenceIndex":2,"sentenceBegin":484,"sentenceEnd":667}]}
{"paperId":"920acf7b75dd6f84138e5352f7b28aad1973c327","indicators":[{"word":"smoking","begin":1858,"end":1864,"sentenceIndex":10,"sentenceBegin":1745,"sentenceEnd":1899}]}
