{"paperId":"60adbf0d0d329f806c32c4588a98b2180e9d4d47","indicators":[{"word":"smoking","begin":414,"end":420,"sentenceIndex":1,"sentenceBegin":240,"sentenceEnd":441}]}
{"paperId":"80a789fb3ed3279911f241585e315718b54c9a91","indicators":[{"word":"tobacco","begin":97,"end":103,"sentenceIndex":0,"sentenceBegin":0,"sentenceEnd":177},{"word":"tobacco","begin":247,"end":253,"sentenceIndex":1,"sentenceBegin":179,"sentenceEnd":417}]}
{"paperId":"80a789fb3ed3279911f241585e315718b54c9a91","indicators":[{"word":"tobacco","begin":120,"end":126,"sentenceIndex":1,"sentenceBegin":90,"sentenceEnd":231}]}
{"paperId":"c3d89880544a9acb730e542ec5baf824a18f0ebc","indicators":[{"word":"tobacco","begin":380,"end":386,"sentenceIndex":1,"sentenceBegin":352,"sentenceEnd":612}]}
{"paperId":"c3d89880544a9acb730e542ec5baf824a18f0ebc","indicators":[{"word":"tobacco","begin":850,"end":856,"sentenceIndex":2,"sentenceBegin":599,"sentenceEnd":952},{"word":"tobacco","begin":1553,"end":1559,"sentenceIndex":5,"sentenceBegin":1489,"sentenceEnd":1688}]}
{"paperId":"c3d89880544a9acb730e542ec5baf824a18f0ebc","indicators":[{"word":"tobacco","begin":555,"end":561,"sentenceIndex":2,"sentenceBegin":515,"sentenceEnd":830}]}
{"paperId":"c3d89880544a9acb730e542ec5baf824a18f0ebc","indicators":[{"word":"tobacco","begin":2132,"end":2138,"sentenceIndex":7,"sentenceBegin":1739,"sentenceEnd":2164}]}
{"paperId":"c3d89880544a9acb730e542ec5baf824a18f0ebc","indicators":[{"word":"tobacco","begin":547,"end":553,"sentenceIndex":3,"sentenceBegin":468,"sentenceEnd":785}]}
{"paperId":"c3d89880544a9acb730e542ec5baf824a18f0ebc","indicators":[{"word":"tobacco","begin":422,"end":428,"sentenceIndex":1,"sentenceBegin":280,"sentenceEnd":574}]}
{"paperId":"c3d89880544a9acb730e542ec5baf824a18f0ebc","indicators":[{"word":"tobacco","begin":827,"end":833,"sentenceIndex":3,"sentenceBegin":563,"sentenceEnd":969}]}
{"paperId":"c3d89880544a9acb730e542ec5baf824a18f0ebc","indicators":[{"word":"tobacco","begin":328,"end":334,"sentenceIndex":0,"sentenceBegin":0,"sentenceEnd":388}]}
{"paperId":"e1cb37388a01591c61ae3cd907d082c388ae5f8b","indicators":[{"word":"vapor","begin":2174,"end":2178,"sentenceIndex":14,"sentenceBegin":2034,"sentenceEnd":2293}]}
{"paperId":"a7118a0d4c72cf0da36bace12353c90327555724","indicators":[{"word":"tobacco","begin":1173,"end":1179,"sentenceIndex":5,"sentenceBegin":1086,"sentenceEnd":1323}]}
