{"paperId":"2a190ca8e93aa8792b5e624265779be6f03c7e4f","indicators":[{"word":"cigarette","begin":51,"end":59,"sentenceIndex":0,"sentenceBegin":0,"sentenceEnd":86},{"word":"smoking","begin":61,"end":67,"sentenceIndex":0,"sentenceBegin":0,"sentenceEnd":86}]}
{"paperId":"2a190ca8e93aa8792b5e624265779be6f03c7e4f","indicators":[{"word":"tobacco","begin":1054,"end":1060,"sentenceIndex":5,"sentenceBegin":827,"sentenceEnd":1067}]}
{"paperId":"fdb94e59b4aeee3c39ea906dfef8a165df22aa8c","indicators":[{"word":"tobacco","begin":139,"end":145,"sentenceIndex":0,"sentenceBegin":0,"sentenceEnd":276},{"word":"smoking","begin":147,"end":153,"sentenceIndex":0,"sentenceBegin":0,"sentenceEnd":276},{"word":"smoking","begin":891,"end":897,"sentenceIndex":3,"sentenceBegin":808,"sentenceEnd":965}]}
{"paperId":"fdb94e59b4aeee3c39ea906dfef8a165df22aa8c","indicators":[{"word":"tobacco","begin":62,"end":68,"sentenceIndex":0,"sentenceBegin":0,"sentenceEnd":147},{"word":"smoking","begin":70,"end":76,"sentenceIndex":0,"sentenceBegin":0,"sentenceEnd":147}]}
{"paperId":"83303635687128ac583152565ba1d7e29540f2af","indicators":[{"word":"smoking","begin":214,"end":220,"sentenceIndex":1,"sentenceBegin":168,"sentenceEnd":406}]}
{"paperId":"83303635687128ac583152565ba1d7e29540f2af","indicators":[{"word":"vapor","begin":5671,"end":5675,"sentenceIndex":31,"sentenceBegin":5595,"sentenceEnd":5808},{"word":"vapor","begin":5865,"end":5869,"sentenceIndex":32,"sentenceBegin":5810,"sentenceEnd":6023}]}
{"paperId":"bc912d69b77f71e9535faf750cd992207b6d6d06","indicators":[{"word":"tobacco","begin":898,"end":904,"sentenceIndex":2,"sentenceBegin":813,"sentenceEnd":942}]}
{"paperId":"35477b5b3fc628beebed14a100dfe3b63383eb6f","indicators":[{"word":"vapor","begin":83,"end":87,"sentenceIndex":0,"sentenceBegin":0,"sentenceEnd":198},{"word":"vapor","begin":262,"end":266,"sentenceIndex":4,"sentenceBegin":227,"sentenceEnd":455},{"word":"vapor","begin":291,"end":295,"sentenceIndex":4,"sentenceBegin":227,"sentenceEnd":455},{"word":"vapor","begin":595,"end":599,"sentenceIndex":5,"sentenceBegin":457,"sentenceEnd":827},{"word":"vapor","begin":1205,"end":1209,"sentenceIndex":9,"sentenceBegin":1153,"sentenceEnd":1337}]}
{"paperId":"35477b5b3fc628beebed14a100dfe3b63383eb6f","indicators":[{"word":"vapor","begin":381,"end":385,"sentenceIndex":4,"sentenceBegin":278,"sentenceEnd":454}]}
{"paperId":"35477b5b3fc628beebed14a100dfe3b63383eb6f","indicators":[{"word":"vapor","begin":1461,"end":1465,"sentenceIndex":13,"sentenceBegin":1332,"sentenceEnd":1547}]}
{"paperId":"35477b5b3fc628beebed14a100dfe3b63383eb6f","indicators":[{"word":"vapor","begin":199,"end":203,"sentenceIndex":1,"sentenceBegin":142,"sentenceEnd":285}]}
{"paperId":"35477b5b3fc628beebed14a100dfe3b63383eb6f","indicators":[{"word":"vapor","begin":623,"end":627,"sentenceIndex":6,"sentenceBegin":582,"sentenceEnd":743}]}
{"paperId":"35477b5b3fc628beebed14a100dfe3b63383eb6f","indicators":[{"word":"vapor","begin":430,"end":434,"sentenceIndex":4,"sentenceBegin":357,"sentenceEnd":650}]}
