{"paperId":"350dbb4ac3a9a8633c1a6f5fc31548fabb205177","indicators":[{"word":"smoke","begin":542,"end":546,"sentenceIndex":0,"sentenceBegin":0,"sentenceEnd":690}]}
{"paperId":"8f56db944dc1d208f31e2f1fab1b9b87fb3e38f5","indicators":[{"word":"smoking","begin":593,"end":599,"sentenceIndex":6,"sentenceBegin":571,"sentenceEnd":653}]}
{"paperId":"8f56db944dc1d208f31e2f1fab1b9b87fb3e38f5","indicators":[{"word":"smoking","begin":15,"end":21,"sentenceIndex":0,"sentenceBegin":0,"sentenceEnd":178}]}
{"paperId":"8f56db944dc1d208f31e2f1fab1b9b87fb3e38f5","indicators":[{"word":"smoking","begin":87,"end":93,"sentenceIndex":1,"sentenceBegin":36,"sentenceEnd":141}]}
{"paperId":"e22b9ea6bfe840f94e9e78375904cd4022c4061e","indicators":[{"word":"tobacco","begin":402,"end":408,"sentenceIndex":2,"sentenceBegin":258,"sentenceEnd":413}]}
{"paperId":"34622ed87ea8466a2eb4d1e398de0a9689639e39","indicators":[{"word":"cigarette","begin":261,"end":269,"sentenceIndex":0,"sentenceBegin":0,"sentenceEnd":358},{"word":"smoking","begin":271,"end":277,"sentenceIndex":0,"sentenceBegin":0,"sentenceEnd":358}]}
{"paperId":"34622ed87ea8466a2eb4d1e398de0a9689639e39","indicators":[{"word":"tobacco","begin":1084,"end":1090,"sentenceIndex":5,"sentenceBegin":999,"sentenceEnd":1105},{"word":"smoking","begin":1092,"end":1098,"sentenceIndex":5,"sentenceBegin":999,"sentenceEnd":1105}]}
{"paperId":"34622ed87ea8466a2eb4d1e398de0a9689639e39","indicators":[{"word":"smoking","begin":177,"end":183,"sentenceIndex":0,"sentenceBegin":0,"sentenceEnd":190},{"word":"cigarette","begin":891,"end":899,"sentenceIndex":3,"sentenceBegin":846,"sentenceEnd":1044},{"word":"smoke","begin":901,"end":905,"sentenceIndex":3,"sentenceBegin":846,"sentenceEnd":1044}]}
