{"paperId":"4058f501befb12058bf03f1044e438f2bc3a3fd1","indicators":[{"word":"tobacco","begin":399,"end":405,"sentenceIndex":2,"sentenceBegin":246,"sentenceEnd":447}]}
{"paperId":"4058f501befb12058bf03f1044e438f2bc3a3fd1","indicators":[{"word":"tobacco","begin":1816,"end":1822,"sentenceIndex":12,"sentenceBegin":1662,"sentenceEnd":1924}]}
{"paperId":"bfaf7c8e5f7689b5e2f152c6cc3b0988eb855a3f","indicators":[{"word":"smog","begin":726,"end":729,"sentenceIndex":0,"sentenceBegin":0,"sentenceEnd":836}]}
{"paperId":"bfaf7c8e5f7689b5e2f152c6cc3b0988eb855a3f","indicators":[{"word":"fires","begin":474,"end":478,"sentenceIndex":8,"sentenceBegin":469,"sentenceEnd":479}]}
{"paperId":"03d05413ecb3b0ee5d1c5194187708621b93326a","indicators":[{"word":"fires","begin":733,"end":737,"sentenceIndex":6,"sentenceBegin":681,"sentenceEnd":847}]}
{"paperId":"03d05413ecb3b0ee5d1c5194187708621b93326a","indicators":[{"word":"smoked","begin":161,"end":166,"sentenceIndex":1,"sentenceBegin":145,"sentenceEnd":242}]}
{"paperId":"5d4b5bdc1610ce04feb451a2145d25cf84a1001b","indicators":[{"word":"tobacco","begin":825,"end":831,"sentenceIndex":4,"sentenceBegin":732,"sentenceEnd":885},{"word":"smoke","begin":833,"end":837,"sentenceIndex":4,"sentenceBegin":732,"sentenceEnd":885}]}
