{"paperId":"17f62c630bf8d79a14e65a7fc832ca4f7979fa7f","indicators":[{"word":"smoking","begin":682,"end":688,"sentenceIndex":3,"sentenceBegin":526,"sentenceEnd":719},{"word":"cigarettes","begin":695,"end":704,"sentenceIndex":3,"sentenceBegin":526,"sentenceEnd":719}]}
{"paperId":"42b7eafdc0e040310ae317bd4a9de5aad31059fe","indicators":[{"word":"smoking","begin":334,"end":340,"sentenceIndex":2,"sentenceBegin":297,"sentenceEnd":452}]}
{"paperId":"42b7eafdc0e040310ae317bd4a9de5aad31059fe","indicators":[{"word":"smoking","begin":19,"end":25,"sentenceIndex":0,"sentenceBegin":0,"sentenceEnd":94}]}
{"paperId":"42b7eafdc0e040310ae317bd4a9de5aad31059fe","indicators":[{"word":"smoking","begin":115,"end":121,"sentenceIndex":1,"sentenceBegin":43,"sentenceEnd":139}]}
{"paperId":"42b7eafdc0e040310ae317bd4a9de5aad31059fe","indicators":[{"word":"smoking","begin":74,"end":80,"sentenceIndex":0,"sentenceBegin":0,"sentenceEnd":334},{"word":"smoking","begin":258,"end":264,"sentenceIndex":0,"sentenceBegin":0,"sentenceEnd":334}]}
{"paperId":"df12835fc71095abb0a7591b07e574648d309fab","indicators":[{"word":"smoking","begin":1301,"end":1307,"sentenceIndex":8,"sentenceBegin":1284,"sentenceEnd":1548},{"word":"tobacco","begin":1436,"end":1442,"sentenceIndex":8,"sentenceBegin":1284,"sentenceEnd":1548}]}
