{"paperId":"8c700541878caab6db1da8743bc579373e3111f7","indicators":[{"word":"smoking","begin":2892,"end":2898,"sentenceIndex":14,"sentenceBegin":2888,"sentenceEnd":2977}]}
{"paperId":"25215a670c123836836f684bce16b400163a11de","indicators":[{"word":"tobacco","begin":1460,"end":1466,"sentenceIndex":6,"sentenceBegin":1231,"sentenceEnd":1476},{"word":"smoke","begin":1468,"end":1472,"sentenceIndex":6,"sentenceBegin":1231,"sentenceEnd":1476}]}
{"paperId":"25215a670c123836836f684bce16b400163a11de","indicators":[{"word":"cigarette","begin":513,"end":521,"sentenceIndex":2,"sentenceBegin":441,"sentenceEnd":600},{"word":"smoke","begin":523,"end":527,"sentenceIndex":2,"sentenceBegin":441,"sentenceEnd":600}]}
{"paperId":"25215a670c123836836f684bce16b400163a11de","indicators":[{"word":"tobacco","begin":74,"end":80,"sentenceIndex":0,"sentenceBegin":0,"sentenceEnd":240},{"word":"smoke","begin":82,"end":86,"sentenceIndex":0,"sentenceBegin":0,"sentenceEnd":240},{"word":"tobacco","begin":169,"end":175,"sentenceIndex":0,"sentenceBegin":0,"sentenceEnd":240},{"word":"smoke","begin":177,"end":181,"sentenceIndex":0,"sentenceBegin":0,"sentenceEnd":240},{"word":"smoking","begin":302,"end":308,"sentenceIndex":1,"sentenceBegin":242,"sentenceEnd":497},{"word":"tobacco","begin":576,"end":582,"sentenceIndex":2,"sentenceBegin":499,"sentenceEnd":632},{"word":"smoke","begin":584,"end":588,"sentenceIndex":2,"sentenceBegin":499,"sentenceEnd":632}]}
{"paperId":"e294d06f78dfc78efb03a686f61f138d38751d84","indicators":[{"word":"fires","begin":249,"end":253,"sentenceIndex":2,"sentenceBegin":178,"sentenceEnd":254}]}
