{"paperId":"75190d522270846a04259d7eea0f6719c92af34b","indicators":[{"word":"smoking","begin":48,"end":54,"sentenceIndex":0,"sentenceBegin":0,"sentenceEnd":122}]}
{"paperId":"74a801e5f4940c1f743a8a07f30442412fd7dc30","indicators":[{"word":"tobacco","begin":421,"end":427,"sentenceIndex":3,"sentenceBegin":380,"sentenceEnd":529},{"word":"tobacco","begin":567,"end":573,"sentenceIndex":4,"sentenceBegin":531,"sentenceEnd":707}]}
{"paperId":"74a801e5f4940c1f743a8a07f30442412fd7dc30","indicators":[{"word":"tobacco","begin":250,"end":256,"sentenceIndex":1,"sentenceBegin":212,"sentenceEnd":317}]}
{"paperId":"74a801e5f4940c1f743a8a07f30442412fd7dc30","indicators":[{"word":"tobacco","begin":15,"end":21,"sentenceIndex":0,"sentenceBegin":0,"sentenceEnd":257}]}
{"paperId":"74a801e5f4940c1f743a8a07f30442412fd7dc30","indicators":[{"word":"tobacco","begin":686,"end":692,"sentenceIndex":7,"sentenceBegin":608,"sentenceEnd":735}]}
{"paperId":"74a801e5f4940c1f743a8a07f30442412fd7dc30","indicators":[{"word":"tobacco","begin":88,"end":94,"sentenceIndex":0,"sentenceBegin":0,"sentenceEnd":162},{"word":"tobacco","begin":183,"end":189,"sentenceIndex":1,"sentenceBegin":164,"sentenceEnd":269}]}
{"paperId":"74a801e5f4940c1f743a8a07f30442412fd7dc30","indicators":[{"word":"tobacco","begin":503,"end":509,"sentenceIndex":4,"sentenceBegin":482,"sentenceEnd":591}]}
{"paperId":"74a801e5f4940c1f743a8a07f30442412fd7dc30","indicators":[{"word":"tobacco","begin":299,"end":305,"sentenceIndex":4,"sentenceBegin":196,"sentenceEnd":388},{"word":"tobacco","begin":485,"end":491,"sentenceIndex":5,"sentenceBegin":390,"sentenceEnd":525},{"word":"tobacco","begin":758,"end":764,"sentenceIndex":7,"sentenceBegin":672,"sentenceEnd":851},{"word":"tobacco","begin":1124,"end":1130,"sentenceIndex":10,"sentenceBegin":1071,"sentenceEnd":1319}]}
{"paperId":"74a801e5f4940c1f743a8a07f30442412fd7dc30","indicators":[{"word":"tobacco","begin":890,"end":896,"sentenceIndex":6,"sentenceBegin":788,"sentenceEnd":954}]}
{"paperId":"74a801e5f4940c1f743a8a07f30442412fd7dc30","indicators":[{"word":"tobacco","begin":269,"end":275,"sentenceIndex":2,"sentenceBegin":209,"sentenceEnd":362}]}
{"paperId":"74a801e5f4940c1f743a8a07f30442412fd7dc30","indicators":[{"word":"tobacco","begin":1206,"end":1212,"sentenceIndex":21,"sentenceBegin":1110,"sentenceEnd":1223}]}
{"paperId":"be71767f04ac3aceb1dc247251cd83cbb6a91bd2","indicators":[{"word":"smoking","begin":2000,"end":2006,"sentenceIndex":11,"sentenceBegin":1981,"sentenceEnd":2119}]}
