{"paperId":"0ef794460797f82cf30e8f8cfd83fb34f0673122","indicators":[{"word":"smoking","begin":164,"end":170,"sentenceIndex":0,"sentenceBegin":0,"sentenceEnd":691}]}
{"paperId":"0ef794460797f82cf30e8f8cfd83fb34f0673122","indicators":[{"word":"smoking","begin":234,"end":240,"sentenceIndex":0,"sentenceBegin":0,"sentenceEnd":268}]}
{"paperId":"0ef794460797f82cf30e8f8cfd83fb34f0673122","indicators":[{"word":"smoking","begin":555,"end":561,"sentenceIndex":3,"sentenceBegin":544,"sentenceEnd":682}]}
{"paperId":"0ef794460797f82cf30e8f8cfd83fb34f0673122","indicators":[{"word":"smoking","begin":1547,"end":1553,"sentenceIndex":6,"sentenceBegin":1390,"sentenceEnd":1574}]}
{"paperId":"0ef794460797f82cf30e8f8cfd83fb34f0673122","indicators":[{"word":"smoking","begin":813,"end":819,"sentenceIndex":4,"sentenceBegin":653,"sentenceEnd":922}]}
