{"paperId":"5d8ef8845a3bc5696ff3aad2063793e36145701c","indicators":[{"word":"smoke","begin":108,"end":112,"sentenceIndex":0,"sentenceBegin":0,"sentenceEnd":152},{"word":"tobacco","begin":178,"end":184,"sentenceIndex":1,"sentenceBegin":154,"sentenceEnd":239},{"word":"smoke","begin":186,"end":190,"sentenceIndex":1,"sentenceBegin":154,"sentenceEnd":239}]}
{"paperId":"53b7087c5519fd69c606a2d3de52e9b6b7799945","indicators":[{"word":"smoke","begin":108,"end":112,"sentenceIndex":0,"sentenceBegin":0,"sentenceEnd":152},{"word":"tobacco","begin":178,"end":184,"sentenceIndex":1,"sentenceBegin":154,"sentenceEnd":239},{"word":"smoke","begin":186,"end":190,"sentenceIndex":1,"sentenceBegin":154,"sentenceEnd":239}]}
{"paperId":"5bcd3c424887a848429ff1027ac2aacf50944fbf","indicators":[{"word":"tobacco","begin":162,"end":168,"sentenceIndex":1,"sentenceBegin":94,"sentenceEnd":267},{"word":"smoke","begin":170,"end":174,"sentenceIndex":1,"sentenceBegin":94,"sentenceEnd":267}]}
