{"paperId":"705b0c701546541fbe8c4d7a0f72c641ce7c3ae7","indicators":[{"word":"smoking","begin":623,"end":629,"sentenceIndex":2,"sentenceBegin":534,"sentenceEnd":693}]}
{"paperId":"705b0c701546541fbe8c4d7a0f72c641ce7c3ae7","indicators":[{"word":"fumes","begin":336,"end":340,"sentenceIndex":1,"sentenceBegin":171,"sentenceEnd":351},{"word":"fumes","begin":1445,"end":1449,"sentenceIndex":10,"sentenceBegin":1346,"sentenceEnd":1531}]}
{"paperId":"f2948dc01fd28774bb06b6c6995bec2a2f466f2a","indicators":[{"word":"fires","begin":282,"end":286,"sentenceIndex":3,"sentenceBegin":250,"sentenceEnd":329}]}
{"paperId":"f2948dc01fd28774bb06b6c6995bec2a2f466f2a","indicators":[{"word":"fires","begin":32,"end":36,"sentenceIndex":0,"sentenceBegin":0,"sentenceEnd":79}]}
{"paperId":"f2948dc01fd28774bb06b6c6995bec2a2f466f2a","indicators":[{"word":"fires","begin":32,"end":36,"sentenceIndex":0,"sentenceBegin":0,"sentenceEnd":79}]}
{"paperId":"3b4bc962d72c33b624a9da08ab94b1c0253eeb4c","indicators":[{"word":"smoking","begin":857,"end":863,"sentenceIndex":3,"sentenceBegin":535,"sentenceEnd":911},{"word":"smoking","begin":1360,"end":1366,"sentenceIndex":5,"sentenceBegin":1088,"sentenceEnd":1413}]}
{"paperId":"3b4bc962d72c33b624a9da08ab94b1c0253eeb4c","indicators":[{"word":"cigarette","begin":252,"end":260,"sentenceIndex":1,"sentenceBegin":87,"sentenceEnd":280}]}
{"paperId":"3b4bc962d72c33b624a9da08ab94b1c0253eeb4c","indicators":[{"word":"cigarette","begin":496,"end":504,"sentenceIndex":3,"sentenceBegin":424,"sentenceEnd":538},{"word":"smoke","begin":506,"end":510,"sentenceIndex":3,"sentenceBegin":424,"sentenceEnd":538}]}
{"paperId":"3b4bc962d72c33b624a9da08ab94b1c0253eeb4c","indicators":[{"word":"cigarette","begin":56,"end":64,"sentenceIndex":0,"sentenceBegin":0,"sentenceEnd":91},{"word":"cigarette","begin":125,"end":133,"sentenceIndex":1,"sentenceBegin":93,"sentenceEnd":258},{"word":"smoke","begin":135,"end":139,"sentenceIndex":1,"sentenceBegin":93,"sentenceEnd":258}]}
{"paperId":"3b4bc962d72c33b624a9da08ab94b1c0253eeb4c","indicators":[{"word":"cigarette","begin":1805,"end":1813,"sentenceIndex":12,"sentenceBegin":1678,"sentenceEnd":1833}]}
