{"paperId":"e7bc46f034680ddb6a54066f10cebbb030a71dba","indicators":[{"word":"smoking","begin":293,"end":299,"sentenceIndex":3,"sentenceBegin":259,"sentenceEnd":411}]}
{"paperId":"4cc085a789f41b1df596a469e2cd119e3aef0ae0","indicators":[{"word":"smoke","begin":539,"end":543,"sentenceIndex":4,"sentenceBegin":416,"sentenceEnd":589}]}
{"paperId":"4cc085a789f41b1df596a469e2cd119e3aef0ae0","indicators":[{"word":"smoking","begin":127,"end":133,"sentenceIndex":0,"sentenceBegin":0,"sentenceEnd":144}]}
{"paperId":"636d7cd5ff6e719a558c1c29a6d5940accf8bc79","indicators":[{"word":"vapor","begin":209,"end":213,"sentenceIndex":3,"sentenceBegin":179,"sentenceEnd":260}]}
{"paperId":"636d7cd5ff6e719a558c1c29a6d5940accf8bc79","indicators":[{"word":"vapor","begin":267,"end":271,"sentenceIndex":4,"sentenceBegin":97,"sentenceEnd":469},{"word":"vapor","begin":427,"end":431,"sentenceIndex":4,"sentenceBegin":97,"sentenceEnd":469}]}
{"paperId":"636d7cd5ff6e719a558c1c29a6d5940accf8bc79","indicators":[{"word":"vapor","begin":652,"end":656,"sentenceIndex":4,"sentenceBegin":591,"sentenceEnd":849},{"word":"vapor","begin":798,"end":802,"sentenceIndex":4,"sentenceBegin":591,"sentenceEnd":849}]}
