{"paperId":"82a44217b10d03f0a13031dacfc1e48b68f42714","indicators":[{"word":"smoking","begin":1159,"end":1165,"sentenceIndex":7,"sentenceBegin":1052,"sentenceEnd":1253}]}
{"paperId":"4576a8b9e11a9c6fe5bdf863f316269eb2c3acc9","indicators":[{"word":"firing","begin":2065,"end":2070,"sentenceIndex":14,"sentenceBegin":1794,"sentenceEnd":2188}]}
{"paperId":"4576a8b9e11a9c6fe5bdf863f316269eb2c3acc9","indicators":[{"word":"fired","begin":1290,"end":1294,"sentenceIndex":15,"sentenceBegin":1249,"sentenceEnd":1406}]}
{"paperId":"6fc5451ad208c577bedaa833f62cb11956254c12","indicators":[{"word":"vapor","begin":834,"end":838,"sentenceIndex":6,"sentenceBegin":659,"sentenceEnd":907}]}
{"paperId":"5115542569db1d5007b9f0f7e691bc55a4cf7068","indicators":[{"word":"smoking","begin":91,"end":97,"sentenceIndex":1,"sentenceBegin":69,"sentenceEnd":150}]}
