{"paperId":"ee48061797d29eeef5a9e606841bf8ab04b1d75b","indicators":[{"word":"firing","begin":750,"end":755,"sentenceIndex":5,"sentenceBegin":623,"sentenceEnd":844}]}
{"paperId":"c5cd9f41ba26fabb0c1f75fa2e214dc7ad2fc319","indicators":[{"word":"smoking","begin":366,"end":372,"sentenceIndex":1,"sentenceBegin":120,"sentenceEnd":373}]}
{"paperId":"c5cd9f41ba26fabb0c1f75fa2e214dc7ad2fc319","indicators":[{"word":"smoking","begin":13,"end":19,"sentenceIndex":0,"sentenceBegin":0,"sentenceEnd":83},{"word":"cigarette","begin":129,"end":137,"sentenceIndex":1,"sentenceBegin":85,"sentenceEnd":328},{"word":"smoke","begin":139,"end":143,"sentenceIndex":1,"sentenceBegin":85,"sentenceEnd":328},{"word":"cigarette","begin":353,"end":361,"sentenceIndex":2,"sentenceBegin":330,"sentenceEnd":428},{"word":"smoke","begin":363,"end":367,"sentenceIndex":2,"sentenceBegin":330,"sentenceEnd":428}]}
{"paperId":"6190f652430d632f4d19d7fa7030bf2af12b6fae","indicators":[{"word":"smoking","begin":607,"end":613,"sentenceIndex":4,"sentenceBegin":523,"sentenceEnd":735}]}
