{"paperId":"b6ccfd5dcb8970df391aeaed0992cb00251fc7f1","indicators":[{"word":"smoked","begin":241,"end":246,"sentenceIndex":2,"sentenceBegin":227,"sentenceEnd":323}]}
{"paperId":"a067e2f480db0b7e4acce6e85706104405b65fb5","indicators":[{"word":"tobacco","begin":767,"end":773,"sentenceIndex":3,"sentenceBegin":699,"sentenceEnd":866},{"word":"tobacco","begin":912,"end":918,"sentenceIndex":4,"sentenceBegin":868,"sentenceEnd":980},{"word":"smoking","begin":1004,"end":1010,"sentenceIndex":5,"sentenceBegin":982,"sentenceEnd":1145},{"word":"tobacco","begin":1211,"end":1217,"sentenceIndex":6,"sentenceBegin":1147,"sentenceEnd":1393},{"word":"tobacco","begin":1303,"end":1309,"sentenceIndex":6,"sentenceBegin":1147,"sentenceEnd":1393},{"word":"tobacco","begin":1352,"end":1358,"sentenceIndex":6,"sentenceBegin":1147,"sentenceEnd":1393},{"word":"tobacco","begin":1664,"end":1670,"sentenceIndex":8,"sentenceBegin":1576,"sentenceEnd":1848},{"word":"smoking","begin":1824,"end":1830,"sentenceIndex":8,"sentenceBegin":1576,"sentenceEnd":1848}]}
{"paperId":"a067e2f480db0b7e4acce6e85706104405b65fb5","indicators":[{"word":"tobacco","begin":146,"end":152,"sentenceIndex":1,"sentenceBegin":105,"sentenceEnd":372},{"word":"smoking","begin":342,"end":348,"sentenceIndex":1,"sentenceBegin":105,"sentenceEnd":372}]}
{"paperId":"a067e2f480db0b7e4acce6e85706104405b65fb5","indicators":[{"word":"tobacco","begin":33,"end":39,"sentenceIndex":0,"sentenceBegin":0,"sentenceEnd":230},{"word":"smoking","begin":475,"end":481,"sentenceIndex":3,"sentenceBegin":408,"sentenceEnd":552},{"word":"smoking","begin":572,"end":578,"sentenceIndex":4,"sentenceBegin":554,"sentenceEnd":838},{"word":"tobacco","begin":674,"end":680,"sentenceIndex":4,"sentenceBegin":554,"sentenceEnd":838}]}
{"paperId":"d9ed7a0923a82e156ac47d1ac40c60a137ddebd0","indicators":[{"word":"smoke","begin":63,"end":67,"sentenceIndex":0,"sentenceBegin":0,"sentenceEnd":103},{"word":"cigarette","begin":774,"end":782,"sentenceIndex":4,"sentenceBegin":682,"sentenceEnd":926},{"word":"smoke","begin":784,"end":788,"sentenceIndex":4,"sentenceBegin":682,"sentenceEnd":926}]}
{"paperId":"a2687c7252cae50850dcf431295516495382e28d","indicators":[{"word":"smoke","begin":1307,"end":1311,"sentenceIndex":9,"sentenceBegin":1257,"sentenceEnd":1417},{"word":"smoke","begin":1356,"end":1360,"sentenceIndex":9,"sentenceBegin":1257,"sentenceEnd":1417}]}
