{"paperId":"ca5b0374e1226b4e98aa7c06e5f732b1bd7a2659","indicators":[{"word":"smoking","begin":227,"end":233,"sentenceIndex":0,"sentenceBegin":0,"sentenceEnd":452}]}
{"paperId":"ca5b0374e1226b4e98aa7c06e5f732b1bd7a2659","indicators":[{"word":"smoking","begin":446,"end":452,"sentenceIndex":1,"sentenceBegin":67,"sentenceEnd":670}]}
{"paperId":"d19f119cae8090d127b1b9ef6bee95e37b62c5b5","indicators":[{"word":"smoking","begin":170,"end":176,"sentenceIndex":0,"sentenceBegin":0,"sentenceEnd":218}]}
{"paperId":"2de55052d14aa603b291e99d82ac897112eea8c9","indicators":[{"word":"firing","begin":298,"end":303,"sentenceIndex":2,"sentenceBegin":232,"sentenceEnd":446}]}
{"paperId":"2de55052d14aa603b291e99d82ac897112eea8c9","indicators":[{"word":"firing","begin":93,"end":98,"sentenceIndex":0,"sentenceBegin":0,"sentenceEnd":112}]}
{"paperId":"2de55052d14aa603b291e99d82ac897112eea8c9","indicators":[{"word":"firing","begin":159,"end":164,"sentenceIndex":2,"sentenceBegin":83,"sentenceEnd":197},{"word":"firing","begin":524,"end":529,"sentenceIndex":4,"sentenceBegin":448,"sentenceEnd":552}]}
{"paperId":"2de55052d14aa603b291e99d82ac897112eea8c9","indicators":[{"word":"firing","begin":670,"end":675,"sentenceIndex":2,"sentenceBegin":479,"sentenceEnd":784}]}
{"paperId":"2de55052d14aa603b291e99d82ac897112eea8c9","indicators":[{"word":"firing","begin":84,"end":89,"sentenceIndex":0,"sentenceBegin":0,"sentenceEnd":174}]}
{"paperId":"548c8db18a49ac9cff5c210765be6849541fcd8c","indicators":[{"word":"smoking","begin":952,"end":958,"sentenceIndex":5,"sentenceBegin":921,"sentenceEnd":1011},{"word":"smoking","begin":1096,"end":1102,"sentenceIndex":6,"sentenceBegin":1013,"sentenceEnd":1331}]}
{"paperId":"2a2098bf05065b18dc38c644f9c1e40973e9950d","indicators":[{"word":"vapor","begin":1295,"end":1299,"sentenceIndex":10,"sentenceBegin":1174,"sentenceEnd":1388}]}
{"paperId":"cf44177a07bf13f4ee0ffd4a19d99fee471fe91b","indicators":[{"word":"tobacco","begin":503,"end":509,"sentenceIndex":5,"sentenceBegin":366,"sentenceEnd":517}]}
{"paperId":"cf44177a07bf13f4ee0ffd4a19d99fee471fe91b","indicators":[{"word":"tobacco","begin":145,"end":151,"sentenceIndex":1,"sentenceBegin":116,"sentenceEnd":239},{"word":"tobacco","begin":390,"end":396,"sentenceIndex":3,"sentenceBegin":345,"sentenceEnd":498}]}
{"paperId":"cf44177a07bf13f4ee0ffd4a19d99fee471fe91b","indicators":[{"word":"tobacco","begin":491,"end":497,"sentenceIndex":3,"sentenceBegin":469,"sentenceEnd":624}]}
{"paperId":"cf44177a07bf13f4ee0ffd4a19d99fee471fe91b","indicators":[{"word":"tobacco","begin":53,"end":59,"sentenceIndex":0,"sentenceBegin":0,"sentenceEnd":135},{"word":"tobacco","begin":451,"end":457,"sentenceIndex":7,"sentenceBegin":408,"sentenceEnd":476}]}
{"paperId":"cf44177a07bf13f4ee0ffd4a19d99fee471fe91b","indicators":[{"word":"tobacco","begin":134,"end":140,"sentenceIndex":0,"sentenceBegin":0,"sentenceEnd":141}]}
{"paperId":"cf44177a07bf13f4ee0ffd4a19d99fee471fe91b","indicators":[{"word":"tobacco","begin":33,"end":39,"sentenceIndex":0,"sentenceBegin":0,"sentenceEnd":150}]}
{"paperId":"dc92199f668f16ab7778d221c4c195a131649bf9","indicators":[{"word":"cigarette","begin":485,"end":493,"sentenceIndex":5,"sentenceBegin":314,"sentenceEnd":616},{"word":"smoking","begin":495,"end":501,"sentenceIndex":5,"sentenceBegin":314,"sentenceEnd":616},{"word":"fumes","begin":571,"end":575,"sentenceIndex":5,"sentenceBegin":314,"sentenceEnd":616}]}
{"paperId":"47bd7df352db2b1b093566b04fc328d6f0292c1b","indicators":[{"word":"smoke","begin":2221,"end":2225,"sentenceIndex":14,"sentenceBegin":2080,"sentenceEnd":2226}]}
{"paperId":"47bd7df352db2b1b093566b04fc328d6f0292c1b","indicators":[{"word":"smoking","begin":376,"end":382,"sentenceIndex":5,"sentenceBegin":338,"sentenceEnd":488}]}
