{"paperId":"25a266332d6c8fe251b29a52a42759fd5bb388e2","indicators":[{"word":"tobacco","begin":33,"end":39,"sentenceIndex":0,"sentenceBegin":0,"sentenceEnd":121}]}
{"paperId":"ae0547531bec47c718e9f48ebb2454d9fdf4e487","indicators":[{"word":"tobacco","begin":152,"end":158,"sentenceIndex":0,"sentenceBegin":0,"sentenceEnd":166}]}
{"paperId":"e0b224fe2d730d330103dc9ceee26580f44bec75","indicators":[{"word":"smoking","begin":1634,"end":1640,"sentenceIndex":11,"sentenceBegin":1624,"sentenceEnd":1774}]}
