{"paperId":"c1c6b537e51322eb5067f5a3a9137d223152d7c3","indicators":[{"word":"smoke","begin":1220,"end":1224,"sentenceIndex":10,"sentenceBegin":1205,"sentenceEnd":1335}]}
{"paperId":"3f3df95953918ed64ed5a4032944d270423e195a","indicators":[{"word":"vapor","begin":202,"end":206,"sentenceIndex":0,"sentenceBegin":0,"sentenceEnd":217}]}
{"paperId":"f4720c0d98eed96cf243f669e3c5fd3785ff4d79","indicators":[{"word":"smoke","begin":1426,"end":1430,"sentenceIndex":8,"sentenceBegin":1180,"sentenceEnd":1431},{"word":"smoke","begin":1560,"end":1564,"sentenceIndex":9,"sentenceBegin":1433,"sentenceEnd":1625}]}
{"paperId":"9cb73dbd4f45909df3fcf5b137c25305400644a8","indicators":[{"word":"tobacco","begin":645,"end":651,"sentenceIndex":3,"sentenceBegin":386,"sentenceEnd":728}]}
