{"paperId":"69e371c50524b55e7e91f0c9ba9f0d2422ee24df","indicators":[{"word":"vapor","begin":2313,"end":2317,"sentenceIndex":29,"sentenceBegin":1993,"sentenceEnd":2416}]}
{"paperId":"69e371c50524b55e7e91f0c9ba9f0d2422ee24df","indicators":[{"word":"vapor","begin":158,"end":162,"sentenceIndex":1,"sentenceBegin":43,"sentenceEnd":227},{"word":"vapor","begin":296,"end":300,"sentenceIndex":3,"sentenceBegin":269,"sentenceEnd":405}]}
{"paperId":"69e371c50524b55e7e91f0c9ba9f0d2422ee24df","indicators":[{"word":"vapor","begin":18,"end":22,"sentenceIndex":0,"sentenceBegin":0,"sentenceEnd":158}]}
{"paperId":"69e371c50524b55e7e91f0c9ba9f0d2422ee24df","indicators":[{"word":"vapor","begin":343,"end":347,"sentenceIndex":2,"sentenceBegin":160,"sentenceEnd":453}]}
{"paperId":"69e371c50524b55e7e91f0c9ba9f0d2422ee24df","indicators":[{"word":"vapor","begin":770,"end":774,"sentenceIndex":5,"sentenceBegin":728,"sentenceEnd":905}]}
{"paperId":"69e371c50524b55e7e91f0c9ba9f0d2422ee24df","indicators":[{"word":"vapor","begin":608,"end":612,"sentenceIndex":4,"sentenceBegin":558,"sentenceEnd":838}]}
{"paperId":"69e371c50524b55e7e91f0c9ba9f0d2422ee24df","indicators":[{"word":"vapor","begin":273,"end":277,"sentenceIndex":2,"sentenceBegin":263,"sentenceEnd":387}]}
{"paperId":"69e371c50524b55e7e91f0c9ba9f0d2422ee24df","indicators":[{"word":"vapor","begin":30,"end":34,"sentenceIndex":0,"sentenceBegin":0,"sentenceEnd":49}]}
{"paperId":"69e371c50524b55e7e91f0c9ba9f0d2422ee24df","indicators":[{"word":"vapor","begin":283,"end":287,"sentenceIndex":1,"sentenceBegin":39,"sentenceEnd":323}]}
{"paperId":"69e371c50524b55e7e91f0c9ba9f0d2422ee24df","indicators":[{"word":"vapor","begin":183,"end":187,"sentenceIndex":2,"sentenceBegin":135,"sentenceEnd":312},{"word":"vapor","begin":241,"end":245,"sentenceIndex":2,"sentenceBegin":135,"sentenceEnd":312},{"word":"vapor","begin":350,"end":354,"sentenceIndex":3,"sentenceBegin":314,"sentenceEnd":430}]}
{"paperId":"69e371c50524b55e7e91f0c9ba9f0d2422ee24df","indicators":[{"word":"vapor","begin":20,"end":24,"sentenceIndex":0,"sentenceBegin":0,"sentenceEnd":238}]}
{"paperId":"69e371c50524b55e7e91f0c9ba9f0d2422ee24df","indicators":[{"word":"vapor","begin":194,"end":198,"sentenceIndex":1,"sentenceBegin":129,"sentenceEnd":546},{"word":"vapor","begin":364,"end":368,"sentenceIndex":1,"sentenceBegin":129,"sentenceEnd":546},{"word":"vapor","begin":521,"end":525,"sentenceIndex":1,"sentenceBegin":129,"sentenceEnd":546}]}
{"paperId":"69e371c50524b55e7e91f0c9ba9f0d2422ee24df","indicators":[{"word":"vapor","begin":53,"end":57,"sentenceIndex":0,"sentenceBegin":0,"sentenceEnd":125},{"word":"vapor","begin":103,"end":107,"sentenceIndex":0,"sentenceBegin":0,"sentenceEnd":125}]}
{"paperId":"69e371c50524b55e7e91f0c9ba9f0d2422ee24df","indicators":[{"word":"vapor","begin":303,"end":307,"sentenceIndex":1,"sentenceBegin":163,"sentenceEnd":325}]}
{"paperId":"69e371c50524b55e7e91f0c9ba9f0d2422ee24df","indicators":[{"word":"vapor","begin":189,"end":193,"sentenceIndex":1,"sentenceBegin":63,"sentenceEnd":229}]}
{"paperId":"69e371c50524b55e7e91f0c9ba9f0d2422ee24df","indicators":[{"word":"vapor","begin":40,"end":44,"sentenceIndex":0,"sentenceBegin":0,"sentenceEnd":63}]}
{"paperId":"69e371c50524b55e7e91f0c9ba9f0d2422ee24df","indicators":[{"word":"vapor","begin":303,"end":307,"sentenceIndex":1,"sentenceBegin":102,"sentenceEnd":348}]}
{"paperId":"69e371c50524b55e7e91f0c9ba9f0d2422ee24df","indicators":[{"word":"vapor","begin":1001,"end":1005,"sentenceIndex":4,"sentenceBegin":728,"sentenceEnd":1160}]}
{"paperId":"db9afaa302dcdb85b08c3b28e5f168e6a33121a3","indicators":[{"word":"smoke","begin":769,"end":773,"sentenceIndex":4,"sentenceBegin":712,"sentenceEnd":869},{"word":"smoke","begin":1067,"end":1071,"sentenceIndex":5,"sentenceBegin":871,"sentenceEnd":1161}]}
{"paperId":"8c6c55c18d9101412887cea6524549e5cec4c98f","indicators":[{"word":"tobacco","begin":380,"end":386,"sentenceIndex":4,"sentenceBegin":283,"sentenceEnd":498},{"word":"tobacco","begin":1158,"end":1164,"sentenceIndex":12,"sentenceBegin":1124,"sentenceEnd":1346},{"word":"tobacco","begin":1674,"end":1680,"sentenceIndex":14,"sentenceBegin":1496,"sentenceEnd":1794}]}
{"paperId":"8c6c55c18d9101412887cea6524549e5cec4c98f","indicators":[{"word":"tobacco","begin":9,"end":15,"sentenceIndex":0,"sentenceBegin":0,"sentenceEnd":211},{"word":"tobacco","begin":645,"end":651,"sentenceIndex":4,"sentenceBegin":543,"sentenceEnd":680}]}
{"paperId":"8c6c55c18d9101412887cea6524549e5cec4c98f","indicators":[{"word":"tobacco","begin":981,"end":987,"sentenceIndex":6,"sentenceBegin":927,"sentenceEnd":1108},{"word":"tobacco","begin":1078,"end":1084,"sentenceIndex":6,"sentenceBegin":927,"sentenceEnd":1108},{"word":"tobacco","begin":1187,"end":1193,"sentenceIndex":8,"sentenceBegin":1125,"sentenceEnd":1212},{"word":"tobacco","begin":1287,"end":1293,"sentenceIndex":9,"sentenceBegin":1214,"sentenceEnd":1301}]}
{"paperId":"8c6c55c18d9101412887cea6524549e5cec4c98f","indicators":[{"word":"tobacco","begin":332,"end":338,"sentenceIndex":2,"sentenceBegin":199,"sentenceEnd":429}]}
{"paperId":"8c6c55c18d9101412887cea6524549e5cec4c98f","indicators":[{"word":"tobacco","begin":816,"end":822,"sentenceIndex":4,"sentenceBegin":667,"sentenceEnd":830},{"word":"tobacco","begin":881,"end":887,"sentenceIndex":5,"sentenceBegin":832,"sentenceEnd":938}]}
{"paperId":"8c6c55c18d9101412887cea6524549e5cec4c98f","indicators":[{"word":"tobacco","begin":1218,"end":1224,"sentenceIndex":8,"sentenceBegin":1106,"sentenceEnd":1259},{"word":"tobacco","begin":1909,"end":1915,"sentenceIndex":14,"sentenceBegin":1721,"sentenceEnd":1923},{"word":"tobacco","begin":1936,"end":1942,"sentenceIndex":15,"sentenceBegin":1925,"sentenceEnd":2163}]}
{"paperId":"8c6c55c18d9101412887cea6524549e5cec4c98f","indicators":[{"word":"tobacco","begin":289,"end":295,"sentenceIndex":2,"sentenceBegin":200,"sentenceEnd":463}]}
{"paperId":"8c6c55c18d9101412887cea6524549e5cec4c98f","indicators":[{"word":"tobacco","begin":84,"end":90,"sentenceIndex":0,"sentenceBegin":0,"sentenceEnd":113}]}
{"paperId":"8c6c55c18d9101412887cea6524549e5cec4c98f","indicators":[{"word":"tobacco","begin":1891,"end":1897,"sentenceIndex":12,"sentenceBegin":1790,"sentenceEnd":2009}]}
{"paperId":"8c6c55c18d9101412887cea6524549e5cec4c98f","indicators":[{"word":"tobacco","begin":183,"end":189,"sentenceIndex":2,"sentenceBegin":102,"sentenceEnd":221},{"word":"tobacco","begin":252,"end":258,"sentenceIndex":3,"sentenceBegin":223,"sentenceEnd":375}]}
{"paperId":"8c6c55c18d9101412887cea6524549e5cec4c98f","indicators":[{"word":"tobacco","begin":101,"end":107,"sentenceIndex":0,"sentenceBegin":0,"sentenceEnd":187}]}
{"paperId":"8c6c55c18d9101412887cea6524549e5cec4c98f","indicators":[{"word":"tobacco","begin":124,"end":130,"sentenceIndex":1,"sentenceBegin":44,"sentenceEnd":150}]}
{"paperId":"8c6c55c18d9101412887cea6524549e5cec4c98f","indicators":[{"word":"tobacco","begin":101,"end":107,"sentenceIndex":0,"sentenceBegin":0,"sentenceEnd":270}]}
{"paperId":"8c6c55c18d9101412887cea6524549e5cec4c98f","indicators":[{"word":"tobacco","begin":266,"end":272,"sentenceIndex":1,"sentenceBegin":149,"sentenceEnd":352},{"word":"tobacco","begin":467,"end":473,"sentenceIndex":3,"sentenceBegin":371,"sentenceEnd":598}]}
{"paperId":"8c6c55c18d9101412887cea6524549e5cec4c98f","indicators":[{"word":"tobacco","begin":117,"end":123,"sentenceIndex":1,"sentenceBegin":23,"sentenceEnd":227}]}
{"paperId":"3acec27519972aca3a92ffd001c6b3292a945483","indicators":[{"word":"fires","begin":2547,"end":2551,"sentenceIndex":11,"sentenceBegin":2516,"sentenceEnd":2703}]}
{"paperId":"3acec27519972aca3a92ffd001c6b3292a945483","indicators":[{"word":"fires","begin":254,"end":258,"sentenceIndex":1,"sentenceBegin":60,"sentenceEnd":277}]}
{"paperId":"da847b6259e7601ac97e6c7e14c085930371cc61","indicators":[{"word":"fumes","begin":252,"end":256,"sentenceIndex":0,"sentenceBegin":0,"sentenceEnd":338}]}
{"paperId":"da847b6259e7601ac97e6c7e14c085930371cc61","indicators":[{"word":"weed","begin":532,"end":535,"sentenceIndex":5,"sentenceBegin":516,"sentenceEnd":636}]}
{"paperId":"da847b6259e7601ac97e6c7e14c085930371cc61","indicators":[{"word":"smoke","begin":193,"end":197,"sentenceIndex":1,"sentenceBegin":98,"sentenceEnd":198}]}
{"paperId":"411b0ac3d72573bf6b15259802359f0a8c456a03","indicators":[{"word":"smoking","begin":709,"end":715,"sentenceIndex":6,"sentenceBegin":630,"sentenceEnd":723}]}
{"paperId":"dff287b556d061e50e75b11949a4b03fd6e9f313","indicators":[{"word":"weeds","begin":894,"end":898,"sentenceIndex":6,"sentenceBegin":851,"sentenceEnd":1058}]}
{"paperId":"c1551f64bd095d1920556e4354aa3a4d86c2a5b5","indicators":[{"word":"cigarette","begin":663,"end":671,"sentenceIndex":5,"sentenceBegin":601,"sentenceEnd":692},{"word":"smoking","begin":673,"end":679,"sentenceIndex":5,"sentenceBegin":601,"sentenceEnd":692}]}
