{"paperId":"a000fe6e36a6c6a7a1dc1c465d7cd454febd37dd","indicators":[{"word":"smoking","begin":328,"end":334,"sentenceIndex":1,"sentenceBegin":237,"sentenceEnd":433}]}
{"paperId":"40b1e938710764eab74f1bdadba1b75f2f7e480c","indicators":[{"word":"smoking","begin":808,"end":814,"sentenceIndex":4,"sentenceBegin":551,"sentenceEnd":1050}]}
{"paperId":"40b1e938710764eab74f1bdadba1b75f2f7e480c","indicators":[{"word":"smoking","begin":141,"end":147,"sentenceIndex":0,"sentenceBegin":0,"sentenceEnd":163}]}
{"paperId":"5c0a8915074d15c38dd14f76ccf9a1d0d78278f5","indicators":[{"word":"smoke","begin":867,"end":871,"sentenceIndex":3,"sentenceBegin":659,"sentenceEnd":946}]}
