{"paperId":"1f37323f629112de37e626b02f3a96b6c70e18a9","indicators":[{"word":"vapor","begin":208,"end":212,"sentenceIndex":1,"sentenceBegin":178,"sentenceEnd":226}]}
{"paperId":"b5b0e5fbc3740ac42638eac8c5c9bd6e54b1a8b8","indicators":[{"word":"tobacco","begin":235,"end":241,"sentenceIndex":1,"sentenceBegin":180,"sentenceEnd":284}]}
{"paperId":"b5b0e5fbc3740ac42638eac8c5c9bd6e54b1a8b8","indicators":[{"word":"smoking","begin":324,"end":330,"sentenceIndex":1,"sentenceBegin":203,"sentenceEnd":386}]}
