{"paperId":"043b2969c0f44affbb5e387099f91afe9487ecb5","indicators":[{"word":"smoking","begin":306,"end":312,"sentenceIndex":3,"sentenceBegin":273,"sentenceEnd":339}]}
{"paperId":"fc56d4fa134d1c288c9e0fdfea3fa2ff348bcdf8","indicators":[{"word":"smoking","begin":166,"end":172,"sentenceIndex":0,"sentenceBegin":0,"sentenceEnd":258}]}
{"paperId":"fc56d4fa134d1c288c9e0fdfea3fa2ff348bcdf8","indicators":[{"word":"smoking","begin":175,"end":181,"sentenceIndex":0,"sentenceBegin":0,"sentenceEnd":239}]}
{"paperId":"fc56d4fa134d1c288c9e0fdfea3fa2ff348bcdf8","indicators":[{"word":"smoking","begin":41,"end":47,"sentenceIndex":0,"sentenceBegin":0,"sentenceEnd":132},{"word":"smoking","begin":187,"end":193,"sentenceIndex":1,"sentenceBegin":134,"sentenceEnd":248},{"word":"tobacco","begin":378,"end":384,"sentenceIndex":3,"sentenceBegin":310,"sentenceEnd":471},{"word":"smoke","begin":386,"end":390,"sentenceIndex":3,"sentenceBegin":310,"sentenceEnd":471}]}
{"paperId":"fc56d4fa134d1c288c9e0fdfea3fa2ff348bcdf8","indicators":[{"word":"smoking","begin":293,"end":299,"sentenceIndex":1,"sentenceBegin":139,"sentenceEnd":300}]}
{"paperId":"2e8855a1b4fa41526eac0e93264c024aef7f6c9d","indicators":[{"word":"smoking","begin":50,"end":56,"sentenceIndex":0,"sentenceBegin":0,"sentenceEnd":95}]}
{"paperId":"3c568d47a1d134908dc09e454a5a52655d3a9434","indicators":[{"word":"smoking","begin":862,"end":868,"sentenceIndex":3,"sentenceBegin":555,"sentenceEnd":901},{"word":"smoke","begin":887,"end":891,"sentenceIndex":3,"sentenceBegin":555,"sentenceEnd":901}]}
{"paperId":"cc5d4948fd9cd097469fbd4a6ee3ca4da5c4593c","indicators":[{"word":"vapors","begin":1087,"end":1092,"sentenceIndex":10,"sentenceBegin":1039,"sentenceEnd":1093}]}
