{"paperId":"37ed7ce552a185ff9d4d296449440a0fa0324e61","indicators":[{"word":"smoking","begin":196,"end":202,"sentenceIndex":2,"sentenceBegin":169,"sentenceEnd":399}]}
{"paperId":"37ed7ce552a185ff9d4d296449440a0fa0324e61","indicators":[{"word":"cigarette","begin":2387,"end":2395,"sentenceIndex":15,"sentenceBegin":2270,"sentenceEnd":2541},{"word":"smoke","begin":2397,"end":2401,"sentenceIndex":15,"sentenceBegin":2270,"sentenceEnd":2541}]}
{"paperId":"37ed7ce552a185ff9d4d296449440a0fa0324e61","indicators":[{"word":"cigarette","begin":478,"end":486,"sentenceIndex":3,"sentenceBegin":472,"sentenceEnd":614},{"word":"smoke","begin":488,"end":492,"sentenceIndex":3,"sentenceBegin":472,"sentenceEnd":614},{"word":"cigarette","begin":556,"end":564,"sentenceIndex":3,"sentenceBegin":472,"sentenceEnd":614},{"word":"smoke","begin":566,"end":570,"sentenceIndex":3,"sentenceBegin":472,"sentenceEnd":614},{"word":"cigarette","begin":657,"end":665,"sentenceIndex":4,"sentenceBegin":616,"sentenceEnd":722},{"word":"smoke","begin":667,"end":671,"sentenceIndex":4,"sentenceBegin":616,"sentenceEnd":722},{"word":"cigarette","begin":1308,"end":1316,"sentenceIndex":8,"sentenceBegin":1291,"sentenceEnd":1450},{"word":"smoke","begin":1318,"end":1322,"sentenceIndex":8,"sentenceBegin":1291,"sentenceEnd":1450}]}
{"paperId":"37ed7ce552a185ff9d4d296449440a0fa0324e61","indicators":[{"word":"smoking","begin":1369,"end":1375,"sentenceIndex":10,"sentenceBegin":1302,"sentenceEnd":1396}]}
{"paperId":"37ed7ce552a185ff9d4d296449440a0fa0324e61","indicators":[{"word":"smoking","begin":5275,"end":5281,"sentenceIndex":51,"sentenceBegin":5220,"sentenceEnd":5327}]}
{"paperId":"37ed7ce552a185ff9d4d296449440a0fa0324e61","indicators":[{"word":"smoking","begin":5040,"end":5046,"sentenceIndex":43,"sentenceBegin":4978,"sentenceEnd":5118}]}
{"paperId":"37ed7ce552a185ff9d4d296449440a0fa0324e61","indicators":[{"word":"cigarette","begin":98,"end":106,"sentenceIndex":1,"sentenceBegin":70,"sentenceEnd":233},{"word":"smoking","begin":108,"end":114,"sentenceIndex":1,"sentenceBegin":70,"sentenceEnd":233},{"word":"smoking","begin":361,"end":367,"sentenceIndex":2,"sentenceBegin":235,"sentenceEnd":376}]}
{"paperId":"37ed7ce552a185ff9d4d296449440a0fa0324e61","indicators":[{"word":"smoked","begin":902,"end":907,"sentenceIndex":6,"sentenceBegin":792,"sentenceEnd":909}]}
{"paperId":"37ed7ce552a185ff9d4d296449440a0fa0324e61","indicators":[{"word":"smoking","begin":707,"end":713,"sentenceIndex":6,"sentenceBegin":633,"sentenceEnd":737}]}
{"paperId":"37ed7ce552a185ff9d4d296449440a0fa0324e61","indicators":[{"word":"smoking","begin":413,"end":419,"sentenceIndex":4,"sentenceBegin":326,"sentenceEnd":420}]}
{"paperId":"37ed7ce552a185ff9d4d296449440a0fa0324e61","indicators":[{"word":"cigarette","begin":6402,"end":6410,"sentenceIndex":54,"sentenceBegin":6291,"sentenceEnd":6670},{"word":"smoke","begin":6412,"end":6416,"sentenceIndex":54,"sentenceBegin":6291,"sentenceEnd":6670}]}
{"paperId":"37ed7ce552a185ff9d4d296449440a0fa0324e61","indicators":[{"word":"smoking","begin":1447,"end":1453,"sentenceIndex":10,"sentenceBegin":1432,"sentenceEnd":1527}]}
{"paperId":"37ed7ce552a185ff9d4d296449440a0fa0324e61","indicators":[{"word":"tobacco","begin":5246,"end":5252,"sentenceIndex":44,"sentenceBegin":5183,"sentenceEnd":5274},{"word":"smoke","begin":5254,"end":5258,"sentenceIndex":44,"sentenceBegin":5183,"sentenceEnd":5274}]}
{"paperId":"86b948b843459a30427e89dac6626013e553fa9d","indicators":[{"word":"smoking","begin":196,"end":202,"sentenceIndex":2,"sentenceBegin":169,"sentenceEnd":399}]}
{"paperId":"86b948b843459a30427e89dac6626013e553fa9d","indicators":[{"word":"cigarette","begin":2387,"end":2395,"sentenceIndex":15,"sentenceBegin":2270,"sentenceEnd":2541},{"word":"smoke","begin":2397,"end":2401,"sentenceIndex":15,"sentenceBegin":2270,"sentenceEnd":2541}]}
{"paperId":"86b948b843459a30427e89dac6626013e553fa9d","indicators":[{"word":"cigarette","begin":478,"end":486,"sentenceIndex":3,"sentenceBegin":472,"sentenceEnd":614},{"word":"smoke","begin":488,"end":492,"sentenceIndex":3,"sentenceBegin":472,"sentenceEnd":614},{"word":"cigarette","begin":556,"end":564,"sentenceIndex":3,"sentenceBegin":472,"sentenceEnd":614},{"word":"smoke","begin":566,"end":570,"sentenceIndex":3,"sentenceBegin":472,"sentenceEnd":614},{"word":"cigarette","begin":657,"end":665,"sentenceIndex":4,"sentenceBegin":616,"sentenceEnd":722},{"word":"smoke","begin":667,"end":671,"sentenceIndex":4,"sentenceBegin":616,"sentenceEnd":722},{"word":"cigarette","begin":1308,"end":1316,"sentenceIndex":8,"sentenceBegin":1291,"sentenceEnd":1450},{"word":"smoke","begin":1318,"end":1322,"sentenceIndex":8,"sentenceBegin":1291,"sentenceEnd":1450}]}
{"paperId":"86b948b843459a30427e89dac6626013e553fa9d","indicators":[{"word":"smoking","begin":1369,"end":1375,"sentenceIndex":10,"sentenceBegin":1302,"sentenceEnd":1396}]}
{"paperId":"86b948b843459a30427e89dac6626013e553fa9d","indicators":[{"word":"smoking","begin":5275,"end":5281,"sentenceIndex":51,"sentenceBegin":5220,"sentenceEnd":5327}]}
{"paperId":"86b948b843459a30427e89dac6626013e553fa9d","indicators":[{"word":"smoking","begin":5040,"end":5046,"sentenceIndex":43,"sentenceBegin":4978,"sentenceEnd":5118}]}
{"paperId":"86b948b843459a30427e89dac6626013e553fa9d","indicators":[{"word":"cigarette","begin":98,"end":106,"sentenceIndex":1,"sentenceBegin":70,"sentenceEnd":233},{"word":"smoking","begin":108,"end":114,"sentenceIndex":1,"sentenceBegin":70,"sentenceEnd":233},{"word":"smoking","begin":361,"end":367,"sentenceIndex":2,"sentenceBegin":235,"sentenceEnd":376}]}
{"paperId":"86b948b843459a30427e89dac6626013e553fa9d","indicators":[{"word":"smoked","begin":902,"end":907,"sentenceIndex":6,"sentenceBegin":792,"sentenceEnd":909}]}
{"paperId":"86b948b843459a30427e89dac6626013e553fa9d","indicators":[{"word":"smoking","begin":707,"end":713,"sentenceIndex":6,"sentenceBegin":633,"sentenceEnd":737}]}
{"paperId":"86b948b843459a30427e89dac6626013e553fa9d","indicators":[{"word":"smoking","begin":413,"end":419,"sentenceIndex":4,"sentenceBegin":326,"sentenceEnd":420}]}
{"paperId":"86b948b843459a30427e89dac6626013e553fa9d","indicators":[{"word":"cigarette","begin":6402,"end":6410,"sentenceIndex":54,"sentenceBegin":6291,"sentenceEnd":6670},{"word":"smoke","begin":6412,"end":6416,"sentenceIndex":54,"sentenceBegin":6291,"sentenceEnd":6670}]}
{"paperId":"86b948b843459a30427e89dac6626013e553fa9d","indicators":[{"word":"smoking","begin":1447,"end":1453,"sentenceIndex":10,"sentenceBegin":1432,"sentenceEnd":1527}]}
{"paperId":"86b948b843459a30427e89dac6626013e553fa9d","indicators":[{"word":"tobacco","begin":5246,"end":5252,"sentenceIndex":44,"sentenceBegin":5183,"sentenceEnd":5274},{"word":"smoke","begin":5254,"end":5258,"sentenceIndex":44,"sentenceBegin":5183,"sentenceEnd":5274}]}
{"paperId":"e020de099ebf22b78a6ba93ae2e329eaa034a358","indicators":[{"word":"smoking","begin":196,"end":202,"sentenceIndex":2,"sentenceBegin":169,"sentenceEnd":399}]}
{"paperId":"e020de099ebf22b78a6ba93ae2e329eaa034a358","indicators":[{"word":"cigarette","begin":2387,"end":2395,"sentenceIndex":15,"sentenceBegin":2270,"sentenceEnd":2541},{"word":"smoke","begin":2397,"end":2401,"sentenceIndex":15,"sentenceBegin":2270,"sentenceEnd":2541}]}
{"paperId":"e020de099ebf22b78a6ba93ae2e329eaa034a358","indicators":[{"word":"cigarette","begin":478,"end":486,"sentenceIndex":3,"sentenceBegin":472,"sentenceEnd":614},{"word":"smoke","begin":488,"end":492,"sentenceIndex":3,"sentenceBegin":472,"sentenceEnd":614},{"word":"cigarette","begin":556,"end":564,"sentenceIndex":3,"sentenceBegin":472,"sentenceEnd":614},{"word":"smoke","begin":566,"end":570,"sentenceIndex":3,"sentenceBegin":472,"sentenceEnd":614},{"word":"cigarette","begin":657,"end":665,"sentenceIndex":4,"sentenceBegin":616,"sentenceEnd":722},{"word":"smoke","begin":667,"end":671,"sentenceIndex":4,"sentenceBegin":616,"sentenceEnd":722},{"word":"cigarette","begin":1308,"end":1316,"sentenceIndex":8,"sentenceBegin":1291,"sentenceEnd":1450},{"word":"smoke","begin":1318,"end":1322,"sentenceIndex":8,"sentenceBegin":1291,"sentenceEnd":1450}]}
{"paperId":"e020de099ebf22b78a6ba93ae2e329eaa034a358","indicators":[{"word":"smoking","begin":1369,"end":1375,"sentenceIndex":10,"sentenceBegin":1302,"sentenceEnd":1396}]}
{"paperId":"e020de099ebf22b78a6ba93ae2e329eaa034a358","indicators":[{"word":"smoking","begin":5275,"end":5281,"sentenceIndex":51,"sentenceBegin":5220,"sentenceEnd":5327}]}
{"paperId":"e020de099ebf22b78a6ba93ae2e329eaa034a358","indicators":[{"word":"smoking","begin":5040,"end":5046,"sentenceIndex":43,"sentenceBegin":4978,"sentenceEnd":5118}]}
{"paperId":"e020de099ebf22b78a6ba93ae2e329eaa034a358","indicators":[{"word":"cigarette","begin":98,"end":106,"sentenceIndex":1,"sentenceBegin":70,"sentenceEnd":233},{"word":"smoking","begin":108,"end":114,"sentenceIndex":1,"sentenceBegin":70,"sentenceEnd":233},{"word":"smoking","begin":361,"end":367,"sentenceIndex":2,"sentenceBegin":235,"sentenceEnd":376}]}
{"paperId":"e020de099ebf22b78a6ba93ae2e329eaa034a358","indicators":[{"word":"smoked","begin":902,"end":907,"sentenceIndex":6,"sentenceBegin":792,"sentenceEnd":909}]}
{"paperId":"e020de099ebf22b78a6ba93ae2e329eaa034a358","indicators":[{"word":"smoking","begin":707,"end":713,"sentenceIndex":6,"sentenceBegin":633,"sentenceEnd":737}]}
{"paperId":"e020de099ebf22b78a6ba93ae2e329eaa034a358","indicators":[{"word":"smoking","begin":413,"end":419,"sentenceIndex":4,"sentenceBegin":326,"sentenceEnd":420}]}
{"paperId":"e020de099ebf22b78a6ba93ae2e329eaa034a358","indicators":[{"word":"cigarette","begin":6402,"end":6410,"sentenceIndex":54,"sentenceBegin":6291,"sentenceEnd":6670},{"word":"smoke","begin":6412,"end":6416,"sentenceIndex":54,"sentenceBegin":6291,"sentenceEnd":6670}]}
{"paperId":"e020de099ebf22b78a6ba93ae2e329eaa034a358","indicators":[{"word":"smoking","begin":1447,"end":1453,"sentenceIndex":10,"sentenceBegin":1432,"sentenceEnd":1527}]}
{"paperId":"e020de099ebf22b78a6ba93ae2e329eaa034a358","indicators":[{"word":"tobacco","begin":5246,"end":5252,"sentenceIndex":44,"sentenceBegin":5183,"sentenceEnd":5274},{"word":"smoke","begin":5254,"end":5258,"sentenceIndex":44,"sentenceBegin":5183,"sentenceEnd":5274}]}
{"paperId":"eb1bbc83bd3f4beede06514081c425e5f8b75bc4","indicators":[{"word":"smoking","begin":196,"end":202,"sentenceIndex":2,"sentenceBegin":169,"sentenceEnd":399}]}
{"paperId":"eb1bbc83bd3f4beede06514081c425e5f8b75bc4","indicators":[{"word":"cigarette","begin":2387,"end":2395,"sentenceIndex":15,"sentenceBegin":2270,"sentenceEnd":2541},{"word":"smoke","begin":2397,"end":2401,"sentenceIndex":15,"sentenceBegin":2270,"sentenceEnd":2541}]}
{"paperId":"eb1bbc83bd3f4beede06514081c425e5f8b75bc4","indicators":[{"word":"cigarette","begin":478,"end":486,"sentenceIndex":3,"sentenceBegin":472,"sentenceEnd":614},{"word":"smoke","begin":488,"end":492,"sentenceIndex":3,"sentenceBegin":472,"sentenceEnd":614},{"word":"cigarette","begin":556,"end":564,"sentenceIndex":3,"sentenceBegin":472,"sentenceEnd":614},{"word":"smoke","begin":566,"end":570,"sentenceIndex":3,"sentenceBegin":472,"sentenceEnd":614},{"word":"cigarette","begin":657,"end":665,"sentenceIndex":4,"sentenceBegin":616,"sentenceEnd":722},{"word":"smoke","begin":667,"end":671,"sentenceIndex":4,"sentenceBegin":616,"sentenceEnd":722},{"word":"cigarette","begin":1308,"end":1316,"sentenceIndex":8,"sentenceBegin":1291,"sentenceEnd":1450},{"word":"smoke","begin":1318,"end":1322,"sentenceIndex":8,"sentenceBegin":1291,"sentenceEnd":1450}]}
{"paperId":"eb1bbc83bd3f4beede06514081c425e5f8b75bc4","indicators":[{"word":"smoking","begin":1369,"end":1375,"sentenceIndex":10,"sentenceBegin":1302,"sentenceEnd":1396}]}
{"paperId":"eb1bbc83bd3f4beede06514081c425e5f8b75bc4","indicators":[{"word":"smoking","begin":5275,"end":5281,"sentenceIndex":51,"sentenceBegin":5220,"sentenceEnd":5327}]}
{"paperId":"eb1bbc83bd3f4beede06514081c425e5f8b75bc4","indicators":[{"word":"smoking","begin":5040,"end":5046,"sentenceIndex":43,"sentenceBegin":4978,"sentenceEnd":5118}]}
{"paperId":"eb1bbc83bd3f4beede06514081c425e5f8b75bc4","indicators":[{"word":"cigarette","begin":98,"end":106,"sentenceIndex":1,"sentenceBegin":70,"sentenceEnd":233},{"word":"smoking","begin":108,"end":114,"sentenceIndex":1,"sentenceBegin":70,"sentenceEnd":233},{"word":"smoking","begin":361,"end":367,"sentenceIndex":2,"sentenceBegin":235,"sentenceEnd":376}]}
{"paperId":"eb1bbc83bd3f4beede06514081c425e5f8b75bc4","indicators":[{"word":"smoked","begin":902,"end":907,"sentenceIndex":6,"sentenceBegin":792,"sentenceEnd":909}]}
{"paperId":"eb1bbc83bd3f4beede06514081c425e5f8b75bc4","indicators":[{"word":"smoking","begin":707,"end":713,"sentenceIndex":6,"sentenceBegin":633,"sentenceEnd":737}]}
{"paperId":"eb1bbc83bd3f4beede06514081c425e5f8b75bc4","indicators":[{"word":"smoking","begin":413,"end":419,"sentenceIndex":4,"sentenceBegin":326,"sentenceEnd":420}]}
{"paperId":"eb1bbc83bd3f4beede06514081c425e5f8b75bc4","indicators":[{"word":"cigarette","begin":6402,"end":6410,"sentenceIndex":54,"sentenceBegin":6291,"sentenceEnd":6670},{"word":"smoke","begin":6412,"end":6416,"sentenceIndex":54,"sentenceBegin":6291,"sentenceEnd":6670}]}
{"paperId":"eb1bbc83bd3f4beede06514081c425e5f8b75bc4","indicators":[{"word":"smoking","begin":1447,"end":1453,"sentenceIndex":10,"sentenceBegin":1432,"sentenceEnd":1527}]}
{"paperId":"eb1bbc83bd3f4beede06514081c425e5f8b75bc4","indicators":[{"word":"tobacco","begin":5246,"end":5252,"sentenceIndex":44,"sentenceBegin":5183,"sentenceEnd":5274},{"word":"smoke","begin":5254,"end":5258,"sentenceIndex":44,"sentenceBegin":5183,"sentenceEnd":5274}]}
{"paperId":"606a43d5abc04a0293a7c467841ca3b00f5d58ec","indicators":[{"word":"smoking","begin":196,"end":202,"sentenceIndex":2,"sentenceBegin":169,"sentenceEnd":399}]}
{"paperId":"606a43d5abc04a0293a7c467841ca3b00f5d58ec","indicators":[{"word":"cigarette","begin":2387,"end":2395,"sentenceIndex":15,"sentenceBegin":2270,"sentenceEnd":2541},{"word":"smoke","begin":2397,"end":2401,"sentenceIndex":15,"sentenceBegin":2270,"sentenceEnd":2541}]}
{"paperId":"606a43d5abc04a0293a7c467841ca3b00f5d58ec","indicators":[{"word":"cigarette","begin":478,"end":486,"sentenceIndex":3,"sentenceBegin":472,"sentenceEnd":614},{"word":"smoke","begin":488,"end":492,"sentenceIndex":3,"sentenceBegin":472,"sentenceEnd":614},{"word":"cigarette","begin":556,"end":564,"sentenceIndex":3,"sentenceBegin":472,"sentenceEnd":614},{"word":"smoke","begin":566,"end":570,"sentenceIndex":3,"sentenceBegin":472,"sentenceEnd":614},{"word":"cigarette","begin":657,"end":665,"sentenceIndex":4,"sentenceBegin":616,"sentenceEnd":722},{"word":"smoke","begin":667,"end":671,"sentenceIndex":4,"sentenceBegin":616,"sentenceEnd":722},{"word":"cigarette","begin":1308,"end":1316,"sentenceIndex":8,"sentenceBegin":1291,"sentenceEnd":1450},{"word":"smoke","begin":1318,"end":1322,"sentenceIndex":8,"sentenceBegin":1291,"sentenceEnd":1450}]}
{"paperId":"606a43d5abc04a0293a7c467841ca3b00f5d58ec","indicators":[{"word":"smoking","begin":1369,"end":1375,"sentenceIndex":10,"sentenceBegin":1302,"sentenceEnd":1396}]}
{"paperId":"606a43d5abc04a0293a7c467841ca3b00f5d58ec","indicators":[{"word":"smoking","begin":5275,"end":5281,"sentenceIndex":51,"sentenceBegin":5220,"sentenceEnd":5327}]}
{"paperId":"606a43d5abc04a0293a7c467841ca3b00f5d58ec","indicators":[{"word":"smoking","begin":5040,"end":5046,"sentenceIndex":43,"sentenceBegin":4978,"sentenceEnd":5118}]}
{"paperId":"606a43d5abc04a0293a7c467841ca3b00f5d58ec","indicators":[{"word":"cigarette","begin":98,"end":106,"sentenceIndex":1,"sentenceBegin":70,"sentenceEnd":233},{"word":"smoking","begin":108,"end":114,"sentenceIndex":1,"sentenceBegin":70,"sentenceEnd":233},{"word":"smoking","begin":361,"end":367,"sentenceIndex":2,"sentenceBegin":235,"sentenceEnd":376}]}
{"paperId":"606a43d5abc04a0293a7c467841ca3b00f5d58ec","indicators":[{"word":"smoked","begin":902,"end":907,"sentenceIndex":6,"sentenceBegin":792,"sentenceEnd":909}]}
{"paperId":"606a43d5abc04a0293a7c467841ca3b00f5d58ec","indicators":[{"word":"smoking","begin":707,"end":713,"sentenceIndex":6,"sentenceBegin":633,"sentenceEnd":737}]}
{"paperId":"606a43d5abc04a0293a7c467841ca3b00f5d58ec","indicators":[{"word":"smoking","begin":413,"end":419,"sentenceIndex":4,"sentenceBegin":326,"sentenceEnd":420}]}
{"paperId":"606a43d5abc04a0293a7c467841ca3b00f5d58ec","indicators":[{"word":"cigarette","begin":6402,"end":6410,"sentenceIndex":54,"sentenceBegin":6291,"sentenceEnd":6670},{"word":"smoke","begin":6412,"end":6416,"sentenceIndex":54,"sentenceBegin":6291,"sentenceEnd":6670}]}
{"paperId":"606a43d5abc04a0293a7c467841ca3b00f5d58ec","indicators":[{"word":"smoking","begin":1447,"end":1453,"sentenceIndex":10,"sentenceBegin":1432,"sentenceEnd":1527}]}
{"paperId":"606a43d5abc04a0293a7c467841ca3b00f5d58ec","indicators":[{"word":"tobacco","begin":5246,"end":5252,"sentenceIndex":44,"sentenceBegin":5183,"sentenceEnd":5274},{"word":"smoke","begin":5254,"end":5258,"sentenceIndex":44,"sentenceBegin":5183,"sentenceEnd":5274}]}
{"paperId":"f86441be43fa2f6c86d86530c46ee2dbef016f99","indicators":[{"word":"smoking","begin":196,"end":202,"sentenceIndex":2,"sentenceBegin":169,"sentenceEnd":399}]}
{"paperId":"f86441be43fa2f6c86d86530c46ee2dbef016f99","indicators":[{"word":"cigarette","begin":2387,"end":2395,"sentenceIndex":15,"sentenceBegin":2270,"sentenceEnd":2541},{"word":"smoke","begin":2397,"end":2401,"sentenceIndex":15,"sentenceBegin":2270,"sentenceEnd":2541}]}
{"paperId":"f86441be43fa2f6c86d86530c46ee2dbef016f99","indicators":[{"word":"cigarette","begin":478,"end":486,"sentenceIndex":3,"sentenceBegin":472,"sentenceEnd":614},{"word":"smoke","begin":488,"end":492,"sentenceIndex":3,"sentenceBegin":472,"sentenceEnd":614},{"word":"cigarette","begin":556,"end":564,"sentenceIndex":3,"sentenceBegin":472,"sentenceEnd":614},{"word":"smoke","begin":566,"end":570,"sentenceIndex":3,"sentenceBegin":472,"sentenceEnd":614},{"word":"cigarette","begin":657,"end":665,"sentenceIndex":4,"sentenceBegin":616,"sentenceEnd":722},{"word":"smoke","begin":667,"end":671,"sentenceIndex":4,"sentenceBegin":616,"sentenceEnd":722},{"word":"cigarette","begin":1308,"end":1316,"sentenceIndex":8,"sentenceBegin":1291,"sentenceEnd":1450},{"word":"smoke","begin":1318,"end":1322,"sentenceIndex":8,"sentenceBegin":1291,"sentenceEnd":1450}]}
{"paperId":"f86441be43fa2f6c86d86530c46ee2dbef016f99","indicators":[{"word":"smoking","begin":1369,"end":1375,"sentenceIndex":10,"sentenceBegin":1302,"sentenceEnd":1396}]}
{"paperId":"f86441be43fa2f6c86d86530c46ee2dbef016f99","indicators":[{"word":"smoking","begin":5275,"end":5281,"sentenceIndex":51,"sentenceBegin":5220,"sentenceEnd":5327}]}
{"paperId":"f86441be43fa2f6c86d86530c46ee2dbef016f99","indicators":[{"word":"smoking","begin":5040,"end":5046,"sentenceIndex":43,"sentenceBegin":4978,"sentenceEnd":5118}]}
{"paperId":"f86441be43fa2f6c86d86530c46ee2dbef016f99","indicators":[{"word":"cigarette","begin":98,"end":106,"sentenceIndex":1,"sentenceBegin":70,"sentenceEnd":233},{"word":"smoking","begin":108,"end":114,"sentenceIndex":1,"sentenceBegin":70,"sentenceEnd":233},{"word":"smoking","begin":361,"end":367,"sentenceIndex":2,"sentenceBegin":235,"sentenceEnd":376}]}
{"paperId":"f86441be43fa2f6c86d86530c46ee2dbef016f99","indicators":[{"word":"smoked","begin":902,"end":907,"sentenceIndex":6,"sentenceBegin":792,"sentenceEnd":909}]}
{"paperId":"f86441be43fa2f6c86d86530c46ee2dbef016f99","indicators":[{"word":"smoking","begin":707,"end":713,"sentenceIndex":6,"sentenceBegin":633,"sentenceEnd":737}]}
{"paperId":"f86441be43fa2f6c86d86530c46ee2dbef016f99","indicators":[{"word":"smoking","begin":413,"end":419,"sentenceIndex":4,"sentenceBegin":326,"sentenceEnd":420}]}
{"paperId":"f86441be43fa2f6c86d86530c46ee2dbef016f99","indicators":[{"word":"cigarette","begin":6402,"end":6410,"sentenceIndex":54,"sentenceBegin":6291,"sentenceEnd":6670},{"word":"smoke","begin":6412,"end":6416,"sentenceIndex":54,"sentenceBegin":6291,"sentenceEnd":6670}]}
{"paperId":"f86441be43fa2f6c86d86530c46ee2dbef016f99","indicators":[{"word":"smoking","begin":1447,"end":1453,"sentenceIndex":10,"sentenceBegin":1432,"sentenceEnd":1527}]}
{"paperId":"f86441be43fa2f6c86d86530c46ee2dbef016f99","indicators":[{"word":"tobacco","begin":5246,"end":5252,"sentenceIndex":44,"sentenceBegin":5183,"sentenceEnd":5274},{"word":"smoke","begin":5254,"end":5258,"sentenceIndex":44,"sentenceBegin":5183,"sentenceEnd":5274}]}
{"paperId":"31f564466fdeeb0516c61d869642275ea48d798b","indicators":[{"word":"smoking","begin":196,"end":202,"sentenceIndex":2,"sentenceBegin":169,"sentenceEnd":399}]}
{"paperId":"31f564466fdeeb0516c61d869642275ea48d798b","indicators":[{"word":"cigarette","begin":2387,"end":2395,"sentenceIndex":15,"sentenceBegin":2270,"sentenceEnd":2541},{"word":"smoke","begin":2397,"end":2401,"sentenceIndex":15,"sentenceBegin":2270,"sentenceEnd":2541}]}
{"paperId":"31f564466fdeeb0516c61d869642275ea48d798b","indicators":[{"word":"cigarette","begin":478,"end":486,"sentenceIndex":3,"sentenceBegin":472,"sentenceEnd":614},{"word":"smoke","begin":488,"end":492,"sentenceIndex":3,"sentenceBegin":472,"sentenceEnd":614},{"word":"cigarette","begin":556,"end":564,"sentenceIndex":3,"sentenceBegin":472,"sentenceEnd":614},{"word":"smoke","begin":566,"end":570,"sentenceIndex":3,"sentenceBegin":472,"sentenceEnd":614},{"word":"cigarette","begin":657,"end":665,"sentenceIndex":4,"sentenceBegin":616,"sentenceEnd":722},{"word":"smoke","begin":667,"end":671,"sentenceIndex":4,"sentenceBegin":616,"sentenceEnd":722},{"word":"cigarette","begin":1308,"end":1316,"sentenceIndex":8,"sentenceBegin":1291,"sentenceEnd":1450},{"word":"smoke","begin":1318,"end":1322,"sentenceIndex":8,"sentenceBegin":1291,"sentenceEnd":1450}]}
{"paperId":"31f564466fdeeb0516c61d869642275ea48d798b","indicators":[{"word":"smoking","begin":1369,"end":1375,"sentenceIndex":10,"sentenceBegin":1302,"sentenceEnd":1396}]}
{"paperId":"31f564466fdeeb0516c61d869642275ea48d798b","indicators":[{"word":"smoking","begin":5275,"end":5281,"sentenceIndex":51,"sentenceBegin":5220,"sentenceEnd":5327}]}
{"paperId":"31f564466fdeeb0516c61d869642275ea48d798b","indicators":[{"word":"smoking","begin":5040,"end":5046,"sentenceIndex":43,"sentenceBegin":4978,"sentenceEnd":5118}]}
{"paperId":"31f564466fdeeb0516c61d869642275ea48d798b","indicators":[{"word":"cigarette","begin":98,"end":106,"sentenceIndex":1,"sentenceBegin":70,"sentenceEnd":233},{"word":"smoking","begin":108,"end":114,"sentenceIndex":1,"sentenceBegin":70,"sentenceEnd":233},{"word":"smoking","begin":361,"end":367,"sentenceIndex":2,"sentenceBegin":235,"sentenceEnd":376}]}
{"paperId":"31f564466fdeeb0516c61d869642275ea48d798b","indicators":[{"word":"smoked","begin":902,"end":907,"sentenceIndex":6,"sentenceBegin":792,"sentenceEnd":909}]}
{"paperId":"31f564466fdeeb0516c61d869642275ea48d798b","indicators":[{"word":"smoking","begin":707,"end":713,"sentenceIndex":6,"sentenceBegin":633,"sentenceEnd":737}]}
{"paperId":"31f564466fdeeb0516c61d869642275ea48d798b","indicators":[{"word":"smoking","begin":413,"end":419,"sentenceIndex":4,"sentenceBegin":326,"sentenceEnd":420}]}
{"paperId":"31f564466fdeeb0516c61d869642275ea48d798b","indicators":[{"word":"cigarette","begin":6402,"end":6410,"sentenceIndex":54,"sentenceBegin":6291,"sentenceEnd":6670},{"word":"smoke","begin":6412,"end":6416,"sentenceIndex":54,"sentenceBegin":6291,"sentenceEnd":6670}]}
{"paperId":"31f564466fdeeb0516c61d869642275ea48d798b","indicators":[{"word":"smoking","begin":1447,"end":1453,"sentenceIndex":10,"sentenceBegin":1432,"sentenceEnd":1527}]}
{"paperId":"31f564466fdeeb0516c61d869642275ea48d798b","indicators":[{"word":"tobacco","begin":5246,"end":5252,"sentenceIndex":44,"sentenceBegin":5183,"sentenceEnd":5274},{"word":"smoke","begin":5254,"end":5258,"sentenceIndex":44,"sentenceBegin":5183,"sentenceEnd":5274}]}
{"paperId":"64d8f7c693bf4a66b4a4fa41c3dbb2d1021874ea","indicators":[{"word":"smoking","begin":196,"end":202,"sentenceIndex":2,"sentenceBegin":169,"sentenceEnd":399}]}
{"paperId":"64d8f7c693bf4a66b4a4fa41c3dbb2d1021874ea","indicators":[{"word":"cigarette","begin":2387,"end":2395,"sentenceIndex":15,"sentenceBegin":2270,"sentenceEnd":2541},{"word":"smoke","begin":2397,"end":2401,"sentenceIndex":15,"sentenceBegin":2270,"sentenceEnd":2541}]}
{"paperId":"64d8f7c693bf4a66b4a4fa41c3dbb2d1021874ea","indicators":[{"word":"cigarette","begin":478,"end":486,"sentenceIndex":3,"sentenceBegin":472,"sentenceEnd":614},{"word":"smoke","begin":488,"end":492,"sentenceIndex":3,"sentenceBegin":472,"sentenceEnd":614},{"word":"cigarette","begin":556,"end":564,"sentenceIndex":3,"sentenceBegin":472,"sentenceEnd":614},{"word":"smoke","begin":566,"end":570,"sentenceIndex":3,"sentenceBegin":472,"sentenceEnd":614},{"word":"cigarette","begin":657,"end":665,"sentenceIndex":4,"sentenceBegin":616,"sentenceEnd":722},{"word":"smoke","begin":667,"end":671,"sentenceIndex":4,"sentenceBegin":616,"sentenceEnd":722},{"word":"cigarette","begin":1308,"end":1316,"sentenceIndex":8,"sentenceBegin":1291,"sentenceEnd":1450},{"word":"smoke","begin":1318,"end":1322,"sentenceIndex":8,"sentenceBegin":1291,"sentenceEnd":1450}]}
{"paperId":"64d8f7c693bf4a66b4a4fa41c3dbb2d1021874ea","indicators":[{"word":"smoking","begin":1369,"end":1375,"sentenceIndex":10,"sentenceBegin":1302,"sentenceEnd":1396}]}
{"paperId":"64d8f7c693bf4a66b4a4fa41c3dbb2d1021874ea","indicators":[{"word":"smoking","begin":5275,"end":5281,"sentenceIndex":51,"sentenceBegin":5220,"sentenceEnd":5327}]}
{"paperId":"64d8f7c693bf4a66b4a4fa41c3dbb2d1021874ea","indicators":[{"word":"smoking","begin":5040,"end":5046,"sentenceIndex":43,"sentenceBegin":4978,"sentenceEnd":5118}]}
{"paperId":"64d8f7c693bf4a66b4a4fa41c3dbb2d1021874ea","indicators":[{"word":"cigarette","begin":98,"end":106,"sentenceIndex":1,"sentenceBegin":70,"sentenceEnd":233},{"word":"smoking","begin":108,"end":114,"sentenceIndex":1,"sentenceBegin":70,"sentenceEnd":233},{"word":"smoking","begin":361,"end":367,"sentenceIndex":2,"sentenceBegin":235,"sentenceEnd":376}]}
{"paperId":"64d8f7c693bf4a66b4a4fa41c3dbb2d1021874ea","indicators":[{"word":"smoked","begin":902,"end":907,"sentenceIndex":6,"sentenceBegin":792,"sentenceEnd":909}]}
{"paperId":"64d8f7c693bf4a66b4a4fa41c3dbb2d1021874ea","indicators":[{"word":"smoking","begin":707,"end":713,"sentenceIndex":6,"sentenceBegin":633,"sentenceEnd":737}]}
{"paperId":"64d8f7c693bf4a66b4a4fa41c3dbb2d1021874ea","indicators":[{"word":"smoking","begin":413,"end":419,"sentenceIndex":4,"sentenceBegin":326,"sentenceEnd":420}]}
{"paperId":"64d8f7c693bf4a66b4a4fa41c3dbb2d1021874ea","indicators":[{"word":"cigarette","begin":6402,"end":6410,"sentenceIndex":54,"sentenceBegin":6291,"sentenceEnd":6670},{"word":"smoke","begin":6412,"end":6416,"sentenceIndex":54,"sentenceBegin":6291,"sentenceEnd":6670}]}
{"paperId":"64d8f7c693bf4a66b4a4fa41c3dbb2d1021874ea","indicators":[{"word":"smoking","begin":1447,"end":1453,"sentenceIndex":10,"sentenceBegin":1432,"sentenceEnd":1527}]}
{"paperId":"64d8f7c693bf4a66b4a4fa41c3dbb2d1021874ea","indicators":[{"word":"tobacco","begin":5246,"end":5252,"sentenceIndex":44,"sentenceBegin":5183,"sentenceEnd":5274},{"word":"smoke","begin":5254,"end":5258,"sentenceIndex":44,"sentenceBegin":5183,"sentenceEnd":5274}]}
{"paperId":"fc11dc20545fe3c977474443ae533a44d851e24c","indicators":[{"word":"smoking","begin":196,"end":202,"sentenceIndex":2,"sentenceBegin":169,"sentenceEnd":399}]}
{"paperId":"fc11dc20545fe3c977474443ae533a44d851e24c","indicators":[{"word":"cigarette","begin":2387,"end":2395,"sentenceIndex":15,"sentenceBegin":2270,"sentenceEnd":2541},{"word":"smoke","begin":2397,"end":2401,"sentenceIndex":15,"sentenceBegin":2270,"sentenceEnd":2541}]}
{"paperId":"fc11dc20545fe3c977474443ae533a44d851e24c","indicators":[{"word":"cigarette","begin":478,"end":486,"sentenceIndex":3,"sentenceBegin":472,"sentenceEnd":614},{"word":"smoke","begin":488,"end":492,"sentenceIndex":3,"sentenceBegin":472,"sentenceEnd":614},{"word":"cigarette","begin":556,"end":564,"sentenceIndex":3,"sentenceBegin":472,"sentenceEnd":614},{"word":"smoke","begin":566,"end":570,"sentenceIndex":3,"sentenceBegin":472,"sentenceEnd":614},{"word":"cigarette","begin":657,"end":665,"sentenceIndex":4,"sentenceBegin":616,"sentenceEnd":722},{"word":"smoke","begin":667,"end":671,"sentenceIndex":4,"sentenceBegin":616,"sentenceEnd":722},{"word":"cigarette","begin":1308,"end":1316,"sentenceIndex":8,"sentenceBegin":1291,"sentenceEnd":1450},{"word":"smoke","begin":1318,"end":1322,"sentenceIndex":8,"sentenceBegin":1291,"sentenceEnd":1450}]}
{"paperId":"fc11dc20545fe3c977474443ae533a44d851e24c","indicators":[{"word":"smoking","begin":1369,"end":1375,"sentenceIndex":10,"sentenceBegin":1302,"sentenceEnd":1396}]}
{"paperId":"fc11dc20545fe3c977474443ae533a44d851e24c","indicators":[{"word":"smoking","begin":5275,"end":5281,"sentenceIndex":51,"sentenceBegin":5220,"sentenceEnd":5327}]}
{"paperId":"fc11dc20545fe3c977474443ae533a44d851e24c","indicators":[{"word":"smoking","begin":5040,"end":5046,"sentenceIndex":43,"sentenceBegin":4978,"sentenceEnd":5118}]}
{"paperId":"fc11dc20545fe3c977474443ae533a44d851e24c","indicators":[{"word":"cigarette","begin":98,"end":106,"sentenceIndex":1,"sentenceBegin":70,"sentenceEnd":233},{"word":"smoking","begin":108,"end":114,"sentenceIndex":1,"sentenceBegin":70,"sentenceEnd":233},{"word":"smoking","begin":361,"end":367,"sentenceIndex":2,"sentenceBegin":235,"sentenceEnd":376}]}
{"paperId":"fc11dc20545fe3c977474443ae533a44d851e24c","indicators":[{"word":"smoked","begin":902,"end":907,"sentenceIndex":6,"sentenceBegin":792,"sentenceEnd":909}]}
{"paperId":"fc11dc20545fe3c977474443ae533a44d851e24c","indicators":[{"word":"smoking","begin":707,"end":713,"sentenceIndex":6,"sentenceBegin":633,"sentenceEnd":737}]}
{"paperId":"fc11dc20545fe3c977474443ae533a44d851e24c","indicators":[{"word":"smoking","begin":413,"end":419,"sentenceIndex":4,"sentenceBegin":326,"sentenceEnd":420}]}
{"paperId":"fc11dc20545fe3c977474443ae533a44d851e24c","indicators":[{"word":"cigarette","begin":6402,"end":6410,"sentenceIndex":54,"sentenceBegin":6291,"sentenceEnd":6670},{"word":"smoke","begin":6412,"end":6416,"sentenceIndex":54,"sentenceBegin":6291,"sentenceEnd":6670}]}
{"paperId":"fc11dc20545fe3c977474443ae533a44d851e24c","indicators":[{"word":"smoking","begin":1447,"end":1453,"sentenceIndex":10,"sentenceBegin":1432,"sentenceEnd":1527}]}
{"paperId":"fc11dc20545fe3c977474443ae533a44d851e24c","indicators":[{"word":"tobacco","begin":5246,"end":5252,"sentenceIndex":44,"sentenceBegin":5183,"sentenceEnd":5274},{"word":"smoke","begin":5254,"end":5258,"sentenceIndex":44,"sentenceBegin":5183,"sentenceEnd":5274}]}
{"paperId":"8810588f364d2a1fb8208201693b5d201eb8d7a7","indicators":[{"word":"smoking","begin":196,"end":202,"sentenceIndex":2,"sentenceBegin":169,"sentenceEnd":399}]}
{"paperId":"8810588f364d2a1fb8208201693b5d201eb8d7a7","indicators":[{"word":"cigarette","begin":2387,"end":2395,"sentenceIndex":15,"sentenceBegin":2270,"sentenceEnd":2541},{"word":"smoke","begin":2397,"end":2401,"sentenceIndex":15,"sentenceBegin":2270,"sentenceEnd":2541}]}
{"paperId":"8810588f364d2a1fb8208201693b5d201eb8d7a7","indicators":[{"word":"cigarette","begin":478,"end":486,"sentenceIndex":3,"sentenceBegin":472,"sentenceEnd":614},{"word":"smoke","begin":488,"end":492,"sentenceIndex":3,"sentenceBegin":472,"sentenceEnd":614},{"word":"cigarette","begin":556,"end":564,"sentenceIndex":3,"sentenceBegin":472,"sentenceEnd":614},{"word":"smoke","begin":566,"end":570,"sentenceIndex":3,"sentenceBegin":472,"sentenceEnd":614},{"word":"cigarette","begin":657,"end":665,"sentenceIndex":4,"sentenceBegin":616,"sentenceEnd":722},{"word":"smoke","begin":667,"end":671,"sentenceIndex":4,"sentenceBegin":616,"sentenceEnd":722},{"word":"cigarette","begin":1308,"end":1316,"sentenceIndex":8,"sentenceBegin":1291,"sentenceEnd":1450},{"word":"smoke","begin":1318,"end":1322,"sentenceIndex":8,"sentenceBegin":1291,"sentenceEnd":1450}]}
{"paperId":"8810588f364d2a1fb8208201693b5d201eb8d7a7","indicators":[{"word":"smoking","begin":1369,"end":1375,"sentenceIndex":10,"sentenceBegin":1302,"sentenceEnd":1396}]}
{"paperId":"8810588f364d2a1fb8208201693b5d201eb8d7a7","indicators":[{"word":"smoking","begin":5275,"end":5281,"sentenceIndex":51,"sentenceBegin":5220,"sentenceEnd":5327}]}
{"paperId":"8810588f364d2a1fb8208201693b5d201eb8d7a7","indicators":[{"word":"smoking","begin":5040,"end":5046,"sentenceIndex":43,"sentenceBegin":4978,"sentenceEnd":5118}]}
{"paperId":"8810588f364d2a1fb8208201693b5d201eb8d7a7","indicators":[{"word":"cigarette","begin":98,"end":106,"sentenceIndex":1,"sentenceBegin":70,"sentenceEnd":233},{"word":"smoking","begin":108,"end":114,"sentenceIndex":1,"sentenceBegin":70,"sentenceEnd":233},{"word":"smoking","begin":361,"end":367,"sentenceIndex":2,"sentenceBegin":235,"sentenceEnd":376}]}
{"paperId":"8810588f364d2a1fb8208201693b5d201eb8d7a7","indicators":[{"word":"smoked","begin":902,"end":907,"sentenceIndex":6,"sentenceBegin":792,"sentenceEnd":909}]}
{"paperId":"8810588f364d2a1fb8208201693b5d201eb8d7a7","indicators":[{"word":"smoking","begin":707,"end":713,"sentenceIndex":6,"sentenceBegin":633,"sentenceEnd":737}]}
{"paperId":"8810588f364d2a1fb8208201693b5d201eb8d7a7","indicators":[{"word":"smoking","begin":413,"end":419,"sentenceIndex":4,"sentenceBegin":326,"sentenceEnd":420}]}
{"paperId":"8810588f364d2a1fb8208201693b5d201eb8d7a7","indicators":[{"word":"cigarette","begin":6402,"end":6410,"sentenceIndex":54,"sentenceBegin":6291,"sentenceEnd":6670},{"word":"smoke","begin":6412,"end":6416,"sentenceIndex":54,"sentenceBegin":6291,"sentenceEnd":6670}]}
{"paperId":"8810588f364d2a1fb8208201693b5d201eb8d7a7","indicators":[{"word":"smoking","begin":1447,"end":1453,"sentenceIndex":10,"sentenceBegin":1432,"sentenceEnd":1527}]}
{"paperId":"8810588f364d2a1fb8208201693b5d201eb8d7a7","indicators":[{"word":"tobacco","begin":5246,"end":5252,"sentenceIndex":44,"sentenceBegin":5183,"sentenceEnd":5274},{"word":"smoke","begin":5254,"end":5258,"sentenceIndex":44,"sentenceBegin":5183,"sentenceEnd":5274}]}
{"paperId":"f65b0e977cc320a493edd1f54c7b29236a5c7c02","indicators":[{"word":"smoking","begin":196,"end":202,"sentenceIndex":2,"sentenceBegin":169,"sentenceEnd":399}]}
{"paperId":"f65b0e977cc320a493edd1f54c7b29236a5c7c02","indicators":[{"word":"cigarette","begin":2387,"end":2395,"sentenceIndex":15,"sentenceBegin":2270,"sentenceEnd":2541},{"word":"smoke","begin":2397,"end":2401,"sentenceIndex":15,"sentenceBegin":2270,"sentenceEnd":2541}]}
{"paperId":"f65b0e977cc320a493edd1f54c7b29236a5c7c02","indicators":[{"word":"cigarette","begin":478,"end":486,"sentenceIndex":3,"sentenceBegin":472,"sentenceEnd":614},{"word":"smoke","begin":488,"end":492,"sentenceIndex":3,"sentenceBegin":472,"sentenceEnd":614},{"word":"cigarette","begin":556,"end":564,"sentenceIndex":3,"sentenceBegin":472,"sentenceEnd":614},{"word":"smoke","begin":566,"end":570,"sentenceIndex":3,"sentenceBegin":472,"sentenceEnd":614},{"word":"cigarette","begin":657,"end":665,"sentenceIndex":4,"sentenceBegin":616,"sentenceEnd":722},{"word":"smoke","begin":667,"end":671,"sentenceIndex":4,"sentenceBegin":616,"sentenceEnd":722},{"word":"cigarette","begin":1308,"end":1316,"sentenceIndex":8,"sentenceBegin":1291,"sentenceEnd":1450},{"word":"smoke","begin":1318,"end":1322,"sentenceIndex":8,"sentenceBegin":1291,"sentenceEnd":1450}]}
{"paperId":"f65b0e977cc320a493edd1f54c7b29236a5c7c02","indicators":[{"word":"smoking","begin":1369,"end":1375,"sentenceIndex":10,"sentenceBegin":1302,"sentenceEnd":1396}]}
{"paperId":"f65b0e977cc320a493edd1f54c7b29236a5c7c02","indicators":[{"word":"smoking","begin":5275,"end":5281,"sentenceIndex":51,"sentenceBegin":5220,"sentenceEnd":5327}]}
{"paperId":"f65b0e977cc320a493edd1f54c7b29236a5c7c02","indicators":[{"word":"smoking","begin":5040,"end":5046,"sentenceIndex":43,"sentenceBegin":4978,"sentenceEnd":5118}]}
{"paperId":"f65b0e977cc320a493edd1f54c7b29236a5c7c02","indicators":[{"word":"cigarette","begin":98,"end":106,"sentenceIndex":1,"sentenceBegin":70,"sentenceEnd":233},{"word":"smoking","begin":108,"end":114,"sentenceIndex":1,"sentenceBegin":70,"sentenceEnd":233},{"word":"smoking","begin":361,"end":367,"sentenceIndex":2,"sentenceBegin":235,"sentenceEnd":376}]}
{"paperId":"f65b0e977cc320a493edd1f54c7b29236a5c7c02","indicators":[{"word":"smoked","begin":902,"end":907,"sentenceIndex":6,"sentenceBegin":792,"sentenceEnd":909}]}
{"paperId":"f65b0e977cc320a493edd1f54c7b29236a5c7c02","indicators":[{"word":"smoking","begin":707,"end":713,"sentenceIndex":6,"sentenceBegin":633,"sentenceEnd":737}]}
{"paperId":"f65b0e977cc320a493edd1f54c7b29236a5c7c02","indicators":[{"word":"smoking","begin":413,"end":419,"sentenceIndex":4,"sentenceBegin":326,"sentenceEnd":420}]}
{"paperId":"f65b0e977cc320a493edd1f54c7b29236a5c7c02","indicators":[{"word":"cigarette","begin":6402,"end":6410,"sentenceIndex":54,"sentenceBegin":6291,"sentenceEnd":6670},{"word":"smoke","begin":6412,"end":6416,"sentenceIndex":54,"sentenceBegin":6291,"sentenceEnd":6670}]}
{"paperId":"f65b0e977cc320a493edd1f54c7b29236a5c7c02","indicators":[{"word":"smoking","begin":1447,"end":1453,"sentenceIndex":10,"sentenceBegin":1432,"sentenceEnd":1527}]}
{"paperId":"f65b0e977cc320a493edd1f54c7b29236a5c7c02","indicators":[{"word":"tobacco","begin":5246,"end":5252,"sentenceIndex":44,"sentenceBegin":5183,"sentenceEnd":5274},{"word":"smoke","begin":5254,"end":5258,"sentenceIndex":44,"sentenceBegin":5183,"sentenceEnd":5274}]}
{"paperId":"2cc37edf9f357fafeb3a49e3ffd328e7ed22c3e2","indicators":[{"word":"potted","begin":433,"end":438,"sentenceIndex":0,"sentenceBegin":0,"sentenceEnd":553}]}
{"paperId":"2cc37edf9f357fafeb3a49e3ffd328e7ed22c3e2","indicators":[{"word":"potting","begin":369,"end":375,"sentenceIndex":3,"sentenceBegin":334,"sentenceEnd":407}]}
{"paperId":"2cc37edf9f357fafeb3a49e3ffd328e7ed22c3e2","indicators":[{"word":"tobacco","begin":8,"end":14,"sentenceIndex":0,"sentenceBegin":0,"sentenceEnd":180},{"word":"tobacco","begin":46,"end":52,"sentenceIndex":0,"sentenceBegin":0,"sentenceEnd":180},{"word":"smoke","begin":54,"end":58,"sentenceIndex":0,"sentenceBegin":0,"sentenceEnd":180},{"word":"smoke","begin":257,"end":261,"sentenceIndex":1,"sentenceBegin":182,"sentenceEnd":322},{"word":"tobacco","begin":302,"end":308,"sentenceIndex":1,"sentenceBegin":182,"sentenceEnd":322},{"word":"smoke","begin":310,"end":314,"sentenceIndex":1,"sentenceBegin":182,"sentenceEnd":322},{"word":"smoking","begin":385,"end":391,"sentenceIndex":2,"sentenceBegin":324,"sentenceEnd":471},{"word":"smoke","begin":410,"end":414,"sentenceIndex":2,"sentenceBegin":324,"sentenceEnd":471},{"word":"smoking","begin":514,"end":520,"sentenceIndex":3,"sentenceBegin":473,"sentenceEnd":677},{"word":"smoking","begin":726,"end":732,"sentenceIndex":4,"sentenceBegin":679,"sentenceEnd":803}]}
{"paperId":"4d161175fd0d94b17314b07edb529f4616af75a6","indicators":[{"word":"pots","begin":34,"end":37,"sentenceIndex":0,"sentenceBegin":0,"sentenceEnd":38},{"word":"pots","begin":656,"end":659,"sentenceIndex":5,"sentenceBegin":543,"sentenceEnd":660}]}
{"paperId":"ec7eb9d839a295f8f01b7c9164a01f41f3bcb5c8","indicators":[{"word":"smoke","begin":385,"end":389,"sentenceIndex":3,"sentenceBegin":305,"sentenceEnd":426}]}
{"paperId":"ec7eb9d839a295f8f01b7c9164a01f41f3bcb5c8","indicators":[{"word":"smoking","begin":356,"end":362,"sentenceIndex":4,"sentenceBegin":297,"sentenceEnd":411}]}
{"paperId":"ec7eb9d839a295f8f01b7c9164a01f41f3bcb5c8","indicators":[{"word":"smoke","begin":631,"end":635,"sentenceIndex":4,"sentenceBegin":477,"sentenceEnd":636},{"word":"smoking","begin":674,"end":680,"sentenceIndex":5,"sentenceBegin":638,"sentenceEnd":970},{"word":"smoking","begin":798,"end":804,"sentenceIndex":5,"sentenceBegin":638,"sentenceEnd":970},{"word":"smoking","begin":845,"end":851,"sentenceIndex":5,"sentenceBegin":638,"sentenceEnd":970}]}
{"paperId":"ec7eb9d839a295f8f01b7c9164a01f41f3bcb5c8","indicators":[{"word":"smoking","begin":1313,"end":1319,"sentenceIndex":12,"sentenceBegin":1264,"sentenceEnd":1436},{"word":"smoking","begin":1414,"end":1420,"sentenceIndex":12,"sentenceBegin":1264,"sentenceEnd":1436}]}
{"paperId":"ec7eb9d839a295f8f01b7c9164a01f41f3bcb5c8","indicators":[{"word":"smoking","begin":221,"end":227,"sentenceIndex":1,"sentenceBegin":89,"sentenceEnd":303},{"word":"smoked","begin":374,"end":379,"sentenceIndex":2,"sentenceBegin":305,"sentenceEnd":398},{"word":"smoke","begin":680,"end":684,"sentenceIndex":4,"sentenceBegin":469,"sentenceEnd":772},{"word":"smoking","begin":838,"end":844,"sentenceIndex":5,"sentenceBegin":774,"sentenceEnd":915}]}
{"paperId":"ec7eb9d839a295f8f01b7c9164a01f41f3bcb5c8","indicators":[{"word":"smoke","begin":77,"end":81,"sentenceIndex":0,"sentenceBegin":0,"sentenceEnd":224},{"word":"smoking","begin":127,"end":133,"sentenceIndex":0,"sentenceBegin":0,"sentenceEnd":224},{"word":"tobacco","begin":204,"end":210,"sentenceIndex":0,"sentenceBegin":0,"sentenceEnd":224}]}
{"paperId":"ec7eb9d839a295f8f01b7c9164a01f41f3bcb5c8","indicators":[{"word":"smoking","begin":2809,"end":2815,"sentenceIndex":24,"sentenceBegin":2786,"sentenceEnd":2908}]}
{"paperId":"ec7eb9d839a295f8f01b7c9164a01f41f3bcb5c8","indicators":[{"word":"smoking","begin":351,"end":357,"sentenceIndex":2,"sentenceBegin":198,"sentenceEnd":435}]}
{"paperId":"ec7eb9d839a295f8f01b7c9164a01f41f3bcb5c8","indicators":[{"word":"cigarette","begin":528,"end":536,"sentenceIndex":4,"sentenceBegin":390,"sentenceEnd":562}]}
{"paperId":"ec7eb9d839a295f8f01b7c9164a01f41f3bcb5c8","indicators":[{"word":"smoking","begin":434,"end":440,"sentenceIndex":2,"sentenceBegin":362,"sentenceEnd":505}]}
{"paperId":"ec7eb9d839a295f8f01b7c9164a01f41f3bcb5c8","indicators":[{"word":"smoking","begin":329,"end":335,"sentenceIndex":2,"sentenceBegin":218,"sentenceEnd":343}]}
{"paperId":"ec7eb9d839a295f8f01b7c9164a01f41f3bcb5c8","indicators":[{"word":"smoking","begin":170,"end":176,"sentenceIndex":1,"sentenceBegin":113,"sentenceEnd":241}]}
{"paperId":"ec7eb9d839a295f8f01b7c9164a01f41f3bcb5c8","indicators":[{"word":"smoking","begin":329,"end":335,"sentenceIndex":2,"sentenceBegin":247,"sentenceEnd":421}]}
{"paperId":"ec7eb9d839a295f8f01b7c9164a01f41f3bcb5c8","indicators":[{"word":"cigarettes","begin":191,"end":200,"sentenceIndex":2,"sentenceBegin":137,"sentenceEnd":201},{"word":"smoking","begin":341,"end":347,"sentenceIndex":4,"sentenceBegin":250,"sentenceEnd":358}]}
{"paperId":"ec7eb9d839a295f8f01b7c9164a01f41f3bcb5c8","indicators":[{"word":"smoking","begin":178,"end":184,"sentenceIndex":1,"sentenceBegin":120,"sentenceEnd":252}]}
{"paperId":"ec7eb9d839a295f8f01b7c9164a01f41f3bcb5c8","indicators":[{"word":"tobacco","begin":345,"end":351,"sentenceIndex":3,"sentenceBegin":274,"sentenceEnd":493},{"word":"smoke","begin":421,"end":425,"sentenceIndex":3,"sentenceBegin":274,"sentenceEnd":493},{"word":"tobacco","begin":431,"end":437,"sentenceIndex":3,"sentenceBegin":274,"sentenceEnd":493},{"word":"cigarettes","begin":476,"end":485,"sentenceIndex":3,"sentenceBegin":274,"sentenceEnd":493}]}
{"paperId":"ec7eb9d839a295f8f01b7c9164a01f41f3bcb5c8","indicators":[{"word":"cigarettes","begin":202,"end":211,"sentenceIndex":1,"sentenceBegin":143,"sentenceEnd":278},{"word":"smoking","begin":334,"end":340,"sentenceIndex":2,"sentenceBegin":280,"sentenceEnd":448},{"word":"cigarettes","begin":397,"end":406,"sentenceIndex":2,"sentenceBegin":280,"sentenceEnd":448},{"word":"tobacco","begin":432,"end":438,"sentenceIndex":2,"sentenceBegin":280,"sentenceEnd":448}]}
{"paperId":"3bf85a0f0bd73174d4dedcf1d902bcd33f8d01be","indicators":[{"word":"smoking","begin":1954,"end":1960,"sentenceIndex":12,"sentenceBegin":1804,"sentenceEnd":1973},{"word":"smoking","begin":2145,"end":2151,"sentenceIndex":13,"sentenceBegin":1975,"sentenceEnd":2217},{"word":"smoking","begin":2266,"end":2272,"sentenceIndex":14,"sentenceBegin":2219,"sentenceEnd":2352}]}
{"paperId":"050059af4a7ee516abbe2de755433c7c9a04818c","indicators":[{"word":"smoke","begin":460,"end":464,"sentenceIndex":6,"sentenceBegin":456,"sentenceEnd":490},{"word":"smoke","begin":1407,"end":1411,"sentenceIndex":18,"sentenceBegin":1400,"sentenceEnd":1569},{"word":"smoke","begin":1465,"end":1469,"sentenceIndex":18,"sentenceBegin":1400,"sentenceEnd":1569}]}
{"paperId":"050059af4a7ee516abbe2de755433c7c9a04818c","indicators":[{"word":"fires","begin":619,"end":623,"sentenceIndex":5,"sentenceBegin":559,"sentenceEnd":624}]}
{"paperId":"050059af4a7ee516abbe2de755433c7c9a04818c","indicators":[{"word":"vapor","begin":702,"end":706,"sentenceIndex":7,"sentenceBegin":633,"sentenceEnd":712},{"word":"vapor","begin":750,"end":754,"sentenceIndex":8,"sentenceBegin":714,"sentenceEnd":836}]}
{"paperId":"050059af4a7ee516abbe2de755433c7c9a04818c","indicators":[{"word":"vapors","begin":739,"end":744,"sentenceIndex":6,"sentenceBegin":631,"sentenceEnd":795}]}
{"paperId":"050059af4a7ee516abbe2de755433c7c9a04818c","indicators":[{"word":"vapor","begin":92,"end":96,"sentenceIndex":1,"sentenceBegin":83,"sentenceEnd":212}]}
{"paperId":"050059af4a7ee516abbe2de755433c7c9a04818c","indicators":[{"word":"vapor","begin":92,"end":96,"sentenceIndex":1,"sentenceBegin":83,"sentenceEnd":155}]}
{"paperId":"050059af4a7ee516abbe2de755433c7c9a04818c","indicators":[{"word":"vapor","begin":1250,"end":1254,"sentenceIndex":11,"sentenceBegin":1232,"sentenceEnd":1396}]}
{"paperId":"050059af4a7ee516abbe2de755433c7c9a04818c","indicators":[{"word":"vapor","begin":293,"end":297,"sentenceIndex":1,"sentenceBegin":286,"sentenceEnd":356}]}
{"paperId":"050059af4a7ee516abbe2de755433c7c9a04818c","indicators":[{"word":"smoke","begin":31,"end":35,"sentenceIndex":0,"sentenceBegin":0,"sentenceEnd":143}]}
{"paperId":"050059af4a7ee516abbe2de755433c7c9a04818c","indicators":[{"word":"fires","begin":126,"end":130,"sentenceIndex":1,"sentenceBegin":102,"sentenceEnd":208}]}
{"paperId":"050059af4a7ee516abbe2de755433c7c9a04818c","indicators":[{"word":"smoke","begin":2911,"end":2915,"sentenceIndex":21,"sentenceBegin":2653,"sentenceEnd":3043},{"word":"firing","begin":3859,"end":3864,"sentenceIndex":30,"sentenceBegin":3825,"sentenceEnd":3865},{"word":"fired","begin":7072,"end":7076,"sentenceIndex":61,"sentenceBegin":7016,"sentenceEnd":7179},{"word":"firing","begin":12429,"end":12434,"sentenceIndex":110,"sentenceBegin":12373,"sentenceEnd":12505},{"word":"fired","begin":12564,"end":12568,"sentenceIndex":111,"sentenceBegin":12507,"sentenceEnd":12626},{"word":"fired","begin":12763,"end":12767,"sentenceIndex":113,"sentenceBegin":12696,"sentenceEnd":12833}]}
{"paperId":"f2af34193386651787223abc820ccdd113359de7","indicators":[{"word":"weeds","begin":564,"end":568,"sentenceIndex":3,"sentenceBegin":451,"sentenceEnd":569},{"word":"tobacco","begin":666,"end":672,"sentenceIndex":6,"sentenceBegin":613,"sentenceEnd":681}]}
{"paperId":"f2af34193386651787223abc820ccdd113359de7","indicators":[{"word":"fires","begin":394,"end":398,"sentenceIndex":2,"sentenceBegin":223,"sentenceEnd":421}]}
{"paperId":"f2af34193386651787223abc820ccdd113359de7","indicators":[{"word":"weeds","begin":1094,"end":1098,"sentenceIndex":14,"sentenceBegin":955,"sentenceEnd":1099}]}
{"paperId":"ba263288331df1826fad9623057988ddd13bbbe9","indicators":[{"word":"smoking","begin":487,"end":493,"sentenceIndex":2,"sentenceBegin":336,"sentenceEnd":530},{"word":"smoking","begin":684,"end":690,"sentenceIndex":3,"sentenceBegin":532,"sentenceEnd":702},{"word":"smoking","begin":949,"end":955,"sentenceIndex":6,"sentenceBegin":920,"sentenceEnd":1070}]}
{"paperId":"ba263288331df1826fad9623057988ddd13bbbe9","indicators":[{"word":"smoking","begin":569,"end":575,"sentenceIndex":3,"sentenceBegin":499,"sentenceEnd":669}]}
{"paperId":"ba263288331df1826fad9623057988ddd13bbbe9","indicators":[{"word":"smoking","begin":428,"end":434,"sentenceIndex":3,"sentenceBegin":372,"sentenceEnd":490}]}
{"paperId":"ba263288331df1826fad9623057988ddd13bbbe9","indicators":[{"word":"smoking","begin":68,"end":74,"sentenceIndex":0,"sentenceBegin":0,"sentenceEnd":132},{"word":"smoking","begin":98,"end":104,"sentenceIndex":0,"sentenceBegin":0,"sentenceEnd":132}]}
{"paperId":"ba263288331df1826fad9623057988ddd13bbbe9","indicators":[{"word":"smoked","begin":39,"end":44,"sentenceIndex":0,"sentenceBegin":0,"sentenceEnd":61},{"word":"cigarettes","begin":51,"end":60,"sentenceIndex":0,"sentenceBegin":0,"sentenceEnd":61},{"word":"smoking","begin":112,"end":118,"sentenceIndex":2,"sentenceBegin":88,"sentenceEnd":149},{"word":"cigarettes","begin":125,"end":134,"sentenceIndex":2,"sentenceBegin":88,"sentenceEnd":149},{"word":"smoking","begin":200,"end":206,"sentenceIndex":4,"sentenceBegin":175,"sentenceEnd":309},{"word":"smoking","begin":334,"end":340,"sentenceIndex":5,"sentenceBegin":311,"sentenceEnd":366},{"word":"smoking","begin":508,"end":514,"sentenceIndex":7,"sentenceBegin":433,"sentenceEnd":570}]}
{"paperId":"ba263288331df1826fad9623057988ddd13bbbe9","indicators":[{"word":"smoking","begin":48,"end":54,"sentenceIndex":0,"sentenceBegin":0,"sentenceEnd":260},{"word":"tobacco","begin":114,"end":120,"sentenceIndex":0,"sentenceBegin":0,"sentenceEnd":260}]}
{"paperId":"ba263288331df1826fad9623057988ddd13bbbe9","indicators":[{"word":"tobacco","begin":90,"end":96,"sentenceIndex":0,"sentenceBegin":0,"sentenceEnd":199}]}
{"paperId":"ba263288331df1826fad9623057988ddd13bbbe9","indicators":[{"word":"tobacco","begin":79,"end":85,"sentenceIndex":0,"sentenceBegin":0,"sentenceEnd":231},{"word":"tobacco","begin":214,"end":220,"sentenceIndex":0,"sentenceBegin":0,"sentenceEnd":231}]}
{"paperId":"ba263288331df1826fad9623057988ddd13bbbe9","indicators":[{"word":"tobacco","begin":13,"end":19,"sentenceIndex":0,"sentenceBegin":0,"sentenceEnd":136},{"word":"tobacco","begin":111,"end":117,"sentenceIndex":0,"sentenceBegin":0,"sentenceEnd":136}]}
{"paperId":"ba263288331df1826fad9623057988ddd13bbbe9","indicators":[{"word":"tobacco","begin":54,"end":60,"sentenceIndex":0,"sentenceBegin":0,"sentenceEnd":130},{"word":"tobacco","begin":169,"end":175,"sentenceIndex":1,"sentenceBegin":132,"sentenceEnd":190},{"word":"tobacco","begin":197,"end":203,"sentenceIndex":2,"sentenceBegin":192,"sentenceEnd":270},{"word":"tobacco","begin":255,"end":261,"sentenceIndex":2,"sentenceBegin":192,"sentenceEnd":270},{"word":"cigarette","begin":602,"end":610,"sentenceIndex":5,"sentenceBegin":557,"sentenceEnd":674}]}
{"paperId":"ba263288331df1826fad9623057988ddd13bbbe9","indicators":[{"word":"tobacco","begin":107,"end":113,"sentenceIndex":0,"sentenceBegin":0,"sentenceEnd":199}]}
{"paperId":"ba263288331df1826fad9623057988ddd13bbbe9","indicators":[{"word":"smoking","begin":188,"end":194,"sentenceIndex":1,"sentenceBegin":153,"sentenceEnd":347}]}
{"paperId":"ba263288331df1826fad9623057988ddd13bbbe9","indicators":[{"word":"smoking","begin":22,"end":28,"sentenceIndex":0,"sentenceBegin":0,"sentenceEnd":164},{"word":"smoking","begin":79,"end":85,"sentenceIndex":0,"sentenceBegin":0,"sentenceEnd":164},{"word":"smoking","begin":541,"end":547,"sentenceIndex":4,"sentenceBegin":405,"sentenceEnd":717}]}
{"paperId":"ba263288331df1826fad9623057988ddd13bbbe9","indicators":[{"word":"smoking","begin":222,"end":228,"sentenceIndex":1,"sentenceBegin":108,"sentenceEnd":250}]}
{"paperId":"0c005359a1a75be3f2c1ec60cbcbf3c23a42a71e","indicators":[{"word":"tobacco","begin":550,"end":556,"sentenceIndex":4,"sentenceBegin":507,"sentenceEnd":702}]}
{"paperId":"da7e1d95fad17fdd19b56462c1db59bb8db907d5","indicators":[{"word":"tobacco","begin":181,"end":187,"sentenceIndex":2,"sentenceBegin":133,"sentenceEnd":215},{"word":"smoke","begin":189,"end":193,"sentenceIndex":2,"sentenceBegin":133,"sentenceEnd":215}]}
{"paperId":"da7e1d95fad17fdd19b56462c1db59bb8db907d5","indicators":[{"word":"pots","begin":525,"end":528,"sentenceIndex":3,"sentenceBegin":419,"sentenceEnd":641},{"word":"pot","begin":603,"end":605,"sentenceIndex":3,"sentenceBegin":419,"sentenceEnd":641},{"word":"pots","begin":731,"end":734,"sentenceIndex":5,"sentenceBegin":702,"sentenceEnd":791},{"word":"pots","begin":977,"end":980,"sentenceIndex":7,"sentenceBegin":926,"sentenceEnd":1064},{"word":"pots","begin":1090,"end":1093,"sentenceIndex":8,"sentenceBegin":1066,"sentenceEnd":1143}]}
{"paperId":"da7e1d95fad17fdd19b56462c1db59bb8db907d5","indicators":[{"word":"pots","begin":373,"end":376,"sentenceIndex":2,"sentenceBegin":247,"sentenceEnd":377}]}
{"paperId":"ae7bc51221f77afeb4fa6e9e1b958b5ca71563e4","indicators":[{"word":"cannabis","begin":184,"end":191,"sentenceIndex":1,"sentenceBegin":165,"sentenceEnd":481}]}
{"paperId":"ae7bc51221f77afeb4fa6e9e1b958b5ca71563e4","indicators":[{"word":"tobacco","begin":635,"end":641,"sentenceIndex":3,"sentenceBegin":576,"sentenceEnd":772}]}
{"paperId":"ae7bc51221f77afeb4fa6e9e1b958b5ca71563e4","indicators":[{"word":"fired","begin":39,"end":43,"sentenceIndex":0,"sentenceBegin":0,"sentenceEnd":88}]}
{"paperId":"ae7bc51221f77afeb4fa6e9e1b958b5ca71563e4","indicators":[{"word":"tobacco","begin":1033,"end":1039,"sentenceIndex":6,"sentenceBegin":942,"sentenceEnd":1111},{"word":"tobacco","begin":1053,"end":1059,"sentenceIndex":6,"sentenceBegin":942,"sentenceEnd":1111},{"word":"tobacco","begin":1179,"end":1185,"sentenceIndex":8,"sentenceBegin":1161,"sentenceEnd":1247},{"word":"tobacco","begin":1487,"end":1493,"sentenceIndex":11,"sentenceBegin":1450,"sentenceEnd":1635},{"word":"tobacco","begin":1608,"end":1614,"sentenceIndex":11,"sentenceBegin":1450,"sentenceEnd":1635},{"word":"tobacco","begin":1724,"end":1730,"sentenceIndex":12,"sentenceBegin":1637,"sentenceEnd":1751}]}
{"paperId":"a6f6e0838ec182c541d6e082a76034e31f81a8da","indicators":[{"word":"smoke","begin":378,"end":382,"sentenceIndex":2,"sentenceBegin":305,"sentenceEnd":516}]}
{"paperId":"b73d9e1ff04f4ebfdd0469fc1ab55b9c9cf605fa","indicators":[{"word":"cigarette","begin":1273,"end":1281,"sentenceIndex":4,"sentenceBegin":983,"sentenceEnd":1303},{"word":"smoking","begin":1283,"end":1289,"sentenceIndex":4,"sentenceBegin":983,"sentenceEnd":1303}]}
{"paperId":"b73d9e1ff04f4ebfdd0469fc1ab55b9c9cf605fa","indicators":[{"word":"smoking","begin":430,"end":436,"sentenceIndex":2,"sentenceBegin":356,"sentenceEnd":536}]}
{"paperId":"b73d9e1ff04f4ebfdd0469fc1ab55b9c9cf605fa","indicators":[{"word":"smoking","begin":83,"end":89,"sentenceIndex":0,"sentenceBegin":0,"sentenceEnd":234}]}
{"paperId":"b73d9e1ff04f4ebfdd0469fc1ab55b9c9cf605fa","indicators":[{"word":"smoking","begin":417,"end":423,"sentenceIndex":1,"sentenceBegin":221,"sentenceEnd":452}]}
