{"paperId":"a9f8b8f66a50e768468eb746bf3003ec0e2686ed","indicators":[{"word":"vapor","begin":238,"end":242,"sentenceIndex":1,"sentenceBegin":113,"sentenceEnd":243}]}
{"paperId":"a9f8b8f66a50e768468eb746bf3003ec0e2686ed","indicators":[{"word":"smoke","begin":355,"end":359,"sentenceIndex":1,"sentenceBegin":133,"sentenceEnd":360}]}
{"paperId":"a9f8b8f66a50e768468eb746bf3003ec0e2686ed","indicators":[{"word":"smoke","begin":605,"end":609,"sentenceIndex":6,"sentenceBegin":518,"sentenceEnd":648}]}
{"paperId":"5a12a765e9a91f4e2dd7e1399ee8c179b0184d24","indicators":[{"word":"smoke","begin":1753,"end":1757,"sentenceIndex":13,"sentenceBegin":1693,"sentenceEnd":1810}]}
{"paperId":"5a12a765e9a91f4e2dd7e1399ee8c179b0184d24","indicators":[{"word":"smoke","begin":206,"end":210,"sentenceIndex":1,"sentenceBegin":73,"sentenceEnd":295}]}
{"paperId":"5a12a765e9a91f4e2dd7e1399ee8c179b0184d24","indicators":[{"word":"cigarettes","begin":129,"end":138,"sentenceIndex":0,"sentenceBegin":0,"sentenceEnd":277},{"word":"smoke","begin":521,"end":525,"sentenceIndex":2,"sentenceBegin":361,"sentenceEnd":549}]}
{"paperId":"5a12a765e9a91f4e2dd7e1399ee8c179b0184d24","indicators":[{"word":"fires","begin":373,"end":377,"sentenceIndex":1,"sentenceBegin":290,"sentenceEnd":407}]}
{"paperId":"5a12a765e9a91f4e2dd7e1399ee8c179b0184d24","indicators":[{"word":"smoke","begin":944,"end":948,"sentenceIndex":4,"sentenceBegin":795,"sentenceEnd":975}]}
{"paperId":"5a12a765e9a91f4e2dd7e1399ee8c179b0184d24","indicators":[{"word":"smoke","begin":482,"end":486,"sentenceIndex":3,"sentenceBegin":455,"sentenceEnd":651}]}
{"paperId":"5a12a765e9a91f4e2dd7e1399ee8c179b0184d24","indicators":[{"word":"smoke","begin":592,"end":596,"sentenceIndex":3,"sentenceBegin":580,"sentenceEnd":776}]}
{"paperId":"5a12a765e9a91f4e2dd7e1399ee8c179b0184d24","indicators":[{"word":"smoke","begin":84,"end":88,"sentenceIndex":0,"sentenceBegin":0,"sentenceEnd":145}]}
{"paperId":"5a12a765e9a91f4e2dd7e1399ee8c179b0184d24","indicators":[{"word":"smoke","begin":839,"end":843,"sentenceIndex":3,"sentenceBegin":687,"sentenceEnd":877}]}
{"paperId":"7411b935192b4f39655bba603e7f79366e77f8e4","indicators":[{"word":"smoke","begin":595,"end":599,"sentenceIndex":4,"sentenceBegin":512,"sentenceEnd":695}]}
{"paperId":"7411b935192b4f39655bba603e7f79366e77f8e4","indicators":[{"word":"cigarette","begin":540,"end":548,"sentenceIndex":3,"sentenceBegin":374,"sentenceEnd":613},{"word":"smoke","begin":550,"end":554,"sentenceIndex":3,"sentenceBegin":374,"sentenceEnd":613}]}
{"paperId":"7411b935192b4f39655bba603e7f79366e77f8e4","indicators":[{"word":"smoke","begin":391,"end":395,"sentenceIndex":2,"sentenceBegin":228,"sentenceEnd":446}]}
{"paperId":"7411b935192b4f39655bba603e7f79366e77f8e4","indicators":[{"word":"cigarette","begin":562,"end":570,"sentenceIndex":6,"sentenceBegin":516,"sentenceEnd":705},{"word":"smoke","begin":572,"end":576,"sentenceIndex":6,"sentenceBegin":516,"sentenceEnd":705}]}
{"paperId":"e44a7ad658d3d31296c0fbacfc1f8c5015dc92bd","indicators":[{"word":"tobacco","begin":237,"end":243,"sentenceIndex":1,"sentenceBegin":149,"sentenceEnd":344}]}
{"paperId":"c403eaa2d3d10754ac6474e74aa895590333098d","indicators":[{"word":"cigarettes","begin":445,"end":454,"sentenceIndex":4,"sentenceBegin":317,"sentenceEnd":462},{"word":"smoked","begin":456,"end":461,"sentenceIndex":4,"sentenceBegin":317,"sentenceEnd":462}]}
{"paperId":"c403eaa2d3d10754ac6474e74aa895590333098d","indicators":[{"word":"smoking","begin":211,"end":217,"sentenceIndex":0,"sentenceBegin":0,"sentenceEnd":218}]}
{"paperId":"c403eaa2d3d10754ac6474e74aa895590333098d","indicators":[{"word":"tobacco","begin":560,"end":566,"sentenceIndex":5,"sentenceBegin":405,"sentenceEnd":746}]}
{"paperId":"6a9ef100908ba7ae243e76a17806b56590cf30a8","indicators":[{"word":"tobacco","begin":1554,"end":1560,"sentenceIndex":12,"sentenceBegin":1405,"sentenceEnd":1647}]}
{"paperId":"6a9ef100908ba7ae243e76a17806b56590cf30a8","indicators":[{"word":"tobacco","begin":2246,"end":2252,"sentenceIndex":23,"sentenceBegin":2176,"sentenceEnd":2472}]}
{"paperId":"6a9ef100908ba7ae243e76a17806b56590cf30a8","indicators":[{"word":"tobacco","begin":646,"end":652,"sentenceIndex":4,"sentenceBegin":617,"sentenceEnd":775}]}
{"paperId":"6a9ef100908ba7ae243e76a17806b56590cf30a8","indicators":[{"word":"tobacco","begin":84,"end":90,"sentenceIndex":0,"sentenceBegin":0,"sentenceEnd":144},{"word":"tobacco","begin":270,"end":276,"sentenceIndex":1,"sentenceBegin":146,"sentenceEnd":323},{"word":"tobacco","begin":944,"end":950,"sentenceIndex":5,"sentenceBegin":849,"sentenceEnd":1138}]}
{"paperId":"6a9ef100908ba7ae243e76a17806b56590cf30a8","indicators":[{"word":"tobacco","begin":106,"end":112,"sentenceIndex":0,"sentenceBegin":0,"sentenceEnd":283},{"word":"tobacco","begin":895,"end":901,"sentenceIndex":4,"sentenceBegin":832,"sentenceEnd":988},{"word":"tobacco","begin":1496,"end":1502,"sentenceIndex":7,"sentenceBegin":1393,"sentenceEnd":1554}]}
{"paperId":"6a9ef100908ba7ae243e76a17806b56590cf30a8","indicators":[{"word":"tobacco","begin":47,"end":53,"sentenceIndex":0,"sentenceBegin":0,"sentenceEnd":137},{"word":"tobacco","begin":179,"end":185,"sentenceIndex":1,"sentenceBegin":139,"sentenceEnd":256}]}
{"paperId":"6a9ef100908ba7ae243e76a17806b56590cf30a8","indicators":[{"word":"tobacco","begin":367,"end":373,"sentenceIndex":2,"sentenceBegin":341,"sentenceEnd":467}]}
{"paperId":"6a9ef100908ba7ae243e76a17806b56590cf30a8","indicators":[{"word":"tobacco","begin":767,"end":773,"sentenceIndex":5,"sentenceBegin":673,"sentenceEnd":914}]}
{"paperId":"6a9ef100908ba7ae243e76a17806b56590cf30a8","indicators":[{"word":"tobacco","begin":107,"end":113,"sentenceIndex":0,"sentenceBegin":0,"sentenceEnd":121}]}
{"paperId":"6a9ef100908ba7ae243e76a17806b56590cf30a8","indicators":[{"word":"tobacco","begin":72,"end":78,"sentenceIndex":0,"sentenceBegin":0,"sentenceEnd":312}]}
{"paperId":"6a9ef100908ba7ae243e76a17806b56590cf30a8","indicators":[{"word":"tobacco","begin":484,"end":490,"sentenceIndex":3,"sentenceBegin":447,"sentenceEnd":591}]}
{"paperId":"6a9ef100908ba7ae243e76a17806b56590cf30a8","indicators":[{"word":"tobacco","begin":891,"end":897,"sentenceIndex":5,"sentenceBegin":797,"sentenceEnd":916},{"word":"tobacco","begin":929,"end":935,"sentenceIndex":6,"sentenceBegin":918,"sentenceEnd":1188}]}
{"paperId":"6a9ef100908ba7ae243e76a17806b56590cf30a8","indicators":[{"word":"tobacco","begin":124,"end":130,"sentenceIndex":0,"sentenceBegin":0,"sentenceEnd":188}]}
{"paperId":"6a9ef100908ba7ae243e76a17806b56590cf30a8","indicators":[{"word":"tobacco","begin":716,"end":722,"sentenceIndex":7,"sentenceBegin":592,"sentenceEnd":807}]}
{"paperId":"6a9ef100908ba7ae243e76a17806b56590cf30a8","indicators":[{"word":"tobacco","begin":171,"end":177,"sentenceIndex":0,"sentenceBegin":0,"sentenceEnd":269},{"word":"tobacco","begin":306,"end":312,"sentenceIndex":1,"sentenceBegin":271,"sentenceEnd":486}]}
{"paperId":"6a9ef100908ba7ae243e76a17806b56590cf30a8","indicators":[{"word":"tobacco","begin":252,"end":258,"sentenceIndex":1,"sentenceBegin":115,"sentenceEnd":327},{"word":"tobacco","begin":418,"end":424,"sentenceIndex":2,"sentenceBegin":329,"sentenceEnd":674}]}
{"paperId":"6a9ef100908ba7ae243e76a17806b56590cf30a8","indicators":[{"word":"tobacco","begin":89,"end":95,"sentenceIndex":0,"sentenceBegin":0,"sentenceEnd":207},{"word":"tobacco","begin":132,"end":138,"sentenceIndex":0,"sentenceBegin":0,"sentenceEnd":207},{"word":"tobacco","begin":174,"end":180,"sentenceIndex":0,"sentenceBegin":0,"sentenceEnd":207}]}
{"paperId":"6a9ef100908ba7ae243e76a17806b56590cf30a8","indicators":[{"word":"tobacco","begin":123,"end":129,"sentenceIndex":0,"sentenceBegin":0,"sentenceEnd":225}]}
{"paperId":"6a9ef100908ba7ae243e76a17806b56590cf30a8","indicators":[{"word":"tobacco","begin":172,"end":178,"sentenceIndex":1,"sentenceBegin":109,"sentenceEnd":263},{"word":"tobacco","begin":423,"end":429,"sentenceIndex":2,"sentenceBegin":265,"sentenceEnd":778}]}
{"paperId":"6dbc1181175c5ce84c649469fc4e9a4c7b6b8f32","indicators":[{"word":"vapor","begin":4,"end":8,"sentenceIndex":0,"sentenceBegin":0,"sentenceEnd":84}]}
{"paperId":"3dc32a40f83536c9754f2d7908d8b8dfd0ce189d","indicators":[{"word":"vapor","begin":475,"end":479,"sentenceIndex":3,"sentenceBegin":398,"sentenceEnd":550}]}
{"paperId":"3dc32a40f83536c9754f2d7908d8b8dfd0ce189d","indicators":[{"word":"vapor","begin":109,"end":113,"sentenceIndex":0,"sentenceBegin":0,"sentenceEnd":126},{"word":"vapor","begin":147,"end":151,"sentenceIndex":1,"sentenceBegin":128,"sentenceEnd":289}]}
{"paperId":"3dc32a40f83536c9754f2d7908d8b8dfd0ce189d","indicators":[{"word":"vapor","begin":61,"end":65,"sentenceIndex":0,"sentenceBegin":0,"sentenceEnd":159}]}
{"paperId":"80075d73d88688f8c9003b9336e739e3d66aa405","indicators":[{"word":"tobacco","begin":135,"end":141,"sentenceIndex":1,"sentenceBegin":102,"sentenceEnd":443}]}
{"paperId":"80075d73d88688f8c9003b9336e739e3d66aa405","indicators":[{"word":"tobacco","begin":8,"end":14,"sentenceIndex":0,"sentenceBegin":0,"sentenceEnd":95}]}
{"paperId":"80075d73d88688f8c9003b9336e739e3d66aa405","indicators":[{"word":"tobacco","begin":287,"end":293,"sentenceIndex":4,"sentenceBegin":205,"sentenceEnd":350},{"word":"tobacco","begin":1471,"end":1477,"sentenceIndex":29,"sentenceBegin":1460,"sentenceEnd":1641}]}
{"paperId":"80075d73d88688f8c9003b9336e739e3d66aa405","indicators":[{"word":"tobacco","begin":650,"end":656,"sentenceIndex":12,"sentenceBegin":475,"sentenceEnd":790}]}
{"paperId":"80075d73d88688f8c9003b9336e739e3d66aa405","indicators":[{"word":"tobacco","begin":1659,"end":1665,"sentenceIndex":8,"sentenceBegin":1402,"sentenceEnd":1735},{"word":"tobacco","begin":2188,"end":2194,"sentenceIndex":14,"sentenceBegin":2128,"sentenceEnd":2283}]}
{"paperId":"80075d73d88688f8c9003b9336e739e3d66aa405","indicators":[{"word":"tobacco","begin":1682,"end":1688,"sentenceIndex":23,"sentenceBegin":1566,"sentenceEnd":1718},{"word":"tobacco","begin":2144,"end":2150,"sentenceIndex":25,"sentenceBegin":2041,"sentenceEnd":2178},{"word":"tobacco","begin":3112,"end":3118,"sentenceIndex":33,"sentenceBegin":3008,"sentenceEnd":3119}]}
{"paperId":"80075d73d88688f8c9003b9336e739e3d66aa405","indicators":[{"word":"tobacco","begin":1308,"end":1314,"sentenceIndex":9,"sentenceBegin":1190,"sentenceEnd":1383},{"word":"tobacco","begin":1684,"end":1690,"sentenceIndex":11,"sentenceBegin":1508,"sentenceEnd":1800}]}
{"paperId":"80075d73d88688f8c9003b9336e739e3d66aa405","indicators":[{"word":"tobacco","begin":762,"end":768,"sentenceIndex":7,"sentenceBegin":694,"sentenceEnd":918},{"word":"tobacco","begin":1221,"end":1227,"sentenceIndex":25,"sentenceBegin":1187,"sentenceEnd":1293}]}
{"paperId":"80075d73d88688f8c9003b9336e739e3d66aa405","indicators":[{"word":"tobacco","begin":1678,"end":1684,"sentenceIndex":18,"sentenceBegin":1605,"sentenceEnd":1807},{"word":"tobacco","begin":1755,"end":1761,"sentenceIndex":18,"sentenceBegin":1605,"sentenceEnd":1807},{"word":"tobacco","begin":2440,"end":2446,"sentenceIndex":36,"sentenceBegin":2383,"sentenceEnd":2651}]}
{"paperId":"80075d73d88688f8c9003b9336e739e3d66aa405","indicators":[{"word":"tobacco","begin":1625,"end":1631,"sentenceIndex":24,"sentenceBegin":1440,"sentenceEnd":1689},{"word":"tobacco","begin":1775,"end":1781,"sentenceIndex":25,"sentenceBegin":1691,"sentenceEnd":1895}]}
{"paperId":"80075d73d88688f8c9003b9336e739e3d66aa405","indicators":[{"word":"tobacco","begin":1460,"end":1466,"sentenceIndex":15,"sentenceBegin":1271,"sentenceEnd":1530}]}
{"paperId":"80075d73d88688f8c9003b9336e739e3d66aa405","indicators":[{"word":"tobacco","begin":1136,"end":1142,"sentenceIndex":23,"sentenceBegin":1047,"sentenceEnd":1156},{"word":"tobacco","begin":1271,"end":1277,"sentenceIndex":25,"sentenceBegin":1264,"sentenceEnd":1354}]}
{"paperId":"80075d73d88688f8c9003b9336e739e3d66aa405","indicators":[{"word":"tobacco","begin":1002,"end":1008,"sentenceIndex":13,"sentenceBegin":946,"sentenceEnd":1131},{"word":"tobacco","begin":1520,"end":1526,"sentenceIndex":24,"sentenceBegin":1428,"sentenceEnd":1719}]}
{"paperId":"80075d73d88688f8c9003b9336e739e3d66aa405","indicators":[{"word":"tobacco","begin":1638,"end":1644,"sentenceIndex":18,"sentenceBegin":1541,"sentenceEnd":1645},{"word":"tobacco","begin":1689,"end":1695,"sentenceIndex":19,"sentenceBegin":1647,"sentenceEnd":1786},{"word":"tobacco","begin":1826,"end":1832,"sentenceIndex":20,"sentenceBegin":1788,"sentenceEnd":1994},{"word":"tobacco","begin":3183,"end":3189,"sentenceIndex":30,"sentenceBegin":3071,"sentenceEnd":3197}]}
{"paperId":"80075d73d88688f8c9003b9336e739e3d66aa405","indicators":[{"word":"tobacco","begin":701,"end":707,"sentenceIndex":4,"sentenceBegin":486,"sentenceEnd":708}]}
{"paperId":"80075d73d88688f8c9003b9336e739e3d66aa405","indicators":[{"word":"tobacco","begin":937,"end":943,"sentenceIndex":9,"sentenceBegin":696,"sentenceEnd":1146}]}
{"paperId":"80075d73d88688f8c9003b9336e739e3d66aa405","indicators":[{"word":"tobacco","begin":990,"end":996,"sentenceIndex":9,"sentenceBegin":902,"sentenceEnd":1038}]}
{"paperId":"80075d73d88688f8c9003b9336e739e3d66aa405","indicators":[{"word":"tobacco","begin":96,"end":102,"sentenceIndex":0,"sentenceBegin":0,"sentenceEnd":125},{"word":"tobacco","begin":1195,"end":1201,"sentenceIndex":9,"sentenceBegin":1162,"sentenceEnd":1329},{"word":"tobacco","begin":1708,"end":1714,"sentenceIndex":13,"sentenceBegin":1564,"sentenceEnd":1728},{"word":"tobacco","begin":3658,"end":3664,"sentenceIndex":36,"sentenceBegin":3647,"sentenceEnd":3743},{"word":"tobacco","begin":3829,"end":3835,"sentenceIndex":37,"sentenceBegin":3745,"sentenceEnd":3891}]}
