{"paperId":"efc503a024ca2889eb4e82b731311a8c364dd831","indicators":[{"word":"smoke","begin":83,"end":87,"sentenceIndex":0,"sentenceBegin":0,"sentenceEnd":307}]}
{"paperId":"efc503a024ca2889eb4e82b731311a8c364dd831","indicators":[{"word":"smoke","begin":44,"end":48,"sentenceIndex":0,"sentenceBegin":0,"sentenceEnd":92}]}
{"paperId":"efc503a024ca2889eb4e82b731311a8c364dd831","indicators":[{"word":"smoke","begin":16,"end":20,"sentenceIndex":0,"sentenceBegin":0,"sentenceEnd":83}]}
{"paperId":"efc503a024ca2889eb4e82b731311a8c364dd831","indicators":[{"word":"smoke","begin":61,"end":65,"sentenceIndex":1,"sentenceBegin":29,"sentenceEnd":473},{"word":"smoke","begin":273,"end":277,"sentenceIndex":1,"sentenceBegin":29,"sentenceEnd":473},{"word":"smoke","begin":304,"end":308,"sentenceIndex":1,"sentenceBegin":29,"sentenceEnd":473},{"word":"smoke","begin":327,"end":331,"sentenceIndex":1,"sentenceBegin":29,"sentenceEnd":473},{"word":"smoke","begin":484,"end":488,"sentenceIndex":2,"sentenceBegin":475,"sentenceEnd":734}]}
{"paperId":"efc503a024ca2889eb4e82b731311a8c364dd831","indicators":[{"word":"smoke","begin":498,"end":502,"sentenceIndex":2,"sentenceBegin":448,"sentenceEnd":562}]}
{"paperId":"efc503a024ca2889eb4e82b731311a8c364dd831","indicators":[{"word":"smoke","begin":17,"end":21,"sentenceIndex":0,"sentenceBegin":0,"sentenceEnd":119}]}
{"paperId":"efc503a024ca2889eb4e82b731311a8c364dd831","indicators":[{"word":"smoke","begin":135,"end":139,"sentenceIndex":0,"sentenceBegin":0,"sentenceEnd":336}]}
{"paperId":"efc503a024ca2889eb4e82b731311a8c364dd831","indicators":[{"word":"smoke","begin":47,"end":51,"sentenceIndex":0,"sentenceBegin":0,"sentenceEnd":114},{"word":"smoke","begin":119,"end":123,"sentenceIndex":1,"sentenceBegin":116,"sentenceEnd":269},{"word":"smoke","begin":465,"end":469,"sentenceIndex":3,"sentenceBegin":376,"sentenceEnd":609},{"word":"smoke","begin":884,"end":888,"sentenceIndex":5,"sentenceBegin":843,"sentenceEnd":946},{"word":"smoke","begin":1149,"end":1153,"sentenceIndex":6,"sentenceBegin":948,"sentenceEnd":1235},{"word":"vapor","begin":1158,"end":1162,"sentenceIndex":6,"sentenceBegin":948,"sentenceEnd":1235}]}
{"paperId":"efc503a024ca2889eb4e82b731311a8c364dd831","indicators":[{"word":"smoke","begin":59,"end":63,"sentenceIndex":0,"sentenceBegin":0,"sentenceEnd":99}]}
{"paperId":"efc503a024ca2889eb4e82b731311a8c364dd831","indicators":[{"word":"smoke","begin":552,"end":556,"sentenceIndex":2,"sentenceBegin":485,"sentenceEnd":809}]}
{"paperId":"efc503a024ca2889eb4e82b731311a8c364dd831","indicators":[{"word":"smoke","begin":79,"end":83,"sentenceIndex":0,"sentenceBegin":0,"sentenceEnd":244}]}
{"paperId":"efc503a024ca2889eb4e82b731311a8c364dd831","indicators":[{"word":"smoke","begin":58,"end":62,"sentenceIndex":0,"sentenceBegin":0,"sentenceEnd":259}]}
{"paperId":"efc503a024ca2889eb4e82b731311a8c364dd831","indicators":[{"word":"smoke","begin":101,"end":105,"sentenceIndex":0,"sentenceBegin":0,"sentenceEnd":106}]}
{"paperId":"efc503a024ca2889eb4e82b731311a8c364dd831","indicators":[{"word":"smoke","begin":72,"end":76,"sentenceIndex":0,"sentenceBegin":0,"sentenceEnd":188},{"word":"smoke","begin":156,"end":160,"sentenceIndex":0,"sentenceBegin":0,"sentenceEnd":188}]}
{"paperId":"efc503a024ca2889eb4e82b731311a8c364dd831","indicators":[{"word":"smoke","begin":152,"end":156,"sentenceIndex":1,"sentenceBegin":120,"sentenceEnd":287},{"word":"smoke","begin":223,"end":227,"sentenceIndex":1,"sentenceBegin":120,"sentenceEnd":287}]}
{"paperId":"efc503a024ca2889eb4e82b731311a8c364dd831","indicators":[{"word":"fumes","begin":158,"end":162,"sentenceIndex":1,"sentenceBegin":47,"sentenceEnd":163},{"word":"smoke","begin":183,"end":187,"sentenceIndex":2,"sentenceBegin":165,"sentenceEnd":365},{"word":"smoke","begin":275,"end":279,"sentenceIndex":2,"sentenceBegin":165,"sentenceEnd":365},{"word":"smoke","begin":310,"end":314,"sentenceIndex":2,"sentenceBegin":165,"sentenceEnd":365},{"word":"smoke","begin":562,"end":566,"sentenceIndex":4,"sentenceBegin":547,"sentenceEnd":637}]}
{"paperId":"efc503a024ca2889eb4e82b731311a8c364dd831","indicators":[{"word":"smoke","begin":16,"end":20,"sentenceIndex":0,"sentenceBegin":0,"sentenceEnd":76},{"word":"smoke","begin":498,"end":502,"sentenceIndex":4,"sentenceBegin":340,"sentenceEnd":559}]}
{"paperId":"efc503a024ca2889eb4e82b731311a8c364dd831","indicators":[{"word":"smoke","begin":9,"end":13,"sentenceIndex":0,"sentenceBegin":0,"sentenceEnd":61},{"word":"smoke","begin":78,"end":82,"sentenceIndex":1,"sentenceBegin":63,"sentenceEnd":235},{"word":"smoke","begin":181,"end":185,"sentenceIndex":1,"sentenceBegin":63,"sentenceEnd":235},{"word":"smoke","begin":251,"end":255,"sentenceIndex":2,"sentenceBegin":237,"sentenceEnd":546},{"word":"smoke","begin":526,"end":530,"sentenceIndex":2,"sentenceBegin":237,"sentenceEnd":546}]}
{"paperId":"efc503a024ca2889eb4e82b731311a8c364dd831","indicators":[{"word":"smoke","begin":61,"end":65,"sentenceIndex":0,"sentenceBegin":0,"sentenceEnd":216},{"word":"smoke","begin":268,"end":272,"sentenceIndex":1,"sentenceBegin":218,"sentenceEnd":481}]}
{"paperId":"efc503a024ca2889eb4e82b731311a8c364dd831","indicators":[{"word":"smoke","begin":75,"end":79,"sentenceIndex":0,"sentenceBegin":0,"sentenceEnd":118}]}
{"paperId":"efc503a024ca2889eb4e82b731311a8c364dd831","indicators":[{"word":"smoke","begin":65,"end":69,"sentenceIndex":0,"sentenceBegin":0,"sentenceEnd":104},{"word":"vapor","begin":72,"end":76,"sentenceIndex":0,"sentenceBegin":0,"sentenceEnd":104}]}
{"paperId":"efc503a024ca2889eb4e82b731311a8c364dd831","indicators":[{"word":"smoke","begin":541,"end":545,"sentenceIndex":1,"sentenceBegin":280,"sentenceEnd":687},{"word":"smoke","begin":789,"end":793,"sentenceIndex":2,"sentenceBegin":688,"sentenceEnd":1499},{"word":"smoke","begin":1581,"end":1585,"sentenceIndex":3,"sentenceBegin":1501,"sentenceEnd":2254},{"word":"smoke","begin":1654,"end":1658,"sentenceIndex":3,"sentenceBegin":1501,"sentenceEnd":2254},{"word":"smoke","begin":1885,"end":1889,"sentenceIndex":3,"sentenceBegin":1501,"sentenceEnd":2254},{"word":"smoke","begin":2084,"end":2088,"sentenceIndex":3,"sentenceBegin":1501,"sentenceEnd":2254},{"word":"smoke","begin":2914,"end":2918,"sentenceIndex":4,"sentenceBegin":2256,"sentenceEnd":2961}]}
{"paperId":"0da5d5a5995c1873870835a5be83b387c0503a40","indicators":[{"word":"tobacco","begin":383,"end":389,"sentenceIndex":2,"sentenceBegin":255,"sentenceEnd":457}]}
{"paperId":"0da5d5a5995c1873870835a5be83b387c0503a40","indicators":[{"word":"tobacco","begin":155,"end":161,"sentenceIndex":1,"sentenceBegin":63,"sentenceEnd":250},{"word":"smoking","begin":368,"end":374,"sentenceIndex":2,"sentenceBegin":252,"sentenceEnd":399},{"word":"smoke","begin":622,"end":626,"sentenceIndex":3,"sentenceBegin":401,"sentenceEnd":653},{"word":"smoking","begin":1123,"end":1129,"sentenceIndex":6,"sentenceBegin":970,"sentenceEnd":1147}]}
{"paperId":"0da5d5a5995c1873870835a5be83b387c0503a40","indicators":[{"word":"cigarette","begin":31,"end":39,"sentenceIndex":0,"sentenceBegin":0,"sentenceEnd":128},{"word":"smoke","begin":96,"end":100,"sentenceIndex":0,"sentenceBegin":0,"sentenceEnd":128},{"word":"smoking","begin":286,"end":292,"sentenceIndex":2,"sentenceBegin":232,"sentenceEnd":367},{"word":"cigarettes","begin":357,"end":366,"sentenceIndex":2,"sentenceBegin":232,"sentenceEnd":367},{"word":"smoking","begin":402,"end":408,"sentenceIndex":3,"sentenceBegin":369,"sentenceEnd":518},{"word":"smoke","begin":577,"end":581,"sentenceIndex":4,"sentenceBegin":520,"sentenceEnd":630},{"word":"smoke","begin":694,"end":698,"sentenceIndex":5,"sentenceBegin":632,"sentenceEnd":728}]}
{"paperId":"0da5d5a5995c1873870835a5be83b387c0503a40","indicators":[{"word":"fumes","begin":378,"end":382,"sentenceIndex":2,"sentenceBegin":288,"sentenceEnd":413}]}
{"paperId":"d239a3767fd8329f561a296df9c35a49a3aa6587","indicators":[{"word":"smoke","begin":126,"end":130,"sentenceIndex":1,"sentenceBegin":103,"sentenceEnd":203},{"word":"smoke","begin":198,"end":202,"sentenceIndex":1,"sentenceBegin":103,"sentenceEnd":203}]}
{"paperId":"59f1192e62bff0ffa51f8f0c110dcf6d7e341be6","indicators":[{"word":"smoke","begin":126,"end":130,"sentenceIndex":1,"sentenceBegin":103,"sentenceEnd":203},{"word":"smoke","begin":198,"end":202,"sentenceIndex":1,"sentenceBegin":103,"sentenceEnd":203}]}
{"paperId":"1f5713968c74fadbdcf3fe300fedfab1ea44a12f","indicators":[{"word":"vapor","begin":1304,"end":1308,"sentenceIndex":9,"sentenceBegin":1252,"sentenceEnd":1436}]}
{"paperId":"c4fa1805ed39312a8f2f682231460f9cbda672eb","indicators":[{"word":"fires","begin":497,"end":501,"sentenceIndex":3,"sentenceBegin":387,"sentenceEnd":512}]}
