{"paperId":"d83a274c2698d7a9d9745e524713476efc12750a","indicators":[{"word":"fires","begin":612,"end":616,"sentenceIndex":5,"sentenceBegin":553,"sentenceEnd":751}]}
{"paperId":"567deeda3fa45bdf7b8da85fb58cacf87feb624a","indicators":[{"word":"smoking","begin":285,"end":291,"sentenceIndex":1,"sentenceBegin":255,"sentenceEnd":360}]}
{"paperId":"418de726b79a729527c03b6999b053720b26d988","indicators":[{"word":"fires","begin":371,"end":375,"sentenceIndex":3,"sentenceBegin":338,"sentenceEnd":400}]}
{"paperId":"418de726b79a729527c03b6999b053720b26d988","indicators":[{"word":"fires","begin":297,"end":301,"sentenceIndex":1,"sentenceBegin":178,"sentenceEnd":335}]}
{"paperId":"dd1dfdb0819b8dd54d05b9b4ff1fe8c895d1f11c","indicators":[{"word":"smoking","begin":749,"end":755,"sentenceIndex":6,"sentenceBegin":690,"sentenceEnd":834}]}
{"paperId":"d7055a3cb705bcb0b015693792e0cb04b09ee6ae","indicators":[{"word":"tobacco","begin":735,"end":741,"sentenceIndex":6,"sentenceBegin":645,"sentenceEnd":749}]}
{"paperId":"b2c46e91dd5e441777306d5f4c1d6d88183c6541","indicators":[{"word":"tobacco","begin":735,"end":741,"sentenceIndex":6,"sentenceBegin":645,"sentenceEnd":749}]}
