{"paperId":"e1dd5b5b1884508b0e49421388eb658f9f9949e1","indicators":[{"word":"smoking","begin":325,"end":331,"sentenceIndex":2,"sentenceBegin":212,"sentenceEnd":449}]}
{"paperId":"e1dd5b5b1884508b0e49421388eb658f9f9949e1","indicators":[{"word":"cigarette","begin":123,"end":131,"sentenceIndex":0,"sentenceBegin":0,"sentenceEnd":230},{"word":"smoke","begin":133,"end":137,"sentenceIndex":0,"sentenceBegin":0,"sentenceEnd":230}]}
{"paperId":"e1dd5b5b1884508b0e49421388eb658f9f9949e1","indicators":[{"word":"smoke","begin":109,"end":113,"sentenceIndex":0,"sentenceBegin":0,"sentenceEnd":132},{"word":"smoking","begin":124,"end":130,"sentenceIndex":0,"sentenceBegin":0,"sentenceEnd":132},{"word":"smoking","begin":144,"end":150,"sentenceIndex":1,"sentenceBegin":134,"sentenceEnd":324},{"word":"cigarette","begin":251,"end":259,"sentenceIndex":1,"sentenceBegin":134,"sentenceEnd":324},{"word":"smoking","begin":261,"end":267,"sentenceIndex":1,"sentenceBegin":134,"sentenceEnd":324},{"word":"smoking","begin":334,"end":340,"sentenceIndex":2,"sentenceBegin":326,"sentenceEnd":530},{"word":"smoking","begin":756,"end":762,"sentenceIndex":4,"sentenceBegin":566,"sentenceEnd":769}]}
{"paperId":"e1dd5b5b1884508b0e49421388eb658f9f9949e1","indicators":[{"word":"smoking","begin":89,"end":95,"sentenceIndex":0,"sentenceBegin":0,"sentenceEnd":168}]}
{"paperId":"e1dd5b5b1884508b0e49421388eb658f9f9949e1","indicators":[{"word":"fumes","begin":25,"end":29,"sentenceIndex":0,"sentenceBegin":0,"sentenceEnd":73}]}
{"paperId":"e1dd5b5b1884508b0e49421388eb658f9f9949e1","indicators":[{"word":"fumes","begin":111,"end":115,"sentenceIndex":0,"sentenceBegin":0,"sentenceEnd":139}]}
{"paperId":"e1dd5b5b1884508b0e49421388eb658f9f9949e1","indicators":[{"word":"fumes","begin":17,"end":21,"sentenceIndex":0,"sentenceBegin":0,"sentenceEnd":215},{"word":"fires","begin":438,"end":442,"sentenceIndex":2,"sentenceBegin":426,"sentenceEnd":650}]}
{"paperId":"e1dd5b5b1884508b0e49421388eb658f9f9949e1","indicators":[{"word":"fumes","begin":106,"end":110,"sentenceIndex":0,"sentenceBegin":0,"sentenceEnd":179}]}
{"paperId":"e1dd5b5b1884508b0e49421388eb658f9f9949e1","indicators":[{"word":"smoke","begin":8,"end":12,"sentenceIndex":0,"sentenceBegin":0,"sentenceEnd":46},{"word":"cigarette","begin":384,"end":392,"sentenceIndex":2,"sentenceBegin":220,"sentenceEnd":399},{"word":"smoke","begin":394,"end":398,"sentenceIndex":2,"sentenceBegin":220,"sentenceEnd":399},{"word":"smoking","begin":684,"end":690,"sentenceIndex":5,"sentenceBegin":656,"sentenceEnd":808}]}
{"paperId":"e1dd5b5b1884508b0e49421388eb658f9f9949e1","indicators":[{"word":"smoke","begin":540,"end":544,"sentenceIndex":2,"sentenceBegin":455,"sentenceEnd":602},{"word":"smog","begin":550,"end":553,"sentenceIndex":2,"sentenceBegin":455,"sentenceEnd":602},{"word":"smog","begin":868,"end":871,"sentenceIndex":4,"sentenceBegin":761,"sentenceEnd":918}]}
{"paperId":"a70dfa8684e7b88fac4687c8433d77bd3854b311","indicators":[{"word":"weed","begin":9,"end":12,"sentenceIndex":0,"sentenceBegin":0,"sentenceEnd":156},{"word":"weeds","begin":203,"end":207,"sentenceIndex":1,"sentenceBegin":158,"sentenceEnd":355}]}
{"paperId":"a70dfa8684e7b88fac4687c8433d77bd3854b311","indicators":[{"word":"weed","begin":458,"end":461,"sentenceIndex":1,"sentenceBegin":363,"sentenceEnd":478}]}
{"paperId":"a70dfa8684e7b88fac4687c8433d77bd3854b311","indicators":[{"word":"vapor","begin":435,"end":439,"sentenceIndex":5,"sentenceBegin":422,"sentenceEnd":495}]}
{"paperId":"a70dfa8684e7b88fac4687c8433d77bd3854b311","indicators":[{"word":"weed","begin":4,"end":7,"sentenceIndex":0,"sentenceBegin":0,"sentenceEnd":189}]}
{"paperId":"a70dfa8684e7b88fac4687c8433d77bd3854b311","indicators":[{"word":"weeds","begin":233,"end":237,"sentenceIndex":1,"sentenceBegin":132,"sentenceEnd":305}]}
{"paperId":"a70dfa8684e7b88fac4687c8433d77bd3854b311","indicators":[{"word":"weeds","begin":16,"end":20,"sentenceIndex":0,"sentenceBegin":0,"sentenceEnd":131}]}
{"paperId":"a70dfa8684e7b88fac4687c8433d77bd3854b311","indicators":[{"word":"weeds","begin":227,"end":231,"sentenceIndex":1,"sentenceBegin":201,"sentenceEnd":356}]}
{"paperId":"7ccb598e9de4535d5f8eb906b898db4d73edb921","indicators":[{"word":"tobacco","begin":629,"end":635,"sentenceIndex":10,"sentenceBegin":593,"sentenceEnd":890}]}
{"paperId":"7ccb598e9de4535d5f8eb906b898db4d73edb921","indicators":[{"word":"tobacco","begin":573,"end":579,"sentenceIndex":10,"sentenceBegin":405,"sentenceEnd":770},{"word":"tobacco","begin":1382,"end":1388,"sentenceIndex":19,"sentenceBegin":1147,"sentenceEnd":1425}]}
{"paperId":"7ccb598e9de4535d5f8eb906b898db4d73edb921","indicators":[{"word":"tobacco","begin":52,"end":58,"sentenceIndex":0,"sentenceBegin":0,"sentenceEnd":116}]}
{"paperId":"7ccb598e9de4535d5f8eb906b898db4d73edb921","indicators":[{"word":"tobacco","begin":99,"end":105,"sentenceIndex":0,"sentenceBegin":0,"sentenceEnd":149}]}
{"paperId":"7ccb598e9de4535d5f8eb906b898db4d73edb921","indicators":[{"word":"tobacco","begin":30,"end":36,"sentenceIndex":0,"sentenceBegin":0,"sentenceEnd":69}]}
{"paperId":"7ccb598e9de4535d5f8eb906b898db4d73edb921","indicators":[{"word":"tobacco","begin":228,"end":234,"sentenceIndex":0,"sentenceBegin":0,"sentenceEnd":290},{"word":"tobacco","begin":2560,"end":2566,"sentenceIndex":23,"sentenceBegin":2326,"sentenceEnd":2619}]}
{"paperId":"7ccb598e9de4535d5f8eb906b898db4d73edb921","indicators":[{"word":"tobacco","begin":945,"end":951,"sentenceIndex":11,"sentenceBegin":862,"sentenceEnd":1081}]}
{"paperId":"7ccb598e9de4535d5f8eb906b898db4d73edb921","indicators":[{"word":"tobacco","begin":86,"end":92,"sentenceIndex":0,"sentenceBegin":0,"sentenceEnd":109}]}
{"paperId":"7ccb598e9de4535d5f8eb906b898db4d73edb921","indicators":[{"word":"tobacco","begin":216,"end":222,"sentenceIndex":1,"sentenceBegin":169,"sentenceEnd":388},{"word":"tobacco","begin":731,"end":737,"sentenceIndex":3,"sentenceBegin":676,"sentenceEnd":881}]}
{"paperId":"7ccb598e9de4535d5f8eb906b898db4d73edb921","indicators":[{"word":"tobacco","begin":817,"end":823,"sentenceIndex":4,"sentenceBegin":562,"sentenceEnd":906}]}
{"paperId":"42c6dba50d91c61087f1f89b3cab0049a64cc811","indicators":[{"word":"firing","begin":2231,"end":2236,"sentenceIndex":12,"sentenceBegin":1950,"sentenceEnd":2255}]}
