{"paperId":"efce114427b6890a6af5e70d5f8a8611dcdc6a75","indicators":[{"word":"smoke","begin":979,"end":983,"sentenceIndex":5,"sentenceBegin":854,"sentenceEnd":1201}]}
{"paperId":"efce114427b6890a6af5e70d5f8a8611dcdc6a75","indicators":[{"word":"smoke","begin":574,"end":578,"sentenceIndex":2,"sentenceBegin":282,"sentenceEnd":607}]}
{"paperId":"4cbec9b2e4cf4f86d9a820df458613ca4a61f246","indicators":[{"word":"smoking","begin":2024,"end":2030,"sentenceIndex":14,"sentenceBegin":1998,"sentenceEnd":2073},{"word":"smoked","begin":3425,"end":3430,"sentenceIndex":24,"sentenceBegin":3344,"sentenceEnd":3477},{"word":"cigarettes","begin":3436,"end":3445,"sentenceIndex":24,"sentenceBegin":3344,"sentenceEnd":3477}]}
{"paperId":"1ba33d95f798c3f591766786b165215875278bc7","indicators":[{"word":"smoked","begin":635,"end":640,"sentenceIndex":4,"sentenceBegin":534,"sentenceEnd":661}]}
{"paperId":"1ba33d95f798c3f591766786b165215875278bc7","indicators":[{"word":"smoked","begin":767,"end":772,"sentenceIndex":4,"sentenceBegin":677,"sentenceEnd":903}]}
