{"paperId":"3df0a618d99e8ee70064eb1d34775a65e031139a","indicators":[{"word":"smoking","begin":242,"end":248,"sentenceIndex":2,"sentenceBegin":171,"sentenceEnd":415}]}
{"paperId":"3df0a618d99e8ee70064eb1d34775a65e031139a","indicators":[{"word":"smoke","begin":322,"end":326,"sentenceIndex":1,"sentenceBegin":196,"sentenceEnd":403}]}
{"paperId":"3df0a618d99e8ee70064eb1d34775a65e031139a","indicators":[{"word":"smoke","begin":1457,"end":1461,"sentenceIndex":10,"sentenceBegin":1361,"sentenceEnd":1521},{"word":"smoke","begin":1702,"end":1706,"sentenceIndex":13,"sentenceBegin":1689,"sentenceEnd":1791}]}
{"paperId":"2e3c22a76c5ea1315c7a7795ec55972a32747428","indicators":[{"word":"puff","begin":244,"end":247,"sentenceIndex":0,"sentenceBegin":0,"sentenceEnd":469}]}
{"paperId":"70b3836f7b7cc9c445be26a0b3de2455711c7a39","indicators":[{"word":"tobacco","begin":50,"end":56,"sentenceIndex":0,"sentenceBegin":0,"sentenceEnd":108}]}
