{"paperId":"1622e5febd59e8a8fef0afd6a256324fb3473a1a","indicators":[{"word":"tobacco","begin":2094,"end":2100,"sentenceIndex":10,"sentenceBegin":2047,"sentenceEnd":2193},{"word":"tobacco","begin":3364,"end":3370,"sentenceIndex":18,"sentenceBegin":3312,"sentenceEnd":3441}]}
{"paperId":"1622e5febd59e8a8fef0afd6a256324fb3473a1a","indicators":[{"word":"tobacco","begin":58,"end":64,"sentenceIndex":0,"sentenceBegin":0,"sentenceEnd":180}]}
{"paperId":"1622e5febd59e8a8fef0afd6a256324fb3473a1a","indicators":[{"word":"pots","begin":907,"end":910,"sentenceIndex":8,"sentenceBegin":856,"sentenceEnd":1002}]}
{"paperId":"1622e5febd59e8a8fef0afd6a256324fb3473a1a","indicators":[{"word":"tobacco","begin":72,"end":78,"sentenceIndex":0,"sentenceBegin":0,"sentenceEnd":105}]}
{"paperId":"1622e5febd59e8a8fef0afd6a256324fb3473a1a","indicators":[{"word":"tobacco","begin":60,"end":66,"sentenceIndex":0,"sentenceBegin":0,"sentenceEnd":223}]}
{"paperId":"1622e5febd59e8a8fef0afd6a256324fb3473a1a","indicators":[{"word":"pots","begin":647,"end":650,"sentenceIndex":5,"sentenceBegin":516,"sentenceEnd":651}]}
{"paperId":"596e1ce4967dd7cbb1fbe4c6b52c3910fee48987","indicators":[{"word":"smoking","begin":429,"end":435,"sentenceIndex":2,"sentenceBegin":331,"sentenceEnd":647}]}
{"paperId":"596e1ce4967dd7cbb1fbe4c6b52c3910fee48987","indicators":[{"word":"smoking","begin":1013,"end":1019,"sentenceIndex":8,"sentenceBegin":1001,"sentenceEnd":1071}]}
{"paperId":"596e1ce4967dd7cbb1fbe4c6b52c3910fee48987","indicators":[{"word":"smoking","begin":698,"end":704,"sentenceIndex":3,"sentenceBegin":633,"sentenceEnd":814}]}
{"paperId":"596e1ce4967dd7cbb1fbe4c6b52c3910fee48987","indicators":[{"word":"smoking","begin":1183,"end":1189,"sentenceIndex":12,"sentenceBegin":1171,"sentenceEnd":1285}]}
{"paperId":"8ab467c2f87ef7d6eeb625b9f970c18595970fb8","indicators":[{"word":"smoking","begin":173,"end":179,"sentenceIndex":1,"sentenceBegin":70,"sentenceEnd":207}]}
{"paperId":"8ab467c2f87ef7d6eeb625b9f970c18595970fb8","indicators":[{"word":"smoking","begin":356,"end":362,"sentenceIndex":1,"sentenceBegin":214,"sentenceEnd":363}]}
{"paperId":"1daa4edfc77fc689a3b4e152ff6cc642f92156ed","indicators":[{"word":"vapor","begin":133,"end":137,"sentenceIndex":0,"sentenceBegin":0,"sentenceEnd":165}]}
