{"paperId":"258dc6960914cb934076d169f8c02d51883cf571","indicators":[{"word":"smoking","begin":748,"end":754,"sentenceIndex":6,"sentenceBegin":738,"sentenceEnd":809},{"word":"smoking","begin":771,"end":777,"sentenceIndex":6,"sentenceBegin":738,"sentenceEnd":809}]}
{"paperId":"258dc6960914cb934076d169f8c02d51883cf571","indicators":[{"word":"smoking","begin":417,"end":423,"sentenceIndex":4,"sentenceBegin":362,"sentenceEnd":535},{"word":"cigarette","begin":1263,"end":1271,"sentenceIndex":11,"sentenceBegin":1164,"sentenceEnd":1474},{"word":"smoking","begin":1273,"end":1279,"sentenceIndex":11,"sentenceBegin":1164,"sentenceEnd":1474}]}
{"paperId":"476db4612637dfb23fe3797a46f7215539701ae3","indicators":[{"word":"smoking","begin":181,"end":187,"sentenceIndex":0,"sentenceBegin":0,"sentenceEnd":195}]}
{"paperId":"51e5487e7da1989ecf0dcf61fb5d95ff0ce14ed5","indicators":[{"word":"smoking","begin":338,"end":344,"sentenceIndex":2,"sentenceBegin":324,"sentenceEnd":429}]}
{"paperId":"20dd62d0387e8b4231d67af2eaf757767492656e","indicators":[{"word":"smoking","begin":474,"end":480,"sentenceIndex":2,"sentenceBegin":357,"sentenceEnd":532}]}
{"paperId":"20dd62d0387e8b4231d67af2eaf757767492656e","indicators":[{"word":"smoking","begin":238,"end":244,"sentenceIndex":1,"sentenceBegin":169,"sentenceEnd":297}]}
