{"paperId":"33aa69d2466147717a378e5e61bf22131ad24c4d","indicators":[{"word":"vapor","begin":302,"end":306,"sentenceIndex":2,"sentenceBegin":238,"sentenceEnd":307}]}
{"paperId":"e54af1ade28a3a6cea3cc2d105e31f9d658cc0ff","indicators":[{"word":"firing","begin":188,"end":193,"sentenceIndex":2,"sentenceBegin":135,"sentenceEnd":200}]}
{"paperId":"e54af1ade28a3a6cea3cc2d105e31f9d658cc0ff","indicators":[{"word":"smoking","begin":797,"end":803,"sentenceIndex":3,"sentenceBegin":628,"sentenceEnd":822}]}
{"paperId":"eae038c87d2ad3a8c2bdb433830ec1667e16983d","indicators":[{"word":"weeded","begin":85,"end":90,"sentenceIndex":1,"sentenceBegin":13,"sentenceEnd":248}]}
{"paperId":"8e708c5946b1bdc4a6512b27ea794dda4823373f","indicators":[{"word":"vapors","begin":578,"end":583,"sentenceIndex":3,"sentenceBegin":437,"sentenceEnd":787},{"word":"vapors","begin":1058,"end":1063,"sentenceIndex":6,"sentenceBegin":986,"sentenceEnd":1135}]}
{"paperId":"8e708c5946b1bdc4a6512b27ea794dda4823373f","indicators":[{"word":"vapor","begin":354,"end":358,"sentenceIndex":3,"sentenceBegin":267,"sentenceEnd":411}]}
{"paperId":"8e708c5946b1bdc4a6512b27ea794dda4823373f","indicators":[{"word":"vapor","begin":703,"end":707,"sentenceIndex":5,"sentenceBegin":631,"sentenceEnd":715}]}
{"paperId":"afee879265f1c047a46f30b5fe1ddbbab4d4abe2","indicators":[{"word":"puff","begin":980,"end":983,"sentenceIndex":7,"sentenceBegin":717,"sentenceEnd":1022}]}
{"paperId":"afee879265f1c047a46f30b5fe1ddbbab4d4abe2","indicators":[{"word":"puff","begin":2021,"end":2024,"sentenceIndex":12,"sentenceBegin":1939,"sentenceEnd":2158}]}
{"paperId":"00a0ab182dc01b6c2e737dfae585f050dcf9a7a5","indicators":[{"word":"smoking","begin":469,"end":475,"sentenceIndex":1,"sentenceBegin":228,"sentenceEnd":523}]}
{"paperId":"6dba5abd850a3eed2e6bcd1116d3959faf6e4c8c","indicators":[{"word":"smoked","begin":960,"end":965,"sentenceIndex":7,"sentenceBegin":851,"sentenceEnd":1016}]}
{"paperId":"120efa30d8ebfe42eb78fac7b5f5bd98f356f16f","indicators":[{"word":"smoke","begin":1287,"end":1291,"sentenceIndex":13,"sentenceBegin":1210,"sentenceEnd":1292}]}
{"paperId":"120efa30d8ebfe42eb78fac7b5f5bd98f356f16f","indicators":[{"word":"smoke","begin":592,"end":596,"sentenceIndex":5,"sentenceBegin":581,"sentenceEnd":750},{"word":"smoking","begin":795,"end":801,"sentenceIndex":6,"sentenceBegin":752,"sentenceEnd":896},{"word":"smoking","begin":924,"end":930,"sentenceIndex":7,"sentenceBegin":898,"sentenceEnd":976},{"word":"smoking","begin":1241,"end":1247,"sentenceIndex":8,"sentenceBegin":978,"sentenceEnd":1269},{"word":"smoking","begin":1348,"end":1354,"sentenceIndex":9,"sentenceBegin":1271,"sentenceEnd":1376},{"word":"smoking","begin":1521,"end":1527,"sentenceIndex":11,"sentenceBegin":1470,"sentenceEnd":1593},{"word":"smoking","begin":1695,"end":1701,"sentenceIndex":12,"sentenceBegin":1595,"sentenceEnd":1709},{"word":"smoking","begin":1839,"end":1845,"sentenceIndex":13,"sentenceBegin":1711,"sentenceEnd":1911}]}
{"paperId":"120efa30d8ebfe42eb78fac7b5f5bd98f356f16f","indicators":[{"word":"smoking","begin":1130,"end":1136,"sentenceIndex":7,"sentenceBegin":999,"sentenceEnd":1178}]}
{"paperId":"acf0093fa2af8c2b455d0fcb121c1cabb3ecf085","indicators":[{"word":"weed","begin":319,"end":322,"sentenceIndex":2,"sentenceBegin":296,"sentenceEnd":457}]}
{"paperId":"acf0093fa2af8c2b455d0fcb121c1cabb3ecf085","indicators":[{"word":"smoking","begin":404,"end":410,"sentenceIndex":2,"sentenceBegin":263,"sentenceEnd":539}]}
{"paperId":"f212d6366a45726107a30bde1f4615c28cb5ce22","indicators":[{"word":"vapor","begin":2227,"end":2231,"sentenceIndex":10,"sentenceBegin":1828,"sentenceEnd":2434}]}
{"paperId":"28bcb46683623991e8854ad1c5e949485b2e7b29","indicators":[{"word":"smoking","begin":728,"end":734,"sentenceIndex":4,"sentenceBegin":566,"sentenceEnd":735}]}
{"paperId":"28bcb46683623991e8854ad1c5e949485b2e7b29","indicators":[{"word":"smoking","begin":215,"end":221,"sentenceIndex":1,"sentenceBegin":142,"sentenceEnd":222},{"word":"smoking","begin":433,"end":439,"sentenceIndex":3,"sentenceBegin":334,"sentenceEnd":475}]}
{"paperId":"28bcb46683623991e8854ad1c5e949485b2e7b29","indicators":[{"word":"smoking","begin":613,"end":619,"sentenceIndex":2,"sentenceBegin":496,"sentenceEnd":879}]}
{"paperId":"fadf4fb25c197f042a64d5aaf13a10335288d0b8","indicators":[{"word":"puff","begin":581,"end":584,"sentenceIndex":4,"sentenceBegin":481,"sentenceEnd":614}]}
