{"paperId":"8e01681b97c5ace960a479b04b3fc0cd2a1e9324","indicators":[{"word":"smoking","begin":299,"end":305,"sentenceIndex":2,"sentenceBegin":228,"sentenceEnd":410}]}
{"paperId":"8e01681b97c5ace960a479b04b3fc0cd2a1e9324","indicators":[{"word":"smoking","begin":1146,"end":1152,"sentenceIndex":12,"sentenceBegin":1089,"sentenceEnd":1190}]}
{"paperId":"0ab9753b9860f6b8c433f07e1bf96c98f452ecb1","indicators":[{"word":"smoking","begin":36,"end":42,"sentenceIndex":0,"sentenceBegin":0,"sentenceEnd":385}]}
{"paperId":"86c8b9b65ea05ac7301c7f7a7cde6483b353eb12","indicators":[{"word":"smoking","begin":36,"end":42,"sentenceIndex":0,"sentenceBegin":0,"sentenceEnd":385}]}
{"paperId":"7a012c74f4a7e125e8af8cba0d6de800d2ca7d5a","indicators":[{"word":"smoking","begin":38,"end":44,"sentenceIndex":0,"sentenceBegin":0,"sentenceEnd":59}]}
{"paperId":"4c4deed084c15f0bce60f748a894b3b4bdf5ffe4","indicators":[{"word":"smoking","begin":263,"end":269,"sentenceIndex":1,"sentenceBegin":166,"sentenceEnd":317}]}
{"paperId":"1ae5b5bbc35b33158d83903f8b7006670a63704e","indicators":[{"word":"smoking","begin":1074,"end":1080,"sentenceIndex":6,"sentenceBegin":986,"sentenceEnd":1233}]}
{"paperId":"1ae5b5bbc35b33158d83903f8b7006670a63704e","indicators":[{"word":"smoking","begin":195,"end":201,"sentenceIndex":2,"sentenceBegin":115,"sentenceEnd":280},{"word":"tobacco","begin":207,"end":213,"sentenceIndex":2,"sentenceBegin":115,"sentenceEnd":280}]}
