{"paperId":"d1901b3509e96b04e1b31163ac270875e90af887","indicators":[{"word":"smoking","begin":1246,"end":1252,"sentenceIndex":14,"sentenceBegin":1129,"sentenceEnd":1278}]}
{"paperId":"f679869cec8e3f77f8fd82b886e8c63219ed93ed","indicators":[{"word":"smoked","begin":244,"end":249,"sentenceIndex":5,"sentenceBegin":220,"sentenceEnd":322},{"word":"smoked","begin":274,"end":279,"sentenceIndex":5,"sentenceBegin":220,"sentenceEnd":322},{"word":"smoking","begin":306,"end":312,"sentenceIndex":5,"sentenceBegin":220,"sentenceEnd":322}]}
{"paperId":"9cb15a0bf4f541fcc22f23a7d8807d91c48351c2","indicators":[{"word":"smoking","begin":284,"end":290,"sentenceIndex":3,"sentenceBegin":274,"sentenceEnd":311}]}
{"paperId":"f3bcec255219e8e8f78a3d64105a862b0e43b911","indicators":[{"word":"smoke","begin":837,"end":841,"sentenceIndex":4,"sentenceBegin":668,"sentenceEnd":894}]}
{"paperId":"fd8ee38a505cf79732f5ba487e15f11619b84150","indicators":[{"word":"weeds","begin":642,"end":646,"sentenceIndex":1,"sentenceBegin":254,"sentenceEnd":922}]}
