{"paperId":"b545d9d91be338d2cbdf9039aac6b0cb9100a4a5","indicators":[{"word":"smoking","begin":1663,"end":1669,"sentenceIndex":10,"sentenceBegin":1643,"sentenceEnd":1698}]}
{"paperId":"afb7ad444656c54b30f9d5724e708e620b96a10b","indicators":[{"word":"smoking","begin":1614,"end":1620,"sentenceIndex":6,"sentenceBegin":1509,"sentenceEnd":1640},{"word":"smoking","begin":1672,"end":1678,"sentenceIndex":7,"sentenceBegin":1642,"sentenceEnd":1812}]}
{"paperId":"e63fc2241f97e7ff69d783b73468320aabf44d16","indicators":[{"word":"smoke","begin":336,"end":340,"sentenceIndex":3,"sentenceBegin":328,"sentenceEnd":596},{"word":"smoking","begin":679,"end":685,"sentenceIndex":4,"sentenceBegin":598,"sentenceEnd":772}]}
{"paperId":"e63fc2241f97e7ff69d783b73468320aabf44d16","indicators":[{"word":"smoking","begin":205,"end":211,"sentenceIndex":1,"sentenceBegin":72,"sentenceEnd":256},{"word":"smoking","begin":985,"end":991,"sentenceIndex":6,"sentenceBegin":887,"sentenceEnd":1084},{"word":"smoking","begin":1319,"end":1325,"sentenceIndex":8,"sentenceBegin":1218,"sentenceEnd":1531},{"word":"smoking","begin":1491,"end":1497,"sentenceIndex":8,"sentenceBegin":1218,"sentenceEnd":1531}]}
{"paperId":"e63fc2241f97e7ff69d783b73468320aabf44d16","indicators":[{"word":"smoking","begin":135,"end":141,"sentenceIndex":0,"sentenceBegin":0,"sentenceEnd":149},{"word":"smoking","begin":322,"end":328,"sentenceIndex":2,"sentenceBegin":270,"sentenceEnd":405},{"word":"smoking","begin":354,"end":360,"sentenceIndex":2,"sentenceBegin":270,"sentenceEnd":405}]}
{"paperId":"e63fc2241f97e7ff69d783b73468320aabf44d16","indicators":[{"word":"tobacco","begin":26,"end":32,"sentenceIndex":0,"sentenceBegin":0,"sentenceEnd":96},{"word":"tobacco","begin":111,"end":117,"sentenceIndex":1,"sentenceBegin":98,"sentenceEnd":261},{"word":"smoke","begin":119,"end":123,"sentenceIndex":1,"sentenceBegin":98,"sentenceEnd":261},{"word":"cigarette","begin":180,"end":188,"sentenceIndex":1,"sentenceBegin":98,"sentenceEnd":261},{"word":"smoking","begin":190,"end":196,"sentenceIndex":1,"sentenceBegin":98,"sentenceEnd":261},{"word":"smoking","begin":500,"end":506,"sentenceIndex":2,"sentenceBegin":263,"sentenceEnd":686},{"word":"smoking","begin":550,"end":556,"sentenceIndex":2,"sentenceBegin":263,"sentenceEnd":686}]}
{"paperId":"e63fc2241f97e7ff69d783b73468320aabf44d16","indicators":[{"word":"smoking","begin":817,"end":823,"sentenceIndex":4,"sentenceBegin":773,"sentenceEnd":1041},{"word":"smoking","begin":914,"end":920,"sentenceIndex":4,"sentenceBegin":773,"sentenceEnd":1041}]}
{"paperId":"e63fc2241f97e7ff69d783b73468320aabf44d16","indicators":[{"word":"smoking","begin":29,"end":35,"sentenceIndex":0,"sentenceBegin":0,"sentenceEnd":183},{"word":"smoke","begin":290,"end":294,"sentenceIndex":1,"sentenceBegin":185,"sentenceEnd":295}]}
{"paperId":"e63fc2241f97e7ff69d783b73468320aabf44d16","indicators":[{"word":"tobacco","begin":17,"end":23,"sentenceIndex":0,"sentenceBegin":0,"sentenceEnd":111},{"word":"tobacco","begin":71,"end":77,"sentenceIndex":0,"sentenceBegin":0,"sentenceEnd":111},{"word":"smoking","begin":164,"end":170,"sentenceIndex":1,"sentenceBegin":113,"sentenceEnd":185},{"word":"smoking","begin":511,"end":517,"sentenceIndex":4,"sentenceBegin":443,"sentenceEnd":553},{"word":"tobacco","begin":629,"end":635,"sentenceIndex":5,"sentenceBegin":555,"sentenceEnd":709}]}
{"paperId":"e63fc2241f97e7ff69d783b73468320aabf44d16","indicators":[{"word":"smoking","begin":94,"end":100,"sentenceIndex":0,"sentenceBegin":0,"sentenceEnd":131},{"word":"smoking","begin":231,"end":237,"sentenceIndex":1,"sentenceBegin":133,"sentenceEnd":280},{"word":"smoking","begin":474,"end":480,"sentenceIndex":3,"sentenceBegin":385,"sentenceEnd":481},{"word":"smoking","begin":483,"end":489,"sentenceIndex":4,"sentenceBegin":483,"sentenceEnd":604}]}
{"paperId":"cc7983503e90b3e755b37b50d3d671084c397276","indicators":[{"word":"smoke","begin":367,"end":371,"sentenceIndex":2,"sentenceBegin":300,"sentenceEnd":423}]}
