{"paperId":"ac20dcb832b6cd6ea92dd87915d8520a91cef2b2","indicators":[{"word":"vapor","begin":254,"end":258,"sentenceIndex":1,"sentenceBegin":101,"sentenceEnd":363}]}
{"paperId":"ac20dcb832b6cd6ea92dd87915d8520a91cef2b2","indicators":[{"word":"vapors","begin":626,"end":631,"sentenceIndex":4,"sentenceBegin":516,"sentenceEnd":645}]}
{"paperId":"ac20dcb832b6cd6ea92dd87915d8520a91cef2b2","indicators":[{"word":"vapors","begin":253,"end":258,"sentenceIndex":1,"sentenceBegin":137,"sentenceEnd":345}]}
{"paperId":"ac20dcb832b6cd6ea92dd87915d8520a91cef2b2","indicators":[{"word":"vapors","begin":297,"end":302,"sentenceIndex":2,"sentenceBegin":156,"sentenceEnd":329}]}
{"paperId":"ac20dcb832b6cd6ea92dd87915d8520a91cef2b2","indicators":[{"word":"vapor","begin":189,"end":193,"sentenceIndex":0,"sentenceBegin":0,"sentenceEnd":470}]}
{"paperId":"ac20dcb832b6cd6ea92dd87915d8520a91cef2b2","indicators":[{"word":"vapors","begin":68,"end":73,"sentenceIndex":0,"sentenceBegin":0,"sentenceEnd":114}]}
{"paperId":"ac20dcb832b6cd6ea92dd87915d8520a91cef2b2","indicators":[{"word":"vapors","begin":242,"end":247,"sentenceIndex":2,"sentenceBegin":127,"sentenceEnd":336}]}
{"paperId":"ac20dcb832b6cd6ea92dd87915d8520a91cef2b2","indicators":[{"word":"vapors","begin":270,"end":275,"sentenceIndex":0,"sentenceBegin":0,"sentenceEnd":308}]}
{"paperId":"ac20dcb832b6cd6ea92dd87915d8520a91cef2b2","indicators":[{"word":"vapor","begin":957,"end":961,"sentenceIndex":7,"sentenceBegin":887,"sentenceEnd":1025},{"word":"vapor","begin":1245,"end":1249,"sentenceIndex":9,"sentenceBegin":1130,"sentenceEnd":1315}]}
{"paperId":"ac20dcb832b6cd6ea92dd87915d8520a91cef2b2","indicators":[{"word":"fumes","begin":390,"end":394,"sentenceIndex":2,"sentenceBegin":212,"sentenceEnd":395},{"word":"cigarette","begin":618,"end":626,"sentenceIndex":4,"sentenceBegin":552,"sentenceEnd":801},{"word":"fumes","begin":878,"end":882,"sentenceIndex":5,"sentenceBegin":803,"sentenceEnd":922},{"word":"fumes","begin":1317,"end":1321,"sentenceIndex":8,"sentenceBegin":1247,"sentenceEnd":1505}]}
{"paperId":"ac20dcb832b6cd6ea92dd87915d8520a91cef2b2","indicators":[{"word":"smoking","begin":970,"end":976,"sentenceIndex":6,"sentenceBegin":850,"sentenceEnd":1094},{"word":"cigarettes","begin":3240,"end":3249,"sentenceIndex":20,"sentenceBegin":3117,"sentenceEnd":3357}]}
{"paperId":"ac20dcb832b6cd6ea92dd87915d8520a91cef2b2","indicators":[{"word":"vapors","begin":198,"end":203,"sentenceIndex":1,"sentenceBegin":168,"sentenceEnd":346}]}
{"paperId":"ac20dcb832b6cd6ea92dd87915d8520a91cef2b2","indicators":[{"word":"vapors","begin":416,"end":421,"sentenceIndex":3,"sentenceBegin":292,"sentenceEnd":504}]}
{"paperId":"ac20dcb832b6cd6ea92dd87915d8520a91cef2b2","indicators":[{"word":"vapor","begin":71,"end":75,"sentenceIndex":0,"sentenceBegin":0,"sentenceEnd":123}]}
{"paperId":"ac20dcb832b6cd6ea92dd87915d8520a91cef2b2","indicators":[{"word":"smoking","begin":837,"end":843,"sentenceIndex":7,"sentenceBegin":822,"sentenceEnd":873},{"word":"fumes","begin":1058,"end":1062,"sentenceIndex":8,"sentenceBegin":875,"sentenceEnd":1156},{"word":"smoking","begin":1296,"end":1302,"sentenceIndex":9,"sentenceBegin":1158,"sentenceEnd":1315},{"word":"smoking","begin":1992,"end":1998,"sentenceIndex":15,"sentenceBegin":1962,"sentenceEnd":2243}]}
{"paperId":"ac20dcb832b6cd6ea92dd87915d8520a91cef2b2","indicators":[{"word":"smoking","begin":1006,"end":1012,"sentenceIndex":7,"sentenceBegin":953,"sentenceEnd":1052}]}
{"paperId":"ac20dcb832b6cd6ea92dd87915d8520a91cef2b2","indicators":[{"word":"vapor","begin":1240,"end":1244,"sentenceIndex":7,"sentenceBegin":1065,"sentenceEnd":1264}]}
{"paperId":"ac20dcb832b6cd6ea92dd87915d8520a91cef2b2","indicators":[{"word":"vapor","begin":314,"end":318,"sentenceIndex":1,"sentenceBegin":181,"sentenceEnd":329},{"word":"vapor","begin":465,"end":469,"sentenceIndex":2,"sentenceBegin":331,"sentenceEnd":505},{"word":"vapor","begin":563,"end":567,"sentenceIndex":3,"sentenceBegin":507,"sentenceEnd":637}]}
{"paperId":"b858c3fad34771ddf43961b1f93f3ca82f38ae2b","indicators":[{"word":"cigarette","begin":455,"end":463,"sentenceIndex":2,"sentenceBegin":253,"sentenceEnd":521},{"word":"smoking","begin":465,"end":471,"sentenceIndex":2,"sentenceBegin":253,"sentenceEnd":521}]}
{"paperId":"b858c3fad34771ddf43961b1f93f3ca82f38ae2b","indicators":[{"word":"smoke","begin":795,"end":799,"sentenceIndex":5,"sentenceBegin":741,"sentenceEnd":882},{"word":"smoking","begin":865,"end":871,"sentenceIndex":5,"sentenceBegin":741,"sentenceEnd":882},{"word":"smoking","begin":973,"end":979,"sentenceIndex":6,"sentenceBegin":884,"sentenceEnd":1041}]}
{"paperId":"b858c3fad34771ddf43961b1f93f3ca82f38ae2b","indicators":[{"word":"smoking","begin":67,"end":73,"sentenceIndex":0,"sentenceBegin":0,"sentenceEnd":74},{"word":"smoking","begin":362,"end":368,"sentenceIndex":2,"sentenceBegin":182,"sentenceEnd":379},{"word":"smoking","begin":530,"end":536,"sentenceIndex":3,"sentenceBegin":381,"sentenceEnd":562}]}
{"paperId":"f85270c3599b5963f14bb56547fbf211c542df18","indicators":[{"word":"vapor","begin":311,"end":315,"sentenceIndex":3,"sentenceBegin":261,"sentenceEnd":408}]}
{"paperId":"8ca927428024515b7bde8b2ffeb45e2daae6f04d","indicators":[{"word":"weeding","begin":93,"end":99,"sentenceIndex":0,"sentenceBegin":0,"sentenceEnd":136}]}
{"paperId":"fca590c4745c3414566c98c8639b26a1c11bdfd6","indicators":[{"word":"smoke","begin":701,"end":705,"sentenceIndex":6,"sentenceBegin":640,"sentenceEnd":780}]}
{"paperId":"fca590c4745c3414566c98c8639b26a1c11bdfd6","indicators":[{"word":"smoking","begin":643,"end":649,"sentenceIndex":4,"sentenceBegin":577,"sentenceEnd":767}]}
{"paperId":"fca590c4745c3414566c98c8639b26a1c11bdfd6","indicators":[{"word":"smoking","begin":243,"end":249,"sentenceIndex":1,"sentenceBegin":218,"sentenceEnd":337}]}
{"paperId":"fca590c4745c3414566c98c8639b26a1c11bdfd6","indicators":[{"word":"smoking","begin":309,"end":315,"sentenceIndex":6,"sentenceBegin":309,"sentenceEnd":326},{"word":"smoking","begin":468,"end":474,"sentenceIndex":10,"sentenceBegin":468,"sentenceEnd":498}]}
{"paperId":"fca590c4745c3414566c98c8639b26a1c11bdfd6","indicators":[{"word":"smoke","begin":913,"end":917,"sentenceIndex":6,"sentenceBegin":903,"sentenceEnd":1028},{"word":"smoke","begin":1039,"end":1043,"sentenceIndex":7,"sentenceBegin":1030,"sentenceEnd":1154}]}
{"paperId":"fca590c4745c3414566c98c8639b26a1c11bdfd6","indicators":[{"word":"smoking","begin":2756,"end":2762,"sentenceIndex":17,"sentenceBegin":2604,"sentenceEnd":2802}]}
{"paperId":"fca590c4745c3414566c98c8639b26a1c11bdfd6","indicators":[{"word":"smoking","begin":352,"end":358,"sentenceIndex":1,"sentenceBegin":182,"sentenceEnd":374}]}
{"paperId":"fca590c4745c3414566c98c8639b26a1c11bdfd6","indicators":[{"word":"smoking","begin":73,"end":79,"sentenceIndex":0,"sentenceBegin":0,"sentenceEnd":177}]}
{"paperId":"fca590c4745c3414566c98c8639b26a1c11bdfd6","indicators":[{"word":"smoking","begin":31,"end":37,"sentenceIndex":0,"sentenceBegin":0,"sentenceEnd":117},{"word":"smoking","begin":426,"end":432,"sentenceIndex":4,"sentenceBegin":403,"sentenceEnd":553},{"word":"smoking","begin":632,"end":638,"sentenceIndex":5,"sentenceBegin":555,"sentenceEnd":667},{"word":"smoking","begin":687,"end":693,"sentenceIndex":6,"sentenceBegin":669,"sentenceEnd":814},{"word":"smoking","begin":1238,"end":1244,"sentenceIndex":8,"sentenceBegin":1030,"sentenceEnd":1286},{"word":"smoking","begin":1269,"end":1275,"sentenceIndex":8,"sentenceBegin":1030,"sentenceEnd":1286}]}
{"paperId":"fca590c4745c3414566c98c8639b26a1c11bdfd6","indicators":[{"word":"smoking","begin":46,"end":52,"sentenceIndex":0,"sentenceBegin":0,"sentenceEnd":72},{"word":"smoking","begin":139,"end":145,"sentenceIndex":1,"sentenceBegin":74,"sentenceEnd":265},{"word":"smoking","begin":246,"end":252,"sentenceIndex":1,"sentenceBegin":74,"sentenceEnd":265},{"word":"smoking","begin":272,"end":278,"sentenceIndex":2,"sentenceBegin":267,"sentenceEnd":531},{"word":"cigarette","begin":718,"end":726,"sentenceIndex":4,"sentenceBegin":656,"sentenceEnd":764},{"word":"smoke","begin":728,"end":732,"sentenceIndex":4,"sentenceBegin":656,"sentenceEnd":764}]}
{"paperId":"fca590c4745c3414566c98c8639b26a1c11bdfd6","indicators":[{"word":"tobacco","begin":221,"end":227,"sentenceIndex":1,"sentenceBegin":187,"sentenceEnd":306}]}
{"paperId":"fca590c4745c3414566c98c8639b26a1c11bdfd6","indicators":[{"word":"smoking","begin":61,"end":67,"sentenceIndex":0,"sentenceBegin":0,"sentenceEnd":250},{"word":"smoke","begin":362,"end":366,"sentenceIndex":2,"sentenceBegin":332,"sentenceEnd":519}]}
{"paperId":"fca590c4745c3414566c98c8639b26a1c11bdfd6","indicators":[{"word":"smoke","begin":278,"end":282,"sentenceIndex":2,"sentenceBegin":247,"sentenceEnd":445}]}
{"paperId":"fca590c4745c3414566c98c8639b26a1c11bdfd6","indicators":[{"word":"smoke","begin":162,"end":166,"sentenceIndex":0,"sentenceBegin":0,"sentenceEnd":211}]}
{"paperId":"fca590c4745c3414566c98c8639b26a1c11bdfd6","indicators":[{"word":"tobacco","begin":92,"end":98,"sentenceIndex":0,"sentenceBegin":0,"sentenceEnd":194},{"word":"smoke","begin":100,"end":104,"sentenceIndex":0,"sentenceBegin":0,"sentenceEnd":194}]}
{"paperId":"fca590c4745c3414566c98c8639b26a1c11bdfd6","indicators":[{"word":"smoking","begin":21,"end":27,"sentenceIndex":0,"sentenceBegin":0,"sentenceEnd":102}]}
{"paperId":"fca590c4745c3414566c98c8639b26a1c11bdfd6","indicators":[{"word":"smoke","begin":218,"end":222,"sentenceIndex":2,"sentenceBegin":208,"sentenceEnd":296}]}
{"paperId":"fca590c4745c3414566c98c8639b26a1c11bdfd6","indicators":[{"word":"smoking","begin":350,"end":356,"sentenceIndex":3,"sentenceBegin":336,"sentenceEnd":423}]}
{"paperId":"fca590c4745c3414566c98c8639b26a1c11bdfd6","indicators":[{"word":"smoking","begin":144,"end":150,"sentenceIndex":0,"sentenceBegin":0,"sentenceEnd":151},{"word":"smoking","begin":214,"end":220,"sentenceIndex":1,"sentenceBegin":153,"sentenceEnd":254}]}
{"paperId":"f8034e296fb8f0e61d9da056ca208f10b0a7fb24","indicators":[{"word":"fume","begin":2351,"end":2354,"sentenceIndex":30,"sentenceBegin":2291,"sentenceEnd":2417}]}
{"paperId":"f8034e296fb8f0e61d9da056ca208f10b0a7fb24","indicators":[{"word":"fires","begin":517,"end":521,"sentenceIndex":3,"sentenceBegin":413,"sentenceEnd":652}]}
{"paperId":"f8034e296fb8f0e61d9da056ca208f10b0a7fb24","indicators":[{"word":"fires","begin":590,"end":594,"sentenceIndex":2,"sentenceBegin":364,"sentenceEnd":619}]}
{"paperId":"f8034e296fb8f0e61d9da056ca208f10b0a7fb24","indicators":[{"word":"vapor","begin":153,"end":157,"sentenceIndex":1,"sentenceBegin":94,"sentenceEnd":314},{"word":"fires","begin":702,"end":706,"sentenceIndex":3,"sentenceBegin":494,"sentenceEnd":773}]}
{"paperId":"f8034e296fb8f0e61d9da056ca208f10b0a7fb24","indicators":[{"word":"vapor","begin":309,"end":313,"sentenceIndex":2,"sentenceBegin":243,"sentenceEnd":340}]}
{"paperId":"f8034e296fb8f0e61d9da056ca208f10b0a7fb24","indicators":[{"word":"fires","begin":88,"end":92,"sentenceIndex":0,"sentenceBegin":0,"sentenceEnd":93}]}
{"paperId":"f8034e296fb8f0e61d9da056ca208f10b0a7fb24","indicators":[{"word":"vapor","begin":99,"end":103,"sentenceIndex":0,"sentenceBegin":0,"sentenceEnd":235}]}
{"paperId":"f8034e296fb8f0e61d9da056ca208f10b0a7fb24","indicators":[{"word":"vapor","begin":131,"end":135,"sentenceIndex":0,"sentenceBegin":0,"sentenceEnd":223}]}
{"paperId":"f8034e296fb8f0e61d9da056ca208f10b0a7fb24","indicators":[{"word":"vapors","begin":250,"end":255,"sentenceIndex":2,"sentenceBegin":228,"sentenceEnd":494},{"word":"cigarette","begin":326,"end":334,"sentenceIndex":2,"sentenceBegin":228,"sentenceEnd":494}]}
{"paperId":"f8034e296fb8f0e61d9da056ca208f10b0a7fb24","indicators":[{"word":"weed","begin":862,"end":865,"sentenceIndex":5,"sentenceBegin":795,"sentenceEnd":914}]}
{"paperId":"a9e8f50f8f2d2f9d02821c17c3fc7e53c750941e","indicators":[{"word":"smoking","begin":298,"end":304,"sentenceIndex":2,"sentenceBegin":244,"sentenceEnd":312}]}
{"paperId":"a9e8f50f8f2d2f9d02821c17c3fc7e53c750941e","indicators":[{"word":"tobacco","begin":151,"end":157,"sentenceIndex":1,"sentenceBegin":100,"sentenceEnd":172},{"word":"tobacco","begin":205,"end":211,"sentenceIndex":2,"sentenceBegin":174,"sentenceEnd":255},{"word":"cannabis","begin":230,"end":237,"sentenceIndex":2,"sentenceBegin":174,"sentenceEnd":255}]}
{"paperId":"a9e8f50f8f2d2f9d02821c17c3fc7e53c750941e","indicators":[{"word":"smoking","begin":148,"end":154,"sentenceIndex":1,"sentenceBegin":99,"sentenceEnd":262}]}
{"paperId":"a9e8f50f8f2d2f9d02821c17c3fc7e53c750941e","indicators":[{"word":"smoking","begin":239,"end":245,"sentenceIndex":0,"sentenceBegin":0,"sentenceEnd":290},{"word":"smoking","begin":359,"end":365,"sentenceIndex":1,"sentenceBegin":292,"sentenceEnd":435}]}
{"paperId":"a9e8f50f8f2d2f9d02821c17c3fc7e53c750941e","indicators":[{"word":"smoking","begin":994,"end":1000,"sentenceIndex":14,"sentenceBegin":994,"sentenceEnd":1159},{"word":"tobacco","begin":1108,"end":1114,"sentenceIndex":14,"sentenceBegin":994,"sentenceEnd":1159},{"word":"smoke","begin":1116,"end":1120,"sentenceIndex":14,"sentenceBegin":994,"sentenceEnd":1159}]}
{"paperId":"a9e8f50f8f2d2f9d02821c17c3fc7e53c750941e","indicators":[{"word":"tobacco","begin":104,"end":110,"sentenceIndex":0,"sentenceBegin":0,"sentenceEnd":119},{"word":"smoking","begin":112,"end":118,"sentenceIndex":0,"sentenceBegin":0,"sentenceEnd":119},{"word":"smoking","begin":334,"end":340,"sentenceIndex":2,"sentenceBegin":278,"sentenceEnd":389}]}
{"paperId":"a9e8f50f8f2d2f9d02821c17c3fc7e53c750941e","indicators":[{"word":"smoking","begin":202,"end":208,"sentenceIndex":2,"sentenceBegin":140,"sentenceEnd":254},{"word":"tobacco","begin":239,"end":245,"sentenceIndex":2,"sentenceBegin":140,"sentenceEnd":254}]}
{"paperId":"a9e8f50f8f2d2f9d02821c17c3fc7e53c750941e","indicators":[{"word":"cigarette","begin":908,"end":916,"sentenceIndex":4,"sentenceBegin":857,"sentenceEnd":1061},{"word":"smoke","begin":918,"end":922,"sentenceIndex":4,"sentenceBegin":857,"sentenceEnd":1061}]}
{"paperId":"a9e8f50f8f2d2f9d02821c17c3fc7e53c750941e","indicators":[{"word":"cigarette","begin":160,"end":168,"sentenceIndex":0,"sentenceBegin":0,"sentenceEnd":194},{"word":"smoke","begin":170,"end":174,"sentenceIndex":0,"sentenceBegin":0,"sentenceEnd":194},{"word":"cigarette","begin":546,"end":554,"sentenceIndex":2,"sentenceBegin":377,"sentenceEnd":587},{"word":"smoke","begin":556,"end":560,"sentenceIndex":2,"sentenceBegin":377,"sentenceEnd":587}]}
{"paperId":"a9e8f50f8f2d2f9d02821c17c3fc7e53c750941e","indicators":[{"word":"cigarette","begin":25,"end":33,"sentenceIndex":0,"sentenceBegin":0,"sentenceEnd":257},{"word":"smoke","begin":35,"end":39,"sentenceIndex":0,"sentenceBegin":0,"sentenceEnd":257},{"word":"cigarette","begin":383,"end":391,"sentenceIndex":2,"sentenceBegin":361,"sentenceEnd":511},{"word":"smoke","begin":393,"end":397,"sentenceIndex":2,"sentenceBegin":361,"sentenceEnd":511},{"word":"cigarette","begin":583,"end":591,"sentenceIndex":3,"sentenceBegin":513,"sentenceEnd":626}]}
{"paperId":"a9e8f50f8f2d2f9d02821c17c3fc7e53c750941e","indicators":[{"word":"cigarette","begin":40,"end":48,"sentenceIndex":0,"sentenceBegin":0,"sentenceEnd":222}]}
{"paperId":"a9e8f50f8f2d2f9d02821c17c3fc7e53c750941e","indicators":[{"word":"cigarette","begin":461,"end":469,"sentenceIndex":2,"sentenceBegin":374,"sentenceEnd":696},{"word":"smoke","begin":471,"end":475,"sentenceIndex":2,"sentenceBegin":374,"sentenceEnd":696}]}
{"paperId":"a9e8f50f8f2d2f9d02821c17c3fc7e53c750941e","indicators":[{"word":"smoke","begin":280,"end":284,"sentenceIndex":2,"sentenceBegin":253,"sentenceEnd":393},{"word":"smoke","begin":430,"end":434,"sentenceIndex":3,"sentenceBegin":395,"sentenceEnd":614},{"word":"tobacco","begin":516,"end":522,"sentenceIndex":3,"sentenceBegin":395,"sentenceEnd":614}]}
{"paperId":"a9e8f50f8f2d2f9d02821c17c3fc7e53c750941e","indicators":[{"word":"smoking","begin":221,"end":227,"sentenceIndex":1,"sentenceBegin":211,"sentenceEnd":283}]}
{"paperId":"a9e8f50f8f2d2f9d02821c17c3fc7e53c750941e","indicators":[{"word":"smoking","begin":14,"end":20,"sentenceIndex":0,"sentenceBegin":0,"sentenceEnd":146},{"word":"smoking","begin":220,"end":226,"sentenceIndex":2,"sentenceBegin":211,"sentenceEnd":368}]}
{"paperId":"a9e8f50f8f2d2f9d02821c17c3fc7e53c750941e","indicators":[{"word":"tobacco","begin":43,"end":49,"sentenceIndex":0,"sentenceBegin":0,"sentenceEnd":266},{"word":"smoke","begin":51,"end":55,"sentenceIndex":0,"sentenceBegin":0,"sentenceEnd":266}]}
{"paperId":"a9e8f50f8f2d2f9d02821c17c3fc7e53c750941e","indicators":[{"word":"tobacco","begin":9,"end":15,"sentenceIndex":0,"sentenceBegin":0,"sentenceEnd":159},{"word":"smoke","begin":17,"end":21,"sentenceIndex":0,"sentenceBegin":0,"sentenceEnd":159},{"word":"tobacco","begin":276,"end":282,"sentenceIndex":1,"sentenceBegin":161,"sentenceEnd":289},{"word":"smoke","begin":284,"end":288,"sentenceIndex":1,"sentenceBegin":161,"sentenceEnd":289}]}
{"paperId":"a9e8f50f8f2d2f9d02821c17c3fc7e53c750941e","indicators":[{"word":"smoking","begin":133,"end":139,"sentenceIndex":1,"sentenceBegin":39,"sentenceEnd":167}]}
{"paperId":"a9e8f50f8f2d2f9d02821c17c3fc7e53c750941e","indicators":[{"word":"tobacco","begin":907,"end":913,"sentenceIndex":12,"sentenceBegin":893,"sentenceEnd":926},{"word":"smoke","begin":915,"end":919,"sentenceIndex":12,"sentenceBegin":893,"sentenceEnd":926}]}
{"paperId":"a9e8f50f8f2d2f9d02821c17c3fc7e53c750941e","indicators":[{"word":"fires","begin":287,"end":291,"sentenceIndex":2,"sentenceBegin":184,"sentenceEnd":310}]}
{"paperId":"a9e8f50f8f2d2f9d02821c17c3fc7e53c750941e","indicators":[{"word":"cigarettes","begin":65,"end":74,"sentenceIndex":1,"sentenceBegin":36,"sentenceEnd":194}]}
{"paperId":"a9e8f50f8f2d2f9d02821c17c3fc7e53c750941e","indicators":[{"word":"tobacco","begin":417,"end":423,"sentenceIndex":2,"sentenceBegin":298,"sentenceEnd":458},{"word":"smoking","begin":425,"end":431,"sentenceIndex":2,"sentenceBegin":298,"sentenceEnd":458}]}
{"paperId":"a9e8f50f8f2d2f9d02821c17c3fc7e53c750941e","indicators":[{"word":"cigarette","begin":380,"end":388,"sentenceIndex":2,"sentenceBegin":310,"sentenceEnd":516},{"word":"smoking","begin":390,"end":396,"sentenceIndex":2,"sentenceBegin":310,"sentenceEnd":516}]}
{"paperId":"a9e8f50f8f2d2f9d02821c17c3fc7e53c750941e","indicators":[{"word":"cigarette","begin":195,"end":203,"sentenceIndex":0,"sentenceBegin":0,"sentenceEnd":218},{"word":"smoke","begin":205,"end":209,"sentenceIndex":0,"sentenceBegin":0,"sentenceEnd":218}]}
{"paperId":"a9e8f50f8f2d2f9d02821c17c3fc7e53c750941e","indicators":[{"word":"smoking","begin":129,"end":135,"sentenceIndex":1,"sentenceBegin":119,"sentenceEnd":186}]}
{"paperId":"a9e8f50f8f2d2f9d02821c17c3fc7e53c750941e","indicators":[{"word":"cigarette","begin":96,"end":104,"sentenceIndex":0,"sentenceBegin":0,"sentenceEnd":151},{"word":"smoke","begin":106,"end":110,"sentenceIndex":0,"sentenceBegin":0,"sentenceEnd":151}]}
{"paperId":"a9e8f50f8f2d2f9d02821c17c3fc7e53c750941e","indicators":[{"word":"smoking","begin":273,"end":279,"sentenceIndex":1,"sentenceBegin":168,"sentenceEnd":288}]}
{"paperId":"a9e8f50f8f2d2f9d02821c17c3fc7e53c750941e","indicators":[{"word":"smoking","begin":91,"end":97,"sentenceIndex":0,"sentenceBegin":0,"sentenceEnd":124}]}
{"paperId":"a9e8f50f8f2d2f9d02821c17c3fc7e53c750941e","indicators":[{"word":"smoking","begin":92,"end":98,"sentenceIndex":0,"sentenceBegin":0,"sentenceEnd":207}]}
{"paperId":"a9e8f50f8f2d2f9d02821c17c3fc7e53c750941e","indicators":[{"word":"smoking","begin":471,"end":477,"sentenceIndex":4,"sentenceBegin":424,"sentenceEnd":663}]}
{"paperId":"a9e8f50f8f2d2f9d02821c17c3fc7e53c750941e","indicators":[{"word":"smoking","begin":514,"end":520,"sentenceIndex":2,"sentenceBegin":411,"sentenceEnd":592}]}
{"paperId":"236337b8a42b83d08dc95ceec13b7505a9e2c708","indicators":[{"word":"smoke","begin":84,"end":88,"sentenceIndex":0,"sentenceBegin":0,"sentenceEnd":142}]}
{"paperId":"236337b8a42b83d08dc95ceec13b7505a9e2c708","indicators":[{"word":"tobacco","begin":742,"end":748,"sentenceIndex":3,"sentenceBegin":503,"sentenceEnd":795},{"word":"smoking","begin":750,"end":756,"sentenceIndex":3,"sentenceBegin":503,"sentenceEnd":795}]}
{"paperId":"236337b8a42b83d08dc95ceec13b7505a9e2c708","indicators":[{"word":"tobacco","begin":331,"end":337,"sentenceIndex":1,"sentenceBegin":223,"sentenceEnd":406},{"word":"smoke","begin":339,"end":343,"sentenceIndex":1,"sentenceBegin":223,"sentenceEnd":406},{"word":"smoke","begin":757,"end":761,"sentenceIndex":4,"sentenceBegin":667,"sentenceEnd":815}]}
{"paperId":"236337b8a42b83d08dc95ceec13b7505a9e2c708","indicators":[{"word":"smoke","begin":56,"end":60,"sentenceIndex":0,"sentenceBegin":0,"sentenceEnd":162},{"word":"tobacco","begin":105,"end":111,"sentenceIndex":0,"sentenceBegin":0,"sentenceEnd":162},{"word":"smoke","begin":113,"end":117,"sentenceIndex":0,"sentenceBegin":0,"sentenceEnd":162},{"word":"smoke","begin":236,"end":240,"sentenceIndex":1,"sentenceBegin":164,"sentenceEnd":347},{"word":"tobacco","begin":334,"end":340,"sentenceIndex":1,"sentenceBegin":164,"sentenceEnd":347},{"word":"smoke","begin":342,"end":346,"sentenceIndex":1,"sentenceBegin":164,"sentenceEnd":347},{"word":"smoke","begin":428,"end":432,"sentenceIndex":2,"sentenceBegin":349,"sentenceEnd":441},{"word":"smoke","begin":500,"end":504,"sentenceIndex":3,"sentenceBegin":443,"sentenceEnd":505}]}
{"paperId":"236337b8a42b83d08dc95ceec13b7505a9e2c708","indicators":[{"word":"smoke","begin":65,"end":69,"sentenceIndex":0,"sentenceBegin":0,"sentenceEnd":207},{"word":"smoke","begin":193,"end":197,"sentenceIndex":0,"sentenceBegin":0,"sentenceEnd":207}]}
{"paperId":"236337b8a42b83d08dc95ceec13b7505a9e2c708","indicators":[{"word":"smoking","begin":21,"end":27,"sentenceIndex":0,"sentenceBegin":0,"sentenceEnd":91},{"word":"smoking","begin":138,"end":144,"sentenceIndex":1,"sentenceBegin":93,"sentenceEnd":201}]}
{"paperId":"236337b8a42b83d08dc95ceec13b7505a9e2c708","indicators":[{"word":"tobacco","begin":323,"end":329,"sentenceIndex":2,"sentenceBegin":254,"sentenceEnd":552},{"word":"smoking","begin":677,"end":683,"sentenceIndex":3,"sentenceBegin":554,"sentenceEnd":769},{"word":"smoke","begin":1054,"end":1058,"sentenceIndex":5,"sentenceBegin":958,"sentenceEnd":1114},{"word":"smoking","begin":1466,"end":1472,"sentenceIndex":7,"sentenceBegin":1326,"sentenceEnd":1511}]}
{"paperId":"236337b8a42b83d08dc95ceec13b7505a9e2c708","indicators":[{"word":"smoking","begin":33,"end":39,"sentenceIndex":0,"sentenceBegin":0,"sentenceEnd":123},{"word":"smoking","begin":154,"end":160,"sentenceIndex":1,"sentenceBegin":125,"sentenceEnd":245},{"word":"smoking","begin":282,"end":288,"sentenceIndex":2,"sentenceBegin":247,"sentenceEnd":353},{"word":"smoking","begin":440,"end":446,"sentenceIndex":3,"sentenceBegin":355,"sentenceEnd":584},{"word":"smoking","begin":541,"end":547,"sentenceIndex":3,"sentenceBegin":355,"sentenceEnd":584}]}
{"paperId":"236337b8a42b83d08dc95ceec13b7505a9e2c708","indicators":[{"word":"smoking","begin":154,"end":160,"sentenceIndex":0,"sentenceBegin":0,"sentenceEnd":257}]}
{"paperId":"236337b8a42b83d08dc95ceec13b7505a9e2c708","indicators":[{"word":"smoke","begin":59,"end":63,"sentenceIndex":0,"sentenceBegin":0,"sentenceEnd":165}]}
{"paperId":"236337b8a42b83d08dc95ceec13b7505a9e2c708","indicators":[{"word":"smoke","begin":179,"end":183,"sentenceIndex":1,"sentenceBegin":86,"sentenceEnd":248}]}
{"paperId":"236337b8a42b83d08dc95ceec13b7505a9e2c708","indicators":[{"word":"smoking","begin":340,"end":346,"sentenceIndex":1,"sentenceBegin":214,"sentenceEnd":383}]}
{"paperId":"9709452f6906f212ef90d83e77f32c46c9dd5a84","indicators":[{"word":"smoke","begin":10,"end":14,"sentenceIndex":0,"sentenceBegin":0,"sentenceEnd":72},{"word":"smoking","begin":122,"end":128,"sentenceIndex":1,"sentenceBegin":74,"sentenceEnd":223},{"word":"smoking","begin":611,"end":617,"sentenceIndex":4,"sentenceBegin":550,"sentenceEnd":711},{"word":"smoking","begin":687,"end":693,"sentenceIndex":4,"sentenceBegin":550,"sentenceEnd":711},{"word":"cigarette","begin":786,"end":794,"sentenceIndex":8,"sentenceBegin":742,"sentenceEnd":851},{"word":"smoke","begin":796,"end":800,"sentenceIndex":8,"sentenceBegin":742,"sentenceEnd":851}]}
{"paperId":"9709452f6906f212ef90d83e77f32c46c9dd5a84","indicators":[{"word":"smoking","begin":29,"end":35,"sentenceIndex":0,"sentenceBegin":0,"sentenceEnd":230},{"word":"smoking","begin":215,"end":221,"sentenceIndex":0,"sentenceBegin":0,"sentenceEnd":230},{"word":"tobacco","begin":304,"end":310,"sentenceIndex":1,"sentenceBegin":232,"sentenceEnd":394},{"word":"smoke","begin":312,"end":316,"sentenceIndex":1,"sentenceBegin":232,"sentenceEnd":394},{"word":"smoking","begin":727,"end":733,"sentenceIndex":3,"sentenceBegin":613,"sentenceEnd":784}]}
{"paperId":"9709452f6906f212ef90d83e77f32c46c9dd5a84","indicators":[{"word":"cigarette","begin":882,"end":890,"sentenceIndex":7,"sentenceBegin":849,"sentenceEnd":899},{"word":"smoking","begin":892,"end":898,"sentenceIndex":7,"sentenceBegin":849,"sentenceEnd":899}]}
{"paperId":"9709452f6906f212ef90d83e77f32c46c9dd5a84","indicators":[{"word":"smoking","begin":260,"end":266,"sentenceIndex":2,"sentenceBegin":163,"sentenceEnd":267},{"word":"smoking","begin":758,"end":764,"sentenceIndex":6,"sentenceBegin":710,"sentenceEnd":922}]}
{"paperId":"9709452f6906f212ef90d83e77f32c46c9dd5a84","indicators":[{"word":"smoke","begin":74,"end":78,"sentenceIndex":1,"sentenceBegin":66,"sentenceEnd":222},{"word":"smoke","begin":217,"end":221,"sentenceIndex":1,"sentenceBegin":66,"sentenceEnd":222},{"word":"smoking","begin":458,"end":464,"sentenceIndex":4,"sentenceBegin":419,"sentenceEnd":465}]}
{"paperId":"9709452f6906f212ef90d83e77f32c46c9dd5a84","indicators":[{"word":"smoke","begin":608,"end":612,"sentenceIndex":4,"sentenceBegin":598,"sentenceEnd":693}]}
{"paperId":"9709452f6906f212ef90d83e77f32c46c9dd5a84","indicators":[{"word":"smoke","begin":463,"end":467,"sentenceIndex":5,"sentenceBegin":359,"sentenceEnd":468}]}
{"paperId":"9709452f6906f212ef90d83e77f32c46c9dd5a84","indicators":[{"word":"smoking","begin":699,"end":705,"sentenceIndex":4,"sentenceBegin":497,"sentenceEnd":713},{"word":"smoked","begin":1243,"end":1248,"sentenceIndex":10,"sentenceBegin":1125,"sentenceEnd":1290}]}
{"paperId":"9709452f6906f212ef90d83e77f32c46c9dd5a84","indicators":[{"word":"smoking","begin":179,"end":185,"sentenceIndex":0,"sentenceBegin":0,"sentenceEnd":186}]}
{"paperId":"844e5563f2255a5701d945729aa2d3962cf665cc","indicators":[{"word":"tobacco","begin":655,"end":661,"sentenceIndex":4,"sentenceBegin":456,"sentenceEnd":692},{"word":"smoke","begin":663,"end":667,"sentenceIndex":4,"sentenceBegin":456,"sentenceEnd":692}]}
{"paperId":"844e5563f2255a5701d945729aa2d3962cf665cc","indicators":[{"word":"smoking","begin":404,"end":410,"sentenceIndex":3,"sentenceBegin":338,"sentenceEnd":419}]}
{"paperId":"844e5563f2255a5701d945729aa2d3962cf665cc","indicators":[{"word":"tobacco","begin":140,"end":146,"sentenceIndex":1,"sentenceBegin":114,"sentenceEnd":218},{"word":"smoke","begin":148,"end":152,"sentenceIndex":1,"sentenceBegin":114,"sentenceEnd":218}]}
{"paperId":"844e5563f2255a5701d945729aa2d3962cf665cc","indicators":[{"word":"tobacco","begin":1186,"end":1192,"sentenceIndex":7,"sentenceBegin":1108,"sentenceEnd":1283},{"word":"smoke","begin":1194,"end":1198,"sentenceIndex":7,"sentenceBegin":1108,"sentenceEnd":1283}]}
{"paperId":"844e5563f2255a5701d945729aa2d3962cf665cc","indicators":[{"word":"tobacco","begin":350,"end":356,"sentenceIndex":2,"sentenceBegin":233,"sentenceEnd":415},{"word":"smoke","begin":358,"end":362,"sentenceIndex":2,"sentenceBegin":233,"sentenceEnd":415}]}
{"paperId":"844e5563f2255a5701d945729aa2d3962cf665cc","indicators":[{"word":"smoking","begin":95,"end":101,"sentenceIndex":0,"sentenceBegin":0,"sentenceEnd":235}]}
{"paperId":"844e5563f2255a5701d945729aa2d3962cf665cc","indicators":[{"word":"cigarette","begin":329,"end":337,"sentenceIndex":2,"sentenceBegin":248,"sentenceEnd":344},{"word":"smoke","begin":339,"end":343,"sentenceIndex":2,"sentenceBegin":248,"sentenceEnd":344}]}
{"paperId":"844e5563f2255a5701d945729aa2d3962cf665cc","indicators":[{"word":"cigarette","begin":497,"end":505,"sentenceIndex":3,"sentenceBegin":355,"sentenceEnd":638},{"word":"smoking","begin":507,"end":513,"sentenceIndex":3,"sentenceBegin":355,"sentenceEnd":638}]}
{"paperId":"a47eafce2e7e546cc5898ad7317014cce0aa017e","indicators":[{"word":"fires","begin":2012,"end":2016,"sentenceIndex":20,"sentenceBegin":1986,"sentenceEnd":2127}]}
{"paperId":"a47eafce2e7e546cc5898ad7317014cce0aa017e","indicators":[{"word":"fires","begin":111,"end":115,"sentenceIndex":1,"sentenceBegin":66,"sentenceEnd":139}]}
{"paperId":"a47eafce2e7e546cc5898ad7317014cce0aa017e","indicators":[{"word":"fires","begin":581,"end":585,"sentenceIndex":5,"sentenceBegin":560,"sentenceEnd":760}]}
{"paperId":"a47eafce2e7e546cc5898ad7317014cce0aa017e","indicators":[{"word":"fires","begin":118,"end":122,"sentenceIndex":0,"sentenceBegin":0,"sentenceEnd":446}]}
{"paperId":"a47eafce2e7e546cc5898ad7317014cce0aa017e","indicators":[{"word":"fires","begin":560,"end":564,"sentenceIndex":4,"sentenceBegin":488,"sentenceEnd":746},{"word":"fires","begin":871,"end":875,"sentenceIndex":5,"sentenceBegin":748,"sentenceEnd":1060}]}
{"paperId":"a47eafce2e7e546cc5898ad7317014cce0aa017e","indicators":[{"word":"fires","begin":492,"end":496,"sentenceIndex":3,"sentenceBegin":242,"sentenceEnd":511}]}
{"paperId":"a47eafce2e7e546cc5898ad7317014cce0aa017e","indicators":[{"word":"fires","begin":328,"end":332,"sentenceIndex":1,"sentenceBegin":93,"sentenceEnd":445}]}
{"paperId":"1830430131bebc7a1f0b550aece8a78170bbd7e1","indicators":[{"word":"smoking","begin":211,"end":217,"sentenceIndex":0,"sentenceBegin":0,"sentenceEnd":339}]}
{"paperId":"1830430131bebc7a1f0b550aece8a78170bbd7e1","indicators":[{"word":"smoking","begin":524,"end":530,"sentenceIndex":3,"sentenceBegin":282,"sentenceEnd":553}]}
{"paperId":"1830430131bebc7a1f0b550aece8a78170bbd7e1","indicators":[{"word":"cigarette","begin":600,"end":608,"sentenceIndex":4,"sentenceBegin":592,"sentenceEnd":718},{"word":"smoking","begin":626,"end":632,"sentenceIndex":4,"sentenceBegin":592,"sentenceEnd":718},{"word":"cigarettes","begin":708,"end":717,"sentenceIndex":4,"sentenceBegin":592,"sentenceEnd":718}]}
{"paperId":"1830430131bebc7a1f0b550aece8a78170bbd7e1","indicators":[{"word":"smoking","begin":247,"end":253,"sentenceIndex":1,"sentenceBegin":112,"sentenceEnd":362}]}
{"paperId":"1830430131bebc7a1f0b550aece8a78170bbd7e1","indicators":[{"word":"smoking","begin":347,"end":353,"sentenceIndex":1,"sentenceBegin":156,"sentenceEnd":419}]}
{"paperId":"1830430131bebc7a1f0b550aece8a78170bbd7e1","indicators":[{"word":"tobacco","begin":437,"end":443,"sentenceIndex":2,"sentenceBegin":391,"sentenceEnd":539}]}
{"paperId":"1830430131bebc7a1f0b550aece8a78170bbd7e1","indicators":[{"word":"tobacco","begin":427,"end":433,"sentenceIndex":3,"sentenceBegin":325,"sentenceEnd":501}]}
{"paperId":"1830430131bebc7a1f0b550aece8a78170bbd7e1","indicators":[{"word":"smoking","begin":997,"end":1003,"sentenceIndex":6,"sentenceBegin":959,"sentenceEnd":1033}]}
{"paperId":"41c4b60cad3cbf877abae55869362628707b31b7","indicators":[{"word":"smoking","begin":601,"end":607,"sentenceIndex":5,"sentenceBegin":503,"sentenceEnd":737}]}
