{"paperId":"dcf562451f71048538f3a805f26f8e909f30a069","indicators":[{"word":"smoke","begin":1592,"end":1596,"sentenceIndex":10,"sentenceBegin":1515,"sentenceEnd":1603}]}
{"paperId":"7c4c03a649c7b66517b85abbdff9cd307313919f","indicators":[{"word":"tobacco","begin":1097,"end":1103,"sentenceIndex":5,"sentenceBegin":990,"sentenceEnd":1187},{"word":"smoking","begin":1105,"end":1111,"sentenceIndex":5,"sentenceBegin":990,"sentenceEnd":1187}]}
{"paperId":"7c4c03a649c7b66517b85abbdff9cd307313919f","indicators":[{"word":"smoking","begin":567,"end":573,"sentenceIndex":0,"sentenceBegin":0,"sentenceEnd":574},{"word":"smoking","begin":742,"end":748,"sentenceIndex":1,"sentenceBegin":576,"sentenceEnd":811},{"word":"smoking","begin":1096,"end":1102,"sentenceIndex":3,"sentenceBegin":989,"sentenceEnd":1103}]}
