{"paperId":"2f739ce158fe0605ca31cd2b83e00abfba4c6823","indicators":[{"word":"tobacco","begin":877,"end":883,"sentenceIndex":6,"sentenceBegin":764,"sentenceEnd":904},{"word":"smoke","begin":885,"end":889,"sentenceIndex":6,"sentenceBegin":764,"sentenceEnd":904}]}
{"paperId":"2f739ce158fe0605ca31cd2b83e00abfba4c6823","indicators":[{"word":"smoked","begin":74,"end":79,"sentenceIndex":0,"sentenceBegin":0,"sentenceEnd":102},{"word":"cigarettes","begin":84,"end":93,"sentenceIndex":0,"sentenceBegin":0,"sentenceEnd":102},{"word":"smoking","begin":279,"end":285,"sentenceIndex":2,"sentenceBegin":201,"sentenceEnd":286},{"word":"smoked","begin":326,"end":331,"sentenceIndex":3,"sentenceBegin":288,"sentenceEnd":354},{"word":"cigarettes","begin":336,"end":345,"sentenceIndex":3,"sentenceBegin":288,"sentenceEnd":354}]}
{"paperId":"2f739ce158fe0605ca31cd2b83e00abfba4c6823","indicators":[{"word":"smoke","begin":1209,"end":1213,"sentenceIndex":6,"sentenceBegin":1138,"sentenceEnd":1357},{"word":"smoke","begin":1259,"end":1263,"sentenceIndex":6,"sentenceBegin":1138,"sentenceEnd":1357}]}
{"paperId":"e4b0a153d1321887d8dc3948b81a015bde696bc0","indicators":[{"word":"tobacco","begin":911,"end":917,"sentenceIndex":10,"sentenceBegin":848,"sentenceEnd":926}]}
{"paperId":"e4b0a153d1321887d8dc3948b81a015bde696bc0","indicators":[{"word":"smoke","begin":111,"end":115,"sentenceIndex":1,"sentenceBegin":93,"sentenceEnd":169}]}
{"paperId":"e4b0a153d1321887d8dc3948b81a015bde696bc0","indicators":[{"word":"smoke","begin":143,"end":147,"sentenceIndex":0,"sentenceBegin":0,"sentenceEnd":307},{"word":"vapors","begin":450,"end":455,"sentenceIndex":2,"sentenceBegin":404,"sentenceEnd":498}]}
{"paperId":"e4b0a153d1321887d8dc3948b81a015bde696bc0","indicators":[{"word":"smoke","begin":474,"end":478,"sentenceIndex":4,"sentenceBegin":427,"sentenceEnd":527}]}
{"paperId":"e4b0a153d1321887d8dc3948b81a015bde696bc0","indicators":[{"word":"tobacco","begin":48,"end":54,"sentenceIndex":0,"sentenceBegin":0,"sentenceEnd":153}]}
{"paperId":"e4b0a153d1321887d8dc3948b81a015bde696bc0","indicators":[{"word":"smoke","begin":270,"end":274,"sentenceIndex":2,"sentenceBegin":231,"sentenceEnd":367}]}
{"paperId":"5af76c7339acda5611bcec3fae18755adaf678ef","indicators":[{"word":"smoking","begin":1162,"end":1168,"sentenceIndex":10,"sentenceBegin":1042,"sentenceEnd":1201}]}
