{"paperId":"ff2bbf80b84a0148cf2e2f60176d40c6d87fdd0d","indicators":[{"word":"vapor","begin":208,"end":212,"sentenceIndex":1,"sentenceBegin":121,"sentenceEnd":249}]}
{"paperId":"ff2bbf80b84a0148cf2e2f60176d40c6d87fdd0d","indicators":[{"word":"vapor","begin":659,"end":663,"sentenceIndex":3,"sentenceBegin":555,"sentenceEnd":733}]}
{"paperId":"9a7067fd01a04138e3557a7fb439253c5b914413","indicators":[{"word":"vapor","begin":162,"end":166,"sentenceIndex":0,"sentenceBegin":0,"sentenceEnd":269},{"word":"vapor","begin":830,"end":834,"sentenceIndex":3,"sentenceBegin":723,"sentenceEnd":835}]}
{"paperId":"9a7067fd01a04138e3557a7fb439253c5b914413","indicators":[{"word":"vapor","begin":1160,"end":1164,"sentenceIndex":8,"sentenceBegin":1082,"sentenceEnd":1180}]}
{"paperId":"9a7067fd01a04138e3557a7fb439253c5b914413","indicators":[{"word":"vapor","begin":394,"end":398,"sentenceIndex":3,"sentenceBegin":323,"sentenceEnd":600}]}
{"paperId":"9a7067fd01a04138e3557a7fb439253c5b914413","indicators":[{"word":"vapor","begin":702,"end":706,"sentenceIndex":4,"sentenceBegin":573,"sentenceEnd":866},{"word":"vapor","begin":1596,"end":1600,"sentenceIndex":10,"sentenceBegin":1524,"sentenceEnd":1716}]}
{"paperId":"9a7067fd01a04138e3557a7fb439253c5b914413","indicators":[{"word":"vapor","begin":185,"end":189,"sentenceIndex":1,"sentenceBegin":124,"sentenceEnd":340},{"word":"vapor","begin":832,"end":836,"sentenceIndex":4,"sentenceBegin":683,"sentenceEnd":852}]}
{"paperId":"9a7067fd01a04138e3557a7fb439253c5b914413","indicators":[{"word":"vapor","begin":88,"end":92,"sentenceIndex":0,"sentenceBegin":0,"sentenceEnd":182}]}
{"paperId":"9a7067fd01a04138e3557a7fb439253c5b914413","indicators":[{"word":"vapor","begin":1133,"end":1137,"sentenceIndex":5,"sentenceBegin":1125,"sentenceEnd":1200},{"word":"vapor","begin":1213,"end":1217,"sentenceIndex":7,"sentenceBegin":1207,"sentenceEnd":1377}]}
{"paperId":"c871e5c6572a0ec5f5b95e62dbe96ccf5c9c7a43","indicators":[{"word":"smoking","begin":1533,"end":1539,"sentenceIndex":7,"sentenceBegin":1378,"sentenceEnd":1540}]}
{"paperId":"9a132551015b409f545c695795773e564f42cb33","indicators":[{"word":"smoking","begin":407,"end":413,"sentenceIndex":2,"sentenceBegin":231,"sentenceEnd":676}]}
{"paperId":"9a132551015b409f545c695795773e564f42cb33","indicators":[{"word":"smoking","begin":484,"end":490,"sentenceIndex":4,"sentenceBegin":397,"sentenceEnd":555}]}
{"paperId":"9a132551015b409f545c695795773e564f42cb33","indicators":[{"word":"smoking","begin":470,"end":476,"sentenceIndex":2,"sentenceBegin":321,"sentenceEnd":592}]}
{"paperId":"9a132551015b409f545c695795773e564f42cb33","indicators":[{"word":"smoking","begin":725,"end":731,"sentenceIndex":3,"sentenceBegin":623,"sentenceEnd":885}]}
{"paperId":"9a132551015b409f545c695795773e564f42cb33","indicators":[{"word":"smoking","begin":582,"end":588,"sentenceIndex":3,"sentenceBegin":445,"sentenceEnd":664},{"word":"smoking","begin":657,"end":663,"sentenceIndex":3,"sentenceBegin":445,"sentenceEnd":664}]}
{"paperId":"ac51af9995edb441f0ce4fdc384908daa6e83675","indicators":[{"word":"cigarette","begin":871,"end":879,"sentenceIndex":5,"sentenceBegin":750,"sentenceEnd":1069},{"word":"smoke","begin":881,"end":885,"sentenceIndex":5,"sentenceBegin":750,"sentenceEnd":1069}]}
{"paperId":"ac51af9995edb441f0ce4fdc384908daa6e83675","indicators":[{"word":"fume","begin":309,"end":312,"sentenceIndex":2,"sentenceBegin":255,"sentenceEnd":414}]}
{"paperId":"08bfd4b55d7c123f6f1c38bd3b91881be00bacf5","indicators":[{"word":"smoking","begin":193,"end":199,"sentenceIndex":0,"sentenceBegin":0,"sentenceEnd":516}]}
{"paperId":"08bfd4b55d7c123f6f1c38bd3b91881be00bacf5","indicators":[{"word":"smoking","begin":347,"end":353,"sentenceIndex":1,"sentenceBegin":233,"sentenceEnd":462},{"word":"smoking","begin":370,"end":376,"sentenceIndex":1,"sentenceBegin":233,"sentenceEnd":462}]}
{"paperId":"08bfd4b55d7c123f6f1c38bd3b91881be00bacf5","indicators":[{"word":"smoked","begin":1120,"end":1125,"sentenceIndex":4,"sentenceBegin":1103,"sentenceEnd":1268},{"word":"smoked","begin":1250,"end":1255,"sentenceIndex":4,"sentenceBegin":1103,"sentenceEnd":1268},{"word":"smoking","begin":1368,"end":1374,"sentenceIndex":5,"sentenceBegin":1270,"sentenceEnd":1396}]}
{"paperId":"08bfd4b55d7c123f6f1c38bd3b91881be00bacf5","indicators":[{"word":"tobacco","begin":6,"end":12,"sentenceIndex":0,"sentenceBegin":0,"sentenceEnd":317},{"word":"smoking","begin":264,"end":270,"sentenceIndex":0,"sentenceBegin":0,"sentenceEnd":317}]}
{"paperId":"08bfd4b55d7c123f6f1c38bd3b91881be00bacf5","indicators":[{"word":"smoking","begin":554,"end":560,"sentenceIndex":3,"sentenceBegin":489,"sentenceEnd":698},{"word":"smoking","begin":563,"end":569,"sentenceIndex":3,"sentenceBegin":489,"sentenceEnd":698}]}
{"paperId":"c88c8d2c02e3e0673d6e0a42930a2c1ce1f3981c","indicators":[{"word":"tobacco","begin":888,"end":894,"sentenceIndex":6,"sentenceBegin":776,"sentenceEnd":1010}]}
{"paperId":"c88c8d2c02e3e0673d6e0a42930a2c1ce1f3981c","indicators":[{"word":"tobacco","begin":29,"end":35,"sentenceIndex":0,"sentenceBegin":0,"sentenceEnd":137}]}
