{"paperId":"965d61f25db80de4448adf519ac952272d6f71e2","indicators":[{"word":"vapor","begin":305,"end":309,"sentenceIndex":1,"sentenceBegin":126,"sentenceEnd":327}]}
{"paperId":"db2c54ab3f36dd546460c0e72aefdc17abf5355c","indicators":[{"word":"smoke","begin":37,"end":41,"sentenceIndex":0,"sentenceBegin":0,"sentenceEnd":99},{"word":"smoking","begin":212,"end":218,"sentenceIndex":1,"sentenceBegin":101,"sentenceEnd":219},{"word":"smoking","begin":376,"end":382,"sentenceIndex":2,"sentenceBegin":221,"sentenceEnd":399}]}
{"paperId":"7f0ad2e3590269fe7884989ff410a065a8722636","indicators":[{"word":"tobacco","begin":753,"end":759,"sentenceIndex":5,"sentenceBegin":681,"sentenceEnd":818}]}
{"paperId":"2186668be14a014c393d33c4a57728b625561630","indicators":[{"word":"vapor","begin":365,"end":369,"sentenceIndex":2,"sentenceBegin":247,"sentenceEnd":405}]}
{"paperId":"d88bb13c3e9b5f003ed3d866730c1f7c17b3740b","indicators":[{"word":"smoke","begin":133,"end":137,"sentenceIndex":0,"sentenceBegin":0,"sentenceEnd":455}]}
