{"paperId":"646b1368cd3353e7f6f7984eaf365ef6340753f2","indicators":[{"word":"smoke","begin":1028,"end":1032,"sentenceIndex":9,"sentenceBegin":912,"sentenceEnd":1056}]}
{"paperId":"65cbba8f2273f234c8befb1e3f5fc80d43fe7c81","indicators":[{"word":"weed","begin":240,"end":243,"sentenceIndex":2,"sentenceBegin":239,"sentenceEnd":304}]}
{"paperId":"557dfa5b6f43e139a361f9bfe684c8532c285f50","indicators":[{"word":"tobacco","begin":902,"end":908,"sentenceIndex":5,"sentenceBegin":848,"sentenceEnd":909}]}
