{"paperId":"a7481911ee9c38695436ac5ae4e251f32bac6ca8","indicators":[{"word":"fuming","begin":706,"end":711,"sentenceIndex":6,"sentenceBegin":674,"sentenceEnd":712}]}
{"paperId":"5ced69d4c60f405e23d6cd1de3e0bb8ffb771e9a","indicators":[{"word":"tobacco","begin":1228,"end":1234,"sentenceIndex":9,"sentenceBegin":1124,"sentenceEnd":1396}]}
{"paperId":"5560c5577076d3180d78439586d9ebe75653b20f","indicators":[{"word":"smoking","begin":629,"end":635,"sentenceIndex":3,"sentenceBegin":589,"sentenceEnd":762}]}
{"paperId":"5560c5577076d3180d78439586d9ebe75653b20f","indicators":[{"word":"smoking","begin":1471,"end":1477,"sentenceIndex":8,"sentenceBegin":1459,"sentenceEnd":1541}]}
{"paperId":"d85efc01c06f607906d871c2809b21a83a624c3f","indicators":[{"word":"pot","begin":3108,"end":3110,"sentenceIndex":20,"sentenceBegin":3039,"sentenceEnd":3218}]}
{"paperId":"d85efc01c06f607906d871c2809b21a83a624c3f","indicators":[{"word":"pot","begin":276,"end":278,"sentenceIndex":2,"sentenceBegin":149,"sentenceEnd":365}]}
{"paperId":"d9781aa72b1bb09b2ebb1c0243c57222c7e6655d","indicators":[{"word":"cigarette","begin":999,"end":1007,"sentenceIndex":6,"sentenceBegin":875,"sentenceEnd":1016},{"word":"smoking","begin":1009,"end":1015,"sentenceIndex":6,"sentenceBegin":875,"sentenceEnd":1016}]}
{"paperId":"c6183dfbaabc06881c70097745b3e646479ac9a7","indicators":[{"word":"fires","begin":354,"end":358,"sentenceIndex":2,"sentenceBegin":67,"sentenceEnd":359}]}
