{"paperId":"a559e323cc2f1aaa14ae90f386f079163e2401aa","indicators":[{"word":"vapor","begin":263,"end":267,"sentenceIndex":2,"sentenceBegin":228,"sentenceEnd":333}]}
{"paperId":"9b91bf56210db60e68b22d502496e4b20e80ff3f","indicators":[{"word":"smoking","begin":875,"end":881,"sentenceIndex":7,"sentenceBegin":871,"sentenceEnd":1011},{"word":"smoke","begin":1006,"end":1010,"sentenceIndex":7,"sentenceBegin":871,"sentenceEnd":1011}]}
{"paperId":"9b91bf56210db60e68b22d502496e4b20e80ff3f","indicators":[{"word":"smoke","begin":177,"end":181,"sentenceIndex":0,"sentenceBegin":0,"sentenceEnd":202}]}
{"paperId":"9b91bf56210db60e68b22d502496e4b20e80ff3f","indicators":[{"word":"smoke","begin":160,"end":164,"sentenceIndex":0,"sentenceBegin":0,"sentenceEnd":367}]}
{"paperId":"9b91bf56210db60e68b22d502496e4b20e80ff3f","indicators":[{"word":"smoke","begin":46,"end":50,"sentenceIndex":0,"sentenceBegin":0,"sentenceEnd":152},{"word":"smoke","begin":222,"end":226,"sentenceIndex":1,"sentenceBegin":154,"sentenceEnd":328},{"word":"tobacco","begin":437,"end":443,"sentenceIndex":2,"sentenceBegin":330,"sentenceEnd":491},{"word":"smoke","begin":445,"end":449,"sentenceIndex":2,"sentenceBegin":330,"sentenceEnd":491},{"word":"smoke","begin":530,"end":534,"sentenceIndex":3,"sentenceBegin":493,"sentenceEnd":688},{"word":"smoke","begin":776,"end":780,"sentenceIndex":4,"sentenceBegin":690,"sentenceEnd":933}]}
{"paperId":"9b91bf56210db60e68b22d502496e4b20e80ff3f","indicators":[{"word":"smoking","begin":218,"end":224,"sentenceIndex":3,"sentenceBegin":181,"sentenceEnd":318},{"word":"smoking","begin":231,"end":237,"sentenceIndex":3,"sentenceBegin":181,"sentenceEnd":318},{"word":"smoking","begin":311,"end":317,"sentenceIndex":3,"sentenceBegin":181,"sentenceEnd":318}]}
{"paperId":"9b91bf56210db60e68b22d502496e4b20e80ff3f","indicators":[{"word":"smoke","begin":159,"end":163,"sentenceIndex":0,"sentenceBegin":0,"sentenceEnd":339}]}
