{"paperId":"4f4c9d73b1c1f97f88ed8ef3b0584842cccd11d4","indicators":[{"word":"smoking","begin":98,"end":104,"sentenceIndex":0,"sentenceBegin":0,"sentenceEnd":179}]}
{"paperId":"317b23de215a27129e483bcd6f21513b86f3ea40","indicators":[{"word":"smoking","begin":52,"end":58,"sentenceIndex":0,"sentenceBegin":0,"sentenceEnd":156},{"word":"smoking","begin":210,"end":216,"sentenceIndex":1,"sentenceBegin":158,"sentenceEnd":327}]}
{"paperId":"317b23de215a27129e483bcd6f21513b86f3ea40","indicators":[{"word":"smoking","begin":702,"end":708,"sentenceIndex":3,"sentenceBegin":618,"sentenceEnd":753}]}
{"paperId":"169f97df52a7e0d0838fa23f545510afaa87a5e9","indicators":[{"word":"pots","begin":477,"end":480,"sentenceIndex":3,"sentenceBegin":314,"sentenceEnd":517}]}
