{"paperId":"087e2296a7f19f514e6c7ee109be94441f2d876a","indicators":[{"word":"tobacco","begin":116,"end":122,"sentenceIndex":0,"sentenceBegin":0,"sentenceEnd":177},{"word":"smoke","begin":124,"end":128,"sentenceIndex":0,"sentenceBegin":0,"sentenceEnd":177}]}
{"paperId":"087e2296a7f19f514e6c7ee109be94441f2d876a","indicators":[{"word":"tobacco","begin":580,"end":586,"sentenceIndex":7,"sentenceBegin":402,"sentenceEnd":650},{"word":"smoke","begin":588,"end":592,"sentenceIndex":7,"sentenceBegin":402,"sentenceEnd":650}]}
{"paperId":"1aa778ed56bb117328e8725318616710d1da428e","indicators":[{"word":"vapor","begin":94,"end":98,"sentenceIndex":0,"sentenceBegin":0,"sentenceEnd":335},{"word":"vapor","begin":434,"end":438,"sentenceIndex":1,"sentenceBegin":337,"sentenceEnd":622}]}
{"paperId":"631c83a76c3e19e6009b7f3f3bd034ac74d3fa30","indicators":[{"word":"smoking","begin":358,"end":364,"sentenceIndex":2,"sentenceBegin":184,"sentenceEnd":400}]}
