{"paperId":"a526fb64b1ab4c06c7e5e1d484301b47498260e5","indicators":[{"word":"smoke","begin":815,"end":819,"sentenceIndex":6,"sentenceBegin":644,"sentenceEnd":855}]}
{"paperId":"a526fb64b1ab4c06c7e5e1d484301b47498260e5","indicators":[{"word":"tobacco","begin":402,"end":408,"sentenceIndex":3,"sentenceBegin":337,"sentenceEnd":424},{"word":"smoke","begin":410,"end":414,"sentenceIndex":3,"sentenceBegin":337,"sentenceEnd":424}]}
{"paperId":"d054c0013a3470230b046c4955b9df61839ba32a","indicators":[{"word":"puffs","begin":38,"end":42,"sentenceIndex":0,"sentenceBegin":0,"sentenceEnd":57}]}
{"paperId":"2fc4134eee7d705343f0d0fbf0b9df4094a868b5","indicators":[{"word":"vapor","begin":13,"end":17,"sentenceIndex":0,"sentenceBegin":0,"sentenceEnd":90}]}
{"paperId":"2050216d6cfaa6a058c832c714cdc1890c786a00","indicators":[{"word":"tobacco","begin":638,"end":644,"sentenceIndex":6,"sentenceBegin":532,"sentenceEnd":653}]}
{"paperId":"2050216d6cfaa6a058c832c714cdc1890c786a00","indicators":[{"word":"smoking","begin":481,"end":487,"sentenceIndex":4,"sentenceBegin":434,"sentenceEnd":523}]}
{"paperId":"2050216d6cfaa6a058c832c714cdc1890c786a00","indicators":[{"word":"tobacco","begin":370,"end":376,"sentenceIndex":2,"sentenceBegin":180,"sentenceEnd":414}]}
{"paperId":"2050216d6cfaa6a058c832c714cdc1890c786a00","indicators":[{"word":"tobacco","begin":1053,"end":1059,"sentenceIndex":9,"sentenceBegin":1025,"sentenceEnd":1075}]}
{"paperId":"64be27cbcb494cb7513f7e07da5bd1c7217f307d","indicators":[{"word":"pots","begin":233,"end":236,"sentenceIndex":1,"sentenceBegin":148,"sentenceEnd":259},{"word":"pots","begin":265,"end":268,"sentenceIndex":2,"sentenceBegin":261,"sentenceEnd":417}]}
{"paperId":"beccdcf49164fc5a8df416eee86df284c673f773","indicators":[{"word":"smoking","begin":326,"end":332,"sentenceIndex":2,"sentenceBegin":237,"sentenceEnd":343}]}
