{"paperId":"a546ef4bcdb2f393d6471a23a0733dc4ac560b12","indicators":[{"word":"fires","begin":238,"end":242,"sentenceIndex":1,"sentenceBegin":63,"sentenceEnd":308}]}
{"paperId":"a546ef4bcdb2f393d6471a23a0733dc4ac560b12","indicators":[{"word":"fires","begin":828,"end":832,"sentenceIndex":5,"sentenceBegin":705,"sentenceEnd":900}]}
{"paperId":"a546ef4bcdb2f393d6471a23a0733dc4ac560b12","indicators":[{"word":"fires","begin":306,"end":310,"sentenceIndex":3,"sentenceBegin":278,"sentenceEnd":348},{"word":"fires","begin":435,"end":439,"sentenceIndex":4,"sentenceBegin":350,"sentenceEnd":540}]}
{"paperId":"a546ef4bcdb2f393d6471a23a0733dc4ac560b12","indicators":[{"word":"fires","begin":348,"end":352,"sentenceIndex":2,"sentenceBegin":274,"sentenceEnd":387}]}
{"paperId":"a546ef4bcdb2f393d6471a23a0733dc4ac560b12","indicators":[{"word":"smog","begin":397,"end":400,"sentenceIndex":3,"sentenceBegin":372,"sentenceEnd":445},{"word":"fires","begin":557,"end":561,"sentenceIndex":4,"sentenceBegin":447,"sentenceEnd":663},{"word":"smog","begin":583,"end":586,"sentenceIndex":4,"sentenceBegin":447,"sentenceEnd":663}]}
{"paperId":"a546ef4bcdb2f393d6471a23a0733dc4ac560b12","indicators":[{"word":"fires","begin":457,"end":461,"sentenceIndex":0,"sentenceBegin":0,"sentenceEnd":605}]}
{"paperId":"a546ef4bcdb2f393d6471a23a0733dc4ac560b12","indicators":[{"word":"fires","begin":344,"end":348,"sentenceIndex":2,"sentenceBegin":210,"sentenceEnd":444}]}
{"paperId":"235e5cda4dc7631fda5c27fd58f99ee0d261a0a0","indicators":[{"word":"tobacco","begin":98,"end":104,"sentenceIndex":0,"sentenceBegin":0,"sentenceEnd":183}]}
{"paperId":"8bdb2bdd4133f5456f35c6d4e5550fa86cebb5eb","indicators":[{"word":"smoking","begin":243,"end":249,"sentenceIndex":0,"sentenceBegin":0,"sentenceEnd":322}]}
{"paperId":"c4dca3f1b5744b0ee3ac77508352e3a29b6bf373","indicators":[{"word":"vapor","begin":849,"end":853,"sentenceIndex":3,"sentenceBegin":676,"sentenceEnd":910}]}
{"paperId":"c4dca3f1b5744b0ee3ac77508352e3a29b6bf373","indicators":[{"word":"vapor","begin":164,"end":168,"sentenceIndex":0,"sentenceBegin":0,"sentenceEnd":346}]}
{"paperId":"c4dca3f1b5744b0ee3ac77508352e3a29b6bf373","indicators":[{"word":"vapor","begin":8,"end":12,"sentenceIndex":0,"sentenceBegin":0,"sentenceEnd":190},{"word":"vapor","begin":47,"end":51,"sentenceIndex":0,"sentenceBegin":0,"sentenceEnd":190},{"word":"vapor","begin":747,"end":751,"sentenceIndex":7,"sentenceBegin":516,"sentenceEnd":771},{"word":"vapor","begin":1289,"end":1293,"sentenceIndex":12,"sentenceBegin":1228,"sentenceEnd":1336}]}
{"paperId":"c4dca3f1b5744b0ee3ac77508352e3a29b6bf373","indicators":[{"word":"vapor","begin":89,"end":93,"sentenceIndex":0,"sentenceBegin":0,"sentenceEnd":116}]}
{"paperId":"c4dca3f1b5744b0ee3ac77508352e3a29b6bf373","indicators":[{"word":"vapor","begin":79,"end":83,"sentenceIndex":0,"sentenceBegin":0,"sentenceEnd":100}]}
{"paperId":"c4dca3f1b5744b0ee3ac77508352e3a29b6bf373","indicators":[{"word":"vapor","begin":8,"end":12,"sentenceIndex":0,"sentenceBegin":0,"sentenceEnd":134},{"word":"vapor","begin":153,"end":157,"sentenceIndex":1,"sentenceBegin":136,"sentenceEnd":296},{"word":"vapor","begin":816,"end":820,"sentenceIndex":5,"sentenceBegin":685,"sentenceEnd":889}]}
{"paperId":"c4dca3f1b5744b0ee3ac77508352e3a29b6bf373","indicators":[{"word":"vapor","begin":411,"end":415,"sentenceIndex":2,"sentenceBegin":327,"sentenceEnd":437}]}
{"paperId":"c4dca3f1b5744b0ee3ac77508352e3a29b6bf373","indicators":[{"word":"vapor","begin":1600,"end":1604,"sentenceIndex":8,"sentenceBegin":1580,"sentenceEnd":1800}]}
{"paperId":"c4dca3f1b5744b0ee3ac77508352e3a29b6bf373","indicators":[{"word":"vapor","begin":211,"end":215,"sentenceIndex":1,"sentenceBegin":203,"sentenceEnd":371}]}
{"paperId":"c4dca3f1b5744b0ee3ac77508352e3a29b6bf373","indicators":[{"word":"vapor","begin":362,"end":366,"sentenceIndex":2,"sentenceBegin":245,"sentenceEnd":434}]}
{"paperId":"c4dca3f1b5744b0ee3ac77508352e3a29b6bf373","indicators":[{"word":"vapor","begin":140,"end":144,"sentenceIndex":0,"sentenceBegin":0,"sentenceEnd":214}]}
{"paperId":"68898dc311417ff23fe47fe2fae8866eb74469cd","indicators":[{"word":"tobacco","begin":1038,"end":1044,"sentenceIndex":9,"sentenceBegin":981,"sentenceEnd":1100},{"word":"smoke","begin":1046,"end":1050,"sentenceIndex":9,"sentenceBegin":981,"sentenceEnd":1100}]}
{"paperId":"68898dc311417ff23fe47fe2fae8866eb74469cd","indicators":[{"word":"smoking","begin":188,"end":194,"sentenceIndex":1,"sentenceBegin":72,"sentenceEnd":1017}]}
{"paperId":"68898dc311417ff23fe47fe2fae8866eb74469cd","indicators":[{"word":"cigarette","begin":149,"end":157,"sentenceIndex":1,"sentenceBegin":84,"sentenceEnd":164},{"word":"smoke","begin":159,"end":163,"sentenceIndex":1,"sentenceBegin":84,"sentenceEnd":164}]}
{"paperId":"68898dc311417ff23fe47fe2fae8866eb74469cd","indicators":[{"word":"smoking","begin":213,"end":219,"sentenceIndex":0,"sentenceBegin":0,"sentenceEnd":469}]}
{"paperId":"68898dc311417ff23fe47fe2fae8866eb74469cd","indicators":[{"word":"tobacco","begin":716,"end":722,"sentenceIndex":5,"sentenceBegin":643,"sentenceEnd":782},{"word":"smoke","begin":724,"end":728,"sentenceIndex":5,"sentenceBegin":643,"sentenceEnd":782}]}
{"paperId":"68898dc311417ff23fe47fe2fae8866eb74469cd","indicators":[{"word":"puff","begin":711,"end":714,"sentenceIndex":6,"sentenceBegin":698,"sentenceEnd":770}]}
{"paperId":"68898dc311417ff23fe47fe2fae8866eb74469cd","indicators":[{"word":"weed","begin":452,"end":455,"sentenceIndex":6,"sentenceBegin":390,"sentenceEnd":456}]}
{"paperId":"68898dc311417ff23fe47fe2fae8866eb74469cd","indicators":[{"word":"puffs","begin":190,"end":194,"sentenceIndex":1,"sentenceBegin":121,"sentenceEnd":239}]}
{"paperId":"68898dc311417ff23fe47fe2fae8866eb74469cd","indicators":[{"word":"cigarette","begin":1000,"end":1008,"sentenceIndex":7,"sentenceBegin":898,"sentenceEnd":1016}]}
{"paperId":"772f0f266befe1c01ea9b922343815af2eebc2c7","indicators":[{"word":"smoking","begin":898,"end":904,"sentenceIndex":6,"sentenceBegin":803,"sentenceEnd":1260}]}
{"paperId":"772f0f266befe1c01ea9b922343815af2eebc2c7","indicators":[{"word":"smoking","begin":625,"end":631,"sentenceIndex":3,"sentenceBegin":432,"sentenceEnd":757}]}
{"paperId":"29490fd3aab6d6a58577a78e0f572669cb95cbc6","indicators":[{"word":"tobacco","begin":701,"end":707,"sentenceIndex":4,"sentenceBegin":649,"sentenceEnd":1043}]}
{"paperId":"29490fd3aab6d6a58577a78e0f572669cb95cbc6","indicators":[{"word":"smoking","begin":570,"end":576,"sentenceIndex":1,"sentenceBegin":278,"sentenceEnd":590}]}
{"paperId":"29490fd3aab6d6a58577a78e0f572669cb95cbc6","indicators":[{"word":"smoking","begin":503,"end":509,"sentenceIndex":1,"sentenceBegin":259,"sentenceEnd":629}]}
{"paperId":"5b87acee87555c5df885f9d3735eedcacd69656e","indicators":[{"word":"smoke","begin":257,"end":261,"sentenceIndex":5,"sentenceBegin":186,"sentenceEnd":388}]}
{"paperId":"5b87acee87555c5df885f9d3735eedcacd69656e","indicators":[{"word":"smoking","begin":1002,"end":1008,"sentenceIndex":9,"sentenceBegin":910,"sentenceEnd":1016},{"word":"smoke","begin":1061,"end":1065,"sentenceIndex":10,"sentenceBegin":1018,"sentenceEnd":1188},{"word":"smoking","begin":1247,"end":1253,"sentenceIndex":11,"sentenceBegin":1190,"sentenceEnd":1365},{"word":"smoke","begin":1308,"end":1312,"sentenceIndex":11,"sentenceBegin":1190,"sentenceEnd":1365}]}
{"paperId":"5b87acee87555c5df885f9d3735eedcacd69656e","indicators":[{"word":"tobacco","begin":484,"end":490,"sentenceIndex":3,"sentenceBegin":438,"sentenceEnd":528},{"word":"smoke","begin":492,"end":496,"sentenceIndex":3,"sentenceBegin":438,"sentenceEnd":528}]}
{"paperId":"3c9b65564319b2c76fda01710326352aef47af62","indicators":[{"word":"tobacco","begin":403,"end":409,"sentenceIndex":3,"sentenceBegin":339,"sentenceEnd":414}]}
{"paperId":"3c9b65564319b2c76fda01710326352aef47af62","indicators":[{"word":"smoking","begin":450,"end":456,"sentenceIndex":5,"sentenceBegin":412,"sentenceEnd":475}]}
{"paperId":"3c9b65564319b2c76fda01710326352aef47af62","indicators":[{"word":"tobacco","begin":406,"end":412,"sentenceIndex":3,"sentenceBegin":234,"sentenceEnd":454}]}
{"paperId":"3c9b65564319b2c76fda01710326352aef47af62","indicators":[{"word":"smoke","begin":618,"end":622,"sentenceIndex":3,"sentenceBegin":560,"sentenceEnd":766}]}
{"paperId":"3c9b65564319b2c76fda01710326352aef47af62","indicators":[{"word":"cigarette","begin":36,"end":44,"sentenceIndex":0,"sentenceBegin":0,"sentenceEnd":164},{"word":"smoking","begin":46,"end":52,"sentenceIndex":0,"sentenceBegin":0,"sentenceEnd":164}]}
{"paperId":"3c9b65564319b2c76fda01710326352aef47af62","indicators":[{"word":"tobacco","begin":666,"end":672,"sentenceIndex":3,"sentenceBegin":618,"sentenceEnd":965}]}
{"paperId":"3c9b65564319b2c76fda01710326352aef47af62","indicators":[{"word":"tobacco","begin":492,"end":498,"sentenceIndex":3,"sentenceBegin":293,"sentenceEnd":505}]}
{"paperId":"9f3354bc975376a8935e4772dca25b3dae8c5d33","indicators":[{"word":"fires","begin":221,"end":225,"sentenceIndex":1,"sentenceBegin":79,"sentenceEnd":272}]}
