{"paperId":"13336eec021e46f42abf94b0e7a7f94c1dd69771","indicators":[{"word":"puff","begin":242,"end":245,"sentenceIndex":1,"sentenceBegin":79,"sentenceEnd":246}]}
{"paperId":"2468815380ef0da6656eafec81936b459b5b210e","indicators":[{"word":"fires","begin":319,"end":323,"sentenceIndex":1,"sentenceBegin":153,"sentenceEnd":426}]}
{"paperId":"43e6e8580066e1b1cc44c816885e2b6262c2f7f7","indicators":[{"word":"tobacco","begin":455,"end":461,"sentenceIndex":3,"sentenceBegin":245,"sentenceEnd":606},{"word":"smoke","begin":463,"end":467,"sentenceIndex":3,"sentenceBegin":245,"sentenceEnd":606},{"word":"tobacco","begin":1132,"end":1138,"sentenceIndex":7,"sentenceBegin":1016,"sentenceEnd":1329},{"word":"smoke","begin":1140,"end":1144,"sentenceIndex":7,"sentenceBegin":1016,"sentenceEnd":1329}]}
{"paperId":"43e6e8580066e1b1cc44c816885e2b6262c2f7f7","indicators":[{"word":"smoking","begin":808,"end":814,"sentenceIndex":9,"sentenceBegin":783,"sentenceEnd":921},{"word":"smoke","begin":1230,"end":1234,"sentenceIndex":12,"sentenceBegin":1170,"sentenceEnd":1373}]}
{"paperId":"43e6e8580066e1b1cc44c816885e2b6262c2f7f7","indicators":[{"word":"tobacco","begin":270,"end":276,"sentenceIndex":1,"sentenceBegin":174,"sentenceEnd":424},{"word":"smoke","begin":278,"end":282,"sentenceIndex":1,"sentenceBegin":174,"sentenceEnd":424}]}
