{"paperId":"b1363f16e00cf122c2855c3a3f544de6f36b0442","indicators":[{"word":"smoking","begin":460,"end":466,"sentenceIndex":3,"sentenceBegin":351,"sentenceEnd":610}]}
{"paperId":"9a60a924043ed7e3911c2b91bce5a0a4bdf3ff1b","indicators":[{"word":"smoking","begin":252,"end":258,"sentenceIndex":1,"sentenceBegin":75,"sentenceEnd":265}]}
{"paperId":"8d0a20254f994dcc6c392557e9566bd47f50725a","indicators":[{"word":"smoking","begin":1017,"end":1023,"sentenceIndex":7,"sentenceBegin":985,"sentenceEnd":1165}]}
{"paperId":"0b5df906aa61d901a680a5b6c520aa6d62e33297","indicators":[{"word":"tobacco","begin":127,"end":133,"sentenceIndex":1,"sentenceBegin":73,"sentenceEnd":150}]}
{"paperId":"7efa21da7f1eeb6f19bfc6363374f78e0e3bebbb","indicators":[{"word":"smoked","begin":442,"end":447,"sentenceIndex":3,"sentenceBegin":355,"sentenceEnd":470},{"word":"tobacco","begin":463,"end":469,"sentenceIndex":3,"sentenceBegin":355,"sentenceEnd":470}]}
{"paperId":"7efa21da7f1eeb6f19bfc6363374f78e0e3bebbb","indicators":[{"word":"tobacco","begin":367,"end":373,"sentenceIndex":2,"sentenceBegin":284,"sentenceEnd":374}]}
