{"paperId":"91e5ea899411aef9fec0bd446286623ceef533ca","indicators":[{"word":"tobacco","begin":692,"end":698,"sentenceIndex":4,"sentenceBegin":616,"sentenceEnd":706},{"word":"tobacco","begin":834,"end":840,"sentenceIndex":6,"sentenceBegin":804,"sentenceEnd":973}]}
{"paperId":"5d573ffa6e09b83d1e8fafa4d349747c246118fd","indicators":[{"word":"smoking","begin":7,"end":13,"sentenceIndex":0,"sentenceBegin":0,"sentenceEnd":79}]}
{"paperId":"792d7464a0d01733ad34eb067513fd1a00f84865","indicators":[{"word":"tobacco","begin":1294,"end":1300,"sentenceIndex":8,"sentenceBegin":1261,"sentenceEnd":1389}]}
{"paperId":"d1c2bbf2e5d05e99bce59329cdd7c083b199302d","indicators":[{"word":"cigarette","begin":393,"end":401,"sentenceIndex":4,"sentenceBegin":390,"sentenceEnd":558}]}
{"paperId":"d1c2bbf2e5d05e99bce59329cdd7c083b199302d","indicators":[{"word":"vapor","begin":256,"end":260,"sentenceIndex":3,"sentenceBegin":205,"sentenceEnd":283}]}
{"paperId":"d1c2bbf2e5d05e99bce59329cdd7c083b199302d","indicators":[{"word":"cigarette","begin":511,"end":519,"sentenceIndex":2,"sentenceBegin":390,"sentenceEnd":578},{"word":"smoking","begin":521,"end":527,"sentenceIndex":2,"sentenceBegin":390,"sentenceEnd":578}]}
{"paperId":"535448073c1721a7928c2814283c5cda6e151902","indicators":[{"word":"cannabis","begin":293,"end":300,"sentenceIndex":2,"sentenceBegin":268,"sentenceEnd":585}]}
{"paperId":"535448073c1721a7928c2814283c5cda6e151902","indicators":[{"word":"vapor","begin":566,"end":570,"sentenceIndex":3,"sentenceBegin":446,"sentenceEnd":592}]}
{"paperId":"47e9bca7aa883baea8d5922dd51838c1c7d50d1b","indicators":[{"word":"vapors","begin":16,"end":21,"sentenceIndex":0,"sentenceBegin":0,"sentenceEnd":139},{"word":"vapors","begin":148,"end":153,"sentenceIndex":1,"sentenceBegin":141,"sentenceEnd":216}]}
{"paperId":"47e9bca7aa883baea8d5922dd51838c1c7d50d1b","indicators":[{"word":"tobacco","begin":598,"end":604,"sentenceIndex":2,"sentenceBegin":522,"sentenceEnd":614}]}
{"paperId":"47e9bca7aa883baea8d5922dd51838c1c7d50d1b","indicators":[{"word":"tobacco","begin":440,"end":446,"sentenceIndex":1,"sentenceBegin":318,"sentenceEnd":531}]}
{"paperId":"47e9bca7aa883baea8d5922dd51838c1c7d50d1b","indicators":[{"word":"tobacco","begin":95,"end":101,"sentenceIndex":1,"sentenceBegin":92,"sentenceEnd":169}]}
{"paperId":"47e9bca7aa883baea8d5922dd51838c1c7d50d1b","indicators":[{"word":"tobacco","begin":192,"end":198,"sentenceIndex":0,"sentenceBegin":0,"sentenceEnd":210},{"word":"tobacco","begin":1040,"end":1046,"sentenceIndex":7,"sentenceBegin":994,"sentenceEnd":1126}]}
{"paperId":"47e9bca7aa883baea8d5922dd51838c1c7d50d1b","indicators":[{"word":"tobacco","begin":348,"end":354,"sentenceIndex":2,"sentenceBegin":248,"sentenceEnd":418},{"word":"tobacco","begin":757,"end":763,"sentenceIndex":4,"sentenceBegin":558,"sentenceEnd":970}]}
{"paperId":"47e9bca7aa883baea8d5922dd51838c1c7d50d1b","indicators":[{"word":"tobacco","begin":106,"end":112,"sentenceIndex":0,"sentenceBegin":0,"sentenceEnd":255},{"word":"tobacco","begin":308,"end":314,"sentenceIndex":1,"sentenceBegin":257,"sentenceEnd":447}]}
{"paperId":"3d16de84c8d90ae6440f4164cded900890aa2b27","indicators":[{"word":"smoking","begin":94,"end":100,"sentenceIndex":1,"sentenceBegin":33,"sentenceEnd":215},{"word":"smoking","begin":317,"end":323,"sentenceIndex":2,"sentenceBegin":217,"sentenceEnd":360},{"word":"cigarettes","begin":343,"end":352,"sentenceIndex":2,"sentenceBegin":217,"sentenceEnd":360},{"word":"smoking","begin":865,"end":871,"sentenceIndex":7,"sentenceBegin":848,"sentenceEnd":934},{"word":"smoking","begin":962,"end":968,"sentenceIndex":8,"sentenceBegin":936,"sentenceEnd":1080},{"word":"smoking","begin":1161,"end":1167,"sentenceIndex":9,"sentenceBegin":1082,"sentenceEnd":1257}]}
{"paperId":"3d16de84c8d90ae6440f4164cded900890aa2b27","indicators":[{"word":"cigarette","begin":2405,"end":2413,"sentenceIndex":17,"sentenceBegin":2389,"sentenceEnd":2505},{"word":"smoke","begin":2415,"end":2419,"sentenceIndex":17,"sentenceBegin":2389,"sentenceEnd":2505}]}
{"paperId":"3d16de84c8d90ae6440f4164cded900890aa2b27","indicators":[{"word":"smoking","begin":67,"end":73,"sentenceIndex":0,"sentenceBegin":0,"sentenceEnd":100}]}
{"paperId":"df9b92d8336f15d59f5a04aa3c31ab49f7bd1457","indicators":[{"word":"smog","begin":341,"end":344,"sentenceIndex":1,"sentenceBegin":193,"sentenceEnd":399}]}
{"paperId":"df9b92d8336f15d59f5a04aa3c31ab49f7bd1457","indicators":[{"word":"fires","begin":924,"end":928,"sentenceIndex":5,"sentenceBegin":839,"sentenceEnd":1181},{"word":"fires","begin":967,"end":971,"sentenceIndex":5,"sentenceBegin":839,"sentenceEnd":1181}]}
{"paperId":"df9b92d8336f15d59f5a04aa3c31ab49f7bd1457","indicators":[{"word":"fires","begin":850,"end":854,"sentenceIndex":9,"sentenceBegin":744,"sentenceEnd":898}]}
{"paperId":"c68ff35a47389c1e99351de84f2e8bae9e02f878","indicators":[{"word":"smoking","begin":412,"end":418,"sentenceIndex":3,"sentenceBegin":356,"sentenceEnd":509}]}
{"paperId":"24386f9c79437e7030e7b99220638acb6b5ff34b","indicators":[{"word":"smoke","begin":192,"end":196,"sentenceIndex":0,"sentenceBegin":0,"sentenceEnd":208}]}
{"paperId":"24386f9c79437e7030e7b99220638acb6b5ff34b","indicators":[{"word":"smoking","begin":1675,"end":1681,"sentenceIndex":12,"sentenceBegin":1629,"sentenceEnd":1738}]}
{"paperId":"f5be17166eccd044ffb1b2d93cf1da8f7fe135dd","indicators":[{"word":"firing","begin":54,"end":59,"sentenceIndex":0,"sentenceBegin":0,"sentenceEnd":119},{"word":"fired","begin":183,"end":187,"sentenceIndex":1,"sentenceBegin":121,"sentenceEnd":278},{"word":"firing","begin":374,"end":379,"sentenceIndex":2,"sentenceBegin":280,"sentenceEnd":409}]}
{"paperId":"f5be17166eccd044ffb1b2d93cf1da8f7fe135dd","indicators":[{"word":"fired","begin":2005,"end":2009,"sentenceIndex":14,"sentenceBegin":1902,"sentenceEnd":2092},{"word":"firing","begin":2339,"end":2344,"sentenceIndex":17,"sentenceBegin":2333,"sentenceEnd":2447}]}
{"paperId":"f5be17166eccd044ffb1b2d93cf1da8f7fe135dd","indicators":[{"word":"fired","begin":1828,"end":1832,"sentenceIndex":14,"sentenceBegin":1776,"sentenceEnd":1914},{"word":"fired","begin":2235,"end":2239,"sentenceIndex":17,"sentenceBegin":2142,"sentenceEnd":2309}]}
{"paperId":"f5be17166eccd044ffb1b2d93cf1da8f7fe135dd","indicators":[{"word":"firing","begin":54,"end":59,"sentenceIndex":0,"sentenceBegin":0,"sentenceEnd":119},{"word":"fired","begin":183,"end":187,"sentenceIndex":1,"sentenceBegin":121,"sentenceEnd":278},{"word":"firing","begin":374,"end":379,"sentenceIndex":2,"sentenceBegin":280,"sentenceEnd":409}]}
{"paperId":"47dffc938eba5dd824d4f715af096791b0d2d04b","indicators":[{"word":"smoking","begin":225,"end":231,"sentenceIndex":1,"sentenceBegin":147,"sentenceEnd":306}]}
{"paperId":"47dffc938eba5dd824d4f715af096791b0d2d04b","indicators":[{"word":"smoking","begin":921,"end":927,"sentenceIndex":6,"sentenceBegin":795,"sentenceEnd":972}]}
{"paperId":"47dffc938eba5dd824d4f715af096791b0d2d04b","indicators":[{"word":"smoking","begin":257,"end":263,"sentenceIndex":1,"sentenceBegin":242,"sentenceEnd":413}]}
{"paperId":"47dffc938eba5dd824d4f715af096791b0d2d04b","indicators":[{"word":"cigarette","begin":347,"end":355,"sentenceIndex":1,"sentenceBegin":188,"sentenceEnd":449},{"word":"smoke","begin":357,"end":361,"sentenceIndex":1,"sentenceBegin":188,"sentenceEnd":449},{"word":"cigarette","begin":491,"end":499,"sentenceIndex":2,"sentenceBegin":451,"sentenceEnd":606},{"word":"smoke","begin":501,"end":505,"sentenceIndex":2,"sentenceBegin":451,"sentenceEnd":606}]}
{"paperId":"47dffc938eba5dd824d4f715af096791b0d2d04b","indicators":[{"word":"tobacco","begin":489,"end":495,"sentenceIndex":2,"sentenceBegin":420,"sentenceEnd":771},{"word":"smoking","begin":497,"end":503,"sentenceIndex":2,"sentenceBegin":420,"sentenceEnd":771},{"word":"smoking","begin":587,"end":593,"sentenceIndex":2,"sentenceBegin":420,"sentenceEnd":771},{"word":"cigarette","begin":967,"end":975,"sentenceIndex":4,"sentenceBegin":945,"sentenceEnd":1041},{"word":"smoke","begin":977,"end":981,"sentenceIndex":4,"sentenceBegin":945,"sentenceEnd":1041}]}
{"paperId":"47dffc938eba5dd824d4f715af096791b0d2d04b","indicators":[{"word":"smoking","begin":48,"end":54,"sentenceIndex":0,"sentenceBegin":0,"sentenceEnd":98},{"word":"smoking","begin":716,"end":722,"sentenceIndex":3,"sentenceBegin":557,"sentenceEnd":723},{"word":"smoking","begin":2078,"end":2084,"sentenceIndex":11,"sentenceBegin":2003,"sentenceEnd":2123},{"word":"smoking","begin":2320,"end":2326,"sentenceIndex":12,"sentenceBegin":2125,"sentenceEnd":2354}]}
{"paperId":"47dffc938eba5dd824d4f715af096791b0d2d04b","indicators":[{"word":"smoking","begin":291,"end":297,"sentenceIndex":1,"sentenceBegin":172,"sentenceEnd":472}]}
{"paperId":"47dffc938eba5dd824d4f715af096791b0d2d04b","indicators":[{"word":"cigarette","begin":920,"end":928,"sentenceIndex":3,"sentenceBegin":773,"sentenceEnd":951},{"word":"smoke","begin":930,"end":934,"sentenceIndex":3,"sentenceBegin":773,"sentenceEnd":951}]}
{"paperId":"47dffc938eba5dd824d4f715af096791b0d2d04b","indicators":[{"word":"cigarette","begin":1538,"end":1546,"sentenceIndex":6,"sentenceBegin":1334,"sentenceEnd":1689},{"word":"smoke","begin":1548,"end":1552,"sentenceIndex":6,"sentenceBegin":1334,"sentenceEnd":1689}]}
{"paperId":"47dffc938eba5dd824d4f715af096791b0d2d04b","indicators":[{"word":"smoking","begin":440,"end":446,"sentenceIndex":2,"sentenceBegin":383,"sentenceEnd":576},{"word":"smoking","begin":538,"end":544,"sentenceIndex":2,"sentenceBegin":383,"sentenceEnd":576}]}
{"paperId":"47dffc938eba5dd824d4f715af096791b0d2d04b","indicators":[{"word":"cigarette","begin":887,"end":895,"sentenceIndex":8,"sentenceBegin":818,"sentenceEnd":951},{"word":"smoke","begin":897,"end":901,"sentenceIndex":8,"sentenceBegin":818,"sentenceEnd":951}]}
{"paperId":"47dffc938eba5dd824d4f715af096791b0d2d04b","indicators":[{"word":"tobacco","begin":223,"end":229,"sentenceIndex":0,"sentenceBegin":0,"sentenceEnd":289},{"word":"smoking","begin":231,"end":237,"sentenceIndex":0,"sentenceBegin":0,"sentenceEnd":289}]}
{"paperId":"47dffc938eba5dd824d4f715af096791b0d2d04b","indicators":[{"word":"cigarette","begin":1068,"end":1076,"sentenceIndex":7,"sentenceBegin":1058,"sentenceEnd":1272},{"word":"smoking","begin":1078,"end":1084,"sentenceIndex":7,"sentenceBegin":1058,"sentenceEnd":1272},{"word":"cigarette","begin":1217,"end":1225,"sentenceIndex":7,"sentenceBegin":1058,"sentenceEnd":1272}]}
{"paperId":"47dffc938eba5dd824d4f715af096791b0d2d04b","indicators":[{"word":"smoking","begin":146,"end":152,"sentenceIndex":0,"sentenceBegin":0,"sentenceEnd":316}]}
{"paperId":"47dffc938eba5dd824d4f715af096791b0d2d04b","indicators":[{"word":"smoking","begin":57,"end":63,"sentenceIndex":0,"sentenceBegin":0,"sentenceEnd":264},{"word":"smoking","begin":136,"end":142,"sentenceIndex":0,"sentenceBegin":0,"sentenceEnd":264},{"word":"smoking","begin":202,"end":208,"sentenceIndex":0,"sentenceBegin":0,"sentenceEnd":264}]}
{"paperId":"d54e2a8d34b11ab4c925b429270bd840dee8a8bc","indicators":[{"word":"smoking","begin":367,"end":373,"sentenceIndex":2,"sentenceBegin":284,"sentenceEnd":430}]}
