{"paperId":"ae5bdff69c84e77d88e9790626c486bb49e2a4f7","indicators":[{"word":"smoking","begin":284,"end":290,"sentenceIndex":0,"sentenceBegin":0,"sentenceEnd":292}]}
{"paperId":"ae5bdff69c84e77d88e9790626c486bb49e2a4f7","indicators":[{"word":"smoking","begin":78,"end":84,"sentenceIndex":0,"sentenceBegin":0,"sentenceEnd":93}]}
{"paperId":"0499fb7fe4634783a126ec00bf2e50ab43cde015","indicators":[{"word":"tobacco","begin":1071,"end":1077,"sentenceIndex":4,"sentenceBegin":803,"sentenceEnd":1142},{"word":"smoke","begin":1080,"end":1084,"sentenceIndex":4,"sentenceBegin":803,"sentenceEnd":1142}]}
