{"paperId":"a9d9fca4fb167b81456adbef78d4ff7be77d8b8f","indicators":[{"word":"fires","begin":374,"end":378,"sentenceIndex":2,"sentenceBegin":276,"sentenceEnd":426},{"word":"fires","begin":663,"end":667,"sentenceIndex":4,"sentenceBegin":633,"sentenceEnd":799}]}
{"paperId":"75c22f23526cd157954ffb428b79562ad0fc65ca","indicators":[{"word":"smoked","begin":656,"end":661,"sentenceIndex":3,"sentenceBegin":489,"sentenceEnd":662}]}
{"paperId":"75c22f23526cd157954ffb428b79562ad0fc65ca","indicators":[{"word":"smoke","begin":10,"end":14,"sentenceIndex":0,"sentenceBegin":0,"sentenceEnd":176},{"word":"cigarette","begin":248,"end":256,"sentenceIndex":1,"sentenceBegin":178,"sentenceEnd":325},{"word":"smoke","begin":258,"end":262,"sentenceIndex":1,"sentenceBegin":178,"sentenceEnd":325},{"word":"tobacco","begin":475,"end":481,"sentenceIndex":2,"sentenceBegin":327,"sentenceEnd":669},{"word":"smoke","begin":483,"end":487,"sentenceIndex":2,"sentenceBegin":327,"sentenceEnd":669}]}
{"paperId":"75c22f23526cd157954ffb428b79562ad0fc65ca","indicators":[{"word":"cigarette","begin":1153,"end":1161,"sentenceIndex":6,"sentenceBegin":968,"sentenceEnd":1259},{"word":"smoke","begin":1163,"end":1167,"sentenceIndex":6,"sentenceBegin":968,"sentenceEnd":1259}]}
{"paperId":"1c3656c81c6750d6cddec5715f0ccba5361d66c6","indicators":[{"word":"firing","begin":288,"end":293,"sentenceIndex":0,"sentenceBegin":0,"sentenceEnd":351}]}
