{"paperId":"a76b38e924387b89e7e80a3aa1df2bd116edbde2","indicators":[{"word":"smoke","begin":373,"end":377,"sentenceIndex":1,"sentenceBegin":113,"sentenceEnd":398}]}
{"paperId":"cc78339a0da05fa06c6bdb18109231e39aa80b14","indicators":[{"word":"smoking","begin":627,"end":633,"sentenceIndex":3,"sentenceBegin":613,"sentenceEnd":676}]}
{"paperId":"cc78339a0da05fa06c6bdb18109231e39aa80b14","indicators":[{"word":"smoking","begin":599,"end":605,"sentenceIndex":3,"sentenceBegin":490,"sentenceEnd":615},{"word":"smoking","begin":680,"end":686,"sentenceIndex":4,"sentenceBegin":617,"sentenceEnd":821}]}
{"paperId":"cc78339a0da05fa06c6bdb18109231e39aa80b14","indicators":[{"word":"smoking","begin":4149,"end":4155,"sentenceIndex":30,"sentenceBegin":4054,"sentenceEnd":4240}]}
{"paperId":"f3eca202febb9a227ae68405dca3a108356b8cd3","indicators":[{"word":"smoking","begin":303,"end":309,"sentenceIndex":1,"sentenceBegin":200,"sentenceEnd":414}]}
