{"paperId":"60643032cb50195802cf9a11f268e7301d4ad61a","indicators":[{"word":"smoking","begin":431,"end":437,"sentenceIndex":2,"sentenceBegin":423,"sentenceEnd":550}]}
{"paperId":"585dfd73677d0d5a4f05df3bef78b997c42dbfcb","indicators":[{"word":"smoking","begin":125,"end":131,"sentenceIndex":0,"sentenceBegin":0,"sentenceEnd":212}]}
{"paperId":"585dfd73677d0d5a4f05df3bef78b997c42dbfcb","indicators":[{"word":"tobacco","begin":3425,"end":3431,"sentenceIndex":23,"sentenceBegin":3291,"sentenceEnd":3470}]}
{"paperId":"5fb790bf6c6b2d5ef25654c5a0ac8bdedaa93426","indicators":[{"word":"smoking","begin":641,"end":647,"sentenceIndex":5,"sentenceBegin":401,"sentenceEnd":1174}]}
{"paperId":"a36bfdd1c9a1666401269fb0c08a3c2922bd6812","indicators":[{"word":"smoking","begin":11,"end":17,"sentenceIndex":0,"sentenceBegin":0,"sentenceEnd":62}]}
