{"paperId":"65f37812f1d477e034d4c134fc33f9575eefa6ff","indicators":[{"word":"smoking","begin":68,"end":74,"sentenceIndex":0,"sentenceBegin":0,"sentenceEnd":104},{"word":"tobacco","begin":630,"end":636,"sentenceIndex":4,"sentenceBegin":503,"sentenceEnd":815}]}
{"paperId":"786da349a33148e24e09edd6378da80ea2f40e07","indicators":[{"word":"smoking","begin":307,"end":313,"sentenceIndex":2,"sentenceBegin":232,"sentenceEnd":479}]}
{"paperId":"786da349a33148e24e09edd6378da80ea2f40e07","indicators":[{"word":"smoking","begin":231,"end":237,"sentenceIndex":0,"sentenceBegin":0,"sentenceEnd":299},{"word":"smoking","begin":247,"end":253,"sentenceIndex":0,"sentenceBegin":0,"sentenceEnd":299}]}
{"paperId":"786da349a33148e24e09edd6378da80ea2f40e07","indicators":[{"word":"smoking","begin":343,"end":349,"sentenceIndex":1,"sentenceBegin":168,"sentenceEnd":457},{"word":"smoking","begin":372,"end":378,"sentenceIndex":1,"sentenceBegin":168,"sentenceEnd":457}]}
{"paperId":"786da349a33148e24e09edd6378da80ea2f40e07","indicators":[{"word":"tobacco","begin":275,"end":281,"sentenceIndex":1,"sentenceBegin":131,"sentenceEnd":341}]}
