{"paperId":"45fbd8208495f2995624a522695571c9c5a36559","indicators":[{"word":"smoke","begin":316,"end":320,"sentenceIndex":1,"sentenceBegin":248,"sentenceEnd":331},{"word":"smoke","begin":347,"end":351,"sentenceIndex":2,"sentenceBegin":333,"sentenceEnd":441}]}
{"paperId":"45fbd8208495f2995624a522695571c9c5a36559","indicators":[{"word":"smoke","begin":93,"end":97,"sentenceIndex":1,"sentenceBegin":70,"sentenceEnd":279}]}
{"paperId":"122a0ff003c55470d930d38de396e48c741d1b13","indicators":[{"word":"smoke","begin":1834,"end":1838,"sentenceIndex":10,"sentenceBegin":1496,"sentenceEnd":1889}]}
{"paperId":"c50d5ca2fb3cdb463f233c55d7ff923d474e54c5","indicators":[{"word":"smoking","begin":950,"end":956,"sentenceIndex":8,"sentenceBegin":804,"sentenceEnd":964}]}
{"paperId":"56106c92c79f5632b5346dac575378da6cdd235c","indicators":[{"word":"smoke","begin":150,"end":154,"sentenceIndex":0,"sentenceBegin":0,"sentenceEnd":213}]}
{"paperId":"56106c92c79f5632b5346dac575378da6cdd235c","indicators":[{"word":"smoke","begin":488,"end":492,"sentenceIndex":1,"sentenceBegin":163,"sentenceEnd":503}]}
{"paperId":"56106c92c79f5632b5346dac575378da6cdd235c","indicators":[{"word":"smoke","begin":179,"end":183,"sentenceIndex":1,"sentenceBegin":111,"sentenceEnd":210},{"word":"smoke","begin":252,"end":256,"sentenceIndex":2,"sentenceBegin":212,"sentenceEnd":308}]}
{"paperId":"56106c92c79f5632b5346dac575378da6cdd235c","indicators":[{"word":"smoking","begin":328,"end":334,"sentenceIndex":1,"sentenceBegin":185,"sentenceEnd":377}]}
{"paperId":"dced76983861e1bb7a73bf0c54549922c7e07950","indicators":[{"word":"tobacco","begin":270,"end":276,"sentenceIndex":1,"sentenceBegin":134,"sentenceEnd":477}]}
{"paperId":"dced76983861e1bb7a73bf0c54549922c7e07950","indicators":[{"word":"tobacco","begin":579,"end":585,"sentenceIndex":3,"sentenceBegin":506,"sentenceEnd":619}]}
{"paperId":"dced76983861e1bb7a73bf0c54549922c7e07950","indicators":[{"word":"tobacco","begin":231,"end":237,"sentenceIndex":1,"sentenceBegin":132,"sentenceEnd":517}]}
{"paperId":"dced76983861e1bb7a73bf0c54549922c7e07950","indicators":[{"word":"tobacco","begin":320,"end":326,"sentenceIndex":3,"sentenceBegin":291,"sentenceEnd":355}]}
{"paperId":"dced76983861e1bb7a73bf0c54549922c7e07950","indicators":[{"word":"tobacco","begin":1265,"end":1271,"sentenceIndex":8,"sentenceBegin":1181,"sentenceEnd":1353}]}
{"paperId":"dced76983861e1bb7a73bf0c54549922c7e07950","indicators":[{"word":"tobacco","begin":657,"end":663,"sentenceIndex":4,"sentenceBegin":468,"sentenceEnd":707}]}
{"paperId":"02b924d8ed749fc65270ac75bd809a1bc75929ed","indicators":[{"word":"smoking","begin":223,"end":229,"sentenceIndex":1,"sentenceBegin":108,"sentenceEnd":431}]}
