{"paperId":"12bc84ae6ee8b5e4a9645d8db87924e5e1d25167","indicators":[{"word":"smoking","begin":196,"end":202,"sentenceIndex":1,"sentenceBegin":168,"sentenceEnd":264}]}
{"paperId":"aac65c7f71a49d05c3cdbdcf0811cd0ff98d2d23","indicators":[{"word":"smoke","begin":414,"end":418,"sentenceIndex":2,"sentenceBegin":205,"sentenceEnd":447}]}
{"paperId":"aac65c7f71a49d05c3cdbdcf0811cd0ff98d2d23","indicators":[{"word":"smoking","begin":1402,"end":1408,"sentenceIndex":8,"sentenceBegin":1335,"sentenceEnd":1548}]}
{"paperId":"2f950d135df139cc5c6a50233f260e4518e2c484","indicators":[{"word":"smoking","begin":109,"end":115,"sentenceIndex":0,"sentenceBegin":0,"sentenceEnd":694}]}
{"paperId":"2f950d135df139cc5c6a50233f260e4518e2c484","indicators":[{"word":"smoking","begin":381,"end":387,"sentenceIndex":1,"sentenceBegin":335,"sentenceEnd":542},{"word":"smoking","begin":480,"end":486,"sentenceIndex":1,"sentenceBegin":335,"sentenceEnd":542}]}
{"paperId":"ee106840a4b1667303e4b84d25795de3617bd7ef","indicators":[{"word":"smoke","begin":143,"end":147,"sentenceIndex":1,"sentenceBegin":121,"sentenceEnd":239},{"word":"smoke","begin":234,"end":238,"sentenceIndex":1,"sentenceBegin":121,"sentenceEnd":239},{"word":"smoking","begin":593,"end":599,"sentenceIndex":4,"sentenceBegin":563,"sentenceEnd":645},{"word":"smoking","begin":735,"end":741,"sentenceIndex":5,"sentenceBegin":647,"sentenceEnd":888},{"word":"smoking","begin":932,"end":938,"sentenceIndex":6,"sentenceBegin":890,"sentenceEnd":1044},{"word":"smoking","begin":1096,"end":1102,"sentenceIndex":7,"sentenceBegin":1046,"sentenceEnd":1323}]}
{"paperId":"ee106840a4b1667303e4b84d25795de3617bd7ef","indicators":[{"word":"smoking","begin":132,"end":138,"sentenceIndex":0,"sentenceBegin":0,"sentenceEnd":138}]}
{"paperId":"ee106840a4b1667303e4b84d25795de3617bd7ef","indicators":[{"word":"smoking","begin":33,"end":39,"sentenceIndex":0,"sentenceBegin":0,"sentenceEnd":113},{"word":"smoking","begin":227,"end":233,"sentenceIndex":1,"sentenceBegin":115,"sentenceEnd":234},{"word":"smoking","begin":270,"end":276,"sentenceIndex":2,"sentenceBegin":236,"sentenceEnd":338},{"word":"smoke","begin":494,"end":498,"sentenceIndex":4,"sentenceBegin":426,"sentenceEnd":631}]}
{"paperId":"ee106840a4b1667303e4b84d25795de3617bd7ef","indicators":[{"word":"cigarette","begin":170,"end":178,"sentenceIndex":1,"sentenceBegin":134,"sentenceEnd":185},{"word":"smoke","begin":180,"end":184,"sentenceIndex":1,"sentenceBegin":134,"sentenceEnd":185},{"word":"cigarette","begin":288,"end":296,"sentenceIndex":2,"sentenceBegin":187,"sentenceEnd":360},{"word":"smoke","begin":298,"end":302,"sentenceIndex":2,"sentenceBegin":187,"sentenceEnd":360},{"word":"cigarette","begin":377,"end":385,"sentenceIndex":3,"sentenceBegin":362,"sentenceEnd":458},{"word":"smoke","begin":387,"end":391,"sentenceIndex":3,"sentenceBegin":362,"sentenceEnd":458},{"word":"vapor","begin":406,"end":410,"sentenceIndex":3,"sentenceBegin":362,"sentenceEnd":458}]}
{"paperId":"ee106840a4b1667303e4b84d25795de3617bd7ef","indicators":[{"word":"smoke","begin":356,"end":360,"sentenceIndex":3,"sentenceBegin":220,"sentenceEnd":386}]}
{"paperId":"ee106840a4b1667303e4b84d25795de3617bd7ef","indicators":[{"word":"smoking","begin":528,"end":534,"sentenceIndex":3,"sentenceBegin":418,"sentenceEnd":535},{"word":"smoking","begin":934,"end":940,"sentenceIndex":7,"sentenceBegin":851,"sentenceEnd":985},{"word":"smoking","begin":1650,"end":1656,"sentenceIndex":11,"sentenceBegin":1577,"sentenceEnd":1657}]}
