{"paperId":"a6700a5f81c68db07a306565b71f24250e78ac1a","indicators":[{"word":"smoking","begin":82,"end":88,"sentenceIndex":0,"sentenceBegin":0,"sentenceEnd":169}]}
{"paperId":"a6700a5f81c68db07a306565b71f24250e78ac1a","indicators":[{"word":"smoking","begin":101,"end":107,"sentenceIndex":0,"sentenceBegin":0,"sentenceEnd":149}]}
{"paperId":"a6700a5f81c68db07a306565b71f24250e78ac1a","indicators":[{"word":"smoking","begin":1634,"end":1640,"sentenceIndex":13,"sentenceBegin":1613,"sentenceEnd":1713},{"word":"smoking","begin":1817,"end":1823,"sentenceIndex":14,"sentenceBegin":1715,"sentenceEnd":1976},{"word":"smoking","begin":1883,"end":1889,"sentenceIndex":14,"sentenceBegin":1715,"sentenceEnd":1976}]}
{"paperId":"a6700a5f81c68db07a306565b71f24250e78ac1a","indicators":[{"word":"smoking","begin":274,"end":280,"sentenceIndex":2,"sentenceBegin":206,"sentenceEnd":327},{"word":"smoking","begin":1063,"end":1069,"sentenceIndex":8,"sentenceBegin":921,"sentenceEnd":1414}]}
{"paperId":"1c857d4493720168ac6eba2bbeb2fbfa31433d91","indicators":[{"word":"cigarette","begin":143,"end":151,"sentenceIndex":1,"sentenceBegin":102,"sentenceEnd":160},{"word":"smoking","begin":153,"end":159,"sentenceIndex":1,"sentenceBegin":102,"sentenceEnd":160}]}
