{"paperId":"b6a7923b39b10f9b87160e77a005a3dd6cb9ab0e","indicators":[{"word":"smog","begin":147,"end":150,"sentenceIndex":1,"sentenceBegin":126,"sentenceEnd":237}]}
{"paperId":"bbc5fa7e536c164819f865e3283e58eca9d8563f","indicators":[{"word":"tobacco","begin":1345,"end":1351,"sentenceIndex":7,"sentenceBegin":1164,"sentenceEnd":1353}]}
{"paperId":"7fcbdac915f32c243a9c8bc7cc086b2ac65416af","indicators":[{"word":"smoke","begin":106,"end":110,"sentenceIndex":0,"sentenceBegin":0,"sentenceEnd":261}]}
{"paperId":"7fcbdac915f32c243a9c8bc7cc086b2ac65416af","indicators":[{"word":"cigarette","begin":1014,"end":1022,"sentenceIndex":8,"sentenceBegin":977,"sentenceEnd":1128},{"word":"smoke","begin":1024,"end":1028,"sentenceIndex":8,"sentenceBegin":977,"sentenceEnd":1128}]}
{"paperId":"7df7024063e80e72ce0b0640bd7ec15058912cbc","indicators":[{"word":"cigarette","begin":1125,"end":1133,"sentenceIndex":7,"sentenceBegin":942,"sentenceEnd":1166},{"word":"smoking","begin":1135,"end":1141,"sentenceIndex":7,"sentenceBegin":942,"sentenceEnd":1166}]}
{"paperId":"997ebf63461efa3e7cb1fc3014fc957659705202","indicators":[{"word":"cigarette","begin":205,"end":213,"sentenceIndex":2,"sentenceBegin":162,"sentenceEnd":288}]}
