{"paperId":"6ebbce608cb316b579ed926190d068a6fa90534a","indicators":[{"word":"tobacco","begin":574,"end":580,"sentenceIndex":3,"sentenceBegin":492,"sentenceEnd":683},{"word":"smoke","begin":582,"end":586,"sentenceIndex":3,"sentenceBegin":492,"sentenceEnd":683}]}
{"paperId":"c63efa81047b6ec08bd2e41ed6f075311c91f882","indicators":[{"word":"cigarette","begin":772,"end":780,"sentenceIndex":4,"sentenceBegin":428,"sentenceEnd":788},{"word":"smoke","begin":782,"end":786,"sentenceIndex":4,"sentenceBegin":428,"sentenceEnd":788}]}
{"paperId":"c63efa81047b6ec08bd2e41ed6f075311c91f882","indicators":[{"word":"smoking","begin":1437,"end":1443,"sentenceIndex":10,"sentenceBegin":1373,"sentenceEnd":1692}]}
{"paperId":"c63efa81047b6ec08bd2e41ed6f075311c91f882","indicators":[{"word":"smoking","begin":619,"end":625,"sentenceIndex":3,"sentenceBegin":582,"sentenceEnd":849}]}
{"paperId":"c63efa81047b6ec08bd2e41ed6f075311c91f882","indicators":[{"word":"smoking","begin":475,"end":481,"sentenceIndex":2,"sentenceBegin":387,"sentenceEnd":842}]}
{"paperId":"c63efa81047b6ec08bd2e41ed6f075311c91f882","indicators":[{"word":"smoking","begin":556,"end":562,"sentenceIndex":2,"sentenceBegin":525,"sentenceEnd":651},{"word":"tobacco","begin":794,"end":800,"sentenceIndex":3,"sentenceBegin":653,"sentenceEnd":811},{"word":"tobacco","begin":1293,"end":1299,"sentenceIndex":6,"sentenceBegin":1274,"sentenceEnd":1488},{"word":"smoking","begin":1367,"end":1373,"sentenceIndex":6,"sentenceBegin":1274,"sentenceEnd":1488},{"word":"tobacco","begin":1999,"end":2005,"sentenceIndex":9,"sentenceBegin":1895,"sentenceEnd":2502}]}
{"paperId":"c63efa81047b6ec08bd2e41ed6f075311c91f882","indicators":[{"word":"smoking","begin":771,"end":777,"sentenceIndex":3,"sentenceBegin":629,"sentenceEnd":858}]}
{"paperId":"98c505a58bd07e53ea46908b13b79a13c20c2bb8","indicators":[{"word":"tobacco","begin":182,"end":188,"sentenceIndex":0,"sentenceBegin":0,"sentenceEnd":233}]}
{"paperId":"39708f10658e8e33983d0b2ebb570bdd00c5df46","indicators":[{"word":"tobacco","begin":163,"end":169,"sentenceIndex":0,"sentenceBegin":0,"sentenceEnd":350},{"word":"tobacco","begin":206,"end":212,"sentenceIndex":0,"sentenceBegin":0,"sentenceEnd":350},{"word":"tobacco","begin":251,"end":257,"sentenceIndex":0,"sentenceBegin":0,"sentenceEnd":350}]}
{"paperId":"ecdc5c17ed143ffed9542802ce029dd323bb6a28","indicators":[{"word":"cigarette","begin":186,"end":194,"sentenceIndex":1,"sentenceBegin":108,"sentenceEnd":318},{"word":"smoking","begin":196,"end":202,"sentenceIndex":1,"sentenceBegin":108,"sentenceEnd":318},{"word":"smoking","begin":909,"end":915,"sentenceIndex":7,"sentenceBegin":899,"sentenceEnd":1017}]}
{"paperId":"ecdc5c17ed143ffed9542802ce029dd323bb6a28","indicators":[{"word":"cigarette","begin":385,"end":393,"sentenceIndex":3,"sentenceBegin":340,"sentenceEnd":601},{"word":"smoke","begin":395,"end":399,"sentenceIndex":3,"sentenceBegin":340,"sentenceEnd":601},{"word":"smoking","begin":707,"end":713,"sentenceIndex":4,"sentenceBegin":603,"sentenceEnd":763}]}
{"paperId":"ecdc5c17ed143ffed9542802ce029dd323bb6a28","indicators":[{"word":"smoke","begin":1093,"end":1097,"sentenceIndex":7,"sentenceBegin":1007,"sentenceEnd":1118},{"word":"smoke","begin":2229,"end":2233,"sentenceIndex":15,"sentenceBegin":2143,"sentenceEnd":2254},{"word":"cigarette","begin":2755,"end":2763,"sentenceIndex":19,"sentenceBegin":2633,"sentenceEnd":2819}]}
{"paperId":"ecdc5c17ed143ffed9542802ce029dd323bb6a28","indicators":[{"word":"cigarette","begin":1292,"end":1300,"sentenceIndex":8,"sentenceBegin":1170,"sentenceEnd":1356}]}
{"paperId":"ecdc5c17ed143ffed9542802ce029dd323bb6a28","indicators":[{"word":"cigarette","begin":477,"end":485,"sentenceIndex":3,"sentenceBegin":355,"sentenceEnd":498},{"word":"smoke","begin":487,"end":491,"sentenceIndex":3,"sentenceBegin":355,"sentenceEnd":498}]}
{"paperId":"ecdc5c17ed143ffed9542802ce029dd323bb6a28","indicators":[{"word":"cigarette","begin":971,"end":979,"sentenceIndex":5,"sentenceBegin":862,"sentenceEnd":1014},{"word":"smoke","begin":981,"end":985,"sentenceIndex":5,"sentenceBegin":862,"sentenceEnd":1014}]}
{"paperId":"ecdc5c17ed143ffed9542802ce029dd323bb6a28","indicators":[{"word":"smoking","begin":108,"end":114,"sentenceIndex":0,"sentenceBegin":0,"sentenceEnd":133}]}
{"paperId":"ecdc5c17ed143ffed9542802ce029dd323bb6a28","indicators":[{"word":"cigarette","begin":461,"end":469,"sentenceIndex":3,"sentenceBegin":379,"sentenceEnd":527},{"word":"smoke","begin":589,"end":593,"sentenceIndex":4,"sentenceBegin":529,"sentenceEnd":603},{"word":"cigarette","begin":1572,"end":1580,"sentenceIndex":13,"sentenceBegin":1471,"sentenceEnd":1596},{"word":"smoke","begin":1582,"end":1586,"sentenceIndex":13,"sentenceBegin":1471,"sentenceEnd":1596}]}
{"paperId":"ecdc5c17ed143ffed9542802ce029dd323bb6a28","indicators":[{"word":"cigarette","begin":194,"end":202,"sentenceIndex":1,"sentenceBegin":93,"sentenceEnd":218},{"word":"smoke","begin":204,"end":208,"sentenceIndex":1,"sentenceBegin":93,"sentenceEnd":218}]}
{"paperId":"ecdc5c17ed143ffed9542802ce029dd323bb6a28","indicators":[{"word":"cigarette","begin":304,"end":312,"sentenceIndex":1,"sentenceBegin":193,"sentenceEnd":426},{"word":"smoke","begin":314,"end":318,"sentenceIndex":1,"sentenceBegin":193,"sentenceEnd":426},{"word":"cigarette","begin":1956,"end":1964,"sentenceIndex":10,"sentenceBegin":1845,"sentenceEnd":2078},{"word":"smoke","begin":1966,"end":1970,"sentenceIndex":10,"sentenceBegin":1845,"sentenceEnd":2078}]}
{"paperId":"ecdc5c17ed143ffed9542802ce029dd323bb6a28","indicators":[{"word":"smoke","begin":368,"end":372,"sentenceIndex":3,"sentenceBegin":330,"sentenceEnd":447}]}
{"paperId":"dc079a2e9cf98fad00dd1338ef104d5d39af736a","indicators":[{"word":"smoking","begin":362,"end":368,"sentenceIndex":1,"sentenceBegin":254,"sentenceEnd":451}]}
