{"paperId":"425e0ee111062385cb630f0ea0659608d5fbec5c","indicators":[{"word":"smoking","begin":1217,"end":1223,"sentenceIndex":9,"sentenceBegin":1083,"sentenceEnd":1430}]}
{"paperId":"425e0ee111062385cb630f0ea0659608d5fbec5c","indicators":[{"word":"smoking","begin":591,"end":597,"sentenceIndex":3,"sentenceBegin":500,"sentenceEnd":702}]}
{"paperId":"ae79fbbd7e6130c0d5b451617260a7e63bda79e4","indicators":[{"word":"puff","begin":1116,"end":1119,"sentenceIndex":8,"sentenceBegin":1107,"sentenceEnd":1224}]}
{"paperId":"46b5b2222ca937866e2fc46b82152fc81d77e3c3","indicators":[{"word":"smoke","begin":778,"end":782,"sentenceIndex":4,"sentenceBegin":675,"sentenceEnd":842}]}
{"paperId":"46b5b2222ca937866e2fc46b82152fc81d77e3c3","indicators":[{"word":"smoke","begin":210,"end":214,"sentenceIndex":0,"sentenceBegin":0,"sentenceEnd":226}]}
{"paperId":"bafbd40e253b24fc6b10b66bf68fe838e0a6a313","indicators":[{"word":"smoke","begin":551,"end":555,"sentenceIndex":2,"sentenceBegin":360,"sentenceEnd":726},{"word":"smoke","begin":766,"end":770,"sentenceIndex":3,"sentenceBegin":728,"sentenceEnd":887}]}
