{"paperId":"d407cb8db0e697655ce56a6b0d73c300582fa20f","indicators":[{"word":"vapor","begin":172,"end":176,"sentenceIndex":0,"sentenceBegin":0,"sentenceEnd":233}]}
{"paperId":"d407cb8db0e697655ce56a6b0d73c300582fa20f","indicators":[{"word":"smog","begin":1585,"end":1588,"sentenceIndex":9,"sentenceBegin":1442,"sentenceEnd":1589}]}
{"paperId":"2be06901389d9d6cb9953a5087ec5f30c370d8e3","indicators":[{"word":"pot","begin":617,"end":619,"sentenceIndex":2,"sentenceBegin":408,"sentenceEnd":738}]}
{"paperId":"b1c506b3ad8cb68a6a89ca715eed75cb354c0b4f","indicators":[{"word":"vapor","begin":57,"end":61,"sentenceIndex":0,"sentenceBegin":0,"sentenceEnd":129}]}
{"paperId":"07c4d4d483be850eb24ecb722746f27e74d2b217","indicators":[{"word":"smoke","begin":1679,"end":1683,"sentenceIndex":11,"sentenceBegin":1475,"sentenceEnd":1722}]}
