{"paperId":"964f0e0fdd95510f1a12283d4c6972c79598abe1","indicators":[{"word":"smoking","begin":803,"end":809,"sentenceIndex":5,"sentenceBegin":630,"sentenceEnd":942}]}
{"paperId":"964f0e0fdd95510f1a12283d4c6972c79598abe1","indicators":[{"word":"smoking","begin":376,"end":382,"sentenceIndex":3,"sentenceBegin":246,"sentenceEnd":383}]}
{"paperId":"78326020e9f7cd75415a3a192729ccf0c0930281","indicators":[{"word":"smoking","begin":180,"end":186,"sentenceIndex":0,"sentenceBegin":0,"sentenceEnd":364}]}
{"paperId":"78326020e9f7cd75415a3a192729ccf0c0930281","indicators":[{"word":"smoking","begin":266,"end":272,"sentenceIndex":1,"sentenceBegin":167,"sentenceEnd":345}]}
{"paperId":"78326020e9f7cd75415a3a192729ccf0c0930281","indicators":[{"word":"smoking","begin":173,"end":179,"sentenceIndex":0,"sentenceBegin":0,"sentenceEnd":233}]}
