{"paperId":"2c84d7ceb97643cb9a5209f93d2bba619099c9a5","indicators":[{"word":"tobacco","begin":356,"end":362,"sentenceIndex":1,"sentenceBegin":124,"sentenceEnd":386}]}
{"paperId":"3da9a505115713e0d4e3e427a93d159fef8bc7f6","indicators":[{"word":"tobacco","begin":1170,"end":1176,"sentenceIndex":9,"sentenceBegin":1094,"sentenceEnd":1266}]}
{"paperId":"db0761035838151a0b08a13888982ee36641b467","indicators":[{"word":"cigarette","begin":418,"end":426,"sentenceIndex":1,"sentenceBegin":360,"sentenceEnd":808},{"word":"smoke","begin":428,"end":432,"sentenceIndex":1,"sentenceBegin":360,"sentenceEnd":808}]}
