{"paperId":"f6274c3b1c45ff18c4ab1ca6db98640dccce3e6d","indicators":[{"word":"smoking","begin":499,"end":505,"sentenceIndex":6,"sentenceBegin":403,"sentenceEnd":571},{"word":"smoking","begin":524,"end":530,"sentenceIndex":6,"sentenceBegin":403,"sentenceEnd":571}]}
{"paperId":"87611860b404670d684ac3ffa724c27d539b3251","indicators":[{"word":"smoking","begin":748,"end":754,"sentenceIndex":5,"sentenceBegin":488,"sentenceEnd":962}]}
{"paperId":"44b048d404542293d9e24f5793aeec73f26ed277","indicators":[{"word":"smoking","begin":1339,"end":1345,"sentenceIndex":9,"sentenceBegin":1212,"sentenceEnd":1418}]}
{"paperId":"44b048d404542293d9e24f5793aeec73f26ed277","indicators":[{"word":"smoking","begin":38,"end":44,"sentenceIndex":0,"sentenceBegin":0,"sentenceEnd":91}]}
