{"paperId":"413302bfe230ea5abb1fe8c1f2041a7a93db8e9b","indicators":[{"word":"smoking","begin":1478,"end":1484,"sentenceIndex":11,"sentenceBegin":1441,"sentenceEnd":1538}]}
{"paperId":"ad06a875d2e41465f8f5d9d990605e88fe992bee","indicators":[{"word":"smoking","begin":2247,"end":2253,"sentenceIndex":18,"sentenceBegin":2227,"sentenceEnd":2361}]}
{"paperId":"8a403804b0be1bc5898766bc37e0629899f869d2","indicators":[{"word":"vapor","begin":57,"end":61,"sentenceIndex":1,"sentenceBegin":16,"sentenceEnd":67}]}
{"paperId":"a54c5264dc9b37bbb9a6549cf7fc9a96564c9d6d","indicators":[{"word":"smoking","begin":1343,"end":1349,"sentenceIndex":8,"sentenceBegin":1167,"sentenceEnd":1413}]}
