{"paperId":"8efed0e2f2116f528ef08e76585ba0fc56cb261f","indicators":[{"word":"tobacco","begin":513,"end":519,"sentenceIndex":3,"sentenceBegin":362,"sentenceEnd":527}]}
{"paperId":"8efed0e2f2116f528ef08e76585ba0fc56cb261f","indicators":[{"word":"tobacco","begin":177,"end":183,"sentenceIndex":0,"sentenceBegin":0,"sentenceEnd":190},{"word":"tobacco","begin":279,"end":285,"sentenceIndex":1,"sentenceBegin":192,"sentenceEnd":469},{"word":"tobacco","begin":450,"end":456,"sentenceIndex":1,"sentenceBegin":192,"sentenceEnd":469}]}
{"paperId":"8efed0e2f2116f528ef08e76585ba0fc56cb261f","indicators":[{"word":"tobacco","begin":131,"end":137,"sentenceIndex":2,"sentenceBegin":116,"sentenceEnd":254}]}
