{"paperId":"2dd5fa81d960570b8a7f51c9e3e9660de3acbc90","indicators":[{"word":"fires","begin":97,"end":101,"sentenceIndex":0,"sentenceBegin":0,"sentenceEnd":124}]}
{"paperId":"c82cfadd9af8a7ae906348c5183713be205628a3","indicators":[{"word":"smoke","begin":1124,"end":1128,"sentenceIndex":5,"sentenceBegin":1037,"sentenceEnd":1222}]}
{"paperId":"ac6be8942e2892a21d0c2a45524f83a7f5186f08","indicators":[{"word":"cigarette","begin":1079,"end":1087,"sentenceIndex":7,"sentenceBegin":1067,"sentenceEnd":1175},{"word":"smoke","begin":1089,"end":1093,"sentenceIndex":7,"sentenceBegin":1067,"sentenceEnd":1175}]}
{"paperId":"ac6be8942e2892a21d0c2a45524f83a7f5186f08","indicators":[{"word":"smoking","begin":344,"end":350,"sentenceIndex":3,"sentenceBegin":224,"sentenceEnd":412}]}
{"paperId":"ac6be8942e2892a21d0c2a45524f83a7f5186f08","indicators":[{"word":"smoking","begin":566,"end":572,"sentenceIndex":5,"sentenceBegin":554,"sentenceEnd":614},{"word":"cigarette","begin":678,"end":686,"sentenceIndex":6,"sentenceBegin":616,"sentenceEnd":790},{"word":"smoke","begin":688,"end":692,"sentenceIndex":6,"sentenceBegin":616,"sentenceEnd":790},{"word":"smoking","begin":849,"end":855,"sentenceIndex":7,"sentenceBegin":792,"sentenceEnd":983},{"word":"smoking","begin":888,"end":894,"sentenceIndex":7,"sentenceBegin":792,"sentenceEnd":983},{"word":"smoking","begin":1089,"end":1095,"sentenceIndex":8,"sentenceBegin":985,"sentenceEnd":1121}]}
{"paperId":"ac6be8942e2892a21d0c2a45524f83a7f5186f08","indicators":[{"word":"smoking","begin":31,"end":37,"sentenceIndex":0,"sentenceBegin":0,"sentenceEnd":249}]}
{"paperId":"28b906cb5b5dd66df68bdd155ccc2ab514180c2a","indicators":[{"word":"smoking","begin":56,"end":62,"sentenceIndex":0,"sentenceBegin":0,"sentenceEnd":132}]}
