{"paperId":"e309da4dbd35d9e2c8ee65d45ed4ca0eb5e0b3ef","indicators":[{"word":"smoking","begin":520,"end":526,"sentenceIndex":2,"sentenceBegin":447,"sentenceEnd":581}]}
{"paperId":"e309da4dbd35d9e2c8ee65d45ed4ca0eb5e0b3ef","indicators":[{"word":"smoking","begin":27,"end":33,"sentenceIndex":0,"sentenceBegin":0,"sentenceEnd":173}]}
{"paperId":"e309da4dbd35d9e2c8ee65d45ed4ca0eb5e0b3ef","indicators":[{"word":"smoking","begin":388,"end":394,"sentenceIndex":1,"sentenceBegin":216,"sentenceEnd":407}]}
{"paperId":"76b960b047a4c98a730382f5d743e38246b6ea74","indicators":[{"word":"smoking","begin":536,"end":542,"sentenceIndex":2,"sentenceBegin":293,"sentenceEnd":714}]}
{"paperId":"a23739aba0ae99bdf7e687731f4c61770cb6569d","indicators":[{"word":"smoking","begin":209,"end":215,"sentenceIndex":1,"sentenceBegin":115,"sentenceEnd":339}]}
{"paperId":"a23739aba0ae99bdf7e687731f4c61770cb6569d","indicators":[{"word":"smoking","begin":719,"end":725,"sentenceIndex":4,"sentenceBegin":615,"sentenceEnd":839}]}
{"paperId":"a23739aba0ae99bdf7e687731f4c61770cb6569d","indicators":[{"word":"smoking","begin":487,"end":493,"sentenceIndex":2,"sentenceBegin":436,"sentenceEnd":664},{"word":"smoked","begin":573,"end":578,"sentenceIndex":2,"sentenceBegin":436,"sentenceEnd":664}]}
{"paperId":"a23739aba0ae99bdf7e687731f4c61770cb6569d","indicators":[{"word":"smoke","begin":450,"end":454,"sentenceIndex":2,"sentenceBegin":363,"sentenceEnd":483}]}
