{"paperId":"887828165569ffffc138b211277b90b12130c6e8","indicators":[{"word":"smoke","begin":798,"end":802,"sentenceIndex":4,"sentenceBegin":703,"sentenceEnd":911},{"word":"smoking","begin":898,"end":904,"sentenceIndex":4,"sentenceBegin":703,"sentenceEnd":911}]}
{"paperId":"52339ad5c27791f45c98f8fa59824ecd72a8ea1b","indicators":[{"word":"smoking","begin":863,"end":869,"sentenceIndex":6,"sentenceBegin":821,"sentenceEnd":1225}]}
{"paperId":"52339ad5c27791f45c98f8fa59824ecd72a8ea1b","indicators":[{"word":"smoking","begin":509,"end":515,"sentenceIndex":2,"sentenceBegin":371,"sentenceEnd":658}]}
{"paperId":"52339ad5c27791f45c98f8fa59824ecd72a8ea1b","indicators":[{"word":"smoking","begin":410,"end":416,"sentenceIndex":1,"sentenceBegin":232,"sentenceEnd":447}]}
{"paperId":"52339ad5c27791f45c98f8fa59824ecd72a8ea1b","indicators":[{"word":"smoking","begin":745,"end":751,"sentenceIndex":4,"sentenceBegin":668,"sentenceEnd":777}]}
{"paperId":"52339ad5c27791f45c98f8fa59824ecd72a8ea1b","indicators":[{"word":"smoking","begin":326,"end":332,"sentenceIndex":2,"sentenceBegin":319,"sentenceEnd":402},{"word":"smoking","begin":510,"end":516,"sentenceIndex":3,"sentenceBegin":404,"sentenceEnd":587},{"word":"smoking","begin":765,"end":771,"sentenceIndex":5,"sentenceBegin":742,"sentenceEnd":864},{"word":"smoking","begin":831,"end":837,"sentenceIndex":5,"sentenceBegin":742,"sentenceEnd":864},{"word":"smoking","begin":900,"end":906,"sentenceIndex":6,"sentenceBegin":866,"sentenceEnd":990},{"word":"smoking","begin":945,"end":951,"sentenceIndex":6,"sentenceBegin":866,"sentenceEnd":990}]}
{"paperId":"52339ad5c27791f45c98f8fa59824ecd72a8ea1b","indicators":[{"word":"smoking","begin":1237,"end":1243,"sentenceIndex":9,"sentenceBegin":1113,"sentenceEnd":1270}]}
