{"paperId":"35366d0e8b4f650c4c5ea0305165f753f36def75","indicators":[{"word":"smoking","begin":192,"end":198,"sentenceIndex":2,"sentenceBegin":192,"sentenceEnd":314},{"word":"smoking","begin":366,"end":372,"sentenceIndex":3,"sentenceBegin":316,"sentenceEnd":579}]}
{"paperId":"35366d0e8b4f650c4c5ea0305165f753f36def75","indicators":[{"word":"smoking","begin":481,"end":487,"sentenceIndex":3,"sentenceBegin":363,"sentenceEnd":507}]}
{"paperId":"35366d0e8b4f650c4c5ea0305165f753f36def75","indicators":[{"word":"smoking","begin":252,"end":258,"sentenceIndex":1,"sentenceBegin":98,"sentenceEnd":264}]}
{"paperId":"35366d0e8b4f650c4c5ea0305165f753f36def75","indicators":[{"word":"smoking","begin":237,"end":243,"sentenceIndex":2,"sentenceBegin":75,"sentenceEnd":424}]}
