{"paperId":"508e6b585b8641af23759346c4863ed73688e43c","indicators":[{"word":"smoking","begin":295,"end":301,"sentenceIndex":1,"sentenceBegin":115,"sentenceEnd":333}]}
{"paperId":"b6ba6ac015056d893a92ca7c745ff76c68d8d90a","indicators":[{"word":"puff","begin":144,"end":147,"sentenceIndex":1,"sentenceBegin":102,"sentenceEnd":199}]}
{"paperId":"b6ba6ac015056d893a92ca7c745ff76c68d8d90a","indicators":[{"word":"puff","begin":93,"end":96,"sentenceIndex":0,"sentenceBegin":0,"sentenceEnd":179}]}
{"paperId":"8c267554d529fd6ea03d5ba32aa87e788bd56546","indicators":[{"word":"weed","begin":388,"end":391,"sentenceIndex":2,"sentenceBegin":306,"sentenceEnd":470}]}
