{"paperId":"62d37a1f3be6e34be5e0bd435ff2a63ee8298bd3","indicators":[{"word":"smoking","begin":943,"end":949,"sentenceIndex":2,"sentenceBegin":526,"sentenceEnd":1006}]}
{"paperId":"a22583c09811189787eb55a62548d850a542b13f","indicators":[{"word":"cannabis","begin":946,"end":953,"sentenceIndex":5,"sentenceBegin":860,"sentenceEnd":1169}]}
{"paperId":"9be316c5e01b57a8b98077da205d96b9ef0b4556","indicators":[{"word":"smoke","begin":1946,"end":1950,"sentenceIndex":12,"sentenceBegin":1791,"sentenceEnd":1977}]}
