{"paperId":"6493fb02dfb851e5f1ca0d5f196b381a67dba56d","indicators":[{"word":"smoking","begin":375,"end":381,"sentenceIndex":3,"sentenceBegin":251,"sentenceEnd":453}]}
{"paperId":"fd8fac08623e68548dc82e6266e9b96d9989bd29","indicators":[{"word":"fires","begin":2261,"end":2265,"sentenceIndex":19,"sentenceBegin":2187,"sentenceEnd":2386}]}
{"paperId":"85bf31cc4b6bd1918e6e03a274aa7470c223d39d","indicators":[{"word":"smoke","begin":1682,"end":1686,"sentenceIndex":15,"sentenceBegin":1509,"sentenceEnd":1724}]}
