{"paperId":"0bc3bd5663991ec319ad89e4da9c186053c2f1e9","indicators":[{"word":"smoke","begin":68,"end":72,"sentenceIndex":0,"sentenceBegin":0,"sentenceEnd":168}]}
{"paperId":"163f5cb9d4d18dda324d70d6b3a100c208434941","indicators":[{"word":"smoking","begin":2221,"end":2227,"sentenceIndex":17,"sentenceBegin":2171,"sentenceEnd":2333}]}
{"paperId":"163f5cb9d4d18dda324d70d6b3a100c208434941","indicators":[{"word":"smoking","begin":952,"end":958,"sentenceIndex":5,"sentenceBegin":854,"sentenceEnd":1175}]}
{"paperId":"163f5cb9d4d18dda324d70d6b3a100c208434941","indicators":[{"word":"cigarette","begin":1433,"end":1441,"sentenceIndex":5,"sentenceBegin":1236,"sentenceEnd":1450},{"word":"smoking","begin":1443,"end":1449,"sentenceIndex":5,"sentenceBegin":1236,"sentenceEnd":1450}]}
{"paperId":"163f5cb9d4d18dda324d70d6b3a100c208434941","indicators":[{"word":"cigarette","begin":1024,"end":1032,"sentenceIndex":5,"sentenceBegin":785,"sentenceEnd":1102}]}
{"paperId":"163f5cb9d4d18dda324d70d6b3a100c208434941","indicators":[{"word":"smoke","begin":2075,"end":2079,"sentenceIndex":10,"sentenceBegin":1963,"sentenceEnd":2253}]}
{"paperId":"163f5cb9d4d18dda324d70d6b3a100c208434941","indicators":[{"word":"smoking","begin":9,"end":15,"sentenceIndex":0,"sentenceBegin":0,"sentenceEnd":339},{"word":"smoking","begin":195,"end":201,"sentenceIndex":0,"sentenceBegin":0,"sentenceEnd":339},{"word":"smoking","begin":718,"end":724,"sentenceIndex":3,"sentenceBegin":482,"sentenceEnd":826},{"word":"cigarette","begin":811,"end":819,"sentenceIndex":3,"sentenceBegin":482,"sentenceEnd":826},{"word":"smoke","begin":821,"end":825,"sentenceIndex":3,"sentenceBegin":482,"sentenceEnd":826},{"word":"smoking","begin":2442,"end":2448,"sentenceIndex":12,"sentenceBegin":2400,"sentenceEnd":2532}]}
{"paperId":"5f8c4c0f8fc50494c3683fa4fdc1906fa1a211ff","indicators":[{"word":"smoking","begin":294,"end":300,"sentenceIndex":2,"sentenceBegin":278,"sentenceEnd":401}]}
{"paperId":"fd1d110d381738ba2e184ae376b140fb4c40dff7","indicators":[{"word":"smoking","begin":90,"end":96,"sentenceIndex":0,"sentenceBegin":0,"sentenceEnd":152}]}
{"paperId":"fd1d110d381738ba2e184ae376b140fb4c40dff7","indicators":[{"word":"smoking","begin":186,"end":192,"sentenceIndex":0,"sentenceBegin":0,"sentenceEnd":203}]}
{"paperId":"fd1d110d381738ba2e184ae376b140fb4c40dff7","indicators":[{"word":"smoking","begin":71,"end":77,"sentenceIndex":0,"sentenceBegin":0,"sentenceEnd":146},{"word":"tobacco","begin":242,"end":248,"sentenceIndex":1,"sentenceBegin":148,"sentenceEnd":259},{"word":"tobacco","begin":398,"end":404,"sentenceIndex":2,"sentenceBegin":261,"sentenceEnd":404}]}
