{"paperId":"5e34747004ca71658c752e89bac0dac958027c82","indicators":[{"word":"pot","begin":169,"end":171,"sentenceIndex":1,"sentenceBegin":132,"sentenceEnd":312}]}
{"paperId":"6a2d45016115d187120a5c232f671df30422870b","indicators":[{"word":"tobacco","begin":193,"end":199,"sentenceIndex":1,"sentenceBegin":141,"sentenceEnd":271},{"word":"smoke","begin":201,"end":205,"sentenceIndex":1,"sentenceBegin":141,"sentenceEnd":271}]}
{"paperId":"6a2d45016115d187120a5c232f671df30422870b","indicators":[{"word":"tobacco","begin":196,"end":202,"sentenceIndex":0,"sentenceBegin":0,"sentenceEnd":237},{"word":"smoke","begin":204,"end":208,"sentenceIndex":0,"sentenceBegin":0,"sentenceEnd":237}]}
{"paperId":"a9493e8464b3aa6f684f6ea54438d763dd82ce23","indicators":[{"word":"tobacco","begin":949,"end":955,"sentenceIndex":9,"sentenceBegin":949,"sentenceEnd":964},{"word":"smoking","begin":957,"end":963,"sentenceIndex":9,"sentenceBegin":949,"sentenceEnd":964}]}
{"paperId":"ca3b01ce0715b67fc7eb1515424514a4bcc41e27","indicators":[{"word":"tobacco","begin":41,"end":47,"sentenceIndex":0,"sentenceBegin":0,"sentenceEnd":136}]}
{"paperId":"ca3b01ce0715b67fc7eb1515424514a4bcc41e27","indicators":[{"word":"tobacco","begin":493,"end":499,"sentenceIndex":3,"sentenceBegin":395,"sentenceEnd":685},{"word":"tobacco","begin":1229,"end":1235,"sentenceIndex":6,"sentenceBegin":1051,"sentenceEnd":1309},{"word":"tobacco","begin":1282,"end":1288,"sentenceIndex":6,"sentenceBegin":1051,"sentenceEnd":1309}]}
{"paperId":"ca3b01ce0715b67fc7eb1515424514a4bcc41e27","indicators":[{"word":"tobacco","begin":262,"end":268,"sentenceIndex":2,"sentenceBegin":174,"sentenceEnd":405},{"word":"tobacco","begin":510,"end":516,"sentenceIndex":3,"sentenceBegin":407,"sentenceEnd":621}]}
{"paperId":"ca3b01ce0715b67fc7eb1515424514a4bcc41e27","indicators":[{"word":"tobacco","begin":14,"end":20,"sentenceIndex":0,"sentenceBegin":0,"sentenceEnd":204}]}
{"paperId":"ca3b01ce0715b67fc7eb1515424514a4bcc41e27","indicators":[{"word":"tobacco","begin":296,"end":302,"sentenceIndex":2,"sentenceBegin":198,"sentenceEnd":465}]}
{"paperId":"ca3b01ce0715b67fc7eb1515424514a4bcc41e27","indicators":[{"word":"tobacco","begin":159,"end":165,"sentenceIndex":1,"sentenceBegin":144,"sentenceEnd":263}]}
{"paperId":"ca3b01ce0715b67fc7eb1515424514a4bcc41e27","indicators":[{"word":"tobacco","begin":199,"end":205,"sentenceIndex":1,"sentenceBegin":116,"sentenceEnd":230},{"word":"tobacco","begin":972,"end":978,"sentenceIndex":10,"sentenceBegin":923,"sentenceEnd":1081},{"word":"tobacco","begin":1118,"end":1124,"sentenceIndex":11,"sentenceBegin":1083,"sentenceEnd":1229}]}
{"paperId":"ca3b01ce0715b67fc7eb1515424514a4bcc41e27","indicators":[{"word":"tobacco","begin":173,"end":179,"sentenceIndex":1,"sentenceBegin":72,"sentenceEnd":266}]}
{"paperId":"99c0958f9fa04d32dcdd13fcc01ffcb531f48950","indicators":[{"word":"tobacco","begin":13,"end":19,"sentenceIndex":0,"sentenceBegin":0,"sentenceEnd":162},{"word":"tobacco","begin":74,"end":80,"sentenceIndex":0,"sentenceBegin":0,"sentenceEnd":162},{"word":"smoke","begin":300,"end":304,"sentenceIndex":2,"sentenceBegin":261,"sentenceEnd":370}]}
{"paperId":"259bacd86c3efe63c149f66aa069b50c97b50691","indicators":[{"word":"cigarette","begin":202,"end":210,"sentenceIndex":1,"sentenceBegin":102,"sentenceEnd":355}]}
{"paperId":"7ff51224ea5e48b819c7b0b1074c5c62439fc7ca","indicators":[{"word":"smoking","begin":160,"end":166,"sentenceIndex":0,"sentenceBegin":0,"sentenceEnd":344}]}
{"paperId":"7ff51224ea5e48b819c7b0b1074c5c62439fc7ca","indicators":[{"word":"smoking","begin":148,"end":154,"sentenceIndex":0,"sentenceBegin":0,"sentenceEnd":337}]}
