{"paperId":"fb60e76c4b6c91e4a061e69cd26a62870227ab29","indicators":[{"word":"cigarette","begin":1193,"end":1201,"sentenceIndex":7,"sentenceBegin":1132,"sentenceEnd":1225},{"word":"smoking","begin":1203,"end":1209,"sentenceIndex":7,"sentenceBegin":1132,"sentenceEnd":1225}]}
{"paperId":"fb60e76c4b6c91e4a061e69cd26a62870227ab29","indicators":[{"word":"smoking","begin":423,"end":429,"sentenceIndex":3,"sentenceBegin":342,"sentenceEnd":476}]}
{"paperId":"fb60e76c4b6c91e4a061e69cd26a62870227ab29","indicators":[{"word":"smoking","begin":907,"end":913,"sentenceIndex":8,"sentenceBegin":726,"sentenceEnd":1008}]}
{"paperId":"fb60e76c4b6c91e4a061e69cd26a62870227ab29","indicators":[{"word":"cigarette","begin":303,"end":311,"sentenceIndex":1,"sentenceBegin":9,"sentenceEnd":479}]}
{"paperId":"fb60e76c4b6c91e4a061e69cd26a62870227ab29","indicators":[{"word":"smoking","begin":431,"end":437,"sentenceIndex":2,"sentenceBegin":337,"sentenceEnd":552}]}
{"paperId":"c5a1c8812eed6acb2b0bab18273f730512445097","indicators":[{"word":"tobacco","begin":496,"end":502,"sentenceIndex":2,"sentenceBegin":314,"sentenceEnd":522}]}
{"paperId":"e982ac0b7fed6d5b0bfbefb4ce7bb3e1f2375d19","indicators":[{"word":"firing","begin":1118,"end":1123,"sentenceIndex":7,"sentenceBegin":1045,"sentenceEnd":1167}]}
{"paperId":"3083c8b34f2b52c612601c0cedbd397681f79d46","indicators":[{"word":"pots","begin":1646,"end":1649,"sentenceIndex":18,"sentenceBegin":1589,"sentenceEnd":1793}]}
{"paperId":"8f83009d7c0bb2462aee76cfb57e566cd7e03250","indicators":[{"word":"smoke","begin":474,"end":478,"sentenceIndex":3,"sentenceBegin":406,"sentenceEnd":549}]}
{"paperId":"447ba0a2f25c5d2a968dd11550ad36b1688578b1","indicators":[{"word":"tobacco","begin":200,"end":206,"sentenceIndex":1,"sentenceBegin":135,"sentenceEnd":304}]}
{"paperId":"447ba0a2f25c5d2a968dd11550ad36b1688578b1","indicators":[{"word":"tobacco","begin":90,"end":96,"sentenceIndex":0,"sentenceBegin":0,"sentenceEnd":189},{"word":"smoke","begin":98,"end":102,"sentenceIndex":0,"sentenceBegin":0,"sentenceEnd":189},{"word":"tobacco","begin":430,"end":436,"sentenceIndex":3,"sentenceBegin":300,"sentenceEnd":579}]}
{"paperId":"447ba0a2f25c5d2a968dd11550ad36b1688578b1","indicators":[{"word":"smoke","begin":581,"end":585,"sentenceIndex":3,"sentenceBegin":565,"sentenceEnd":799},{"word":"smoke","begin":817,"end":821,"sentenceIndex":4,"sentenceBegin":801,"sentenceEnd":963}]}
{"paperId":"447ba0a2f25c5d2a968dd11550ad36b1688578b1","indicators":[{"word":"smoke","begin":86,"end":90,"sentenceIndex":0,"sentenceBegin":0,"sentenceEnd":151}]}
{"paperId":"447ba0a2f25c5d2a968dd11550ad36b1688578b1","indicators":[{"word":"smoke","begin":19,"end":23,"sentenceIndex":0,"sentenceBegin":0,"sentenceEnd":200}]}
{"paperId":"f3b9fc0f8e0a431366196d3e835e1ec368b379d1","indicators":[{"word":"pot","begin":686,"end":688,"sentenceIndex":8,"sentenceBegin":545,"sentenceEnd":700}]}
{"paperId":"4389e5d3e58f73b4c824c1a77712cbd5885ed047","indicators":[{"word":"tobacco","begin":211,"end":217,"sentenceIndex":0,"sentenceBegin":0,"sentenceEnd":227}]}
