{"paperId":"860f8188e0304e19bf887874e03792b52c71a150","indicators":[{"word":"smoking","begin":831,"end":837,"sentenceIndex":5,"sentenceBegin":768,"sentenceEnd":972}]}
{"paperId":"e38a8320180661475487156ee68de426868e6c45","indicators":[{"word":"firing","begin":243,"end":248,"sentenceIndex":0,"sentenceBegin":0,"sentenceEnd":307}]}
{"paperId":"ae5b648953770d7ac06ad82b1189883c3e656e79","indicators":[{"word":"tobacco","begin":176,"end":182,"sentenceIndex":1,"sentenceBegin":91,"sentenceEnd":195},{"word":"smoking","begin":261,"end":267,"sentenceIndex":2,"sentenceBegin":197,"sentenceEnd":367}]}
{"paperId":"8078e041f20c2af43f444262f5e7288122d1ca9e","indicators":[{"word":"smoking","begin":109,"end":115,"sentenceIndex":0,"sentenceBegin":0,"sentenceEnd":877}]}
{"paperId":"d75b9ec5230fea9af4abc83383da97a102230cfd","indicators":[{"word":"cigarette","begin":301,"end":309,"sentenceIndex":2,"sentenceBegin":216,"sentenceEnd":325},{"word":"smoking","begin":311,"end":317,"sentenceIndex":2,"sentenceBegin":216,"sentenceEnd":325}]}
{"paperId":"87659a7166891b909c395b96b6ea467f58e2901a","indicators":[{"word":"weed","begin":161,"end":164,"sentenceIndex":1,"sentenceBegin":95,"sentenceEnd":176},{"word":"weeds","begin":208,"end":212,"sentenceIndex":2,"sentenceBegin":178,"sentenceEnd":249},{"word":"weeds","begin":288,"end":292,"sentenceIndex":3,"sentenceBegin":251,"sentenceEnd":352},{"word":"weed","begin":391,"end":394,"sentenceIndex":4,"sentenceBegin":354,"sentenceEnd":427},{"word":"weeds","begin":744,"end":748,"sentenceIndex":7,"sentenceBegin":676,"sentenceEnd":1020},{"word":"weed","begin":899,"end":902,"sentenceIndex":7,"sentenceBegin":676,"sentenceEnd":1020},{"word":"weed","begin":1206,"end":1209,"sentenceIndex":9,"sentenceBegin":1108,"sentenceEnd":1314},{"word":"weeds","begin":1409,"end":1413,"sentenceIndex":10,"sentenceBegin":1316,"sentenceEnd":1450}]}
{"paperId":"82638cdd65b6e3b8126ff899f035d3c27c20f7c8","indicators":[{"word":"pot","begin":7232,"end":7234,"sentenceIndex":66,"sentenceBegin":7079,"sentenceEnd":7300}]}
