{"paperId":"94304b2a4bd84ea829e977b10600f096ec1d4726","indicators":[{"word":"cigarette","begin":12,"end":20,"sentenceIndex":0,"sentenceBegin":0,"sentenceEnd":173},{"word":"smoke","begin":22,"end":26,"sentenceIndex":0,"sentenceBegin":0,"sentenceEnd":173}]}
{"paperId":"94304b2a4bd84ea829e977b10600f096ec1d4726","indicators":[{"word":"cigarette","begin":1460,"end":1468,"sentenceIndex":8,"sentenceBegin":1403,"sentenceEnd":1655},{"word":"smoke","begin":1470,"end":1474,"sentenceIndex":8,"sentenceBegin":1403,"sentenceEnd":1655},{"word":"cigarette","begin":1626,"end":1634,"sentenceIndex":8,"sentenceBegin":1403,"sentenceEnd":1655}]}
{"paperId":"94304b2a4bd84ea829e977b10600f096ec1d4726","indicators":[{"word":"cigarette","begin":1167,"end":1175,"sentenceIndex":5,"sentenceBegin":1069,"sentenceEnd":1249},{"word":"smoke","begin":1177,"end":1181,"sentenceIndex":5,"sentenceBegin":1069,"sentenceEnd":1249},{"word":"cigarette","begin":1703,"end":1711,"sentenceIndex":7,"sentenceBegin":1624,"sentenceEnd":1766},{"word":"smoke","begin":1713,"end":1717,"sentenceIndex":7,"sentenceBegin":1624,"sentenceEnd":1766}]}
{"paperId":"94304b2a4bd84ea829e977b10600f096ec1d4726","indicators":[{"word":"cigarette","begin":188,"end":196,"sentenceIndex":1,"sentenceBegin":140,"sentenceEnd":221},{"word":"cigarette","begin":288,"end":296,"sentenceIndex":2,"sentenceBegin":223,"sentenceEnd":360},{"word":"cigarette","begin":483,"end":491,"sentenceIndex":3,"sentenceBegin":362,"sentenceEnd":706},{"word":"smoke","begin":493,"end":497,"sentenceIndex":3,"sentenceBegin":362,"sentenceEnd":706}]}
{"paperId":"3d8a49de93133baa4c5180ffe3ce2450f41db977","indicators":[{"word":"smoked","begin":185,"end":190,"sentenceIndex":1,"sentenceBegin":125,"sentenceEnd":304},{"word":"cigarettes","begin":192,"end":201,"sentenceIndex":1,"sentenceBegin":125,"sentenceEnd":304}]}
{"paperId":"3d8a49de93133baa4c5180ffe3ce2450f41db977","indicators":[{"word":"smoked","begin":52,"end":57,"sentenceIndex":0,"sentenceBegin":0,"sentenceEnd":96},{"word":"cigarettes","begin":59,"end":68,"sentenceIndex":0,"sentenceBegin":0,"sentenceEnd":96}]}
