{"paperId":"dd7e8710b40d1b13265ee6a757c3819241cb884f","indicators":[{"word":"smoking","begin":352,"end":358,"sentenceIndex":1,"sentenceBegin":132,"sentenceEnd":393}]}
{"paperId":"dd7e8710b40d1b13265ee6a757c3819241cb884f","indicators":[{"word":"smoking","begin":816,"end":822,"sentenceIndex":6,"sentenceBegin":690,"sentenceEnd":901}]}
{"paperId":"4873e7cc844409bdcf73753cdaab4e9417e4da12","indicators":[{"word":"smoking","begin":2356,"end":2362,"sentenceIndex":16,"sentenceBegin":2307,"sentenceEnd":2456},{"word":"smoking","begin":2858,"end":2864,"sentenceIndex":20,"sentenceBegin":2738,"sentenceEnd":2917}]}
{"paperId":"841e062c74867b56a61c267a76fc8cb6bbf4c470","indicators":[{"word":"vapor","begin":562,"end":566,"sentenceIndex":4,"sentenceBegin":535,"sentenceEnd":636}]}
{"paperId":"841e062c74867b56a61c267a76fc8cb6bbf4c470","indicators":[{"word":"puff","begin":364,"end":367,"sentenceIndex":3,"sentenceBegin":291,"sentenceEnd":407}]}
{"paperId":"841e062c74867b56a61c267a76fc8cb6bbf4c470","indicators":[{"word":"puff","begin":2094,"end":2097,"sentenceIndex":20,"sentenceBegin":2041,"sentenceEnd":2191}]}
{"paperId":"ef1524eed8ca8fad7b96301b586cafc72d15ef04","indicators":[{"word":"smoke","begin":2185,"end":2189,"sentenceIndex":17,"sentenceBegin":2137,"sentenceEnd":2361}]}
{"paperId":"8da1231a64d73bc59f2af993bf1a2466265ffa4a","indicators":[{"word":"tobacco","begin":335,"end":341,"sentenceIndex":2,"sentenceBegin":282,"sentenceEnd":441},{"word":"tobacco","begin":527,"end":533,"sentenceIndex":3,"sentenceBegin":443,"sentenceEnd":619},{"word":"tobacco","begin":668,"end":674,"sentenceIndex":4,"sentenceBegin":621,"sentenceEnd":778},{"word":"tobacco","begin":835,"end":841,"sentenceIndex":5,"sentenceBegin":780,"sentenceEnd":1042},{"word":"tobacco","begin":936,"end":942,"sentenceIndex":5,"sentenceBegin":780,"sentenceEnd":1042}]}
{"paperId":"8da1231a64d73bc59f2af993bf1a2466265ffa4a","indicators":[{"word":"tobacco","begin":24,"end":30,"sentenceIndex":0,"sentenceBegin":0,"sentenceEnd":257},{"word":"tobacco","begin":332,"end":338,"sentenceIndex":1,"sentenceBegin":259,"sentenceEnd":506}]}
{"paperId":"8da1231a64d73bc59f2af993bf1a2466265ffa4a","indicators":[{"word":"tobacco","begin":15,"end":21,"sentenceIndex":0,"sentenceBegin":0,"sentenceEnd":128},{"word":"tobacco","begin":50,"end":56,"sentenceIndex":0,"sentenceBegin":0,"sentenceEnd":128}]}
{"paperId":"8da1231a64d73bc59f2af993bf1a2466265ffa4a","indicators":[{"word":"tobacco","begin":72,"end":78,"sentenceIndex":0,"sentenceBegin":0,"sentenceEnd":306},{"word":"tobacco","begin":85,"end":91,"sentenceIndex":0,"sentenceBegin":0,"sentenceEnd":306},{"word":"tobacco","begin":150,"end":156,"sentenceIndex":0,"sentenceBegin":0,"sentenceEnd":306},{"word":"tobacco","begin":173,"end":179,"sentenceIndex":0,"sentenceBegin":0,"sentenceEnd":306}]}
{"paperId":"8da1231a64d73bc59f2af993bf1a2466265ffa4a","indicators":[{"word":"tobacco","begin":502,"end":508,"sentenceIndex":1,"sentenceBegin":169,"sentenceEnd":561}]}
{"paperId":"8da1231a64d73bc59f2af993bf1a2466265ffa4a","indicators":[{"word":"tobacco","begin":722,"end":728,"sentenceIndex":1,"sentenceBegin":468,"sentenceEnd":811}]}
{"paperId":"8da1231a64d73bc59f2af993bf1a2466265ffa4a","indicators":[{"word":"tobacco","begin":1010,"end":1016,"sentenceIndex":7,"sentenceBegin":932,"sentenceEnd":1212},{"word":"tobacco","begin":1091,"end":1097,"sentenceIndex":7,"sentenceBegin":932,"sentenceEnd":1212}]}
{"paperId":"8da1231a64d73bc59f2af993bf1a2466265ffa4a","indicators":[{"word":"tobacco","begin":29,"end":35,"sentenceIndex":0,"sentenceBegin":0,"sentenceEnd":84},{"word":"tobacco","begin":707,"end":713,"sentenceIndex":6,"sentenceBegin":623,"sentenceEnd":915}]}
{"paperId":"3ff32b1fa0ed3783d5c832fe72dbe261423933d4","indicators":[{"word":"smoking","begin":480,"end":486,"sentenceIndex":3,"sentenceBegin":430,"sentenceEnd":785}]}
{"paperId":"3ff32b1fa0ed3783d5c832fe72dbe261423933d4","indicators":[{"word":"smoking","begin":402,"end":408,"sentenceIndex":3,"sentenceBegin":396,"sentenceEnd":524}]}
