{"paperId":"d5acdc4059519698fdcb99d903731859b0598ff8","indicators":[{"word":"cigarette","begin":1217,"end":1225,"sentenceIndex":6,"sentenceBegin":1105,"sentenceEnd":1293},{"word":"smoke","begin":1227,"end":1231,"sentenceIndex":6,"sentenceBegin":1105,"sentenceEnd":1293},{"word":"cigarette","begin":1990,"end":1998,"sentenceIndex":10,"sentenceBegin":1922,"sentenceEnd":2075},{"word":"smoke","begin":2000,"end":2004,"sentenceIndex":10,"sentenceBegin":1922,"sentenceEnd":2075},{"word":"cigarette","begin":2060,"end":2068,"sentenceIndex":10,"sentenceBegin":1922,"sentenceEnd":2075},{"word":"smoke","begin":2070,"end":2074,"sentenceIndex":10,"sentenceBegin":1922,"sentenceEnd":2075},{"word":"cigarette","begin":2246,"end":2254,"sentenceIndex":12,"sentenceBegin":2191,"sentenceEnd":2290},{"word":"smoke","begin":2256,"end":2260,"sentenceIndex":12,"sentenceBegin":2191,"sentenceEnd":2290}]}
{"paperId":"bc0b6e929da0b1d0bf1155fac0e067dab587868e","indicators":[{"word":"smoking","begin":1143,"end":1149,"sentenceIndex":7,"sentenceBegin":1011,"sentenceEnd":1322}]}
{"paperId":"de59653ca231997aabe7ca037d5be19310209d23","indicators":[{"word":"tobacco","begin":492,"end":498,"sentenceIndex":2,"sentenceBegin":368,"sentenceEnd":526},{"word":"tobacco","begin":818,"end":824,"sentenceIndex":3,"sentenceBegin":528,"sentenceEnd":861},{"word":"cigarette","begin":885,"end":893,"sentenceIndex":4,"sentenceBegin":863,"sentenceEnd":1105},{"word":"smoking","begin":895,"end":901,"sentenceIndex":4,"sentenceBegin":863,"sentenceEnd":1105},{"word":"cigarette","begin":1088,"end":1096,"sentenceIndex":4,"sentenceBegin":863,"sentenceEnd":1105},{"word":"smoking","begin":1098,"end":1104,"sentenceIndex":4,"sentenceBegin":863,"sentenceEnd":1105}]}
{"paperId":"de59653ca231997aabe7ca037d5be19310209d23","indicators":[{"word":"cigarettes","begin":327,"end":336,"sentenceIndex":1,"sentenceBegin":278,"sentenceEnd":427}]}
{"paperId":"de59653ca231997aabe7ca037d5be19310209d23","indicators":[{"word":"smoking","begin":2093,"end":2099,"sentenceIndex":12,"sentenceBegin":1943,"sentenceEnd":2100}]}
{"paperId":"de59653ca231997aabe7ca037d5be19310209d23","indicators":[{"word":"smoking","begin":1095,"end":1101,"sentenceIndex":9,"sentenceBegin":1032,"sentenceEnd":1152},{"word":"tobacco","begin":1504,"end":1510,"sentenceIndex":13,"sentenceBegin":1497,"sentenceEnd":1588},{"word":"smoke","begin":1561,"end":1565,"sentenceIndex":13,"sentenceBegin":1497,"sentenceEnd":1588},{"word":"smoke","begin":2574,"end":2578,"sentenceIndex":20,"sentenceBegin":2416,"sentenceEnd":2684},{"word":"smoking","begin":2611,"end":2617,"sentenceIndex":20,"sentenceBegin":2416,"sentenceEnd":2684},{"word":"tobacco","begin":2718,"end":2724,"sentenceIndex":21,"sentenceBegin":2686,"sentenceEnd":2985}]}
{"paperId":"de59653ca231997aabe7ca037d5be19310209d23","indicators":[{"word":"cannabis","begin":524,"end":531,"sentenceIndex":4,"sentenceBegin":469,"sentenceEnd":563},{"word":"tobacco","begin":692,"end":698,"sentenceIndex":6,"sentenceBegin":671,"sentenceEnd":711},{"word":"cannabis","begin":1217,"end":1224,"sentenceIndex":11,"sentenceBegin":1150,"sentenceEnd":1237}]}
{"paperId":"bfb5b4d0320a87030cd2a3a7b0d8bd640377f54b","indicators":[{"word":"firing","begin":491,"end":496,"sentenceIndex":3,"sentenceBegin":406,"sentenceEnd":581},{"word":"firing","begin":706,"end":711,"sentenceIndex":4,"sentenceBegin":583,"sentenceEnd":737},{"word":"firing","begin":828,"end":833,"sentenceIndex":5,"sentenceBegin":739,"sentenceEnd":963}]}
{"paperId":"bfb5b4d0320a87030cd2a3a7b0d8bd640377f54b","indicators":[{"word":"firing","begin":515,"end":520,"sentenceIndex":4,"sentenceBegin":368,"sentenceEnd":602}]}
{"paperId":"bfb5b4d0320a87030cd2a3a7b0d8bd640377f54b","indicators":[{"word":"weed","begin":801,"end":804,"sentenceIndex":4,"sentenceBegin":605,"sentenceEnd":813}]}
{"paperId":"bfb5b4d0320a87030cd2a3a7b0d8bd640377f54b","indicators":[{"word":"weed","begin":223,"end":226,"sentenceIndex":1,"sentenceBegin":146,"sentenceEnd":310}]}
{"paperId":"bfb5b4d0320a87030cd2a3a7b0d8bd640377f54b","indicators":[{"word":"puffs","begin":459,"end":463,"sentenceIndex":3,"sentenceBegin":393,"sentenceEnd":561}]}
{"paperId":"c60cc22e04f138a796936b6c7697caea77036b44","indicators":[{"word":"tobacco","begin":293,"end":299,"sentenceIndex":6,"sentenceBegin":187,"sentenceEnd":431}]}
{"paperId":"c60cc22e04f138a796936b6c7697caea77036b44","indicators":[{"word":"tobacco","begin":109,"end":115,"sentenceIndex":1,"sentenceBegin":82,"sentenceEnd":266}]}
{"paperId":"7975e65863b170e9aa59d865920d2323149d2d5c","indicators":[{"word":"tobacco","begin":1168,"end":1174,"sentenceIndex":7,"sentenceBegin":1076,"sentenceEnd":1258},{"word":"smoking","begin":1452,"end":1458,"sentenceIndex":9,"sentenceBegin":1368,"sentenceEnd":1469},{"word":"tobacco","begin":1583,"end":1589,"sentenceIndex":10,"sentenceBegin":1471,"sentenceEnd":1734},{"word":"cigarettes","begin":2605,"end":2614,"sentenceIndex":20,"sentenceBegin":2560,"sentenceEnd":2623},{"word":"tobacco","begin":2649,"end":2655,"sentenceIndex":21,"sentenceBegin":2625,"sentenceEnd":2720}]}
{"paperId":"7975e65863b170e9aa59d865920d2323149d2d5c","indicators":[{"word":"smoking","begin":4,"end":10,"sentenceIndex":0,"sentenceBegin":0,"sentenceEnd":186},{"word":"tobacco","begin":157,"end":163,"sentenceIndex":0,"sentenceBegin":0,"sentenceEnd":186}]}
{"paperId":"7975e65863b170e9aa59d865920d2323149d2d5c","indicators":[{"word":"smoking","begin":1370,"end":1376,"sentenceIndex":7,"sentenceBegin":1146,"sentenceEnd":1467}]}
{"paperId":"7975e65863b170e9aa59d865920d2323149d2d5c","indicators":[{"word":"smoking","begin":1205,"end":1211,"sentenceIndex":6,"sentenceBegin":1028,"sentenceEnd":1343},{"word":"smoking","begin":1884,"end":1890,"sentenceIndex":11,"sentenceBegin":1725,"sentenceEnd":1936}]}
{"paperId":"7975e65863b170e9aa59d865920d2323149d2d5c","indicators":[{"word":"smoking","begin":1218,"end":1224,"sentenceIndex":8,"sentenceBegin":1174,"sentenceEnd":1474}]}
{"paperId":"70ccd1af33f49cfeb0c4fdddad4f72934800eef4","indicators":[{"word":"smoking","begin":743,"end":749,"sentenceIndex":9,"sentenceBegin":653,"sentenceEnd":777}]}
{"paperId":"6e99aa3d7287b2e04d3c2a975ba94212158ac45c","indicators":[{"word":"pot","begin":348,"end":350,"sentenceIndex":3,"sentenceBegin":326,"sentenceEnd":369}]}
{"paperId":"fdb5b6624d4ce94ca0b71d23788045fe4b3d46f3","indicators":[{"word":"smoked","begin":1041,"end":1046,"sentenceIndex":8,"sentenceBegin":1028,"sentenceEnd":1093}]}
{"paperId":"5e27b0fecc965b71e8b29c955ba4aa06fa888d08","indicators":[{"word":"tobacco","begin":1579,"end":1585,"sentenceIndex":13,"sentenceBegin":1565,"sentenceEnd":1748}]}
{"paperId":"5e27b0fecc965b71e8b29c955ba4aa06fa888d08","indicators":[{"word":"smoking","begin":855,"end":861,"sentenceIndex":4,"sentenceBegin":561,"sentenceEnd":879}]}
{"paperId":"7e3c984696e22074f3f05acff1865c6d54d35a65","indicators":[{"word":"smoke","begin":19863,"end":19867,"sentenceIndex":149,"sentenceBegin":19653,"sentenceEnd":19950}]}
{"paperId":"82de99f0579587bf48a027075876691c6c2db082","indicators":[{"word":"smoking","begin":388,"end":394,"sentenceIndex":2,"sentenceBegin":247,"sentenceEnd":452}]}
{"paperId":"82de99f0579587bf48a027075876691c6c2db082","indicators":[{"word":"smoke","begin":1253,"end":1257,"sentenceIndex":15,"sentenceBegin":1232,"sentenceEnd":1321},{"word":"smoke","begin":1352,"end":1356,"sentenceIndex":16,"sentenceBegin":1323,"sentenceEnd":1407},{"word":"smoke","begin":1432,"end":1436,"sentenceIndex":17,"sentenceBegin":1409,"sentenceEnd":1486},{"word":"smoking","begin":1914,"end":1920,"sentenceIndex":22,"sentenceBegin":1810,"sentenceEnd":1974}]}
{"paperId":"82de99f0579587bf48a027075876691c6c2db082","indicators":[{"word":"smoking","begin":63,"end":69,"sentenceIndex":0,"sentenceBegin":0,"sentenceEnd":131}]}
{"paperId":"82de99f0579587bf48a027075876691c6c2db082","indicators":[{"word":"smoking","begin":88,"end":94,"sentenceIndex":0,"sentenceBegin":0,"sentenceEnd":278},{"word":"tobacco","begin":693,"end":699,"sentenceIndex":4,"sentenceBegin":661,"sentenceEnd":744},{"word":"smoking","begin":701,"end":707,"sentenceIndex":4,"sentenceBegin":661,"sentenceEnd":744},{"word":"smoking","begin":1370,"end":1376,"sentenceIndex":11,"sentenceBegin":1362,"sentenceEnd":1427}]}
{"paperId":"82de99f0579587bf48a027075876691c6c2db082","indicators":[{"word":"tobacco","begin":224,"end":230,"sentenceIndex":1,"sentenceBegin":201,"sentenceEnd":239},{"word":"smoking","begin":300,"end":306,"sentenceIndex":2,"sentenceBegin":241,"sentenceEnd":350},{"word":"tobacco","begin":400,"end":406,"sentenceIndex":3,"sentenceBegin":352,"sentenceEnd":506},{"word":"smoking","begin":408,"end":414,"sentenceIndex":3,"sentenceBegin":352,"sentenceEnd":506},{"word":"weeds","begin":1900,"end":1904,"sentenceIndex":15,"sentenceBegin":1801,"sentenceEnd":1913}]}
{"paperId":"82de99f0579587bf48a027075876691c6c2db082","indicators":[{"word":"smoking","begin":1430,"end":1436,"sentenceIndex":7,"sentenceBegin":1329,"sentenceEnd":1575},{"word":"smoking","begin":1744,"end":1750,"sentenceIndex":9,"sentenceBegin":1683,"sentenceEnd":1868},{"word":"smoking","begin":2025,"end":2031,"sentenceIndex":11,"sentenceBegin":1983,"sentenceEnd":2125}]}
{"paperId":"82de99f0579587bf48a027075876691c6c2db082","indicators":[{"word":"smoking","begin":1117,"end":1123,"sentenceIndex":12,"sentenceBegin":1041,"sentenceEnd":1153}]}
{"paperId":"82de99f0579587bf48a027075876691c6c2db082","indicators":[{"word":"weeds","begin":2074,"end":2078,"sentenceIndex":20,"sentenceBegin":1987,"sentenceEnd":2085}]}
{"paperId":"82de99f0579587bf48a027075876691c6c2db082","indicators":[{"word":"cannabis","begin":2972,"end":2979,"sentenceIndex":21,"sentenceBegin":2951,"sentenceEnd":3053},{"word":"cannabis","begin":3037,"end":3044,"sentenceIndex":21,"sentenceBegin":2951,"sentenceEnd":3053},{"word":"cannabis","begin":3067,"end":3074,"sentenceIndex":22,"sentenceBegin":3055,"sentenceEnd":3151},{"word":"cannabis","begin":3279,"end":3286,"sentenceIndex":23,"sentenceBegin":3153,"sentenceEnd":3431},{"word":"cannabis","begin":3344,"end":3351,"sentenceIndex":23,"sentenceBegin":3153,"sentenceEnd":3431},{"word":"cannabis","begin":3508,"end":3515,"sentenceIndex":25,"sentenceBegin":3471,"sentenceEnd":3727},{"word":"cannabis","begin":3623,"end":3630,"sentenceIndex":25,"sentenceBegin":3471,"sentenceEnd":3727},{"word":"cannabis","begin":3652,"end":3659,"sentenceIndex":25,"sentenceBegin":3471,"sentenceEnd":3727}]}
{"paperId":"82de99f0579587bf48a027075876691c6c2db082","indicators":[{"word":"smoking","begin":291,"end":297,"sentenceIndex":1,"sentenceBegin":58,"sentenceEnd":570},{"word":"smoked","begin":495,"end":500,"sentenceIndex":1,"sentenceBegin":58,"sentenceEnd":570},{"word":"smoked","begin":508,"end":513,"sentenceIndex":1,"sentenceBegin":58,"sentenceEnd":570}]}
{"paperId":"82de99f0579587bf48a027075876691c6c2db082","indicators":[{"word":"smoked","begin":43,"end":48,"sentenceIndex":0,"sentenceBegin":0,"sentenceEnd":68}]}
{"paperId":"82de99f0579587bf48a027075876691c6c2db082","indicators":[{"word":"weed","begin":3821,"end":3824,"sentenceIndex":23,"sentenceBegin":3683,"sentenceEnd":3907},{"word":"weeds","begin":7399,"end":7403,"sentenceIndex":54,"sentenceBegin":7343,"sentenceEnd":7483}]}
{"paperId":"82de99f0579587bf48a027075876691c6c2db082","indicators":[{"word":"puffs","begin":1182,"end":1186,"sentenceIndex":13,"sentenceBegin":1151,"sentenceEnd":1247}]}
{"paperId":"82de99f0579587bf48a027075876691c6c2db082","indicators":[{"word":"puffs","begin":657,"end":661,"sentenceIndex":7,"sentenceBegin":653,"sentenceEnd":778}]}
{"paperId":"82de99f0579587bf48a027075876691c6c2db082","indicators":[{"word":"vapor","begin":1368,"end":1372,"sentenceIndex":11,"sentenceBegin":1317,"sentenceEnd":1430}]}
{"paperId":"82de99f0579587bf48a027075876691c6c2db082","indicators":[{"word":"vapor","begin":1518,"end":1522,"sentenceIndex":14,"sentenceBegin":1500,"sentenceEnd":1535},{"word":"vapor","begin":1836,"end":1840,"sentenceIndex":18,"sentenceBegin":1704,"sentenceEnd":1841}]}
{"paperId":"82de99f0579587bf48a027075876691c6c2db082","indicators":[{"word":"smoking","begin":375,"end":381,"sentenceIndex":2,"sentenceBegin":258,"sentenceEnd":441}]}
{"paperId":"82de99f0579587bf48a027075876691c6c2db082","indicators":[{"word":"smoking","begin":734,"end":740,"sentenceIndex":5,"sentenceBegin":547,"sentenceEnd":785},{"word":"smoking","begin":1352,"end":1358,"sentenceIndex":13,"sentenceBegin":1343,"sentenceEnd":1433},{"word":"smoke","begin":1419,"end":1423,"sentenceIndex":13,"sentenceBegin":1343,"sentenceEnd":1433},{"word":"smoking","begin":1444,"end":1450,"sentenceIndex":14,"sentenceBegin":1435,"sentenceEnd":1537}]}
{"paperId":"82de99f0579587bf48a027075876691c6c2db082","indicators":[{"word":"smoking","begin":411,"end":417,"sentenceIndex":4,"sentenceBegin":402,"sentenceEnd":458}]}
{"paperId":"82de99f0579587bf48a027075876691c6c2db082","indicators":[{"word":"smoking","begin":135,"end":141,"sentenceIndex":1,"sentenceBegin":45,"sentenceEnd":322}]}
{"paperId":"82de99f0579587bf48a027075876691c6c2db082","indicators":[{"word":"smoking","begin":680,"end":686,"sentenceIndex":5,"sentenceBegin":622,"sentenceEnd":756}]}
{"paperId":"3148f31807e070a3ab16ef7d42e34ba57bf4359f","indicators":[{"word":"cigarette","begin":428,"end":436,"sentenceIndex":3,"sentenceBegin":167,"sentenceEnd":441}]}
{"paperId":"3148f31807e070a3ab16ef7d42e34ba57bf4359f","indicators":[{"word":"cigarette","begin":326,"end":334,"sentenceIndex":2,"sentenceBegin":196,"sentenceEnd":443}]}
{"paperId":"3148f31807e070a3ab16ef7d42e34ba57bf4359f","indicators":[{"word":"cigarettes","begin":683,"end":692,"sentenceIndex":4,"sentenceBegin":629,"sentenceEnd":704},{"word":"puffs","begin":750,"end":754,"sentenceIndex":5,"sentenceBegin":706,"sentenceEnd":785}]}
{"paperId":"3148f31807e070a3ab16ef7d42e34ba57bf4359f","indicators":[{"word":"smoking","begin":1896,"end":1902,"sentenceIndex":13,"sentenceBegin":1886,"sentenceEnd":1952},{"word":"smoking","begin":2843,"end":2849,"sentenceIndex":22,"sentenceBegin":2764,"sentenceEnd":2899},{"word":"cigarettes","begin":2851,"end":2860,"sentenceIndex":22,"sentenceBegin":2764,"sentenceEnd":2899},{"word":"smoking","begin":2882,"end":2888,"sentenceIndex":22,"sentenceBegin":2764,"sentenceEnd":2899},{"word":"smoke","begin":3248,"end":3252,"sentenceIndex":26,"sentenceBegin":3115,"sentenceEnd":3253}]}
{"paperId":"3148f31807e070a3ab16ef7d42e34ba57bf4359f","indicators":[{"word":"cigarette","begin":1031,"end":1039,"sentenceIndex":6,"sentenceBegin":928,"sentenceEnd":1153}]}
{"paperId":"3148f31807e070a3ab16ef7d42e34ba57bf4359f","indicators":[{"word":"tobacco","begin":1738,"end":1744,"sentenceIndex":16,"sentenceBegin":1698,"sentenceEnd":1785},{"word":"cigarette","begin":2915,"end":2923,"sentenceIndex":24,"sentenceBegin":2828,"sentenceEnd":2932},{"word":"smoking","begin":2925,"end":2931,"sentenceIndex":24,"sentenceBegin":2828,"sentenceEnd":2932}]}
{"paperId":"3148f31807e070a3ab16ef7d42e34ba57bf4359f","indicators":[{"word":"vapor","begin":219,"end":223,"sentenceIndex":2,"sentenceBegin":72,"sentenceEnd":316},{"word":"cigarettes","begin":241,"end":250,"sentenceIndex":2,"sentenceBegin":72,"sentenceEnd":316},{"word":"cigarettes","begin":306,"end":315,"sentenceIndex":2,"sentenceBegin":72,"sentenceEnd":316}]}
{"paperId":"da7f2f0a498ebbd043349f57c803b853a2061a55","indicators":[{"word":"tobacco","begin":1959,"end":1965,"sentenceIndex":16,"sentenceBegin":1927,"sentenceEnd":2038}]}
{"paperId":"da7f2f0a498ebbd043349f57c803b853a2061a55","indicators":[{"word":"smoking","begin":2725,"end":2731,"sentenceIndex":21,"sentenceBegin":2668,"sentenceEnd":2877}]}
{"paperId":"da7f2f0a498ebbd043349f57c803b853a2061a55","indicators":[{"word":"smoking","begin":6056,"end":6062,"sentenceIndex":47,"sentenceBegin":5983,"sentenceEnd":6127}]}
{"paperId":"da7f2f0a498ebbd043349f57c803b853a2061a55","indicators":[{"word":"smoking","begin":624,"end":630,"sentenceIndex":4,"sentenceBegin":446,"sentenceEnd":664},{"word":"smoked","begin":1176,"end":1181,"sentenceIndex":10,"sentenceBegin":1149,"sentenceEnd":1263}]}
{"paperId":"6d0a5e5d30be7be09885629154b58d201384dac1","indicators":[{"word":"smoking","begin":208,"end":214,"sentenceIndex":2,"sentenceBegin":156,"sentenceEnd":253}]}
{"paperId":"6d0a5e5d30be7be09885629154b58d201384dac1","indicators":[{"word":"puffing","begin":360,"end":366,"sentenceIndex":5,"sentenceBegin":316,"sentenceEnd":497}]}
{"paperId":"6d0a5e5d30be7be09885629154b58d201384dac1","indicators":[{"word":"smoking","begin":44,"end":50,"sentenceIndex":0,"sentenceBegin":0,"sentenceEnd":314},{"word":"smoking","begin":495,"end":501,"sentenceIndex":2,"sentenceBegin":429,"sentenceEnd":545}]}
{"paperId":"6d0a5e5d30be7be09885629154b58d201384dac1","indicators":[{"word":"smoking","begin":779,"end":785,"sentenceIndex":2,"sentenceBegin":667,"sentenceEnd":906}]}
{"paperId":"c19c14d311abe224c8e49812b0efc9bda0e8e391","indicators":[{"word":"smoking","begin":1895,"end":1901,"sentenceIndex":20,"sentenceBegin":1793,"sentenceEnd":1920}]}
{"paperId":"92c3ab89f3b149511e652a740d3b211c2e05e3fa","indicators":[{"word":"pot","begin":394,"end":396,"sentenceIndex":2,"sentenceBegin":288,"sentenceEnd":449}]}
{"paperId":"92c3ab89f3b149511e652a740d3b211c2e05e3fa","indicators":[{"word":"pot","begin":5229,"end":5231,"sentenceIndex":34,"sentenceBegin":4960,"sentenceEnd":5270}]}
{"paperId":"92c3ab89f3b149511e652a740d3b211c2e05e3fa","indicators":[{"word":"pot","begin":2615,"end":2617,"sentenceIndex":14,"sentenceBegin":2445,"sentenceEnd":2676}]}
{"paperId":"db4ea90206ddc3655ee91144046a1a84cc2b79f8","indicators":[{"word":"firing","begin":2077,"end":2082,"sentenceIndex":10,"sentenceBegin":2041,"sentenceEnd":2237}]}
{"paperId":"db4ea90206ddc3655ee91144046a1a84cc2b79f8","indicators":[{"word":"firing","begin":1321,"end":1326,"sentenceIndex":8,"sentenceBegin":1267,"sentenceEnd":1345}]}
{"paperId":"db4ea90206ddc3655ee91144046a1a84cc2b79f8","indicators":[{"word":"tobacco","begin":1839,"end":1845,"sentenceIndex":10,"sentenceBegin":1695,"sentenceEnd":1853},{"word":"tobacco","begin":2126,"end":2132,"sentenceIndex":13,"sentenceBegin":2087,"sentenceEnd":2203}]}
{"paperId":"db4ea90206ddc3655ee91144046a1a84cc2b79f8","indicators":[{"word":"smoking","begin":76,"end":82,"sentenceIndex":0,"sentenceBegin":0,"sentenceEnd":83}]}
{"paperId":"623910bb603a574db5280f348b409ad580df6708","indicators":[{"word":"smoking","begin":1077,"end":1083,"sentenceIndex":5,"sentenceBegin":805,"sentenceEnd":1216}]}
{"paperId":"623910bb603a574db5280f348b409ad580df6708","indicators":[{"word":"smoking","begin":5546,"end":5552,"sentenceIndex":41,"sentenceBegin":5489,"sentenceEnd":5605}]}
{"paperId":"623910bb603a574db5280f348b409ad580df6708","indicators":[{"word":"smoking","begin":152,"end":158,"sentenceIndex":1,"sentenceBegin":144,"sentenceEnd":220}]}
{"paperId":"623910bb603a574db5280f348b409ad580df6708","indicators":[{"word":"smoking","begin":54,"end":60,"sentenceIndex":0,"sentenceBegin":0,"sentenceEnd":147},{"word":"smoking","begin":303,"end":309,"sentenceIndex":2,"sentenceBegin":259,"sentenceEnd":363},{"word":"smoking","begin":421,"end":427,"sentenceIndex":3,"sentenceBegin":365,"sentenceEnd":586},{"word":"smoking","begin":485,"end":491,"sentenceIndex":3,"sentenceBegin":365,"sentenceEnd":586}]}
{"paperId":"623910bb603a574db5280f348b409ad580df6708","indicators":[{"word":"smoking","begin":4402,"end":4408,"sentenceIndex":38,"sentenceBegin":4272,"sentenceEnd":4418}]}
{"paperId":"623910bb603a574db5280f348b409ad580df6708","indicators":[{"word":"smoking","begin":625,"end":631,"sentenceIndex":5,"sentenceBegin":565,"sentenceEnd":645}]}
{"paperId":"623910bb603a574db5280f348b409ad580df6708","indicators":[{"word":"smoking","begin":4346,"end":4352,"sentenceIndex":44,"sentenceBegin":4288,"sentenceEnd":4429},{"word":"tobacco","begin":4540,"end":4546,"sentenceIndex":45,"sentenceBegin":4431,"sentenceEnd":4570},{"word":"smoking","begin":4896,"end":4902,"sentenceIndex":51,"sentenceBegin":4822,"sentenceEnd":5071},{"word":"smoking","begin":5299,"end":5305,"sentenceIndex":55,"sentenceBegin":5245,"sentenceEnd":5464}]}
{"paperId":"623910bb603a574db5280f348b409ad580df6708","indicators":[{"word":"smoked","begin":32,"end":37,"sentenceIndex":0,"sentenceBegin":0,"sentenceEnd":160}]}
{"paperId":"623910bb603a574db5280f348b409ad580df6708","indicators":[{"word":"smoking","begin":450,"end":456,"sentenceIndex":4,"sentenceBegin":380,"sentenceEnd":509}]}
{"paperId":"623910bb603a574db5280f348b409ad580df6708","indicators":[{"word":"smoking","begin":685,"end":691,"sentenceIndex":3,"sentenceBegin":577,"sentenceEnd":741},{"word":"smoking","begin":1211,"end":1217,"sentenceIndex":9,"sentenceBegin":1094,"sentenceEnd":1218}]}
{"paperId":"623910bb603a574db5280f348b409ad580df6708","indicators":[{"word":"smoking","begin":3592,"end":3598,"sentenceIndex":25,"sentenceBegin":3520,"sentenceEnd":3670},{"word":"puff","begin":6636,"end":6639,"sentenceIndex":54,"sentenceBegin":6522,"sentenceEnd":6655}]}
{"paperId":"623910bb603a574db5280f348b409ad580df6708","indicators":[{"word":"smoke","begin":399,"end":403,"sentenceIndex":2,"sentenceBegin":272,"sentenceEnd":426},{"word":"smoking","begin":495,"end":501,"sentenceIndex":3,"sentenceBegin":428,"sentenceEnd":522}]}
{"paperId":"623910bb603a574db5280f348b409ad580df6708","indicators":[{"word":"smoking","begin":2192,"end":2198,"sentenceIndex":14,"sentenceBegin":1888,"sentenceEnd":2381},{"word":"smoking","begin":3035,"end":3041,"sentenceIndex":21,"sentenceBegin":2980,"sentenceEnd":3090}]}
{"paperId":"623910bb603a574db5280f348b409ad580df6708","indicators":[{"word":"smoking","begin":4445,"end":4451,"sentenceIndex":29,"sentenceBegin":4397,"sentenceEnd":4452}]}
{"paperId":"2e9f02301be41d902164d38f217f386f714a063a","indicators":[{"word":"smoking","begin":954,"end":960,"sentenceIndex":6,"sentenceBegin":804,"sentenceEnd":1071},{"word":"smoking","begin":1384,"end":1390,"sentenceIndex":8,"sentenceBegin":1289,"sentenceEnd":1448}]}
{"paperId":"2e9f02301be41d902164d38f217f386f714a063a","indicators":[{"word":"smoking","begin":1742,"end":1748,"sentenceIndex":20,"sentenceBegin":1671,"sentenceEnd":1749}]}
{"paperId":"2e9f02301be41d902164d38f217f386f714a063a","indicators":[{"word":"smoking","begin":1022,"end":1028,"sentenceIndex":10,"sentenceBegin":1009,"sentenceEnd":1095}]}
{"paperId":"2e9f02301be41d902164d38f217f386f714a063a","indicators":[{"word":"smoking","begin":964,"end":970,"sentenceIndex":7,"sentenceBegin":875,"sentenceEnd":979}]}
{"paperId":"dbd72b5ba77c2a2d2fdf87b7cc6a39d6b97fb3cc","indicators":[{"word":"smoking","begin":695,"end":701,"sentenceIndex":6,"sentenceBegin":688,"sentenceEnd":709}]}
{"paperId":"dbd72b5ba77c2a2d2fdf87b7cc6a39d6b97fb3cc","indicators":[{"word":"cigarette","begin":6920,"end":6928,"sentenceIndex":61,"sentenceBegin":6801,"sentenceEnd":7006},{"word":"smoking","begin":6930,"end":6936,"sentenceIndex":61,"sentenceBegin":6801,"sentenceEnd":7006}]}
{"paperId":"dc6e18ee4dbe5ac14e5db322cce9268f39218dec","indicators":[{"word":"weeds","begin":135,"end":139,"sentenceIndex":0,"sentenceBegin":0,"sentenceEnd":295},{"word":"weed","begin":263,"end":266,"sentenceIndex":0,"sentenceBegin":0,"sentenceEnd":295}]}
{"paperId":"8f2a26126439c14bd3cfccc028cef4204d7c051e","indicators":[{"word":"smoking","begin":1171,"end":1177,"sentenceIndex":10,"sentenceBegin":1135,"sentenceEnd":1352}]}
{"paperId":"8f2a26126439c14bd3cfccc028cef4204d7c051e","indicators":[{"word":"smoking","begin":1504,"end":1510,"sentenceIndex":8,"sentenceBegin":1342,"sentenceEnd":1604}]}
{"paperId":"8f2a26126439c14bd3cfccc028cef4204d7c051e","indicators":[{"word":"tobacco","begin":762,"end":768,"sentenceIndex":5,"sentenceBegin":634,"sentenceEnd":864}]}
{"paperId":"8f2a26126439c14bd3cfccc028cef4204d7c051e","indicators":[{"word":"smoking","begin":860,"end":866,"sentenceIndex":4,"sentenceBegin":740,"sentenceEnd":963}]}
{"paperId":"8f2a26126439c14bd3cfccc028cef4204d7c051e","indicators":[{"word":"smoking","begin":430,"end":436,"sentenceIndex":3,"sentenceBegin":419,"sentenceEnd":625},{"word":"smoking","begin":883,"end":889,"sentenceIndex":5,"sentenceBegin":690,"sentenceEnd":922},{"word":"cigarettes","begin":904,"end":913,"sentenceIndex":5,"sentenceBegin":690,"sentenceEnd":922},{"word":"smoking","begin":2137,"end":2143,"sentenceIndex":14,"sentenceBegin":2081,"sentenceEnd":2152}]}
{"paperId":"8f2a26126439c14bd3cfccc028cef4204d7c051e","indicators":[{"word":"smoking","begin":1572,"end":1578,"sentenceIndex":8,"sentenceBegin":1508,"sentenceEnd":1743}]}
{"paperId":"8f2a26126439c14bd3cfccc028cef4204d7c051e","indicators":[{"word":"smoking","begin":862,"end":868,"sentenceIndex":5,"sentenceBegin":709,"sentenceEnd":925}]}
{"paperId":"0c85cb21e1ee020990ee18e240b826c1ca108793","indicators":[{"word":"firing","begin":308,"end":313,"sentenceIndex":2,"sentenceBegin":288,"sentenceEnd":426}]}
{"paperId":"0c85cb21e1ee020990ee18e240b826c1ca108793","indicators":[{"word":"firing","begin":281,"end":286,"sentenceIndex":3,"sentenceBegin":213,"sentenceEnd":326},{"word":"firing","begin":360,"end":365,"sentenceIndex":4,"sentenceBegin":328,"sentenceEnd":397},{"word":"firing","begin":476,"end":481,"sentenceIndex":5,"sentenceBegin":399,"sentenceEnd":518},{"word":"firing","begin":562,"end":567,"sentenceIndex":6,"sentenceBegin":520,"sentenceEnd":598}]}
{"paperId":"a0ec6af3dd223aded43129301b6320a4005ee142","indicators":[{"word":"weeds","begin":196,"end":200,"sentenceIndex":1,"sentenceBegin":168,"sentenceEnd":475},{"word":"weed","begin":531,"end":534,"sentenceIndex":3,"sentenceBegin":524,"sentenceEnd":658}]}
{"paperId":"a0ec6af3dd223aded43129301b6320a4005ee142","indicators":[{"word":"firing","begin":119,"end":124,"sentenceIndex":0,"sentenceBegin":0,"sentenceEnd":169}]}
{"paperId":"a037a1a6fe76f1c43e33a639231b9874cb655f88","indicators":[{"word":"smoking","begin":1551,"end":1557,"sentenceIndex":12,"sentenceBegin":1426,"sentenceEnd":1568},{"word":"smoked","begin":8530,"end":8535,"sentenceIndex":79,"sentenceBegin":8378,"sentenceEnd":8536}]}
{"paperId":"a037a1a6fe76f1c43e33a639231b9874cb655f88","indicators":[{"word":"tobacco","begin":4732,"end":4738,"sentenceIndex":41,"sentenceBegin":4668,"sentenceEnd":4750}]}
{"paperId":"a037a1a6fe76f1c43e33a639231b9874cb655f88","indicators":[{"word":"cigarette","begin":826,"end":834,"sentenceIndex":8,"sentenceBegin":760,"sentenceEnd":835},{"word":"smoking","begin":1289,"end":1295,"sentenceIndex":14,"sentenceBegin":1239,"sentenceEnd":1304},{"word":"tobacco","begin":5344,"end":5350,"sentenceIndex":57,"sentenceBegin":5313,"sentenceEnd":5421}]}
{"paperId":"a037a1a6fe76f1c43e33a639231b9874cb655f88","indicators":[{"word":"tobacco","begin":380,"end":386,"sentenceIndex":2,"sentenceBegin":248,"sentenceEnd":428}]}
{"paperId":"a037a1a6fe76f1c43e33a639231b9874cb655f88","indicators":[{"word":"tobacco","begin":480,"end":486,"sentenceIndex":5,"sentenceBegin":406,"sentenceEnd":577}]}
{"paperId":"a037a1a6fe76f1c43e33a639231b9874cb655f88","indicators":[{"word":"smoked","begin":801,"end":806,"sentenceIndex":8,"sentenceBegin":767,"sentenceEnd":848},{"word":"smoked","begin":866,"end":871,"sentenceIndex":9,"sentenceBegin":850,"sentenceEnd":923},{"word":"cigarettes","begin":873,"end":882,"sentenceIndex":9,"sentenceBegin":850,"sentenceEnd":923},{"word":"smoking","begin":1977,"end":1983,"sentenceIndex":25,"sentenceBegin":1966,"sentenceEnd":2094},{"word":"tobacco","begin":1985,"end":1991,"sentenceIndex":25,"sentenceBegin":1966,"sentenceEnd":2094},{"word":"smoking","begin":2330,"end":2336,"sentenceIndex":28,"sentenceBegin":2285,"sentenceEnd":2337},{"word":"smoking","begin":3062,"end":3068,"sentenceIndex":35,"sentenceBegin":2959,"sentenceEnd":3115},{"word":"smoking","begin":5254,"end":5260,"sentenceIndex":54,"sentenceBegin":5244,"sentenceEnd":5308}]}
{"paperId":"a037a1a6fe76f1c43e33a639231b9874cb655f88","indicators":[{"word":"smoking","begin":6303,"end":6309,"sentenceIndex":57,"sentenceBegin":6232,"sentenceEnd":6310},{"word":"tobacco","begin":7099,"end":7105,"sentenceIndex":65,"sentenceBegin":7016,"sentenceEnd":7117}]}
{"paperId":"a037a1a6fe76f1c43e33a639231b9874cb655f88","indicators":[{"word":"smoking","begin":767,"end":773,"sentenceIndex":9,"sentenceBegin":719,"sentenceEnd":774}]}
{"paperId":"a037a1a6fe76f1c43e33a639231b9874cb655f88","indicators":[{"word":"tobacco","begin":1467,"end":1473,"sentenceIndex":20,"sentenceBegin":1437,"sentenceEnd":1487}]}
{"paperId":"a037a1a6fe76f1c43e33a639231b9874cb655f88","indicators":[{"word":"tobacco","begin":641,"end":647,"sentenceIndex":6,"sentenceBegin":578,"sentenceEnd":673}]}
{"paperId":"a037a1a6fe76f1c43e33a639231b9874cb655f88","indicators":[{"word":"smoking","begin":818,"end":824,"sentenceIndex":8,"sentenceBegin":664,"sentenceEnd":833}]}
{"paperId":"a037a1a6fe76f1c43e33a639231b9874cb655f88","indicators":[{"word":"tobacco","begin":8641,"end":8647,"sentenceIndex":89,"sentenceBegin":8589,"sentenceEnd":8669}]}
{"paperId":"a037a1a6fe76f1c43e33a639231b9874cb655f88","indicators":[{"word":"tobacco","begin":1157,"end":1163,"sentenceIndex":12,"sentenceBegin":1107,"sentenceEnd":1237}]}
{"paperId":"a037a1a6fe76f1c43e33a639231b9874cb655f88","indicators":[{"word":"tobacco","begin":5766,"end":5772,"sentenceIndex":50,"sentenceBegin":5739,"sentenceEnd":5812},{"word":"smoking","begin":10597,"end":10603,"sentenceIndex":87,"sentenceBegin":10560,"sentenceEnd":10604}]}
{"paperId":"a037a1a6fe76f1c43e33a639231b9874cb655f88","indicators":[{"word":"smoking","begin":1534,"end":1540,"sentenceIndex":12,"sentenceBegin":1517,"sentenceEnd":1549},{"word":"smoke","begin":2459,"end":2463,"sentenceIndex":23,"sentenceBegin":2386,"sentenceEnd":2553}]}
{"paperId":"a037a1a6fe76f1c43e33a639231b9874cb655f88","indicators":[{"word":"smoking","begin":9959,"end":9965,"sentenceIndex":100,"sentenceBegin":9924,"sentenceEnd":9980}]}
{"paperId":"a037a1a6fe76f1c43e33a639231b9874cb655f88","indicators":[{"word":"smoking","begin":4730,"end":4736,"sentenceIndex":53,"sentenceBegin":4706,"sentenceEnd":4774}]}
{"paperId":"a037a1a6fe76f1c43e33a639231b9874cb655f88","indicators":[{"word":"smoking","begin":1006,"end":1012,"sentenceIndex":10,"sentenceBegin":936,"sentenceEnd":1058}]}
{"paperId":"a037a1a6fe76f1c43e33a639231b9874cb655f88","indicators":[{"word":"smokes","begin":4926,"end":4931,"sentenceIndex":52,"sentenceBegin":4923,"sentenceEnd":4991},{"word":"cigarettes","begin":4933,"end":4942,"sentenceIndex":52,"sentenceBegin":4923,"sentenceEnd":4991}]}
{"paperId":"a037a1a6fe76f1c43e33a639231b9874cb655f88","indicators":[{"word":"smokes","begin":7839,"end":7844,"sentenceIndex":69,"sentenceBegin":7807,"sentenceEnd":7856},{"word":"cigarettes","begin":7846,"end":7855,"sentenceIndex":69,"sentenceBegin":7807,"sentenceEnd":7856}]}
{"paperId":"a037a1a6fe76f1c43e33a639231b9874cb655f88","indicators":[{"word":"tobacco","begin":523,"end":529,"sentenceIndex":4,"sentenceBegin":491,"sentenceEnd":557}]}
{"paperId":"a037a1a6fe76f1c43e33a639231b9874cb655f88","indicators":[{"word":"smoking","begin":4923,"end":4929,"sentenceIndex":45,"sentenceBegin":4919,"sentenceEnd":5007}]}
{"paperId":"a037a1a6fe76f1c43e33a639231b9874cb655f88","indicators":[{"word":"tobacco","begin":5344,"end":5350,"sentenceIndex":48,"sentenceBegin":5299,"sentenceEnd":5456},{"word":"tobacco","begin":6093,"end":6099,"sentenceIndex":56,"sentenceBegin":6025,"sentenceEnd":6162}]}
{"paperId":"a037a1a6fe76f1c43e33a639231b9874cb655f88","indicators":[{"word":"tobacco","begin":50,"end":56,"sentenceIndex":1,"sentenceBegin":34,"sentenceEnd":78}]}
{"paperId":"a037a1a6fe76f1c43e33a639231b9874cb655f88","indicators":[{"word":"tobacco","begin":370,"end":376,"sentenceIndex":3,"sentenceBegin":272,"sentenceEnd":397}]}
{"paperId":"a037a1a6fe76f1c43e33a639231b9874cb655f88","indicators":[{"word":"smokes","begin":929,"end":934,"sentenceIndex":10,"sentenceBegin":925,"sentenceEnd":1033},{"word":"cigarettes","begin":949,"end":958,"sentenceIndex":10,"sentenceBegin":925,"sentenceEnd":1033}]}
{"paperId":"a037a1a6fe76f1c43e33a639231b9874cb655f88","indicators":[{"word":"tobacco","begin":1203,"end":1209,"sentenceIndex":11,"sentenceBegin":1180,"sentenceEnd":1231}]}
{"paperId":"a037a1a6fe76f1c43e33a639231b9874cb655f88","indicators":[{"word":"tobacco","begin":871,"end":877,"sentenceIndex":9,"sentenceBegin":829,"sentenceEnd":934}]}
{"paperId":"a037a1a6fe76f1c43e33a639231b9874cb655f88","indicators":[{"word":"tobacco","begin":851,"end":857,"sentenceIndex":10,"sentenceBegin":818,"sentenceEnd":882}]}
{"paperId":"a037a1a6fe76f1c43e33a639231b9874cb655f88","indicators":[{"word":"tobacco","begin":1570,"end":1576,"sentenceIndex":21,"sentenceBegin":1481,"sentenceEnd":1583},{"word":"tobacco","begin":1746,"end":1752,"sentenceIndex":22,"sentenceBegin":1585,"sentenceEnd":1760},{"word":"cigarettes","begin":2016,"end":2025,"sentenceIndex":25,"sentenceBegin":1946,"sentenceEnd":2072},{"word":"smoking","begin":2111,"end":2117,"sentenceIndex":26,"sentenceBegin":2074,"sentenceEnd":2135},{"word":"smoke","begin":2971,"end":2975,"sentenceIndex":33,"sentenceBegin":2813,"sentenceEnd":2976}]}
{"paperId":"a037a1a6fe76f1c43e33a639231b9874cb655f88","indicators":[{"word":"smoke","begin":5914,"end":5918,"sentenceIndex":69,"sentenceBegin":5881,"sentenceEnd":5936}]}
