{"paperId":"92bc94fd5b84fa6b14a8eb33ae724b8e74a3286b","indicators":[{"word":"fired","begin":301,"end":305,"sentenceIndex":2,"sentenceBegin":240,"sentenceEnd":388}]}
{"paperId":"960da39d83b809cd9d10258cfbf87404c2db4831","indicators":[{"word":"smoke","begin":425,"end":429,"sentenceIndex":1,"sentenceBegin":213,"sentenceEnd":430}]}
{"paperId":"b5692a2317cb554affb5c3e4d6326aa4b7a3badc","indicators":[{"word":"cigarette","begin":429,"end":437,"sentenceIndex":3,"sentenceBegin":381,"sentenceEnd":606},{"word":"smoke","begin":439,"end":443,"sentenceIndex":3,"sentenceBegin":381,"sentenceEnd":606}]}
