{"paperId":"0cbb22ef36a375f7abca0f173953ba162929b40e","indicators":[{"word":"smoking","begin":868,"end":874,"sentenceIndex":3,"sentenceBegin":670,"sentenceEnd":887},{"word":"smoking","begin":1011,"end":1017,"sentenceIndex":4,"sentenceBegin":889,"sentenceEnd":1025}]}
{"paperId":"b5ace18191f3c38909720e5805118250b750e0c8","indicators":[{"word":"smoking","begin":938,"end":944,"sentenceIndex":4,"sentenceBegin":847,"sentenceEnd":1019}]}
{"paperId":"7f923809d6875b38e21636801b4a50f8fbac6aef","indicators":[{"word":"tobacco","begin":935,"end":941,"sentenceIndex":4,"sentenceBegin":917,"sentenceEnd":1091}]}
{"paperId":"7f923809d6875b38e21636801b4a50f8fbac6aef","indicators":[{"word":"tobacco","begin":935,"end":941,"sentenceIndex":4,"sentenceBegin":917,"sentenceEnd":1091}]}
{"paperId":"3756f6bdf7a03f2cf4462e0ddeb8f9e7b0d252b6","indicators":[{"word":"weed","begin":960,"end":963,"sentenceIndex":6,"sentenceBegin":823,"sentenceEnd":1014}]}
{"paperId":"3756f6bdf7a03f2cf4462e0ddeb8f9e7b0d252b6","indicators":[{"word":"smoke","begin":144,"end":148,"sentenceIndex":1,"sentenceBegin":90,"sentenceEnd":170}]}
