{"paperId":"80849256fb64a2f40f874c1fe5034b37b05bdd72","indicators":[{"word":"vapor","begin":262,"end":266,"sentenceIndex":2,"sentenceBegin":174,"sentenceEnd":325}]}
{"paperId":"7b86dba01b5c24bef79dfcf7305783f67b0688bd","indicators":[{"word":"smoking","begin":490,"end":496,"sentenceIndex":4,"sentenceBegin":461,"sentenceEnd":581}]}
{"paperId":"7b86dba01b5c24bef79dfcf7305783f67b0688bd","indicators":[{"word":"tobacco","begin":338,"end":344,"sentenceIndex":2,"sentenceBegin":252,"sentenceEnd":504},{"word":"smoking","begin":346,"end":352,"sentenceIndex":2,"sentenceBegin":252,"sentenceEnd":504}]}
