{"paperId":"3374190b393011e151cc1b8d100dc56ad0db99db","indicators":[{"word":"smoking","begin":606,"end":612,"sentenceIndex":1,"sentenceBegin":117,"sentenceEnd":758}]}
{"paperId":"cb8b64a9b132b17468dc87a44eb83660b168f107","indicators":[{"word":"fires","begin":1658,"end":1662,"sentenceIndex":7,"sentenceBegin":1491,"sentenceEnd":1663}]}
{"paperId":"9aa814d7e3298e6d378b9c00962f1427593bf7f1","indicators":[{"word":"firing","begin":361,"end":366,"sentenceIndex":3,"sentenceBegin":291,"sentenceEnd":518}]}
