{"paperId":"6e775905ea142e9d91083ad18cb22231d83498be","indicators":[{"word":"smoking","begin":864,"end":870,"sentenceIndex":4,"sentenceBegin":750,"sentenceEnd":1156}]}
{"paperId":"b18a1e902c91c1002e8abca5319ccf3534f9d520","indicators":[{"word":"smoke","begin":114,"end":118,"sentenceIndex":0,"sentenceBegin":0,"sentenceEnd":243},{"word":"cigarettes","begin":190,"end":199,"sentenceIndex":0,"sentenceBegin":0,"sentenceEnd":243},{"word":"cigarette","begin":291,"end":299,"sentenceIndex":1,"sentenceBegin":245,"sentenceEnd":366},{"word":"cigarette","begin":411,"end":419,"sentenceIndex":2,"sentenceBegin":368,"sentenceEnd":510},{"word":"smoking","begin":421,"end":427,"sentenceIndex":2,"sentenceBegin":368,"sentenceEnd":510},{"word":"smoking","begin":716,"end":722,"sentenceIndex":4,"sentenceBegin":654,"sentenceEnd":891},{"word":"smoking","begin":849,"end":855,"sentenceIndex":4,"sentenceBegin":654,"sentenceEnd":891},{"word":"smoking","begin":925,"end":931,"sentenceIndex":5,"sentenceBegin":893,"sentenceEnd":1043},{"word":"tobacco","begin":1023,"end":1029,"sentenceIndex":5,"sentenceBegin":893,"sentenceEnd":1043},{"word":"tobacco","begin":1110,"end":1116,"sentenceIndex":6,"sentenceBegin":1045,"sentenceEnd":1227},{"word":"cigarette","begin":1118,"end":1126,"sentenceIndex":6,"sentenceBegin":1045,"sentenceEnd":1227},{"word":"cigarette","begin":1148,"end":1156,"sentenceIndex":6,"sentenceBegin":1045,"sentenceEnd":1227}]}
{"paperId":"b18a1e902c91c1002e8abca5319ccf3534f9d520","indicators":[{"word":"tobacco","begin":60,"end":66,"sentenceIndex":0,"sentenceBegin":0,"sentenceEnd":97}]}
{"paperId":"b18a1e902c91c1002e8abca5319ccf3534f9d520","indicators":[{"word":"smoking","begin":933,"end":939,"sentenceIndex":6,"sentenceBegin":883,"sentenceEnd":1054}]}
{"paperId":"b18a1e902c91c1002e8abca5319ccf3534f9d520","indicators":[{"word":"tobacco","begin":137,"end":143,"sentenceIndex":0,"sentenceBegin":0,"sentenceEnd":169},{"word":"tobacco","begin":371,"end":377,"sentenceIndex":2,"sentenceBegin":278,"sentenceEnd":471}]}
