{"paperId":"4f1d320c87c2eb5693b9b7ffa34aabfa4fc6c272","indicators":[{"word":"vapor","begin":454,"end":458,"sentenceIndex":2,"sentenceBegin":297,"sentenceEnd":566}]}
{"paperId":"4f1d320c87c2eb5693b9b7ffa34aabfa4fc6c272","indicators":[{"word":"tobacco","begin":1048,"end":1054,"sentenceIndex":6,"sentenceBegin":867,"sentenceEnd":1333}]}
{"paperId":"4f1d320c87c2eb5693b9b7ffa34aabfa4fc6c272","indicators":[{"word":"tobacco","begin":3543,"end":3549,"sentenceIndex":31,"sentenceBegin":3484,"sentenceEnd":3582}]}
{"paperId":"ef75e7d14cb317357478c9747515239197d2083a","indicators":[{"word":"tobacco","begin":604,"end":610,"sentenceIndex":4,"sentenceBegin":441,"sentenceEnd":860},{"word":"smoke","begin":612,"end":616,"sentenceIndex":4,"sentenceBegin":441,"sentenceEnd":860}]}
{"paperId":"ef75e7d14cb317357478c9747515239197d2083a","indicators":[{"word":"puffs","begin":1482,"end":1486,"sentenceIndex":10,"sentenceBegin":1442,"sentenceEnd":1585},{"word":"puffs","begin":1580,"end":1584,"sentenceIndex":10,"sentenceBegin":1442,"sentenceEnd":1585},{"word":"puffs","begin":1597,"end":1601,"sentenceIndex":11,"sentenceBegin":1587,"sentenceEnd":1665}]}
{"paperId":"ef75e7d14cb317357478c9747515239197d2083a","indicators":[{"word":"puffs","begin":302,"end":306,"sentenceIndex":2,"sentenceBegin":256,"sentenceEnd":404}]}
{"paperId":"ef75e7d14cb317357478c9747515239197d2083a","indicators":[{"word":"smoke","begin":549,"end":553,"sentenceIndex":3,"sentenceBegin":525,"sentenceEnd":658}]}
{"paperId":"b325cc49a61094056d6c7776a0825e58a19cded3","indicators":[{"word":"cigarette","begin":334,"end":342,"sentenceIndex":1,"sentenceBegin":130,"sentenceEnd":389},{"word":"smoke","begin":344,"end":348,"sentenceIndex":1,"sentenceBegin":130,"sentenceEnd":389}]}
{"paperId":"b325cc49a61094056d6c7776a0825e58a19cded3","indicators":[{"word":"smoking","begin":786,"end":792,"sentenceIndex":6,"sentenceBegin":599,"sentenceEnd":820}]}
{"paperId":"b325cc49a61094056d6c7776a0825e58a19cded3","indicators":[{"word":"tobacco","begin":116,"end":122,"sentenceIndex":1,"sentenceBegin":8,"sentenceEnd":168},{"word":"smoke","begin":124,"end":128,"sentenceIndex":1,"sentenceBegin":8,"sentenceEnd":168}]}
{"paperId":"8a290424b872b5e500f3c7785f1af79c04af222c","indicators":[{"word":"tobacco","begin":387,"end":393,"sentenceIndex":1,"sentenceBegin":158,"sentenceEnd":535}]}
{"paperId":"8a290424b872b5e500f3c7785f1af79c04af222c","indicators":[{"word":"tobacco","begin":384,"end":390,"sentenceIndex":1,"sentenceBegin":251,"sentenceEnd":502},{"word":"tobacco","begin":575,"end":581,"sentenceIndex":2,"sentenceBegin":504,"sentenceEnd":609},{"word":"tobacco","begin":676,"end":682,"sentenceIndex":3,"sentenceBegin":611,"sentenceEnd":721},{"word":"tobacco","begin":1052,"end":1058,"sentenceIndex":5,"sentenceBegin":913,"sentenceEnd":1096}]}
{"paperId":"8a290424b872b5e500f3c7785f1af79c04af222c","indicators":[{"word":"tobacco","begin":1229,"end":1235,"sentenceIndex":5,"sentenceBegin":966,"sentenceEnd":1256}]}
{"paperId":"8a290424b872b5e500f3c7785f1af79c04af222c","indicators":[{"word":"tobacco","begin":122,"end":128,"sentenceIndex":1,"sentenceBegin":115,"sentenceEnd":270}]}
{"paperId":"8a290424b872b5e500f3c7785f1af79c04af222c","indicators":[{"word":"tobacco","begin":232,"end":238,"sentenceIndex":0,"sentenceBegin":0,"sentenceEnd":248}]}
{"paperId":"886c69ba9b7fb6441b3dc9c06d77abf30e3a0703","indicators":[{"word":"tobacco","begin":1437,"end":1443,"sentenceIndex":6,"sentenceBegin":1196,"sentenceEnd":1599}]}
{"paperId":"e00ab1ff9e72c8cdbccf3842b571eec260355675","indicators":[{"word":"tobacco","begin":56,"end":62,"sentenceIndex":0,"sentenceBegin":0,"sentenceEnd":315},{"word":"tobacco","begin":379,"end":385,"sentenceIndex":1,"sentenceBegin":317,"sentenceEnd":518}]}
{"paperId":"1e0bf7801cc76a9713f9f9eb28eaeffcb335e575","indicators":[{"word":"tobacco","begin":373,"end":379,"sentenceIndex":2,"sentenceBegin":264,"sentenceEnd":409},{"word":"tobacco","begin":561,"end":567,"sentenceIndex":4,"sentenceBegin":512,"sentenceEnd":835}]}
{"paperId":"1e0bf7801cc76a9713f9f9eb28eaeffcb335e575","indicators":[{"word":"tobacco","begin":51,"end":57,"sentenceIndex":0,"sentenceBegin":0,"sentenceEnd":333}]}
{"paperId":"1e0bf7801cc76a9713f9f9eb28eaeffcb335e575","indicators":[{"word":"tobacco","begin":983,"end":989,"sentenceIndex":4,"sentenceBegin":872,"sentenceEnd":1250}]}
{"paperId":"1e0bf7801cc76a9713f9f9eb28eaeffcb335e575","indicators":[{"word":"tobacco","begin":774,"end":780,"sentenceIndex":5,"sentenceBegin":420,"sentenceEnd":787}]}
{"paperId":"1e0bf7801cc76a9713f9f9eb28eaeffcb335e575","indicators":[{"word":"tobacco","begin":1006,"end":1012,"sentenceIndex":7,"sentenceBegin":915,"sentenceEnd":1074}]}
{"paperId":"1e0bf7801cc76a9713f9f9eb28eaeffcb335e575","indicators":[{"word":"tobacco","begin":959,"end":965,"sentenceIndex":4,"sentenceBegin":768,"sentenceEnd":1294},{"word":"tobacco","begin":1271,"end":1277,"sentenceIndex":4,"sentenceBegin":768,"sentenceEnd":1294},{"word":"tobacco","begin":1297,"end":1303,"sentenceIndex":5,"sentenceBegin":1296,"sentenceEnd":1320},{"word":"tobacco","begin":1465,"end":1471,"sentenceIndex":6,"sentenceBegin":1322,"sentenceEnd":1515}]}
{"paperId":"1e0bf7801cc76a9713f9f9eb28eaeffcb335e575","indicators":[{"word":"tobacco","begin":174,"end":180,"sentenceIndex":1,"sentenceBegin":86,"sentenceEnd":253}]}
{"paperId":"1e0bf7801cc76a9713f9f9eb28eaeffcb335e575","indicators":[{"word":"tobacco","begin":316,"end":322,"sentenceIndex":1,"sentenceBegin":275,"sentenceEnd":499}]}
{"paperId":"1e0bf7801cc76a9713f9f9eb28eaeffcb335e575","indicators":[{"word":"tobacco","begin":397,"end":403,"sentenceIndex":4,"sentenceBegin":300,"sentenceEnd":528}]}
{"paperId":"1e0bf7801cc76a9713f9f9eb28eaeffcb335e575","indicators":[{"word":"tobacco","begin":898,"end":904,"sentenceIndex":4,"sentenceBegin":718,"sentenceEnd":962}]}
{"paperId":"fae7bd824de728ee785c7cd701acfe238488fd74","indicators":[{"word":"vapors","begin":278,"end":283,"sentenceIndex":1,"sentenceBegin":168,"sentenceEnd":303}]}
{"paperId":"bd904dd20492b0e9a3e5f57e4419819e81b30331","indicators":[{"word":"tobacco","begin":688,"end":694,"sentenceIndex":2,"sentenceBegin":408,"sentenceEnd":744}]}
{"paperId":"bd904dd20492b0e9a3e5f57e4419819e81b30331","indicators":[{"word":"tobacco","begin":504,"end":510,"sentenceIndex":2,"sentenceBegin":426,"sentenceEnd":657},{"word":"tobacco","begin":1400,"end":1406,"sentenceIndex":7,"sentenceBegin":1338,"sentenceEnd":1631}]}
