{"paperId":"19e119f7ecc464568df42a01b51d8d8ced37f53a","indicators":[{"word":"tobacco","begin":882,"end":888,"sentenceIndex":9,"sentenceBegin":735,"sentenceEnd":937}]}
{"paperId":"19e119f7ecc464568df42a01b51d8d8ced37f53a","indicators":[{"word":"tobacco","begin":116,"end":122,"sentenceIndex":0,"sentenceBegin":0,"sentenceEnd":147}]}
{"paperId":"19e119f7ecc464568df42a01b51d8d8ced37f53a","indicators":[{"word":"tobacco","begin":982,"end":988,"sentenceIndex":12,"sentenceBegin":979,"sentenceEnd":1125}]}
{"paperId":"19e119f7ecc464568df42a01b51d8d8ced37f53a","indicators":[{"word":"tobacco","begin":1722,"end":1728,"sentenceIndex":16,"sentenceBegin":1605,"sentenceEnd":1976}]}
{"paperId":"19e119f7ecc464568df42a01b51d8d8ced37f53a","indicators":[{"word":"tobacco","begin":447,"end":453,"sentenceIndex":3,"sentenceBegin":358,"sentenceEnd":483}]}
{"paperId":"19e119f7ecc464568df42a01b51d8d8ced37f53a","indicators":[{"word":"tobacco","begin":667,"end":673,"sentenceIndex":4,"sentenceBegin":549,"sentenceEnd":788}]}
{"paperId":"19e119f7ecc464568df42a01b51d8d8ced37f53a","indicators":[{"word":"tobacco","begin":380,"end":386,"sentenceIndex":2,"sentenceBegin":310,"sentenceEnd":498},{"word":"tobacco","begin":841,"end":847,"sentenceIndex":6,"sentenceBegin":736,"sentenceEnd":906},{"word":"tobacco","begin":876,"end":882,"sentenceIndex":6,"sentenceBegin":736,"sentenceEnd":906},{"word":"tobacco","begin":2006,"end":2012,"sentenceIndex":13,"sentenceBegin":1839,"sentenceEnd":2031}]}
{"paperId":"19e119f7ecc464568df42a01b51d8d8ced37f53a","indicators":[{"word":"tobacco","begin":451,"end":457,"sentenceIndex":2,"sentenceBegin":267,"sentenceEnd":490}]}
{"paperId":"19e119f7ecc464568df42a01b51d8d8ced37f53a","indicators":[{"word":"tobacco","begin":181,"end":187,"sentenceIndex":1,"sentenceBegin":87,"sentenceEnd":212},{"word":"tobacco","begin":667,"end":673,"sentenceIndex":5,"sentenceBegin":604,"sentenceEnd":785},{"word":"tobacco","begin":1057,"end":1063,"sentenceIndex":7,"sentenceBegin":911,"sentenceEnd":1094}]}
{"paperId":"19e119f7ecc464568df42a01b51d8d8ced37f53a","indicators":[{"word":"tobacco","begin":947,"end":953,"sentenceIndex":6,"sentenceBegin":781,"sentenceEnd":983},{"word":"tobacco","begin":1128,"end":1134,"sentenceIndex":7,"sentenceBegin":985,"sentenceEnd":1135},{"word":"tobacco","begin":1210,"end":1216,"sentenceIndex":8,"sentenceBegin":1137,"sentenceEnd":1278}]}
{"paperId":"19e119f7ecc464568df42a01b51d8d8ced37f53a","indicators":[{"word":"tobacco","begin":2402,"end":2408,"sentenceIndex":19,"sentenceBegin":2355,"sentenceEnd":2515},{"word":"tobacco","begin":2494,"end":2500,"sentenceIndex":19,"sentenceBegin":2355,"sentenceEnd":2515},{"word":"tobacco","begin":2941,"end":2947,"sentenceIndex":23,"sentenceBegin":2908,"sentenceEnd":3162},{"word":"tobacco","begin":3001,"end":3007,"sentenceIndex":23,"sentenceBegin":2908,"sentenceEnd":3162}]}
{"paperId":"19e119f7ecc464568df42a01b51d8d8ced37f53a","indicators":[{"word":"tobacco","begin":431,"end":437,"sentenceIndex":6,"sentenceBegin":423,"sentenceEnd":638}]}
{"paperId":"19e119f7ecc464568df42a01b51d8d8ced37f53a","indicators":[{"word":"tobacco","begin":248,"end":254,"sentenceIndex":1,"sentenceBegin":211,"sentenceEnd":432},{"word":"tobacco","begin":395,"end":401,"sentenceIndex":1,"sentenceBegin":211,"sentenceEnd":432}]}
{"paperId":"19e119f7ecc464568df42a01b51d8d8ced37f53a","indicators":[{"word":"tobacco","begin":65,"end":71,"sentenceIndex":0,"sentenceBegin":0,"sentenceEnd":375}]}
{"paperId":"19e119f7ecc464568df42a01b51d8d8ced37f53a","indicators":[{"word":"tobacco","begin":548,"end":554,"sentenceIndex":3,"sentenceBegin":397,"sentenceEnd":711}]}
{"paperId":"19e119f7ecc464568df42a01b51d8d8ced37f53a","indicators":[{"word":"tobacco","begin":461,"end":467,"sentenceIndex":3,"sentenceBegin":338,"sentenceEnd":616},{"word":"tobacco","begin":741,"end":747,"sentenceIndex":4,"sentenceBegin":618,"sentenceEnd":791}]}
{"paperId":"19e119f7ecc464568df42a01b51d8d8ced37f53a","indicators":[{"word":"tobacco","begin":342,"end":348,"sentenceIndex":1,"sentenceBegin":129,"sentenceEnd":379}]}
{"paperId":"946a25e499f05da8a2f0bd000ebdbe9e2eeafe5b","indicators":[{"word":"firing","begin":2644,"end":2649,"sentenceIndex":24,"sentenceBegin":2503,"sentenceEnd":2768},{"word":"firing","begin":2723,"end":2728,"sentenceIndex":24,"sentenceBegin":2503,"sentenceEnd":2768}]}
{"paperId":"946a25e499f05da8a2f0bd000ebdbe9e2eeafe5b","indicators":[{"word":"smoking","begin":373,"end":379,"sentenceIndex":4,"sentenceBegin":268,"sentenceEnd":488},{"word":"cannabis","begin":442,"end":449,"sentenceIndex":4,"sentenceBegin":268,"sentenceEnd":488}]}
{"paperId":"946a25e499f05da8a2f0bd000ebdbe9e2eeafe5b","indicators":[{"word":"cigarettes","begin":277,"end":286,"sentenceIndex":4,"sentenceBegin":175,"sentenceEnd":312}]}
{"paperId":"cd7a81e01264de507007efb1e88f673497cf76d1","indicators":[{"word":"fires","begin":1100,"end":1104,"sentenceIndex":12,"sentenceBegin":997,"sentenceEnd":1144}]}
{"paperId":"cd7a81e01264de507007efb1e88f673497cf76d1","indicators":[{"word":"tobacco","begin":203,"end":209,"sentenceIndex":1,"sentenceBegin":147,"sentenceEnd":458}]}
{"paperId":"cd7a81e01264de507007efb1e88f673497cf76d1","indicators":[{"word":"smoking","begin":667,"end":673,"sentenceIndex":6,"sentenceBegin":541,"sentenceEnd":729}]}
{"paperId":"7573a5524e938f7d9d2503716fbdc2692ea156c9","indicators":[{"word":"smoking","begin":1639,"end":1645,"sentenceIndex":13,"sentenceBegin":1417,"sentenceEnd":1671}]}
{"paperId":"7573a5524e938f7d9d2503716fbdc2692ea156c9","indicators":[{"word":"smoke","begin":633,"end":637,"sentenceIndex":4,"sentenceBegin":495,"sentenceEnd":797}]}
{"paperId":"933ed2bccbedf90cb03d9258a971904851bf1033","indicators":[{"word":"tobacco","begin":117,"end":123,"sentenceIndex":0,"sentenceBegin":0,"sentenceEnd":237}]}
{"paperId":"933ed2bccbedf90cb03d9258a971904851bf1033","indicators":[{"word":"tobacco","begin":6,"end":12,"sentenceIndex":0,"sentenceBegin":0,"sentenceEnd":121}]}
{"paperId":"1cfd77f38b7693fad2e244c790f819d620390ddd","indicators":[{"word":"smoking","begin":245,"end":251,"sentenceIndex":3,"sentenceBegin":79,"sentenceEnd":263}]}
{"paperId":"1cfd77f38b7693fad2e244c790f819d620390ddd","indicators":[{"word":"smoking","begin":22,"end":28,"sentenceIndex":0,"sentenceBegin":0,"sentenceEnd":149},{"word":"smoking","begin":188,"end":194,"sentenceIndex":1,"sentenceBegin":151,"sentenceEnd":349},{"word":"smoking","begin":463,"end":469,"sentenceIndex":2,"sentenceBegin":351,"sentenceEnd":497}]}
{"paperId":"1cfd77f38b7693fad2e244c790f819d620390ddd","indicators":[{"word":"smoking","begin":235,"end":241,"sentenceIndex":1,"sentenceBegin":73,"sentenceEnd":260}]}
{"paperId":"1cfd77f38b7693fad2e244c790f819d620390ddd","indicators":[{"word":"smoking","begin":123,"end":129,"sentenceIndex":0,"sentenceBegin":0,"sentenceEnd":162}]}
{"paperId":"1cfd77f38b7693fad2e244c790f819d620390ddd","indicators":[{"word":"smoking","begin":479,"end":485,"sentenceIndex":2,"sentenceBegin":75,"sentenceEnd":543}]}
{"paperId":"1cfd77f38b7693fad2e244c790f819d620390ddd","indicators":[{"word":"smoking","begin":537,"end":543,"sentenceIndex":4,"sentenceBegin":480,"sentenceEnd":583},{"word":"smoking","begin":618,"end":624,"sentenceIndex":5,"sentenceBegin":585,"sentenceEnd":734}]}
{"paperId":"1cfd77f38b7693fad2e244c790f819d620390ddd","indicators":[{"word":"smoking","begin":716,"end":722,"sentenceIndex":4,"sentenceBegin":676,"sentenceEnd":881}]}
{"paperId":"1cfd77f38b7693fad2e244c790f819d620390ddd","indicators":[{"word":"smoking","begin":355,"end":361,"sentenceIndex":2,"sentenceBegin":299,"sentenceEnd":374}]}
{"paperId":"14cc0c3048094f4895fcf6b4ad024820226c1173","indicators":[{"word":"tobacco","begin":778,"end":784,"sentenceIndex":8,"sentenceBegin":707,"sentenceEnd":1013}]}
{"paperId":"a6a7ba1c018e0b07e6d90947743ec6b26bb59432","indicators":[{"word":"cigarette","begin":157,"end":165,"sentenceIndex":1,"sentenceBegin":92,"sentenceEnd":264},{"word":"smoking","begin":167,"end":173,"sentenceIndex":1,"sentenceBegin":92,"sentenceEnd":264}]}
