{"paperId":"291b8f767ef0e2a3581b6a2e9f016bf947bbe168","indicators":[{"word":"fires","begin":514,"end":518,"sentenceIndex":3,"sentenceBegin":417,"sentenceEnd":640}]}
{"paperId":"075b2a1d0599c00a409532c3b689efbb155539cf","indicators":[{"word":"cigarette","begin":2778,"end":2786,"sentenceIndex":13,"sentenceBegin":2711,"sentenceEnd":2843},{"word":"smoke","begin":2788,"end":2792,"sentenceIndex":13,"sentenceBegin":2711,"sentenceEnd":2843}]}
{"paperId":"d47b906d52e8cf15b22cf081924cfb7fbda158b7","indicators":[{"word":"smoking","begin":556,"end":562,"sentenceIndex":1,"sentenceBegin":253,"sentenceEnd":598}]}
{"paperId":"d47b906d52e8cf15b22cf081924cfb7fbda158b7","indicators":[{"word":"smoking","begin":411,"end":417,"sentenceIndex":3,"sentenceBegin":377,"sentenceEnd":571}]}
{"paperId":"d47b906d52e8cf15b22cf081924cfb7fbda158b7","indicators":[{"word":"smoking","begin":9,"end":15,"sentenceIndex":0,"sentenceBegin":0,"sentenceEnd":189},{"word":"smoking","begin":521,"end":527,"sentenceIndex":4,"sentenceBegin":448,"sentenceEnd":545}]}
{"paperId":"d47b906d52e8cf15b22cf081924cfb7fbda158b7","indicators":[{"word":"smoking","begin":228,"end":234,"sentenceIndex":2,"sentenceBegin":185,"sentenceEnd":262},{"word":"smoking","begin":377,"end":383,"sentenceIndex":3,"sentenceBegin":264,"sentenceEnd":403}]}
{"paperId":"57062c88a5d76f14deb02790d75345b3bf46118a","indicators":[{"word":"weed","begin":188,"end":191,"sentenceIndex":2,"sentenceBegin":128,"sentenceEnd":357}]}
{"paperId":"407efcba93e1b021b6556011cf2f9997ee108a8f","indicators":[{"word":"smoking","begin":178,"end":184,"sentenceIndex":0,"sentenceBegin":0,"sentenceEnd":262}]}
{"paperId":"96c5ffcae9856e64601af50ec3249af873c2027d","indicators":[{"word":"smoking","begin":1219,"end":1225,"sentenceIndex":6,"sentenceBegin":1001,"sentenceEnd":1226}]}
