{"paperId":"8a13215dea9eeb9b5b7e7dfcc9f6ccfcbd3cb7e5","indicators":[{"word":"smoking","begin":2515,"end":2521,"sentenceIndex":13,"sentenceBegin":2320,"sentenceEnd":2536}]}
{"paperId":"0238ae6d1d1c154d0bb2708c03c9da07f9c55e05","indicators":[{"word":"tobacco","begin":527,"end":533,"sentenceIndex":2,"sentenceBegin":396,"sentenceEnd":563},{"word":"smoke","begin":535,"end":539,"sentenceIndex":2,"sentenceBegin":396,"sentenceEnd":563}]}
{"paperId":"0238ae6d1d1c154d0bb2708c03c9da07f9c55e05","indicators":[{"word":"smoked","begin":559,"end":564,"sentenceIndex":4,"sentenceBegin":492,"sentenceEnd":592},{"word":"cigarettes","begin":576,"end":585,"sentenceIndex":4,"sentenceBegin":492,"sentenceEnd":592},{"word":"smoked","begin":643,"end":648,"sentenceIndex":5,"sentenceBegin":594,"sentenceEnd":676},{"word":"cigarettes","begin":660,"end":669,"sentenceIndex":5,"sentenceBegin":594,"sentenceEnd":676}]}
{"paperId":"32d075b927e75a712fc63bde5e4791ea64006725","indicators":[{"word":"smoking","begin":1464,"end":1470,"sentenceIndex":13,"sentenceBegin":1371,"sentenceEnd":1471},{"word":"smoking","begin":1521,"end":1527,"sentenceIndex":14,"sentenceBegin":1473,"sentenceEnd":1663},{"word":"smoking","begin":1673,"end":1679,"sentenceIndex":15,"sentenceBegin":1665,"sentenceEnd":1853},{"word":"smoking","begin":1865,"end":1871,"sentenceIndex":16,"sentenceBegin":1855,"sentenceEnd":1964}]}
{"paperId":"32d075b927e75a712fc63bde5e4791ea64006725","indicators":[{"word":"cigarette","begin":556,"end":564,"sentenceIndex":3,"sentenceBegin":407,"sentenceEnd":614},{"word":"smoke","begin":566,"end":570,"sentenceIndex":3,"sentenceBegin":407,"sentenceEnd":614}]}
