{"paperId":"ac3e12fa34c6ec2e4e40ed22f391b18878dad0e9","indicators":[{"word":"smoking","begin":1493,"end":1499,"sentenceIndex":9,"sentenceBegin":1462,"sentenceEnd":1554}]}
{"paperId":"ac3e12fa34c6ec2e4e40ed22f391b18878dad0e9","indicators":[{"word":"smoking","begin":46,"end":52,"sentenceIndex":1,"sentenceBegin":32,"sentenceEnd":102}]}
{"paperId":"ac3e12fa34c6ec2e4e40ed22f391b18878dad0e9","indicators":[{"word":"smoking","begin":1316,"end":1322,"sentenceIndex":10,"sentenceBegin":1234,"sentenceEnd":1490}]}
{"paperId":"ac3e12fa34c6ec2e4e40ed22f391b18878dad0e9","indicators":[{"word":"smoking","begin":94,"end":100,"sentenceIndex":0,"sentenceBegin":0,"sentenceEnd":233},{"word":"smoking","begin":184,"end":190,"sentenceIndex":0,"sentenceBegin":0,"sentenceEnd":233},{"word":"smoking","begin":300,"end":306,"sentenceIndex":1,"sentenceBegin":235,"sentenceEnd":317}]}
{"paperId":"ac3e12fa34c6ec2e4e40ed22f391b18878dad0e9","indicators":[{"word":"smoking","begin":24,"end":30,"sentenceIndex":0,"sentenceBegin":0,"sentenceEnd":245},{"word":"smoking","begin":330,"end":336,"sentenceIndex":1,"sentenceBegin":247,"sentenceEnd":547},{"word":"smoking","begin":634,"end":640,"sentenceIndex":2,"sentenceBegin":549,"sentenceEnd":653},{"word":"smoking","begin":792,"end":798,"sentenceIndex":3,"sentenceBegin":655,"sentenceEnd":989}]}
{"paperId":"ac3e12fa34c6ec2e4e40ed22f391b18878dad0e9","indicators":[{"word":"smoking","begin":229,"end":235,"sentenceIndex":4,"sentenceBegin":161,"sentenceEnd":313}]}
{"paperId":"ac3e12fa34c6ec2e4e40ed22f391b18878dad0e9","indicators":[{"word":"smoking","begin":352,"end":358,"sentenceIndex":3,"sentenceBegin":337,"sentenceEnd":390}]}
{"paperId":"ac3e12fa34c6ec2e4e40ed22f391b18878dad0e9","indicators":[{"word":"smoking","begin":269,"end":275,"sentenceIndex":3,"sentenceBegin":243,"sentenceEnd":626},{"word":"smoking","begin":521,"end":527,"sentenceIndex":3,"sentenceBegin":243,"sentenceEnd":626},{"word":"smoking","begin":639,"end":645,"sentenceIndex":4,"sentenceBegin":628,"sentenceEnd":800},{"word":"smoking","begin":793,"end":799,"sentenceIndex":4,"sentenceBegin":628,"sentenceEnd":800}]}
{"paperId":"f2603d2893999eedb199e31c102dc357da352eb2","indicators":[{"word":"cigarette","begin":19,"end":27,"sentenceIndex":0,"sentenceBegin":0,"sentenceEnd":136},{"word":"tobacco","begin":83,"end":89,"sentenceIndex":0,"sentenceBegin":0,"sentenceEnd":136},{"word":"tobacco","begin":148,"end":154,"sentenceIndex":1,"sentenceBegin":138,"sentenceEnd":254},{"word":"tobacco","begin":213,"end":219,"sentenceIndex":1,"sentenceBegin":138,"sentenceEnd":254}]}
{"paperId":"f2603d2893999eedb199e31c102dc357da352eb2","indicators":[{"word":"smoke","begin":137,"end":141,"sentenceIndex":0,"sentenceBegin":0,"sentenceEnd":415},{"word":"cigarette","begin":157,"end":165,"sentenceIndex":0,"sentenceBegin":0,"sentenceEnd":415},{"word":"smoke","begin":218,"end":222,"sentenceIndex":0,"sentenceBegin":0,"sentenceEnd":415},{"word":"cigarette","begin":231,"end":239,"sentenceIndex":0,"sentenceBegin":0,"sentenceEnd":415},{"word":"tobacco","begin":302,"end":308,"sentenceIndex":0,"sentenceBegin":0,"sentenceEnd":415},{"word":"cigarette","begin":325,"end":333,"sentenceIndex":0,"sentenceBegin":0,"sentenceEnd":415},{"word":"smoke","begin":385,"end":389,"sentenceIndex":0,"sentenceBegin":0,"sentenceEnd":415},{"word":"cigarette","begin":463,"end":471,"sentenceIndex":1,"sentenceBegin":417,"sentenceEnd":590},{"word":"smoke","begin":473,"end":477,"sentenceIndex":1,"sentenceBegin":417,"sentenceEnd":590},{"word":"cigarette","begin":627,"end":635,"sentenceIndex":2,"sentenceBegin":592,"sentenceEnd":871},{"word":"cigarette","begin":701,"end":709,"sentenceIndex":2,"sentenceBegin":592,"sentenceEnd":871},{"word":"smoke","begin":801,"end":805,"sentenceIndex":2,"sentenceBegin":592,"sentenceEnd":871},{"word":"cigarettes","begin":830,"end":839,"sentenceIndex":2,"sentenceBegin":592,"sentenceEnd":871},{"word":"tobacco","begin":864,"end":870,"sentenceIndex":2,"sentenceBegin":592,"sentenceEnd":871}]}
{"paperId":"f2603d2893999eedb199e31c102dc357da352eb2","indicators":[{"word":"smoke","begin":6,"end":10,"sentenceIndex":0,"sentenceBegin":0,"sentenceEnd":33},{"word":"smoke","begin":485,"end":489,"sentenceIndex":8,"sentenceBegin":379,"sentenceEnd":525},{"word":"cigarettes","begin":515,"end":524,"sentenceIndex":8,"sentenceBegin":379,"sentenceEnd":525}]}
{"paperId":"f2603d2893999eedb199e31c102dc357da352eb2","indicators":[{"word":"smoke","begin":114,"end":118,"sentenceIndex":2,"sentenceBegin":87,"sentenceEnd":258},{"word":"cigarettes","begin":154,"end":163,"sentenceIndex":2,"sentenceBegin":87,"sentenceEnd":258},{"word":"cigarettes","begin":367,"end":376,"sentenceIndex":3,"sentenceBegin":260,"sentenceEnd":377},{"word":"smoke","begin":394,"end":398,"sentenceIndex":4,"sentenceBegin":379,"sentenceEnd":607},{"word":"cigarettes","begin":424,"end":433,"sentenceIndex":4,"sentenceBegin":379,"sentenceEnd":607}]}
{"paperId":"f2603d2893999eedb199e31c102dc357da352eb2","indicators":[{"word":"smoke","begin":200,"end":204,"sentenceIndex":2,"sentenceBegin":176,"sentenceEnd":285},{"word":"smoke","begin":333,"end":337,"sentenceIndex":3,"sentenceBegin":287,"sentenceEnd":458}]}
{"paperId":"f2603d2893999eedb199e31c102dc357da352eb2","indicators":[{"word":"puffed","begin":28,"end":33,"sentenceIndex":1,"sentenceBegin":12,"sentenceEnd":153},{"word":"puff","begin":108,"end":111,"sentenceIndex":1,"sentenceBegin":12,"sentenceEnd":153},{"word":"smoking","begin":176,"end":182,"sentenceIndex":2,"sentenceBegin":155,"sentenceEnd":296},{"word":"cigarette","begin":238,"end":246,"sentenceIndex":2,"sentenceBegin":155,"sentenceEnd":296},{"word":"smoking","begin":289,"end":295,"sentenceIndex":2,"sentenceBegin":155,"sentenceEnd":296},{"word":"puffs","begin":330,"end":334,"sentenceIndex":3,"sentenceBegin":298,"sentenceEnd":385},{"word":"cigarette","begin":376,"end":384,"sentenceIndex":3,"sentenceBegin":298,"sentenceEnd":385}]}
{"paperId":"f2603d2893999eedb199e31c102dc357da352eb2","indicators":[{"word":"cigarette","begin":9,"end":17,"sentenceIndex":0,"sentenceBegin":0,"sentenceEnd":91},{"word":"tobacco","begin":84,"end":90,"sentenceIndex":0,"sentenceBegin":0,"sentenceEnd":91},{"word":"cigarette","begin":97,"end":105,"sentenceIndex":1,"sentenceBegin":93,"sentenceEnd":137},{"word":"cigarette","begin":193,"end":201,"sentenceIndex":2,"sentenceBegin":139,"sentenceEnd":306},{"word":"tobacco","begin":242,"end":248,"sentenceIndex":2,"sentenceBegin":139,"sentenceEnd":306},{"word":"tobacco","begin":251,"end":257,"sentenceIndex":2,"sentenceBegin":139,"sentenceEnd":306},{"word":"smoke","begin":301,"end":305,"sentenceIndex":2,"sentenceBegin":139,"sentenceEnd":306},{"word":"cigarettes","begin":322,"end":331,"sentenceIndex":3,"sentenceBegin":308,"sentenceEnd":446},{"word":"tobaccos","begin":438,"end":445,"sentenceIndex":3,"sentenceBegin":308,"sentenceEnd":446},{"word":"cigarette","begin":661,"end":669,"sentenceIndex":4,"sentenceBegin":448,"sentenceEnd":670},{"word":"cigarettes","begin":686,"end":695,"sentenceIndex":5,"sentenceBegin":672,"sentenceEnd":757},{"word":"cigarette","begin":748,"end":756,"sentenceIndex":5,"sentenceBegin":672,"sentenceEnd":757},{"word":"smoking","begin":776,"end":782,"sentenceIndex":6,"sentenceBegin":759,"sentenceEnd":868},{"word":"cigarette","begin":891,"end":899,"sentenceIndex":7,"sentenceBegin":870,"sentenceEnd":917},{"word":"cigarettes","begin":988,"end":997,"sentenceIndex":8,"sentenceBegin":919,"sentenceEnd":1134},{"word":"smoke","begin":1193,"end":1197,"sentenceIndex":9,"sentenceBegin":1136,"sentenceEnd":1331},{"word":"cigarettes","begin":1271,"end":1280,"sentenceIndex":9,"sentenceBegin":1136,"sentenceEnd":1331}]}
{"paperId":"f2603d2893999eedb199e31c102dc357da352eb2","indicators":[{"word":"smoke","begin":332,"end":336,"sentenceIndex":2,"sentenceBegin":261,"sentenceEnd":337},{"word":"smoke","begin":431,"end":435,"sentenceIndex":3,"sentenceBegin":339,"sentenceEnd":505}]}
{"paperId":"f2603d2893999eedb199e31c102dc357da352eb2","indicators":[{"word":"smoke","begin":40,"end":44,"sentenceIndex":1,"sentenceBegin":28,"sentenceEnd":158},{"word":"puffing","begin":216,"end":222,"sentenceIndex":2,"sentenceBegin":160,"sentenceEnd":261},{"word":"cigarette","begin":306,"end":314,"sentenceIndex":3,"sentenceBegin":263,"sentenceEnd":347},{"word":"cigarette","begin":435,"end":443,"sentenceIndex":4,"sentenceBegin":349,"sentenceEnd":444},{"word":"smoke","begin":576,"end":580,"sentenceIndex":5,"sentenceBegin":446,"sentenceEnd":651}]}
{"paperId":"f2603d2893999eedb199e31c102dc357da352eb2","indicators":[{"word":"cigarettes","begin":74,"end":83,"sentenceIndex":0,"sentenceBegin":0,"sentenceEnd":136},{"word":"smoke","begin":142,"end":146,"sentenceIndex":1,"sentenceBegin":138,"sentenceEnd":310},{"word":"cigarettes","begin":192,"end":201,"sentenceIndex":1,"sentenceBegin":138,"sentenceEnd":310},{"word":"puffs","begin":280,"end":284,"sentenceIndex":1,"sentenceBegin":138,"sentenceEnd":310},{"word":"puff","begin":434,"end":437,"sentenceIndex":2,"sentenceBegin":312,"sentenceEnd":564},{"word":"cigarettes","begin":453,"end":462,"sentenceIndex":2,"sentenceBegin":312,"sentenceEnd":564},{"word":"smoke","begin":543,"end":547,"sentenceIndex":2,"sentenceBegin":312,"sentenceEnd":564},{"word":"puff","begin":560,"end":563,"sentenceIndex":2,"sentenceBegin":312,"sentenceEnd":564},{"word":"cigarettes","begin":581,"end":590,"sentenceIndex":3,"sentenceBegin":566,"sentenceEnd":725},{"word":"cigarettes","begin":690,"end":699,"sentenceIndex":3,"sentenceBegin":566,"sentenceEnd":725}]}
{"paperId":"f2603d2893999eedb199e31c102dc357da352eb2","indicators":[{"word":"smoke","begin":50,"end":54,"sentenceIndex":0,"sentenceBegin":0,"sentenceEnd":165},{"word":"cigarettes","begin":96,"end":105,"sentenceIndex":0,"sentenceBegin":0,"sentenceEnd":165},{"word":"puffing","begin":226,"end":232,"sentenceIndex":1,"sentenceBegin":167,"sentenceEnd":379},{"word":"puff","begin":243,"end":246,"sentenceIndex":1,"sentenceBegin":167,"sentenceEnd":379},{"word":"puff","begin":324,"end":327,"sentenceIndex":1,"sentenceBegin":167,"sentenceEnd":379},{"word":"puffs","begin":450,"end":454,"sentenceIndex":2,"sentenceBegin":381,"sentenceEnd":478},{"word":"cigarettes","begin":468,"end":477,"sentenceIndex":2,"sentenceBegin":381,"sentenceEnd":478},{"word":"puffs","begin":515,"end":519,"sentenceIndex":3,"sentenceBegin":480,"sentenceEnd":615},{"word":"cigarette","begin":541,"end":549,"sentenceIndex":3,"sentenceBegin":480,"sentenceEnd":615},{"word":"cigarette","begin":606,"end":614,"sentenceIndex":3,"sentenceBegin":480,"sentenceEnd":615}]}
{"paperId":"f2603d2893999eedb199e31c102dc357da352eb2","indicators":[{"word":"smoke","begin":326,"end":330,"sentenceIndex":3,"sentenceBegin":282,"sentenceEnd":450},{"word":"smoke","begin":505,"end":509,"sentenceIndex":4,"sentenceBegin":452,"sentenceEnd":525},{"word":"smoke","begin":604,"end":608,"sentenceIndex":5,"sentenceBegin":527,"sentenceEnd":649}]}
{"paperId":"f2603d2893999eedb199e31c102dc357da352eb2","indicators":[{"word":"smoke","begin":109,"end":113,"sentenceIndex":1,"sentenceBegin":66,"sentenceEnd":203},{"word":"smoke","begin":198,"end":202,"sentenceIndex":1,"sentenceBegin":66,"sentenceEnd":203}]}
{"paperId":"f2603d2893999eedb199e31c102dc357da352eb2","indicators":[{"word":"smoke","begin":20,"end":24,"sentenceIndex":0,"sentenceBegin":0,"sentenceEnd":168},{"word":"cigarettes","begin":489,"end":498,"sentenceIndex":3,"sentenceBegin":332,"sentenceEnd":538}]}
{"paperId":"f2603d2893999eedb199e31c102dc357da352eb2","indicators":[{"word":"smoke","begin":65,"end":69,"sentenceIndex":0,"sentenceBegin":0,"sentenceEnd":82},{"word":"smoke","begin":831,"end":835,"sentenceIndex":6,"sentenceBegin":707,"sentenceEnd":836}]}
{"paperId":"f2603d2893999eedb199e31c102dc357da352eb2","indicators":[{"word":"smoke","begin":289,"end":293,"sentenceIndex":1,"sentenceBegin":194,"sentenceEnd":332}]}
{"paperId":"f2603d2893999eedb199e31c102dc357da352eb2","indicators":[{"word":"smoke","begin":302,"end":306,"sentenceIndex":1,"sentenceBegin":260,"sentenceEnd":480}]}
{"paperId":"f2603d2893999eedb199e31c102dc357da352eb2","indicators":[{"word":"smoke","begin":352,"end":356,"sentenceIndex":3,"sentenceBegin":269,"sentenceEnd":357}]}
{"paperId":"f2603d2893999eedb199e31c102dc357da352eb2","indicators":[{"word":"smoke","begin":123,"end":127,"sentenceIndex":0,"sentenceBegin":0,"sentenceEnd":178}]}
{"paperId":"f2603d2893999eedb199e31c102dc357da352eb2","indicators":[{"word":"smoke","begin":455,"end":459,"sentenceIndex":2,"sentenceBegin":329,"sentenceEnd":460}]}
{"paperId":"f2603d2893999eedb199e31c102dc357da352eb2","indicators":[{"word":"smoke","begin":129,"end":133,"sentenceIndex":0,"sentenceBegin":0,"sentenceEnd":220}]}
{"paperId":"f2603d2893999eedb199e31c102dc357da352eb2","indicators":[{"word":"cigarettes","begin":118,"end":127,"sentenceIndex":0,"sentenceBegin":0,"sentenceEnd":139},{"word":"cigarettes","begin":240,"end":249,"sentenceIndex":1,"sentenceBegin":141,"sentenceEnd":260},{"word":"cigarette","begin":322,"end":330,"sentenceIndex":2,"sentenceBegin":262,"sentenceEnd":419},{"word":"cigarette","begin":396,"end":404,"sentenceIndex":2,"sentenceBegin":262,"sentenceEnd":419},{"word":"cigarettes","begin":694,"end":703,"sentenceIndex":5,"sentenceBegin":604,"sentenceEnd":783},{"word":"smoke","begin":1058,"end":1062,"sentenceIndex":7,"sentenceBegin":909,"sentenceEnd":1163},{"word":"cigarettes","begin":1100,"end":1109,"sentenceIndex":7,"sentenceBegin":909,"sentenceEnd":1163},{"word":"smoke","begin":1147,"end":1151,"sentenceIndex":7,"sentenceBegin":909,"sentenceEnd":1163},{"word":"smoke","begin":1248,"end":1252,"sentenceIndex":8,"sentenceBegin":1165,"sentenceEnd":1292}]}
{"paperId":"f2603d2893999eedb199e31c102dc357da352eb2","indicators":[{"word":"smoke","begin":139,"end":143,"sentenceIndex":0,"sentenceBegin":0,"sentenceEnd":178},{"word":"cigarettes","begin":168,"end":177,"sentenceIndex":0,"sentenceBegin":0,"sentenceEnd":178}]}
{"paperId":"f2603d2893999eedb199e31c102dc357da352eb2","indicators":[{"word":"smoke","begin":99,"end":103,"sentenceIndex":0,"sentenceBegin":0,"sentenceEnd":204},{"word":"cigarette","begin":124,"end":132,"sentenceIndex":0,"sentenceBegin":0,"sentenceEnd":204},{"word":"smoke","begin":635,"end":639,"sentenceIndex":3,"sentenceBegin":515,"sentenceEnd":681},{"word":"cigarette","begin":655,"end":663,"sentenceIndex":3,"sentenceBegin":515,"sentenceEnd":681}]}
{"paperId":"f2603d2893999eedb199e31c102dc357da352eb2","indicators":[{"word":"smoke","begin":502,"end":506,"sentenceIndex":2,"sentenceBegin":271,"sentenceEnd":507},{"word":"cigarettes","begin":602,"end":611,"sentenceIndex":3,"sentenceBegin":509,"sentenceEnd":727}]}
{"paperId":"f2603d2893999eedb199e31c102dc357da352eb2","indicators":[{"word":"smoke","begin":520,"end":524,"sentenceIndex":3,"sentenceBegin":443,"sentenceEnd":598},{"word":"smoke","begin":706,"end":710,"sentenceIndex":6,"sentenceBegin":663,"sentenceEnd":791},{"word":"cigarettes","begin":736,"end":745,"sentenceIndex":6,"sentenceBegin":663,"sentenceEnd":791},{"word":"cigarette","begin":816,"end":824,"sentenceIndex":7,"sentenceBegin":793,"sentenceEnd":825},{"word":"cigarette","begin":853,"end":861,"sentenceIndex":8,"sentenceBegin":827,"sentenceEnd":862}]}
{"paperId":"f2603d2893999eedb199e31c102dc357da352eb2","indicators":[{"word":"smoke","begin":174,"end":178,"sentenceIndex":1,"sentenceBegin":136,"sentenceEnd":188}]}
{"paperId":"f2603d2893999eedb199e31c102dc357da352eb2","indicators":[{"word":"cigarette","begin":291,"end":299,"sentenceIndex":3,"sentenceBegin":150,"sentenceEnd":316}]}
{"paperId":"f2603d2893999eedb199e31c102dc357da352eb2","indicators":[{"word":"cigarette","begin":149,"end":157,"sentenceIndex":0,"sentenceBegin":0,"sentenceEnd":164},{"word":"smoke","begin":159,"end":163,"sentenceIndex":0,"sentenceBegin":0,"sentenceEnd":164},{"word":"smoke","begin":223,"end":227,"sentenceIndex":2,"sentenceBegin":209,"sentenceEnd":779},{"word":"smoke","begin":444,"end":448,"sentenceIndex":2,"sentenceBegin":209,"sentenceEnd":779},{"word":"smoke","begin":1098,"end":1102,"sentenceIndex":9,"sentenceBegin":955,"sentenceEnd":1199}]}
{"paperId":"f2603d2893999eedb199e31c102dc357da352eb2","indicators":[{"word":"cigarette","begin":88,"end":96,"sentenceIndex":0,"sentenceBegin":0,"sentenceEnd":206},{"word":"smoke","begin":98,"end":102,"sentenceIndex":0,"sentenceBegin":0,"sentenceEnd":206},{"word":"smoke","begin":201,"end":205,"sentenceIndex":0,"sentenceBegin":0,"sentenceEnd":206},{"word":"smoke","begin":322,"end":326,"sentenceIndex":3,"sentenceBegin":256,"sentenceEnd":358}]}
{"paperId":"f2603d2893999eedb199e31c102dc357da352eb2","indicators":[{"word":"smoke","begin":124,"end":128,"sentenceIndex":0,"sentenceBegin":0,"sentenceEnd":199}]}
{"paperId":"f2603d2893999eedb199e31c102dc357da352eb2","indicators":[{"word":"cigarettes","begin":402,"end":411,"sentenceIndex":2,"sentenceBegin":320,"sentenceEnd":478},{"word":"cigarette","begin":525,"end":533,"sentenceIndex":3,"sentenceBegin":480,"sentenceEnd":706},{"word":"cigarette","begin":670,"end":678,"sentenceIndex":3,"sentenceBegin":480,"sentenceEnd":706},{"word":"cigarettes","begin":984,"end":993,"sentenceIndex":5,"sentenceBegin":877,"sentenceEnd":1107},{"word":"cigarette","begin":1192,"end":1200,"sentenceIndex":6,"sentenceBegin":1109,"sentenceEnd":1201}]}
{"paperId":"f2603d2893999eedb199e31c102dc357da352eb2","indicators":[{"word":"cigarette","begin":40,"end":48,"sentenceIndex":0,"sentenceBegin":0,"sentenceEnd":181}]}
{"paperId":"f2603d2893999eedb199e31c102dc357da352eb2","indicators":[{"word":"smoke","begin":48,"end":52,"sentenceIndex":0,"sentenceBegin":0,"sentenceEnd":234},{"word":"cigarette","begin":60,"end":68,"sentenceIndex":0,"sentenceBegin":0,"sentenceEnd":234}]}
{"paperId":"f2603d2893999eedb199e31c102dc357da352eb2","indicators":[{"word":"smoke","begin":78,"end":82,"sentenceIndex":0,"sentenceBegin":0,"sentenceEnd":302},{"word":"cigarettes","begin":89,"end":98,"sentenceIndex":0,"sentenceBegin":0,"sentenceEnd":302},{"word":"tobacco","begin":113,"end":119,"sentenceIndex":0,"sentenceBegin":0,"sentenceEnd":302},{"word":"smoke","begin":209,"end":213,"sentenceIndex":0,"sentenceBegin":0,"sentenceEnd":302},{"word":"smoke","begin":260,"end":264,"sentenceIndex":0,"sentenceBegin":0,"sentenceEnd":302},{"word":"cigarettes","begin":271,"end":280,"sentenceIndex":0,"sentenceBegin":0,"sentenceEnd":302},{"word":"tobacco","begin":295,"end":301,"sentenceIndex":0,"sentenceBegin":0,"sentenceEnd":302},{"word":"smoke","begin":406,"end":410,"sentenceIndex":1,"sentenceBegin":304,"sentenceEnd":464},{"word":"tobacco","begin":457,"end":463,"sentenceIndex":1,"sentenceBegin":304,"sentenceEnd":464}]}
