{"paperId":"b66efb6cd1473f3737a93f470c82015d9745db67","indicators":[{"word":"cannabis","begin":256,"end":263,"sentenceIndex":1,"sentenceBegin":126,"sentenceEnd":268},{"word":"cannabis","begin":313,"end":320,"sentenceIndex":2,"sentenceBegin":270,"sentenceEnd":642},{"word":"cannabis","begin":485,"end":492,"sentenceIndex":2,"sentenceBegin":270,"sentenceEnd":642},{"word":"cannabis","begin":677,"end":684,"sentenceIndex":3,"sentenceBegin":644,"sentenceEnd":742},{"word":"cannabis","begin":783,"end":790,"sentenceIndex":4,"sentenceBegin":744,"sentenceEnd":924},{"word":"cannabis","begin":1206,"end":1213,"sentenceIndex":6,"sentenceBegin":1110,"sentenceEnd":1234}]}
{"paperId":"b66efb6cd1473f3737a93f470c82015d9745db67","indicators":[{"word":"cannabis","begin":16,"end":23,"sentenceIndex":0,"sentenceBegin":0,"sentenceEnd":268},{"word":"cannabis","begin":126,"end":133,"sentenceIndex":0,"sentenceBegin":0,"sentenceEnd":268},{"word":"cannabis","begin":240,"end":247,"sentenceIndex":0,"sentenceBegin":0,"sentenceEnd":268},{"word":"cannabis","begin":462,"end":469,"sentenceIndex":1,"sentenceBegin":270,"sentenceEnd":525},{"word":"cannabis","begin":1512,"end":1519,"sentenceIndex":6,"sentenceBegin":1223,"sentenceEnd":1650}]}
{"paperId":"b66efb6cd1473f3737a93f470c82015d9745db67","indicators":[{"word":"cannabis","begin":355,"end":362,"sentenceIndex":1,"sentenceBegin":159,"sentenceEnd":363}]}
{"paperId":"b66efb6cd1473f3737a93f470c82015d9745db67","indicators":[{"word":"cannabis","begin":600,"end":607,"sentenceIndex":3,"sentenceBegin":580,"sentenceEnd":703},{"word":"cannabis","begin":794,"end":801,"sentenceIndex":5,"sentenceBegin":789,"sentenceEnd":1030},{"word":"cannabis","begin":1022,"end":1029,"sentenceIndex":5,"sentenceBegin":789,"sentenceEnd":1030},{"word":"cannabis","begin":1121,"end":1128,"sentenceIndex":6,"sentenceBegin":1032,"sentenceEnd":1150},{"word":"cannabis","begin":1199,"end":1206,"sentenceIndex":7,"sentenceBegin":1152,"sentenceEnd":1299},{"word":"cannabis","begin":1728,"end":1735,"sentenceIndex":9,"sentenceBegin":1569,"sentenceEnd":1775},{"word":"cannabis","begin":1799,"end":1806,"sentenceIndex":10,"sentenceBegin":1777,"sentenceEnd":1852}]}
{"paperId":"b66efb6cd1473f3737a93f470c82015d9745db67","indicators":[{"word":"cannabis","begin":87,"end":94,"sentenceIndex":0,"sentenceBegin":0,"sentenceEnd":111}]}
