{"paperId":"1eda587b2328d73ab2518c2761072d305a1d869f","indicators":[{"word":"smoking","begin":157,"end":163,"sentenceIndex":1,"sentenceBegin":94,"sentenceEnd":231}]}
{"paperId":"1eda587b2328d73ab2518c2761072d305a1d869f","indicators":[{"word":"smoking","begin":300,"end":306,"sentenceIndex":1,"sentenceBegin":160,"sentenceEnd":395}]}
{"paperId":"1eda587b2328d73ab2518c2761072d305a1d869f","indicators":[{"word":"smoking","begin":155,"end":161,"sentenceIndex":0,"sentenceBegin":0,"sentenceEnd":289}]}
{"paperId":"1eda587b2328d73ab2518c2761072d305a1d869f","indicators":[{"word":"smoke","begin":824,"end":828,"sentenceIndex":6,"sentenceBegin":652,"sentenceEnd":884}]}
{"paperId":"12e736a64e6f0562c5360b81802cb2641033a769","indicators":[{"word":"smoking","begin":197,"end":203,"sentenceIndex":1,"sentenceBegin":183,"sentenceEnd":333},{"word":"cigarettes","begin":232,"end":241,"sentenceIndex":1,"sentenceBegin":183,"sentenceEnd":333},{"word":"cigarette","begin":266,"end":274,"sentenceIndex":1,"sentenceBegin":183,"sentenceEnd":333},{"word":"smoked","begin":303,"end":308,"sentenceIndex":1,"sentenceBegin":183,"sentenceEnd":333}]}
{"paperId":"12e736a64e6f0562c5360b81802cb2641033a769","indicators":[{"word":"smoking","begin":639,"end":645,"sentenceIndex":3,"sentenceBegin":426,"sentenceEnd":646}]}
{"paperId":"12e736a64e6f0562c5360b81802cb2641033a769","indicators":[{"word":"smoked","begin":355,"end":360,"sentenceIndex":3,"sentenceBegin":288,"sentenceEnd":406}]}
{"paperId":"12e736a64e6f0562c5360b81802cb2641033a769","indicators":[{"word":"smoking","begin":453,"end":459,"sentenceIndex":4,"sentenceBegin":421,"sentenceEnd":598}]}
{"paperId":"088fa94e5689d1c83f8e8b407e340eb1ac3c3929","indicators":[{"word":"tobacco","begin":398,"end":404,"sentenceIndex":3,"sentenceBegin":364,"sentenceEnd":504}]}
{"paperId":"c44ca052440fbba971baea20540e107fc480e836","indicators":[{"word":"tobacco","begin":584,"end":590,"sentenceIndex":3,"sentenceBegin":400,"sentenceEnd":603},{"word":"smoke","begin":592,"end":596,"sentenceIndex":3,"sentenceBegin":400,"sentenceEnd":603},{"word":"tobacco","begin":789,"end":795,"sentenceIndex":4,"sentenceBegin":605,"sentenceEnd":814},{"word":"smoke","begin":797,"end":801,"sentenceIndex":4,"sentenceBegin":605,"sentenceEnd":814}]}
