{"paperId":"6215848fd26306ae943ce2c39f4cbdfe9f3a3342","indicators":[{"word":"fires","begin":1314,"end":1318,"sentenceIndex":5,"sentenceBegin":1179,"sentenceEnd":1333}]}
{"paperId":"6215848fd26306ae943ce2c39f4cbdfe9f3a3342","indicators":[{"word":"fires","begin":852,"end":856,"sentenceIndex":5,"sentenceBegin":832,"sentenceEnd":991},{"word":"fires","begin":1050,"end":1054,"sentenceIndex":6,"sentenceBegin":993,"sentenceEnd":1076}]}
{"paperId":"6215848fd26306ae943ce2c39f4cbdfe9f3a3342","indicators":[{"word":"fires","begin":41,"end":45,"sentenceIndex":0,"sentenceBegin":0,"sentenceEnd":60}]}
