{"paperId":"e0b7ce4800153abd90f0ed89a87efd07767db0e8","indicators":[{"word":"smoking","begin":3536,"end":3542,"sentenceIndex":39,"sentenceBegin":3522,"sentenceEnd":3625}]}
{"paperId":"942e3f36659135b49f29176279835f3bebcde309","indicators":[{"word":"fumes","begin":233,"end":237,"sentenceIndex":2,"sentenceBegin":173,"sentenceEnd":790},{"word":"smoke","begin":243,"end":247,"sentenceIndex":2,"sentenceBegin":173,"sentenceEnd":790}]}
{"paperId":"2bba8a806f5cad9c53bd0fdb71eafbaffcfcf5f1","indicators":[{"word":"fired","begin":385,"end":389,"sentenceIndex":1,"sentenceBegin":177,"sentenceEnd":428}]}
