{"paperId":"8feef1046ea92aa5b0cb07cc361aeb774a5a3c67","indicators":[{"word":"cigarette","begin":117,"end":125,"sentenceIndex":0,"sentenceBegin":0,"sentenceEnd":196},{"word":"smoking","begin":127,"end":133,"sentenceIndex":0,"sentenceBegin":0,"sentenceEnd":196}]}
{"paperId":"8feef1046ea92aa5b0cb07cc361aeb774a5a3c67","indicators":[{"word":"tobacco","begin":801,"end":807,"sentenceIndex":5,"sentenceBegin":647,"sentenceEnd":814},{"word":"smoke","begin":809,"end":813,"sentenceIndex":5,"sentenceBegin":647,"sentenceEnd":814},{"word":"cigarette","begin":1114,"end":1122,"sentenceIndex":7,"sentenceBegin":994,"sentenceEnd":1242},{"word":"smoking","begin":1124,"end":1130,"sentenceIndex":7,"sentenceBegin":994,"sentenceEnd":1242}]}
{"paperId":"8feef1046ea92aa5b0cb07cc361aeb774a5a3c67","indicators":[{"word":"smoke","begin":350,"end":354,"sentenceIndex":1,"sentenceBegin":173,"sentenceEnd":529}]}
{"paperId":"d2f9d327e394d128d73dc634b0f42fe6087acd88","indicators":[{"word":"tobacco","begin":460,"end":466,"sentenceIndex":5,"sentenceBegin":385,"sentenceEnd":501},{"word":"tobacco","begin":769,"end":775,"sentenceIndex":7,"sentenceBegin":665,"sentenceEnd":810}]}
{"paperId":"ba107b533a1bf5feaed346f290a1e96a0bade93c","indicators":[{"word":"tobacco","begin":565,"end":571,"sentenceIndex":5,"sentenceBegin":472,"sentenceEnd":822}]}
{"paperId":"ba107b533a1bf5feaed346f290a1e96a0bade93c","indicators":[{"word":"tobacco","begin":28,"end":34,"sentenceIndex":0,"sentenceBegin":0,"sentenceEnd":196}]}
{"paperId":"f4c8ec7b67c0db7c8bf033c273fb73c9bfad5c49","indicators":[{"word":"tobacco","begin":808,"end":814,"sentenceIndex":4,"sentenceBegin":674,"sentenceEnd":863}]}
{"paperId":"f4c8ec7b67c0db7c8bf033c273fb73c9bfad5c49","indicators":[{"word":"tobacco","begin":263,"end":269,"sentenceIndex":2,"sentenceBegin":258,"sentenceEnd":376}]}
{"paperId":"f4c8ec7b67c0db7c8bf033c273fb73c9bfad5c49","indicators":[{"word":"tobacco","begin":166,"end":172,"sentenceIndex":1,"sentenceBegin":90,"sentenceEnd":265},{"word":"tobacco","begin":247,"end":253,"sentenceIndex":1,"sentenceBegin":90,"sentenceEnd":265}]}
{"paperId":"f4c8ec7b67c0db7c8bf033c273fb73c9bfad5c49","indicators":[{"word":"tobacco","begin":879,"end":885,"sentenceIndex":7,"sentenceBegin":835,"sentenceEnd":975},{"word":"tobacco","begin":1343,"end":1349,"sentenceIndex":9,"sentenceBegin":1222,"sentenceEnd":1396}]}
{"paperId":"9717a3ca1ec0469b1008190219f0ce22636829c5","indicators":[{"word":"smoke","begin":129,"end":133,"sentenceIndex":1,"sentenceBegin":99,"sentenceEnd":239}]}
{"paperId":"9717a3ca1ec0469b1008190219f0ce22636829c5","indicators":[{"word":"smoke","begin":693,"end":697,"sentenceIndex":1,"sentenceBegin":291,"sentenceEnd":883}]}
