{"paperId":"c582343e675d5b0511d112c98be78ea719b0e6ed","indicators":[{"word":"smoke","begin":853,"end":857,"sentenceIndex":8,"sentenceBegin":831,"sentenceEnd":1046}]}
{"paperId":"2793d7651a9001e57c41ee7db83c3d7f3bc5a630","indicators":[{"word":"smoking","begin":398,"end":404,"sentenceIndex":3,"sentenceBegin":311,"sentenceEnd":480}]}
{"paperId":"07fe504a3b64db4dd23da77929893eb89215f3be","indicators":[{"word":"smoking","begin":87,"end":93,"sentenceIndex":0,"sentenceBegin":0,"sentenceEnd":350},{"word":"smoking","begin":105,"end":111,"sentenceIndex":0,"sentenceBegin":0,"sentenceEnd":350}]}
{"paperId":"07fe504a3b64db4dd23da77929893eb89215f3be","indicators":[{"word":"smoking","begin":155,"end":161,"sentenceIndex":1,"sentenceBegin":85,"sentenceEnd":237}]}
