{"paperId":"ac433e9c802d7f78f6b05a4ac8aedf3aee005086","indicators":[{"word":"vapor","begin":474,"end":478,"sentenceIndex":2,"sentenceBegin":387,"sentenceEnd":621}]}
{"paperId":"14c756dfe065a0ed1ff950195576f8975d209c93","indicators":[{"word":"vapor","begin":3096,"end":3100,"sentenceIndex":18,"sentenceBegin":3084,"sentenceEnd":3204}]}
{"paperId":"14c756dfe065a0ed1ff950195576f8975d209c93","indicators":[{"word":"vapor","begin":500,"end":504,"sentenceIndex":5,"sentenceBegin":449,"sentenceEnd":623},{"word":"vapor","begin":542,"end":546,"sentenceIndex":5,"sentenceBegin":449,"sentenceEnd":623}]}
{"paperId":"14c756dfe065a0ed1ff950195576f8975d209c93","indicators":[{"word":"vapor","begin":186,"end":190,"sentenceIndex":1,"sentenceBegin":107,"sentenceEnd":258}]}
{"paperId":"14c756dfe065a0ed1ff950195576f8975d209c93","indicators":[{"word":"vapor","begin":139,"end":143,"sentenceIndex":0,"sentenceBegin":0,"sentenceEnd":207},{"word":"vapor","begin":413,"end":417,"sentenceIndex":2,"sentenceBegin":319,"sentenceEnd":543}]}
{"paperId":"14c756dfe065a0ed1ff950195576f8975d209c93","indicators":[{"word":"vapor","begin":24,"end":28,"sentenceIndex":0,"sentenceBegin":0,"sentenceEnd":207},{"word":"vapor","begin":278,"end":282,"sentenceIndex":1,"sentenceBegin":209,"sentenceEnd":343},{"word":"vapor","begin":601,"end":605,"sentenceIndex":2,"sentenceBegin":345,"sentenceEnd":654},{"word":"vapor","begin":669,"end":673,"sentenceIndex":3,"sentenceBegin":656,"sentenceEnd":963},{"word":"vapor","begin":1307,"end":1311,"sentenceIndex":5,"sentenceBegin":1193,"sentenceEnd":1413},{"word":"vapor","begin":2000,"end":2004,"sentenceIndex":9,"sentenceBegin":1879,"sentenceEnd":2046}]}
{"paperId":"14c756dfe065a0ed1ff950195576f8975d209c93","indicators":[{"word":"vapor","begin":775,"end":779,"sentenceIndex":5,"sentenceBegin":759,"sentenceEnd":848}]}
{"paperId":"14c756dfe065a0ed1ff950195576f8975d209c93","indicators":[{"word":"vapor","begin":332,"end":336,"sentenceIndex":2,"sentenceBegin":246,"sentenceEnd":378}]}
{"paperId":"14c756dfe065a0ed1ff950195576f8975d209c93","indicators":[{"word":"vapor","begin":435,"end":439,"sentenceIndex":2,"sentenceBegin":411,"sentenceEnd":549},{"word":"vapor","begin":566,"end":570,"sentenceIndex":3,"sentenceBegin":551,"sentenceEnd":825},{"word":"vapor","begin":724,"end":728,"sentenceIndex":3,"sentenceBegin":551,"sentenceEnd":825},{"word":"vapor","begin":1065,"end":1069,"sentenceIndex":5,"sentenceBegin":1056,"sentenceEnd":1297},{"word":"vapor","begin":1261,"end":1265,"sentenceIndex":5,"sentenceBegin":1056,"sentenceEnd":1297},{"word":"vapor","begin":1529,"end":1533,"sentenceIndex":7,"sentenceBegin":1513,"sentenceEnd":1730},{"word":"vapor","begin":3071,"end":3075,"sentenceIndex":14,"sentenceBegin":2929,"sentenceEnd":3260},{"word":"vapor","begin":3193,"end":3197,"sentenceIndex":14,"sentenceBegin":2929,"sentenceEnd":3260},{"word":"vapor","begin":3334,"end":3338,"sentenceIndex":15,"sentenceBegin":3262,"sentenceEnd":3348},{"word":"vapor","begin":3421,"end":3425,"sentenceIndex":16,"sentenceBegin":3350,"sentenceEnd":3488},{"word":"vapor","begin":3510,"end":3514,"sentenceIndex":17,"sentenceBegin":3490,"sentenceEnd":3609},{"word":"vapor","begin":3949,"end":3953,"sentenceIndex":20,"sentenceBegin":3886,"sentenceEnd":4085},{"word":"vapor","begin":4112,"end":4116,"sentenceIndex":21,"sentenceBegin":4087,"sentenceEnd":4257},{"word":"vapor","begin":4764,"end":4768,"sentenceIndex":23,"sentenceBegin":4552,"sentenceEnd":4822}]}
{"paperId":"14c756dfe065a0ed1ff950195576f8975d209c93","indicators":[{"word":"vapor","begin":367,"end":371,"sentenceIndex":2,"sentenceBegin":225,"sentenceEnd":449}]}
