{"paperId":"5ee23d0181f81d3ba5241d80590f78c79ed304f5","indicators":[{"word":"vapor","begin":93,"end":97,"sentenceIndex":0,"sentenceBegin":0,"sentenceEnd":138}]}
{"paperId":"c8900df1a3de667c36c9a27b1d5375bb188e0e4b","indicators":[{"word":"pots","begin":477,"end":480,"sentenceIndex":1,"sentenceBegin":177,"sentenceEnd":611},{"word":"fume","begin":1019,"end":1022,"sentenceIndex":4,"sentenceBegin":970,"sentenceEnd":1243}]}
{"paperId":"56f42747255881b3bbdde86662e6e3133e12edbe","indicators":[{"word":"firing","begin":4,"end":9,"sentenceIndex":0,"sentenceBegin":0,"sentenceEnd":101}]}
{"paperId":"56f42747255881b3bbdde86662e6e3133e12edbe","indicators":[{"word":"firing","begin":97,"end":102,"sentenceIndex":0,"sentenceBegin":0,"sentenceEnd":195}]}
{"paperId":"56f42747255881b3bbdde86662e6e3133e12edbe","indicators":[{"word":"firing","begin":139,"end":144,"sentenceIndex":1,"sentenceBegin":87,"sentenceEnd":181}]}
{"paperId":"196659359c4af62cd3e0771ce0ead9ea47a8f96b","indicators":[{"word":"smoking","begin":337,"end":343,"sentenceIndex":2,"sentenceBegin":326,"sentenceEnd":520},{"word":"smoking","begin":491,"end":497,"sentenceIndex":2,"sentenceBegin":326,"sentenceEnd":520}]}
{"paperId":"196659359c4af62cd3e0771ce0ead9ea47a8f96b","indicators":[{"word":"smoking","begin":596,"end":602,"sentenceIndex":5,"sentenceBegin":522,"sentenceEnd":722}]}
