{"paperId":"8072d3e2d6340f162a35c33fc5a12cf9c8c72ab5","indicators":[{"word":"smoke","begin":237,"end":241,"sentenceIndex":1,"sentenceBegin":106,"sentenceEnd":276}]}
{"paperId":"8072d3e2d6340f162a35c33fc5a12cf9c8c72ab5","indicators":[{"word":"tobacco","begin":952,"end":958,"sentenceIndex":6,"sentenceBegin":880,"sentenceEnd":985},{"word":"smoke","begin":960,"end":964,"sentenceIndex":6,"sentenceBegin":880,"sentenceEnd":985}]}
{"paperId":"8072d3e2d6340f162a35c33fc5a12cf9c8c72ab5","indicators":[{"word":"tobacco","begin":401,"end":407,"sentenceIndex":1,"sentenceBegin":111,"sentenceEnd":443},{"word":"smoke","begin":409,"end":413,"sentenceIndex":1,"sentenceBegin":111,"sentenceEnd":443}]}
{"paperId":"8072d3e2d6340f162a35c33fc5a12cf9c8c72ab5","indicators":[{"word":"smoking","begin":198,"end":204,"sentenceIndex":0,"sentenceBegin":0,"sentenceEnd":281}]}
{"paperId":"8072d3e2d6340f162a35c33fc5a12cf9c8c72ab5","indicators":[{"word":"smoking","begin":2655,"end":2661,"sentenceIndex":14,"sentenceBegin":2499,"sentenceEnd":2668}]}
{"paperId":"47ab3f63bf2c26bea798542fc33b87ff85ac4dc3","indicators":[{"word":"fired","begin":506,"end":510,"sentenceIndex":2,"sentenceBegin":382,"sentenceEnd":668},{"word":"fired","begin":603,"end":607,"sentenceIndex":2,"sentenceBegin":382,"sentenceEnd":668}]}
{"paperId":"6f8d4a17c37b8700d4ff6ce0a2e44eaac32c1e7c","indicators":[{"word":"fires","begin":856,"end":860,"sentenceIndex":7,"sentenceBegin":759,"sentenceEnd":884}]}
{"paperId":"1e668438cb5f168adef29581a67d9f703ac9622a","indicators":[{"word":"vapor","begin":450,"end":454,"sentenceIndex":4,"sentenceBegin":385,"sentenceEnd":570},{"word":"vapor","begin":522,"end":526,"sentenceIndex":4,"sentenceBegin":385,"sentenceEnd":570}]}
{"paperId":"1e668438cb5f168adef29581a67d9f703ac9622a","indicators":[{"word":"vapor","begin":111,"end":115,"sentenceIndex":0,"sentenceBegin":0,"sentenceEnd":141},{"word":"vapor","begin":314,"end":318,"sentenceIndex":1,"sentenceBegin":143,"sentenceEnd":319},{"word":"vapor","begin":333,"end":337,"sentenceIndex":2,"sentenceBegin":321,"sentenceEnd":410},{"word":"vapor","begin":516,"end":520,"sentenceIndex":4,"sentenceBegin":486,"sentenceEnd":680},{"word":"vapor","begin":602,"end":606,"sentenceIndex":4,"sentenceBegin":486,"sentenceEnd":680},{"word":"vapor","begin":852,"end":856,"sentenceIndex":5,"sentenceBegin":682,"sentenceEnd":857}]}
{"paperId":"1e668438cb5f168adef29581a67d9f703ac9622a","indicators":[{"word":"vapor","begin":67,"end":71,"sentenceIndex":0,"sentenceBegin":0,"sentenceEnd":136},{"word":"vapor","begin":100,"end":104,"sentenceIndex":0,"sentenceBegin":0,"sentenceEnd":136},{"word":"vapor","begin":206,"end":210,"sentenceIndex":1,"sentenceBegin":138,"sentenceEnd":333},{"word":"vapor","begin":262,"end":266,"sentenceIndex":1,"sentenceBegin":138,"sentenceEnd":333},{"word":"smoke","begin":402,"end":406,"sentenceIndex":2,"sentenceBegin":335,"sentenceEnd":453},{"word":"vapor","begin":501,"end":505,"sentenceIndex":3,"sentenceBegin":455,"sentenceEnd":588},{"word":"vapor","begin":673,"end":677,"sentenceIndex":4,"sentenceBegin":590,"sentenceEnd":699},{"word":"vapor","begin":705,"end":709,"sentenceIndex":5,"sentenceBegin":701,"sentenceEnd":841},{"word":"vapor","begin":865,"end":869,"sentenceIndex":6,"sentenceBegin":843,"sentenceEnd":936}]}
{"paperId":"1e668438cb5f168adef29581a67d9f703ac9622a","indicators":[{"word":"vapor","begin":197,"end":201,"sentenceIndex":1,"sentenceBegin":147,"sentenceEnd":302},{"word":"vapor","begin":210,"end":214,"sentenceIndex":1,"sentenceBegin":147,"sentenceEnd":302},{"word":"vapor","begin":932,"end":936,"sentenceIndex":6,"sentenceBegin":799,"sentenceEnd":950},{"word":"vapor","begin":945,"end":949,"sentenceIndex":6,"sentenceBegin":799,"sentenceEnd":950}]}
{"paperId":"1e668438cb5f168adef29581a67d9f703ac9622a","indicators":[{"word":"vapor","begin":95,"end":99,"sentenceIndex":0,"sentenceBegin":0,"sentenceEnd":191},{"word":"fume","begin":182,"end":185,"sentenceIndex":0,"sentenceBegin":0,"sentenceEnd":191},{"word":"vapor","begin":358,"end":362,"sentenceIndex":1,"sentenceBegin":193,"sentenceEnd":424},{"word":"vapor","begin":511,"end":515,"sentenceIndex":2,"sentenceBegin":426,"sentenceEnd":566}]}
{"paperId":"1e668438cb5f168adef29581a67d9f703ac9622a","indicators":[{"word":"vapor","begin":3,"end":7,"sentenceIndex":0,"sentenceBegin":0,"sentenceEnd":243},{"word":"vapor","begin":204,"end":208,"sentenceIndex":0,"sentenceBegin":0,"sentenceEnd":243}]}
{"paperId":"1e668438cb5f168adef29581a67d9f703ac9622a","indicators":[{"word":"vapor","begin":20,"end":24,"sentenceIndex":0,"sentenceBegin":0,"sentenceEnd":162},{"word":"vapor","begin":249,"end":253,"sentenceIndex":1,"sentenceBegin":164,"sentenceEnd":289}]}
{"paperId":"1e668438cb5f168adef29581a67d9f703ac9622a","indicators":[{"word":"vapor","begin":96,"end":100,"sentenceIndex":0,"sentenceBegin":0,"sentenceEnd":176},{"word":"vapor","begin":159,"end":163,"sentenceIndex":0,"sentenceBegin":0,"sentenceEnd":176},{"word":"vapor","begin":798,"end":802,"sentenceIndex":7,"sentenceBegin":773,"sentenceEnd":820},{"word":"vapor","begin":1093,"end":1097,"sentenceIndex":8,"sentenceBegin":822,"sentenceEnd":1115}]}
{"paperId":"1e668438cb5f168adef29581a67d9f703ac9622a","indicators":[{"word":"vapor","begin":6,"end":10,"sentenceIndex":0,"sentenceBegin":0,"sentenceEnd":68},{"word":"vapor","begin":162,"end":166,"sentenceIndex":1,"sentenceBegin":70,"sentenceEnd":337}]}
{"paperId":"1e668438cb5f168adef29581a67d9f703ac9622a","indicators":[{"word":"vapor","begin":198,"end":202,"sentenceIndex":1,"sentenceBegin":29,"sentenceEnd":239},{"word":"vapor","begin":386,"end":390,"sentenceIndex":2,"sentenceBegin":241,"sentenceEnd":405}]}
{"paperId":"1e668438cb5f168adef29581a67d9f703ac9622a","indicators":[{"word":"vapor","begin":1032,"end":1036,"sentenceIndex":4,"sentenceBegin":776,"sentenceEnd":1037},{"word":"vapor","begin":1118,"end":1122,"sentenceIndex":6,"sentenceBegin":1105,"sentenceEnd":1225},{"word":"vapor","begin":1325,"end":1329,"sentenceIndex":7,"sentenceBegin":1227,"sentenceEnd":1405},{"word":"vapor","begin":1415,"end":1419,"sentenceIndex":8,"sentenceBegin":1407,"sentenceEnd":1666},{"word":"vapor","begin":1775,"end":1779,"sentenceIndex":9,"sentenceBegin":1668,"sentenceEnd":1804},{"word":"vapor","begin":1904,"end":1908,"sentenceIndex":10,"sentenceBegin":1806,"sentenceEnd":1983},{"word":"vapor","begin":2282,"end":2286,"sentenceIndex":12,"sentenceBegin":2231,"sentenceEnd":2335}]}
{"paperId":"1e668438cb5f168adef29581a67d9f703ac9622a","indicators":[{"word":"vapor","begin":271,"end":275,"sentenceIndex":3,"sentenceBegin":215,"sentenceEnd":385}]}
{"paperId":"1e668438cb5f168adef29581a67d9f703ac9622a","indicators":[{"word":"vapor","begin":103,"end":107,"sentenceIndex":0,"sentenceBegin":0,"sentenceEnd":260},{"word":"vapor","begin":696,"end":700,"sentenceIndex":5,"sentenceBegin":668,"sentenceEnd":726},{"word":"vapor","begin":749,"end":753,"sentenceIndex":6,"sentenceBegin":728,"sentenceEnd":956},{"word":"vapor","begin":1072,"end":1076,"sentenceIndex":7,"sentenceBegin":958,"sentenceEnd":1168},{"word":"vapor","begin":1218,"end":1222,"sentenceIndex":8,"sentenceBegin":1170,"sentenceEnd":1345},{"word":"vapor","begin":1481,"end":1485,"sentenceIndex":9,"sentenceBegin":1347,"sentenceEnd":1486},{"word":"vapor","begin":1538,"end":1542,"sentenceIndex":10,"sentenceBegin":1488,"sentenceEnd":1557},{"word":"vapor","begin":1723,"end":1727,"sentenceIndex":11,"sentenceBegin":1559,"sentenceEnd":1752},{"word":"vapor","begin":1783,"end":1787,"sentenceIndex":12,"sentenceBegin":1754,"sentenceEnd":1961},{"word":"vapor","begin":1890,"end":1894,"sentenceIndex":12,"sentenceBegin":1754,"sentenceEnd":1961}]}
{"paperId":"1e668438cb5f168adef29581a67d9f703ac9622a","indicators":[{"word":"vapor","begin":45,"end":49,"sentenceIndex":0,"sentenceBegin":0,"sentenceEnd":167},{"word":"vapor","begin":232,"end":236,"sentenceIndex":1,"sentenceBegin":169,"sentenceEnd":389},{"word":"vapor","begin":340,"end":344,"sentenceIndex":1,"sentenceBegin":169,"sentenceEnd":389},{"word":"vapor","begin":487,"end":491,"sentenceIndex":2,"sentenceBegin":391,"sentenceEnd":542},{"word":"vapor","begin":537,"end":541,"sentenceIndex":2,"sentenceBegin":391,"sentenceEnd":542},{"word":"vapor","begin":561,"end":565,"sentenceIndex":3,"sentenceBegin":544,"sentenceEnd":622}]}
{"paperId":"1e668438cb5f168adef29581a67d9f703ac9622a","indicators":[{"word":"vapor","begin":35,"end":39,"sentenceIndex":0,"sentenceBegin":0,"sentenceEnd":139},{"word":"vapor","begin":688,"end":692,"sentenceIndex":4,"sentenceBegin":604,"sentenceEnd":857},{"word":"vapor","begin":863,"end":867,"sentenceIndex":5,"sentenceBegin":859,"sentenceEnd":976}]}
{"paperId":"1e668438cb5f168adef29581a67d9f703ac9622a","indicators":[{"word":"vapor","begin":633,"end":637,"sentenceIndex":1,"sentenceBegin":620,"sentenceEnd":675},{"word":"vapor","begin":644,"end":648,"sentenceIndex":1,"sentenceBegin":620,"sentenceEnd":675},{"word":"vapor","begin":929,"end":933,"sentenceIndex":4,"sentenceBegin":870,"sentenceEnd":982},{"word":"vapor","begin":1308,"end":1312,"sentenceIndex":7,"sentenceBegin":1172,"sentenceEnd":1327},{"word":"vapor","begin":1454,"end":1458,"sentenceIndex":9,"sentenceBegin":1417,"sentenceEnd":1496},{"word":"vapor","begin":1537,"end":1541,"sentenceIndex":10,"sentenceBegin":1498,"sentenceEnd":1742}]}
