{"paperId":"631540654a62c6cf760b3ff0c554ee03a560765d","indicators":[{"word":"smoke","begin":631,"end":635,"sentenceIndex":3,"sentenceBegin":518,"sentenceEnd":701}]}
{"paperId":"e007d513e7cc8907fd96a921f86362e3dc27e0e4","indicators":[{"word":"smoke","begin":607,"end":611,"sentenceIndex":2,"sentenceBegin":547,"sentenceEnd":657},{"word":"smoke","begin":732,"end":736,"sentenceIndex":3,"sentenceBegin":659,"sentenceEnd":813},{"word":"smoke","begin":847,"end":851,"sentenceIndex":4,"sentenceBegin":815,"sentenceEnd":966}]}
{"paperId":"115c4899a257118e2776fd582d64fd2cf431e30f","indicators":[{"word":"pot","begin":1146,"end":1148,"sentenceIndex":7,"sentenceBegin":975,"sentenceEnd":1159}]}
{"paperId":"4ba79e54ecf81b30b56461a6aec2094eaf7b7f06","indicators":[{"word":"smoking","begin":1142,"end":1148,"sentenceIndex":7,"sentenceBegin":1124,"sentenceEnd":1329},{"word":"smoking","begin":1481,"end":1487,"sentenceIndex":9,"sentenceBegin":1438,"sentenceEnd":1539}]}
{"paperId":"561906ef85f68ace50de7f1be8a2f2a01fb5f86c","indicators":[{"word":"fires","begin":209,"end":213,"sentenceIndex":1,"sentenceBegin":42,"sentenceEnd":282}]}
