{"paperId":"ed285afa3adaf9e2465140735b1dd7e4cd930791","indicators":[{"word":"tobacco","begin":532,"end":538,"sentenceIndex":2,"sentenceBegin":421,"sentenceEnd":607},{"word":"smoke","begin":540,"end":544,"sentenceIndex":2,"sentenceBegin":421,"sentenceEnd":607}]}
{"paperId":"1fd83ef7922963984411d069c4e2abcf0f4b4eec","indicators":[{"word":"smoking","begin":1064,"end":1070,"sentenceIndex":5,"sentenceBegin":1028,"sentenceEnd":1255}]}
{"paperId":"8cd9441dc9d04945ed93b4873142fc6634e1fbed","indicators":[{"word":"smoking","begin":412,"end":418,"sentenceIndex":3,"sentenceBegin":348,"sentenceEnd":494}]}
{"paperId":"8cd9441dc9d04945ed93b4873142fc6634e1fbed","indicators":[{"word":"smoking","begin":37,"end":43,"sentenceIndex":0,"sentenceBegin":0,"sentenceEnd":171}]}
{"paperId":"8cd9441dc9d04945ed93b4873142fc6634e1fbed","indicators":[{"word":"smoking","begin":220,"end":226,"sentenceIndex":3,"sentenceBegin":205,"sentenceEnd":296},{"word":"smoking","begin":464,"end":470,"sentenceIndex":5,"sentenceBegin":458,"sentenceEnd":517}]}
{"paperId":"a410689981eddf53ed0073a2310941bb37913ab9","indicators":[{"word":"smoking","begin":402,"end":408,"sentenceIndex":2,"sentenceBegin":227,"sentenceEnd":437}]}
{"paperId":"a410689981eddf53ed0073a2310941bb37913ab9","indicators":[{"word":"cigarette","begin":147,"end":155,"sentenceIndex":1,"sentenceBegin":135,"sentenceEnd":387},{"word":"smoke","begin":157,"end":161,"sentenceIndex":1,"sentenceBegin":135,"sentenceEnd":387}]}
{"paperId":"a410689981eddf53ed0073a2310941bb37913ab9","indicators":[{"word":"tobacco","begin":508,"end":514,"sentenceIndex":2,"sentenceBegin":391,"sentenceEnd":601}]}
{"paperId":"5ae82d5520c47167731f4266cdd770868c5602e5","indicators":[{"word":"smoking","begin":1113,"end":1119,"sentenceIndex":7,"sentenceBegin":1064,"sentenceEnd":1197}]}
{"paperId":"5ae82d5520c47167731f4266cdd770868c5602e5","indicators":[{"word":"smoking","begin":728,"end":734,"sentenceIndex":5,"sentenceBegin":673,"sentenceEnd":921},{"word":"smoke","begin":836,"end":840,"sentenceIndex":5,"sentenceBegin":673,"sentenceEnd":921},{"word":"smoking","begin":945,"end":951,"sentenceIndex":6,"sentenceBegin":923,"sentenceEnd":1174}]}
