{"paperId":"ec118734c70d05895735463fddc8e06b95a85f8c","indicators":[{"word":"tobacco","begin":269,"end":275,"sentenceIndex":1,"sentenceBegin":181,"sentenceEnd":431},{"word":"smoking","begin":277,"end":283,"sentenceIndex":1,"sentenceBegin":181,"sentenceEnd":431}]}
{"paperId":"ec118734c70d05895735463fddc8e06b95a85f8c","indicators":[{"word":"tobacco","begin":474,"end":480,"sentenceIndex":5,"sentenceBegin":465,"sentenceEnd":595},{"word":"smoking","begin":482,"end":488,"sentenceIndex":5,"sentenceBegin":465,"sentenceEnd":595},{"word":"smoking","begin":543,"end":549,"sentenceIndex":5,"sentenceBegin":465,"sentenceEnd":595}]}
{"paperId":"ec118734c70d05895735463fddc8e06b95a85f8c","indicators":[{"word":"smoking","begin":713,"end":719,"sentenceIndex":3,"sentenceBegin":547,"sentenceEnd":720}]}
{"paperId":"ec118734c70d05895735463fddc8e06b95a85f8c","indicators":[{"word":"tobacco","begin":141,"end":147,"sentenceIndex":0,"sentenceBegin":0,"sentenceEnd":156},{"word":"smoking","begin":149,"end":155,"sentenceIndex":0,"sentenceBegin":0,"sentenceEnd":156}]}
{"paperId":"f4695ab01d1f607e3ab8055db27232d5eb829aae","indicators":[{"word":"smoking","begin":204,"end":210,"sentenceIndex":1,"sentenceBegin":182,"sentenceEnd":369}]}
{"paperId":"8e7c51977c38407e742eb6900ce8be5300cef64f","indicators":[{"word":"smoking","begin":316,"end":322,"sentenceIndex":2,"sentenceBegin":174,"sentenceEnd":342}]}
