{"paperId":"445c2febbd9f9586a0ade6b12860ade814ee9fa7","indicators":[{"word":"smoking","begin":541,"end":547,"sentenceIndex":2,"sentenceBegin":358,"sentenceEnd":614}]}
{"paperId":"445c2febbd9f9586a0ade6b12860ade814ee9fa7","indicators":[{"word":"smoking","begin":507,"end":513,"sentenceIndex":3,"sentenceBegin":477,"sentenceEnd":629}]}
{"paperId":"445c2febbd9f9586a0ade6b12860ade814ee9fa7","indicators":[{"word":"smoking","begin":468,"end":474,"sentenceIndex":1,"sentenceBegin":212,"sentenceEnd":507}]}
{"paperId":"445c2febbd9f9586a0ade6b12860ade814ee9fa7","indicators":[{"word":"cigarette","begin":245,"end":253,"sentenceIndex":1,"sentenceBegin":152,"sentenceEnd":370},{"word":"smoking","begin":314,"end":320,"sentenceIndex":1,"sentenceBegin":152,"sentenceEnd":370},{"word":"smoke","begin":411,"end":415,"sentenceIndex":2,"sentenceBegin":372,"sentenceEnd":473},{"word":"smoking","begin":512,"end":518,"sentenceIndex":3,"sentenceBegin":475,"sentenceEnd":654},{"word":"smoking","begin":973,"end":979,"sentenceIndex":5,"sentenceBegin":767,"sentenceEnd":980}]}
{"paperId":"62e532c8179e0818036195b247fc2505e0c44eae","indicators":[{"word":"tobacco","begin":1455,"end":1461,"sentenceIndex":8,"sentenceBegin":1264,"sentenceEnd":1528},{"word":"smoke","begin":1463,"end":1467,"sentenceIndex":8,"sentenceBegin":1264,"sentenceEnd":1528},{"word":"smoke","begin":1485,"end":1489,"sentenceIndex":8,"sentenceBegin":1264,"sentenceEnd":1528}]}
{"paperId":"62e532c8179e0818036195b247fc2505e0c44eae","indicators":[{"word":"smog","begin":154,"end":157,"sentenceIndex":0,"sentenceBegin":0,"sentenceEnd":385}]}
{"paperId":"310b92439db3ed9ec3a094bac7782b297b99751d","indicators":[{"word":"tobacco","begin":606,"end":612,"sentenceIndex":1,"sentenceBegin":444,"sentenceEnd":829}]}
{"paperId":"1483a3213a33c28193fe5d4684e05110119a0f10","indicators":[{"word":"smoking","begin":28,"end":34,"sentenceIndex":0,"sentenceBegin":0,"sentenceEnd":142}]}
