{"paperId":"0e089d33672046b01e6d73e3947ca4f16f985e00","indicators":[{"word":"cannabis","begin":55,"end":62,"sentenceIndex":0,"sentenceBegin":0,"sentenceEnd":252}]}
{"paperId":"0e089d33672046b01e6d73e3947ca4f16f985e00","indicators":[{"word":"cannabis","begin":555,"end":562,"sentenceIndex":4,"sentenceBegin":421,"sentenceEnd":652}]}
{"paperId":"0e089d33672046b01e6d73e3947ca4f16f985e00","indicators":[{"word":"cannabis","begin":49,"end":56,"sentenceIndex":0,"sentenceBegin":0,"sentenceEnd":147}]}
{"paperId":"0e089d33672046b01e6d73e3947ca4f16f985e00","indicators":[{"word":"cannabis","begin":77,"end":84,"sentenceIndex":0,"sentenceBegin":0,"sentenceEnd":247}]}
{"paperId":"0e089d33672046b01e6d73e3947ca4f16f985e00","indicators":[{"word":"cannabis","begin":720,"end":727,"sentenceIndex":3,"sentenceBegin":583,"sentenceEnd":773}]}
{"paperId":"0e089d33672046b01e6d73e3947ca4f16f985e00","indicators":[{"word":"cannabis","begin":58,"end":65,"sentenceIndex":0,"sentenceBegin":0,"sentenceEnd":188},{"word":"cannabis","begin":216,"end":223,"sentenceIndex":1,"sentenceBegin":190,"sentenceEnd":400}]}
{"paperId":"0e089d33672046b01e6d73e3947ca4f16f985e00","indicators":[{"word":"cannabis","begin":40,"end":47,"sentenceIndex":0,"sentenceBegin":0,"sentenceEnd":68},{"word":"cannabis","begin":247,"end":254,"sentenceIndex":4,"sentenceBegin":217,"sentenceEnd":322}]}
{"paperId":"0e089d33672046b01e6d73e3947ca4f16f985e00","indicators":[{"word":"cannabis","begin":246,"end":253,"sentenceIndex":0,"sentenceBegin":0,"sentenceEnd":254}]}
{"paperId":"0e089d33672046b01e6d73e3947ca4f16f985e00","indicators":[{"word":"cannabis","begin":254,"end":261,"sentenceIndex":2,"sentenceBegin":225,"sentenceEnd":403}]}
{"paperId":"0e089d33672046b01e6d73e3947ca4f16f985e00","indicators":[{"word":"cannabis","begin":533,"end":540,"sentenceIndex":2,"sentenceBegin":474,"sentenceEnd":724}]}
{"paperId":"0e089d33672046b01e6d73e3947ca4f16f985e00","indicators":[{"word":"cannabis","begin":58,"end":65,"sentenceIndex":0,"sentenceBegin":0,"sentenceEnd":174}]}
{"paperId":"0e089d33672046b01e6d73e3947ca4f16f985e00","indicators":[{"word":"cannabis","begin":592,"end":599,"sentenceIndex":4,"sentenceBegin":553,"sentenceEnd":651}]}
{"paperId":"0e089d33672046b01e6d73e3947ca4f16f985e00","indicators":[{"word":"cannabis","begin":85,"end":92,"sentenceIndex":0,"sentenceBegin":0,"sentenceEnd":199}]}
{"paperId":"0e089d33672046b01e6d73e3947ca4f16f985e00","indicators":[{"word":"cannabis","begin":48,"end":55,"sentenceIndex":0,"sentenceBegin":0,"sentenceEnd":192}]}
{"paperId":"0e089d33672046b01e6d73e3947ca4f16f985e00","indicators":[{"word":"cannabis","begin":24,"end":31,"sentenceIndex":0,"sentenceBegin":0,"sentenceEnd":184},{"word":"cannabis","begin":532,"end":539,"sentenceIndex":2,"sentenceBegin":502,"sentenceEnd":701}]}
{"paperId":"cac851f6bb322314ff1ddadd68dee97984daefca","indicators":[{"word":"smoking","begin":528,"end":534,"sentenceIndex":3,"sentenceBegin":489,"sentenceEnd":593}]}
{"paperId":"206231b403edaaa8ff0fd1a23ca2428dd261507b","indicators":[{"word":"weeds","begin":228,"end":232,"sentenceIndex":1,"sentenceBegin":141,"sentenceEnd":323}]}
{"paperId":"01713c06bb834b0151c600eb2fd2a759bce1b781","indicators":[{"word":"tobacco","begin":216,"end":222,"sentenceIndex":2,"sentenceBegin":190,"sentenceEnd":298},{"word":"smoke","begin":224,"end":228,"sentenceIndex":2,"sentenceBegin":190,"sentenceEnd":298}]}
{"paperId":"01713c06bb834b0151c600eb2fd2a759bce1b781","indicators":[{"word":"tobacco","begin":416,"end":422,"sentenceIndex":2,"sentenceBegin":255,"sentenceEnd":429},{"word":"smoke","begin":424,"end":428,"sentenceIndex":2,"sentenceBegin":255,"sentenceEnd":429}]}
