{"paperId":"17ef76b6acdc223229e3a6ed236bed4c2fc0f811","indicators":[{"word":"tobacco","begin":144,"end":150,"sentenceIndex":0,"sentenceBegin":0,"sentenceEnd":220}]}
{"paperId":"a14f032727ab00fbeb4f957f7e88e02b9979f49c","indicators":[{"word":"smoking","begin":12,"end":18,"sentenceIndex":0,"sentenceBegin":0,"sentenceEnd":101},{"word":"smoke","begin":127,"end":131,"sentenceIndex":1,"sentenceBegin":103,"sentenceEnd":296}]}
{"paperId":"67282d82fcba34faf696a510ca4d54b8804289cd","indicators":[{"word":"pot","begin":321,"end":323,"sentenceIndex":3,"sentenceBegin":309,"sentenceEnd":495}]}
{"paperId":"4d59bd2383bc5e742e52b7e1b752bf4dc60d7f31","indicators":[{"word":"firing","begin":2314,"end":2319,"sentenceIndex":19,"sentenceBegin":2299,"sentenceEnd":2427}]}
{"paperId":"78c7ab1626fb6f72c09c280f8587f64ae7763d61","indicators":[{"word":"smoking","begin":105,"end":111,"sentenceIndex":0,"sentenceBegin":0,"sentenceEnd":204}]}
{"paperId":"78c7ab1626fb6f72c09c280f8587f64ae7763d61","indicators":[{"word":"smoking","begin":1055,"end":1061,"sentenceIndex":7,"sentenceBegin":1045,"sentenceEnd":1251}]}
{"paperId":"78c7ab1626fb6f72c09c280f8587f64ae7763d61","indicators":[{"word":"smoking","begin":788,"end":794,"sentenceIndex":8,"sentenceBegin":752,"sentenceEnd":880},{"word":"smoking","begin":810,"end":816,"sentenceIndex":8,"sentenceBegin":752,"sentenceEnd":880}]}
{"paperId":"78c7ab1626fb6f72c09c280f8587f64ae7763d61","indicators":[{"word":"smoking","begin":193,"end":199,"sentenceIndex":0,"sentenceBegin":0,"sentenceEnd":200}]}
{"paperId":"78c7ab1626fb6f72c09c280f8587f64ae7763d61","indicators":[{"word":"smoking","begin":364,"end":370,"sentenceIndex":3,"sentenceBegin":350,"sentenceEnd":428}]}
{"paperId":"78c7ab1626fb6f72c09c280f8587f64ae7763d61","indicators":[{"word":"smoking","begin":104,"end":110,"sentenceIndex":2,"sentenceBegin":93,"sentenceEnd":126}]}
{"paperId":"78c7ab1626fb6f72c09c280f8587f64ae7763d61","indicators":[{"word":"smoking","begin":506,"end":512,"sentenceIndex":4,"sentenceBegin":492,"sentenceEnd":619}]}
{"paperId":"78c7ab1626fb6f72c09c280f8587f64ae7763d61","indicators":[{"word":"smoking","begin":61,"end":67,"sentenceIndex":0,"sentenceBegin":0,"sentenceEnd":237}]}
