{"paperId":"d4ff176cbb4d4fcf17ef042ca2acb790552b1eee","indicators":[{"word":"tobacco","begin":610,"end":616,"sentenceIndex":2,"sentenceBegin":405,"sentenceEnd":665},{"word":"smoking","begin":618,"end":624,"sentenceIndex":2,"sentenceBegin":405,"sentenceEnd":665}]}
{"paperId":"d4ff176cbb4d4fcf17ef042ca2acb790552b1eee","indicators":[{"word":"cigarette","begin":83,"end":91,"sentenceIndex":0,"sentenceBegin":0,"sentenceEnd":206},{"word":"smoke","begin":93,"end":97,"sentenceIndex":0,"sentenceBegin":0,"sentenceEnd":206}]}
{"paperId":"d4ff176cbb4d4fcf17ef042ca2acb790552b1eee","indicators":[{"word":"vapor","begin":309,"end":313,"sentenceIndex":1,"sentenceBegin":194,"sentenceEnd":426}]}
{"paperId":"d4ff176cbb4d4fcf17ef042ca2acb790552b1eee","indicators":[{"word":"smoke","begin":114,"end":118,"sentenceIndex":1,"sentenceBegin":51,"sentenceEnd":165}]}
{"paperId":"d4ff176cbb4d4fcf17ef042ca2acb790552b1eee","indicators":[{"word":"cigarette","begin":774,"end":782,"sentenceIndex":4,"sentenceBegin":765,"sentenceEnd":1024},{"word":"smoke","begin":784,"end":788,"sentenceIndex":4,"sentenceBegin":765,"sentenceEnd":1024},{"word":"smoking","begin":1057,"end":1063,"sentenceIndex":5,"sentenceBegin":1026,"sentenceEnd":1482}]}
{"paperId":"d4ff176cbb4d4fcf17ef042ca2acb790552b1eee","indicators":[{"word":"vapor","begin":446,"end":450,"sentenceIndex":2,"sentenceBegin":329,"sentenceEnd":599}]}
{"paperId":"d4ff176cbb4d4fcf17ef042ca2acb790552b1eee","indicators":[{"word":"fumes","begin":1761,"end":1765,"sentenceIndex":11,"sentenceBegin":1630,"sentenceEnd":1989}]}
{"paperId":"c7ad394d621ba607b0c0ed4374bf32db9ebc69bc","indicators":[{"word":"smoke","begin":516,"end":520,"sentenceIndex":2,"sentenceBegin":405,"sentenceEnd":576}]}
{"paperId":"c7ad394d621ba607b0c0ed4374bf32db9ebc69bc","indicators":[{"word":"smoke","begin":368,"end":372,"sentenceIndex":2,"sentenceBegin":280,"sentenceEnd":455}]}
