{"paperId":"08f6c419a42b6c922108349af6c1b2aaf2cc62b2","indicators":[{"word":"tobacco","begin":429,"end":435,"sentenceIndex":2,"sentenceBegin":377,"sentenceEnd":509},{"word":"smoke","begin":437,"end":441,"sentenceIndex":2,"sentenceBegin":377,"sentenceEnd":509}]}
{"paperId":"08f6c419a42b6c922108349af6c1b2aaf2cc62b2","indicators":[{"word":"smoking","begin":2517,"end":2523,"sentenceIndex":17,"sentenceBegin":2244,"sentenceEnd":2563},{"word":"smoking","begin":3776,"end":3782,"sentenceIndex":24,"sentenceBegin":3738,"sentenceEnd":3884},{"word":"tobacco","begin":3828,"end":3834,"sentenceIndex":24,"sentenceBegin":3738,"sentenceEnd":3884},{"word":"smoke","begin":3836,"end":3840,"sentenceIndex":24,"sentenceBegin":3738,"sentenceEnd":3884}]}
{"paperId":"08f6c419a42b6c922108349af6c1b2aaf2cc62b2","indicators":[{"word":"smoking","begin":486,"end":492,"sentenceIndex":2,"sentenceBegin":475,"sentenceEnd":549},{"word":"tobacco","begin":582,"end":588,"sentenceIndex":3,"sentenceBegin":551,"sentenceEnd":714},{"word":"smoke","begin":590,"end":594,"sentenceIndex":3,"sentenceBegin":551,"sentenceEnd":714},{"word":"smoking","begin":903,"end":909,"sentenceIndex":4,"sentenceBegin":716,"sentenceEnd":910},{"word":"smoking","begin":1085,"end":1091,"sentenceIndex":6,"sentenceBegin":1058,"sentenceEnd":1178},{"word":"smoke","begin":1173,"end":1177,"sentenceIndex":6,"sentenceBegin":1058,"sentenceEnd":1178},{"word":"tobacco","begin":1297,"end":1303,"sentenceIndex":7,"sentenceBegin":1180,"sentenceEnd":1365},{"word":"smoke","begin":1305,"end":1309,"sentenceIndex":7,"sentenceBegin":1180,"sentenceEnd":1365},{"word":"smoking","begin":1358,"end":1364,"sentenceIndex":7,"sentenceBegin":1180,"sentenceEnd":1365},{"word":"smoking","begin":1443,"end":1449,"sentenceIndex":8,"sentenceBegin":1367,"sentenceEnd":1502},{"word":"tobacco","begin":1761,"end":1767,"sentenceIndex":10,"sentenceBegin":1656,"sentenceEnd":1785}]}
{"paperId":"08f6c419a42b6c922108349af6c1b2aaf2cc62b2","indicators":[{"word":"tobacco","begin":1960,"end":1966,"sentenceIndex":11,"sentenceBegin":1846,"sentenceEnd":2049},{"word":"smoke","begin":1968,"end":1972,"sentenceIndex":11,"sentenceBegin":1846,"sentenceEnd":2049}]}
{"paperId":"08f6c419a42b6c922108349af6c1b2aaf2cc62b2","indicators":[{"word":"smoking","begin":573,"end":579,"sentenceIndex":4,"sentenceBegin":516,"sentenceEnd":614}]}
{"paperId":"08f6c419a42b6c922108349af6c1b2aaf2cc62b2","indicators":[{"word":"tobacco","begin":123,"end":129,"sentenceIndex":1,"sentenceBegin":65,"sentenceEnd":242},{"word":"smoke","begin":131,"end":135,"sentenceIndex":1,"sentenceBegin":65,"sentenceEnd":242}]}
{"paperId":"08f6c419a42b6c922108349af6c1b2aaf2cc62b2","indicators":[{"word":"puffs","begin":527,"end":531,"sentenceIndex":2,"sentenceBegin":400,"sentenceEnd":636}]}
{"paperId":"08f6c419a42b6c922108349af6c1b2aaf2cc62b2","indicators":[{"word":"tobacco","begin":20,"end":26,"sentenceIndex":0,"sentenceBegin":0,"sentenceEnd":265},{"word":"smoke","begin":28,"end":32,"sentenceIndex":0,"sentenceBegin":0,"sentenceEnd":265},{"word":"smoking","begin":109,"end":115,"sentenceIndex":0,"sentenceBegin":0,"sentenceEnd":265},{"word":"smoking","begin":135,"end":141,"sentenceIndex":0,"sentenceBegin":0,"sentenceEnd":265},{"word":"smoke","begin":176,"end":180,"sentenceIndex":0,"sentenceBegin":0,"sentenceEnd":265},{"word":"smoking","begin":281,"end":287,"sentenceIndex":1,"sentenceBegin":267,"sentenceEnd":481},{"word":"smoked","begin":383,"end":388,"sentenceIndex":1,"sentenceBegin":267,"sentenceEnd":481}]}
{"paperId":"08f6c419a42b6c922108349af6c1b2aaf2cc62b2","indicators":[{"word":"tobacco","begin":868,"end":874,"sentenceIndex":5,"sentenceBegin":748,"sentenceEnd":897},{"word":"smoke","begin":876,"end":880,"sentenceIndex":5,"sentenceBegin":748,"sentenceEnd":897}]}
{"paperId":"08f6c419a42b6c922108349af6c1b2aaf2cc62b2","indicators":[{"word":"tobacco","begin":446,"end":452,"sentenceIndex":1,"sentenceBegin":135,"sentenceEnd":500},{"word":"tobacco","begin":1556,"end":1562,"sentenceIndex":8,"sentenceBegin":1356,"sentenceEnd":1596}]}
{"paperId":"084dc042b4738a6f687a72ee5683de2445c2b7d4","indicators":[{"word":"smoking","begin":518,"end":524,"sentenceIndex":2,"sentenceBegin":284,"sentenceEnd":535}]}
{"paperId":"ac7d8fb495888876f03df56a1d3a3faa1f05e770","indicators":[{"word":"tobacco","begin":770,"end":776,"sentenceIndex":3,"sentenceBegin":594,"sentenceEnd":803}]}
{"paperId":"136abfc10a648c6faea4774da3e3c439f1245572","indicators":[{"word":"smoke","begin":841,"end":845,"sentenceIndex":6,"sentenceBegin":810,"sentenceEnd":860}]}
{"paperId":"ace2a35cc2406ef4288bee6a35ab31ca632709cf","indicators":[{"word":"tobacco","begin":864,"end":870,"sentenceIndex":5,"sentenceBegin":826,"sentenceEnd":956}]}
{"paperId":"2559cb0b4a2175212495ab7d44d9305db4a06c05","indicators":[{"word":"tobacco","begin":350,"end":356,"sentenceIndex":1,"sentenceBegin":199,"sentenceEnd":397}]}
{"paperId":"aed0e70359bffd12f9748dc4d900d9ec3a170422","indicators":[{"word":"vapor","begin":484,"end":488,"sentenceIndex":3,"sentenceBegin":414,"sentenceEnd":568},{"word":"vapor","begin":789,"end":793,"sentenceIndex":6,"sentenceBegin":713,"sentenceEnd":999},{"word":"vapor","begin":1104,"end":1108,"sentenceIndex":7,"sentenceBegin":1001,"sentenceEnd":1338},{"word":"vapor","begin":1457,"end":1461,"sentenceIndex":8,"sentenceBegin":1340,"sentenceEnd":1756},{"word":"vapor","begin":1882,"end":1886,"sentenceIndex":9,"sentenceBegin":1758,"sentenceEnd":2208},{"word":"vapor","begin":2329,"end":2333,"sentenceIndex":10,"sentenceBegin":2210,"sentenceEnd":2682}]}
{"paperId":"60e996c706b7ab55904212657f30479160c4fe1e","indicators":[{"word":"vapor","begin":674,"end":678,"sentenceIndex":4,"sentenceBegin":550,"sentenceEnd":762}]}
