{"paperId":"a6d3a67189b0d60da49032d2192a681dc06f5459","indicators":[{"word":"smoking","begin":708,"end":714,"sentenceIndex":3,"sentenceBegin":552,"sentenceEnd":846}]}
{"paperId":"1ce554ce77c36f55fa3aaffc522013236fb9cb6b","indicators":[{"word":"vapors","begin":1184,"end":1189,"sentenceIndex":9,"sentenceBegin":1099,"sentenceEnd":1207}]}
{"paperId":"1ce554ce77c36f55fa3aaffc522013236fb9cb6b","indicators":[{"word":"vapors","begin":162,"end":167,"sentenceIndex":1,"sentenceBegin":138,"sentenceEnd":333},{"word":"cigarette","begin":2044,"end":2052,"sentenceIndex":16,"sentenceBegin":1954,"sentenceEnd":2131},{"word":"smoke","begin":2054,"end":2058,"sentenceIndex":16,"sentenceBegin":1954,"sentenceEnd":2131}]}
{"paperId":"1ce554ce77c36f55fa3aaffc522013236fb9cb6b","indicators":[{"word":"cigarette","begin":723,"end":731,"sentenceIndex":3,"sentenceBegin":626,"sentenceEnd":817},{"word":"smoke","begin":733,"end":737,"sentenceIndex":3,"sentenceBegin":626,"sentenceEnd":817},{"word":"smog","begin":2602,"end":2605,"sentenceIndex":14,"sentenceBegin":2399,"sentenceEnd":2637}]}
{"paperId":"fc1d9acb5bb63e3a7898b27d287ff5862b4f2b09","indicators":[{"word":"smoke","begin":194,"end":198,"sentenceIndex":0,"sentenceBegin":0,"sentenceEnd":244}]}
{"paperId":"f28b6a80dda01b5c5dea9fdc7f52476095c557ed","indicators":[{"word":"vapor","begin":148,"end":152,"sentenceIndex":1,"sentenceBegin":70,"sentenceEnd":238}]}
{"paperId":"b804b92b9bb72ad4f6d03b58cbe6cb3be8b5f1cf","indicators":[{"word":"smoke","begin":1045,"end":1049,"sentenceIndex":4,"sentenceBegin":971,"sentenceEnd":1067},{"word":"vapors","begin":1192,"end":1197,"sentenceIndex":6,"sentenceBegin":1089,"sentenceEnd":1281}]}
{"paperId":"b804b92b9bb72ad4f6d03b58cbe6cb3be8b5f1cf","indicators":[{"word":"fumes","begin":49,"end":53,"sentenceIndex":0,"sentenceBegin":0,"sentenceEnd":80}]}
{"paperId":"b804b92b9bb72ad4f6d03b58cbe6cb3be8b5f1cf","indicators":[{"word":"smog","begin":540,"end":543,"sentenceIndex":2,"sentenceBegin":388,"sentenceEnd":670}]}
{"paperId":"b804b92b9bb72ad4f6d03b58cbe6cb3be8b5f1cf","indicators":[{"word":"vapors","begin":613,"end":618,"sentenceIndex":4,"sentenceBegin":469,"sentenceEnd":644}]}
{"paperId":"b804b92b9bb72ad4f6d03b58cbe6cb3be8b5f1cf","indicators":[{"word":"smoke","begin":490,"end":494,"sentenceIndex":3,"sentenceBegin":480,"sentenceEnd":546},{"word":"smoking","begin":585,"end":591,"sentenceIndex":4,"sentenceBegin":548,"sentenceEnd":719}]}
{"paperId":"b804b92b9bb72ad4f6d03b58cbe6cb3be8b5f1cf","indicators":[{"word":"tobacco","begin":89,"end":95,"sentenceIndex":0,"sentenceBegin":0,"sentenceEnd":102},{"word":"smoke","begin":97,"end":101,"sentenceIndex":0,"sentenceBegin":0,"sentenceEnd":102},{"word":"tobacco","begin":194,"end":200,"sentenceIndex":1,"sentenceBegin":104,"sentenceEnd":231},{"word":"smoking","begin":202,"end":208,"sentenceIndex":1,"sentenceBegin":104,"sentenceEnd":231},{"word":"tobacco","begin":295,"end":301,"sentenceIndex":2,"sentenceBegin":233,"sentenceEnd":401},{"word":"smoke","begin":303,"end":307,"sentenceIndex":2,"sentenceBegin":233,"sentenceEnd":401},{"word":"smoke","begin":380,"end":384,"sentenceIndex":2,"sentenceBegin":233,"sentenceEnd":401},{"word":"smoking","begin":492,"end":498,"sentenceIndex":3,"sentenceBegin":403,"sentenceEnd":614},{"word":"cigar","begin":592,"end":596,"sentenceIndex":3,"sentenceBegin":403,"sentenceEnd":614},{"word":"smoking","begin":750,"end":756,"sentenceIndex":4,"sentenceBegin":616,"sentenceEnd":981},{"word":"smoking","begin":808,"end":814,"sentenceIndex":4,"sentenceBegin":616,"sentenceEnd":981},{"word":"tobacco","begin":912,"end":918,"sentenceIndex":4,"sentenceBegin":616,"sentenceEnd":981},{"word":"smoke","begin":920,"end":924,"sentenceIndex":4,"sentenceBegin":616,"sentenceEnd":981},{"word":"smoking","begin":1158,"end":1164,"sentenceIndex":5,"sentenceBegin":983,"sentenceEnd":1196},{"word":"tobacco","begin":1225,"end":1231,"sentenceIndex":6,"sentenceBegin":1198,"sentenceEnd":1339},{"word":"smoking","begin":1265,"end":1271,"sentenceIndex":6,"sentenceBegin":1198,"sentenceEnd":1339},{"word":"smoking","begin":1375,"end":1381,"sentenceIndex":7,"sentenceBegin":1341,"sentenceEnd":1487},{"word":"smoking","begin":1524,"end":1530,"sentenceIndex":8,"sentenceBegin":1489,"sentenceEnd":1544},{"word":"smoking","begin":1555,"end":1561,"sentenceIndex":9,"sentenceBegin":1546,"sentenceEnd":1644},{"word":"smoking","begin":1695,"end":1701,"sentenceIndex":10,"sentenceBegin":1646,"sentenceEnd":1719}]}
