{"paperId":"75cb22494be910706853de31f0c5edc20f2095a5","indicators":[{"word":"tobacco","begin":1089,"end":1095,"sentenceIndex":6,"sentenceBegin":794,"sentenceEnd":1116},{"word":"tobacco","begin":1374,"end":1380,"sentenceIndex":8,"sentenceBegin":1255,"sentenceEnd":1692},{"word":"tobacco","begin":1426,"end":1432,"sentenceIndex":8,"sentenceBegin":1255,"sentenceEnd":1692},{"word":"tobacco","begin":2018,"end":2024,"sentenceIndex":10,"sentenceBegin":1858,"sentenceEnd":2068},{"word":"tobacco","begin":2035,"end":2041,"sentenceIndex":10,"sentenceBegin":1858,"sentenceEnd":2068}]}
{"paperId":"75cb22494be910706853de31f0c5edc20f2095a5","indicators":[{"word":"tobacco","begin":1365,"end":1371,"sentenceIndex":14,"sentenceBegin":1357,"sentenceEnd":1440},{"word":"tobacco","begin":1405,"end":1411,"sentenceIndex":14,"sentenceBegin":1357,"sentenceEnd":1440}]}
{"paperId":"618af94e679636181030cd0fa230d5e0224ff0b9","indicators":[{"word":"tobacco","begin":878,"end":884,"sentenceIndex":11,"sentenceBegin":839,"sentenceEnd":920}]}
{"paperId":"3c715977dfde048c2bb0985a869f08da3643660e","indicators":[{"word":"cigarettes","begin":1438,"end":1447,"sentenceIndex":6,"sentenceBegin":1255,"sentenceEnd":1461}]}
{"paperId":"34b617bf7fa7b22074e301793069cd32596bfbb7","indicators":[{"word":"tobacco","begin":11,"end":17,"sentenceIndex":0,"sentenceBegin":0,"sentenceEnd":226},{"word":"tobacco","begin":741,"end":747,"sentenceIndex":8,"sentenceBegin":696,"sentenceEnd":805}]}
{"paperId":"34b617bf7fa7b22074e301793069cd32596bfbb7","indicators":[{"word":"tobacco","begin":318,"end":324,"sentenceIndex":2,"sentenceBegin":154,"sentenceEnd":365}]}
{"paperId":"34b617bf7fa7b22074e301793069cd32596bfbb7","indicators":[{"word":"tobacco","begin":136,"end":142,"sentenceIndex":0,"sentenceBegin":0,"sentenceEnd":169}]}
{"paperId":"34b617bf7fa7b22074e301793069cd32596bfbb7","indicators":[{"word":"tobacco","begin":80,"end":86,"sentenceIndex":0,"sentenceBegin":0,"sentenceEnd":154}]}
{"paperId":"80dbdfbf10174a13cded449973fab8e6c12281c2","indicators":[{"word":"tobacco","begin":909,"end":915,"sentenceIndex":17,"sentenceBegin":795,"sentenceEnd":950}]}
{"paperId":"dd50d11f2e14a75346c9e208e70bbcc9ceb77264","indicators":[{"word":"tobacco","begin":556,"end":562,"sentenceIndex":3,"sentenceBegin":511,"sentenceEnd":757}]}
{"paperId":"55cc676ae1d05bf9cacceacd765846abfeae92a9","indicators":[{"word":"firing","begin":336,"end":341,"sentenceIndex":1,"sentenceBegin":123,"sentenceEnd":418}]}
{"paperId":"55cc676ae1d05bf9cacceacd765846abfeae92a9","indicators":[{"word":"vapor","begin":185,"end":189,"sentenceIndex":0,"sentenceBegin":0,"sentenceEnd":241}]}
