{"paperId":"e1d54d1ec033522012a4f994961fec6582c17ce6","indicators":[{"word":"smoking","begin":403,"end":409,"sentenceIndex":3,"sentenceBegin":312,"sentenceEnd":434}]}
{"paperId":"fff6fe12beb51ee2641ddb5381378ff3560d8103","indicators":[{"word":"cigarette","begin":258,"end":266,"sentenceIndex":3,"sentenceBegin":244,"sentenceEnd":307}]}
{"paperId":"fff6fe12beb51ee2641ddb5381378ff3560d8103","indicators":[{"word":"smoking","begin":311,"end":317,"sentenceIndex":1,"sentenceBegin":178,"sentenceEnd":392},{"word":"smoking","begin":368,"end":374,"sentenceIndex":1,"sentenceBegin":178,"sentenceEnd":392}]}
{"paperId":"fff6fe12beb51ee2641ddb5381378ff3560d8103","indicators":[{"word":"cigarette","begin":706,"end":714,"sentenceIndex":5,"sentenceBegin":652,"sentenceEnd":883},{"word":"smoking","begin":778,"end":784,"sentenceIndex":5,"sentenceBegin":652,"sentenceEnd":883},{"word":"smoking","begin":820,"end":826,"sentenceIndex":5,"sentenceBegin":652,"sentenceEnd":883}]}
{"paperId":"efd3a0adec621ead095b64ec9a3440f12af64ba8","indicators":[{"word":"smoking","begin":849,"end":855,"sentenceIndex":5,"sentenceBegin":747,"sentenceEnd":999}]}
{"paperId":"e47cc8571fdaa3c959a68ef22f892e2f4e0691b2","indicators":[{"word":"pots","begin":2502,"end":2505,"sentenceIndex":15,"sentenceBegin":2378,"sentenceEnd":2593}]}
{"paperId":"7f9e4d9f0bcafb845f9a1b8677a156fca6d313aa","indicators":[{"word":"smoking","begin":762,"end":768,"sentenceIndex":3,"sentenceBegin":437,"sentenceEnd":769}]}
{"paperId":"7f9e4d9f0bcafb845f9a1b8677a156fca6d313aa","indicators":[{"word":"smoking","begin":196,"end":202,"sentenceIndex":0,"sentenceBegin":0,"sentenceEnd":350},{"word":"smoke","begin":305,"end":309,"sentenceIndex":0,"sentenceBegin":0,"sentenceEnd":350},{"word":"tobacco","begin":330,"end":336,"sentenceIndex":0,"sentenceBegin":0,"sentenceEnd":350},{"word":"smoking","begin":521,"end":527,"sentenceIndex":3,"sentenceBegin":511,"sentenceEnd":610}]}
{"paperId":"0d2232f850ff30ee5d2899242f2dfe3275d73d2b","indicators":[{"word":"smoking","begin":31,"end":37,"sentenceIndex":0,"sentenceBegin":0,"sentenceEnd":160}]}
{"paperId":"471afda6d9820ad042b346aa083e33233d40a931","indicators":[{"word":"smoking","begin":71,"end":77,"sentenceIndex":0,"sentenceBegin":0,"sentenceEnd":123}]}
{"paperId":"471afda6d9820ad042b346aa083e33233d40a931","indicators":[{"word":"fumes","begin":529,"end":533,"sentenceIndex":2,"sentenceBegin":418,"sentenceEnd":584}]}
{"paperId":"2769723b9b497b45c8178f8f68dc48a5fed06db6","indicators":[{"word":"tobacco","begin":1728,"end":1734,"sentenceIndex":10,"sentenceBegin":1715,"sentenceEnd":1946}]}
{"paperId":"2769723b9b497b45c8178f8f68dc48a5fed06db6","indicators":[{"word":"tobacco","begin":2245,"end":2251,"sentenceIndex":9,"sentenceBegin":2192,"sentenceEnd":2340}]}
{"paperId":"ced262de3093305b539878967bd3d8fdaac71849","indicators":[{"word":"smoke","begin":731,"end":735,"sentenceIndex":4,"sentenceBegin":672,"sentenceEnd":799},{"word":"cigarettes","begin":737,"end":746,"sentenceIndex":4,"sentenceBegin":672,"sentenceEnd":799}]}
{"paperId":"ced262de3093305b539878967bd3d8fdaac71849","indicators":[{"word":"smoking","begin":897,"end":903,"sentenceIndex":6,"sentenceBegin":814,"sentenceEnd":921}]}
{"paperId":"ced262de3093305b539878967bd3d8fdaac71849","indicators":[{"word":"cigarette","begin":274,"end":282,"sentenceIndex":1,"sentenceBegin":181,"sentenceEnd":333},{"word":"smoking","begin":284,"end":290,"sentenceIndex":1,"sentenceBegin":181,"sentenceEnd":333},{"word":"smoking","begin":570,"end":576,"sentenceIndex":2,"sentenceBegin":335,"sentenceEnd":668}]}
{"paperId":"996e5cc9ce523c3d04b432fa9094b5e66944e946","indicators":[{"word":"puff","begin":671,"end":674,"sentenceIndex":2,"sentenceBegin":593,"sentenceEnd":710}]}
{"paperId":"27b2c24e392bcbd8ad16a42aab322ea091cc99e5","indicators":[{"word":"tobacco","begin":715,"end":721,"sentenceIndex":7,"sentenceBegin":690,"sentenceEnd":849}]}
