{"paperId":"b9632f2268a31399f304f4a0b58471e2d2fcaab4","indicators":[{"word":"smoking","begin":65,"end":71,"sentenceIndex":0,"sentenceBegin":0,"sentenceEnd":125}]}
{"paperId":"9dab31b3924e55ae6b46e55f3d0918ec237e20d2","indicators":[{"word":"vapor","begin":344,"end":348,"sentenceIndex":1,"sentenceBegin":271,"sentenceEnd":427}]}
{"paperId":"9dab31b3924e55ae6b46e55f3d0918ec237e20d2","indicators":[{"word":"vapor","begin":438,"end":442,"sentenceIndex":4,"sentenceBegin":295,"sentenceEnd":521}]}
