{"paperId":"e346ae527fe2cb5d6e95663c16768fe135da2d30","indicators":[{"word":"tobacco","begin":588,"end":594,"sentenceIndex":4,"sentenceBegin":536,"sentenceEnd":697},{"word":"smoke","begin":596,"end":600,"sentenceIndex":4,"sentenceBegin":536,"sentenceEnd":697},{"word":"smoke","begin":707,"end":711,"sentenceIndex":5,"sentenceBegin":699,"sentenceEnd":810},{"word":"cigarette","begin":885,"end":893,"sentenceIndex":6,"sentenceBegin":812,"sentenceEnd":902}]}
{"paperId":"e346ae527fe2cb5d6e95663c16768fe135da2d30","indicators":[{"word":"tobacco","begin":214,"end":220,"sentenceIndex":1,"sentenceBegin":85,"sentenceEnd":302},{"word":"smoke","begin":222,"end":226,"sentenceIndex":1,"sentenceBegin":85,"sentenceEnd":302},{"word":"smoking","begin":483,"end":489,"sentenceIndex":2,"sentenceBegin":304,"sentenceEnd":624}]}
{"paperId":"22c5a1c60213193f72de59dfd188512cb3721c6f","indicators":[{"word":"tobacco","begin":866,"end":872,"sentenceIndex":6,"sentenceBegin":774,"sentenceEnd":918},{"word":"smoke","begin":874,"end":878,"sentenceIndex":6,"sentenceBegin":774,"sentenceEnd":918}]}
{"paperId":"22c5a1c60213193f72de59dfd188512cb3721c6f","indicators":[{"word":"smoking","begin":283,"end":289,"sentenceIndex":2,"sentenceBegin":182,"sentenceEnd":520},{"word":"smoking","begin":648,"end":654,"sentenceIndex":3,"sentenceBegin":522,"sentenceEnd":796}]}
{"paperId":"fcb8817ba5d6db3a34d87b15258715c9baa9b4f1","indicators":[{"word":"tobacco","begin":1541,"end":1547,"sentenceIndex":5,"sentenceBegin":1415,"sentenceEnd":1774}]}
{"paperId":"fcb8817ba5d6db3a34d87b15258715c9baa9b4f1","indicators":[{"word":"tobacco","begin":1029,"end":1035,"sentenceIndex":5,"sentenceBegin":939,"sentenceEnd":1145}]}
{"paperId":"fcb8817ba5d6db3a34d87b15258715c9baa9b4f1","indicators":[{"word":"tobacco","begin":175,"end":181,"sentenceIndex":0,"sentenceBegin":0,"sentenceEnd":182},{"word":"tobacco","begin":707,"end":713,"sentenceIndex":3,"sentenceBegin":581,"sentenceEnd":821}]}
{"paperId":"fcb8817ba5d6db3a34d87b15258715c9baa9b4f1","indicators":[{"word":"tobacco","begin":598,"end":604,"sentenceIndex":2,"sentenceBegin":577,"sentenceEnd":670},{"word":"tobacco","begin":1150,"end":1156,"sentenceIndex":5,"sentenceBegin":1080,"sentenceEnd":1217}]}
{"paperId":"fcb8817ba5d6db3a34d87b15258715c9baa9b4f1","indicators":[{"word":"tobacco","begin":1391,"end":1397,"sentenceIndex":6,"sentenceBegin":1234,"sentenceEnd":1461},{"word":"tobacco","begin":1588,"end":1594,"sentenceIndex":7,"sentenceBegin":1463,"sentenceEnd":1732}]}
{"paperId":"eea2cbd05f11c76f9ce3cdb9e5d2c156dfe506a2","indicators":[{"word":"tobacco","begin":1618,"end":1624,"sentenceIndex":26,"sentenceBegin":1435,"sentenceEnd":1690}]}
