{"paperId":"ef2c238dd55e20a6ea81a9f411747585341dcbee","indicators":[{"word":"tobacco","begin":634,"end":640,"sentenceIndex":4,"sentenceBegin":594,"sentenceEnd":680},{"word":"tobacco","begin":693,"end":699,"sentenceIndex":5,"sentenceBegin":682,"sentenceEnd":818},{"word":"tobacco","begin":1129,"end":1135,"sentenceIndex":8,"sentenceBegin":1018,"sentenceEnd":1176}]}
{"paperId":"ef2c238dd55e20a6ea81a9f411747585341dcbee","indicators":[{"word":"tobacco","begin":57,"end":63,"sentenceIndex":0,"sentenceBegin":0,"sentenceEnd":112},{"word":"tobacco","begin":197,"end":203,"sentenceIndex":1,"sentenceBegin":114,"sentenceEnd":352},{"word":"tobacco","begin":257,"end":263,"sentenceIndex":1,"sentenceBegin":114,"sentenceEnd":352},{"word":"tobacco","begin":462,"end":468,"sentenceIndex":2,"sentenceBegin":354,"sentenceEnd":714},{"word":"tobacco","begin":561,"end":567,"sentenceIndex":2,"sentenceBegin":354,"sentenceEnd":714}]}
{"paperId":"6ddab202a9238f60e5680afad8242759c2c057f0","indicators":[{"word":"smoking","begin":1148,"end":1154,"sentenceIndex":9,"sentenceBegin":1057,"sentenceEnd":1166}]}
{"paperId":"83c19dc558bd57cea69b6c3913b3dc9fa2f7fa19","indicators":[{"word":"vapor","begin":493,"end":497,"sentenceIndex":2,"sentenceBegin":363,"sentenceEnd":566}]}
{"paperId":"6905ab7674995c6063143f115a19ae3e85177feb","indicators":[{"word":"cigarette","begin":593,"end":601,"sentenceIndex":3,"sentenceBegin":564,"sentenceEnd":706},{"word":"smoke","begin":603,"end":607,"sentenceIndex":3,"sentenceBegin":564,"sentenceEnd":706}]}
{"paperId":"6905ab7674995c6063143f115a19ae3e85177feb","indicators":[{"word":"smoking","begin":59,"end":65,"sentenceIndex":0,"sentenceBegin":0,"sentenceEnd":112}]}
{"paperId":"6905ab7674995c6063143f115a19ae3e85177feb","indicators":[{"word":"cigarette","begin":28,"end":36,"sentenceIndex":0,"sentenceBegin":0,"sentenceEnd":253},{"word":"smoke","begin":38,"end":42,"sentenceIndex":0,"sentenceBegin":0,"sentenceEnd":253}]}
{"paperId":"6905ab7674995c6063143f115a19ae3e85177feb","indicators":[{"word":"smoking","begin":175,"end":181,"sentenceIndex":1,"sentenceBegin":93,"sentenceEnd":209},{"word":"cigarette","begin":254,"end":262,"sentenceIndex":2,"sentenceBegin":211,"sentenceEnd":346}]}
{"paperId":"6905ab7674995c6063143f115a19ae3e85177feb","indicators":[{"word":"cigarette","begin":25,"end":33,"sentenceIndex":0,"sentenceBegin":0,"sentenceEnd":121},{"word":"cigarette","begin":178,"end":186,"sentenceIndex":1,"sentenceBegin":123,"sentenceEnd":282}]}
{"paperId":"6905ab7674995c6063143f115a19ae3e85177feb","indicators":[{"word":"cigarette","begin":384,"end":392,"sentenceIndex":2,"sentenceBegin":278,"sentenceEnd":465},{"word":"cigarette","begin":499,"end":507,"sentenceIndex":3,"sentenceBegin":467,"sentenceEnd":623}]}
{"paperId":"6905ab7674995c6063143f115a19ae3e85177feb","indicators":[{"word":"cigarette","begin":317,"end":325,"sentenceIndex":1,"sentenceBegin":187,"sentenceEnd":407},{"word":"smoke","begin":327,"end":331,"sentenceIndex":1,"sentenceBegin":187,"sentenceEnd":407}]}
{"paperId":"6905ab7674995c6063143f115a19ae3e85177feb","indicators":[{"word":"cigarette","begin":106,"end":114,"sentenceIndex":0,"sentenceBegin":0,"sentenceEnd":146},{"word":"cigarette","begin":817,"end":825,"sentenceIndex":3,"sentenceBegin":577,"sentenceEnd":848},{"word":"smoke","begin":827,"end":831,"sentenceIndex":3,"sentenceBegin":577,"sentenceEnd":848}]}
{"paperId":"58d06dde6b9f78cf8b5f618b1348e80a4b1fa212","indicators":[{"word":"pot","begin":410,"end":412,"sentenceIndex":1,"sentenceBegin":273,"sentenceEnd":511}]}
{"paperId":"f54a9de9fae1450d30c37cc16c272192487bc62f","indicators":[{"word":"smoking","begin":1580,"end":1586,"sentenceIndex":7,"sentenceBegin":1493,"sentenceEnd":1648}]}
{"paperId":"d82bf7e7b4b855badd9bd10fdca148d775d54155","indicators":[{"word":"smoking","begin":1086,"end":1092,"sentenceIndex":6,"sentenceBegin":916,"sentenceEnd":1472}]}
{"paperId":"d82bf7e7b4b855badd9bd10fdca148d775d54155","indicators":[{"word":"smoking","begin":1001,"end":1007,"sentenceIndex":7,"sentenceBegin":948,"sentenceEnd":1428}]}
{"paperId":"3c28ae6fe473b5b95ecd7246b74e70d6244dd114","indicators":[{"word":"pot","begin":341,"end":343,"sentenceIndex":2,"sentenceBegin":221,"sentenceEnd":394}]}
{"paperId":"3c28ae6fe473b5b95ecd7246b74e70d6244dd114","indicators":[{"word":"weed","begin":734,"end":737,"sentenceIndex":7,"sentenceBegin":619,"sentenceEnd":817}]}
{"paperId":"3c28ae6fe473b5b95ecd7246b74e70d6244dd114","indicators":[{"word":"weed","begin":430,"end":433,"sentenceIndex":2,"sentenceBegin":327,"sentenceEnd":473}]}
{"paperId":"3c28ae6fe473b5b95ecd7246b74e70d6244dd114","indicators":[{"word":"pot","begin":29,"end":31,"sentenceIndex":0,"sentenceBegin":0,"sentenceEnd":233},{"word":"puffs","begin":393,"end":397,"sentenceIndex":1,"sentenceBegin":235,"sentenceEnd":491}]}
{"paperId":"3c28ae6fe473b5b95ecd7246b74e70d6244dd114","indicators":[{"word":"smoked","begin":1883,"end":1888,"sentenceIndex":9,"sentenceBegin":1860,"sentenceEnd":2256}]}
