{"paperId":"facba90187f6bee3be651d71fc54a715055eaa1d","indicators":[{"word":"smoking","begin":61,"end":67,"sentenceIndex":0,"sentenceBegin":0,"sentenceEnd":333}]}
{"paperId":"facba90187f6bee3be651d71fc54a715055eaa1d","indicators":[{"word":"smoking","begin":309,"end":315,"sentenceIndex":1,"sentenceBegin":102,"sentenceEnd":324}]}
{"paperId":"72958183a26c8cc7c5ac8355000eb2da79fac2eb","indicators":[{"word":"vapor","begin":512,"end":516,"sentenceIndex":2,"sentenceBegin":287,"sentenceEnd":615}]}
