{"paperId":"91430e927aadc77689196dc1a8186a4838e5dec6","indicators":[{"word":"smoking","begin":433,"end":439,"sentenceIndex":1,"sentenceBegin":165,"sentenceEnd":447}]}
{"paperId":"91430e927aadc77689196dc1a8186a4838e5dec6","indicators":[{"word":"smoking","begin":745,"end":751,"sentenceIndex":1,"sentenceBegin":73,"sentenceEnd":1253}]}
{"paperId":"25e8e346827dc29276594b405310b05284be6785","indicators":[{"word":"vapor","begin":662,"end":666,"sentenceIndex":4,"sentenceBegin":549,"sentenceEnd":692}]}
{"paperId":"25e8e346827dc29276594b405310b05284be6785","indicators":[{"word":"vapor","begin":138,"end":142,"sentenceIndex":0,"sentenceBegin":0,"sentenceEnd":183},{"word":"vapor","begin":189,"end":193,"sentenceIndex":1,"sentenceBegin":185,"sentenceEnd":454}]}
{"paperId":"4ba2853fa96ea1c3d6aad624de141f7917902120","indicators":[{"word":"weed","begin":1173,"end":1176,"sentenceIndex":36,"sentenceBegin":1113,"sentenceEnd":1177}]}
{"paperId":"4ba2853fa96ea1c3d6aad624de141f7917902120","indicators":[{"word":"smoke","begin":724,"end":728,"sentenceIndex":8,"sentenceBegin":702,"sentenceEnd":762}]}
