{"paperId":"4c2205dd9943bdc4547fb999c6616269df83c685","indicators":[{"word":"weeds","begin":783,"end":787,"sentenceIndex":6,"sentenceBegin":663,"sentenceEnd":788}]}
{"paperId":"4c2205dd9943bdc4547fb999c6616269df83c685","indicators":[{"word":"weed","begin":37,"end":40,"sentenceIndex":0,"sentenceBegin":0,"sentenceEnd":67}]}
{"paperId":"4bc77a5504262d2f8461781edd4a8f96ced83535","indicators":[{"word":"firing","begin":18,"end":23,"sentenceIndex":0,"sentenceBegin":0,"sentenceEnd":47}]}
{"paperId":"8c2d0ec8f950dd4675a131af8fdfdab657c4148e","indicators":[{"word":"firing","begin":602,"end":607,"sentenceIndex":3,"sentenceBegin":517,"sentenceEnd":681}]}
