{"paperId":"aaf6e13068e6991279a2e19f63f23db263c9cc4e","indicators":[{"word":"smoking","begin":325,"end":331,"sentenceIndex":2,"sentenceBegin":244,"sentenceEnd":526}]}
{"paperId":"1d696abfec753532a497ad6f10bb8c1500c51324","indicators":[{"word":"tobacco","begin":1871,"end":1877,"sentenceIndex":8,"sentenceBegin":1754,"sentenceEnd":1941}]}
{"paperId":"1d696abfec753532a497ad6f10bb8c1500c51324","indicators":[{"word":"tobacco","begin":268,"end":274,"sentenceIndex":0,"sentenceBegin":0,"sentenceEnd":330}]}
{"paperId":"1a52cac849bdb5840d115cf513ec8cc63dc2d56c","indicators":[{"word":"vapor","begin":103,"end":107,"sentenceIndex":0,"sentenceBegin":0,"sentenceEnd":118}]}
{"paperId":"b77f4cd95f7c287caaa32471d0102d62b356682d","indicators":[{"word":"tobacco","begin":414,"end":420,"sentenceIndex":4,"sentenceBegin":291,"sentenceEnd":455}]}
