{"paperId":"cd315164a431651c710c9b0c04a37db3a54f7bf3","indicators":[{"word":"tobacco","begin":266,"end":272,"sentenceIndex":2,"sentenceBegin":212,"sentenceEnd":486},{"word":"smoke","begin":274,"end":278,"sentenceIndex":2,"sentenceBegin":212,"sentenceEnd":486},{"word":"smoking","begin":372,"end":378,"sentenceIndex":2,"sentenceBegin":212,"sentenceEnd":486}]}
{"paperId":"cd315164a431651c710c9b0c04a37db3a54f7bf3","indicators":[{"word":"tobacco","begin":740,"end":746,"sentenceIndex":3,"sentenceBegin":554,"sentenceEnd":834},{"word":"smoke","begin":748,"end":752,"sentenceIndex":3,"sentenceBegin":554,"sentenceEnd":834}]}
{"paperId":"cd315164a431651c710c9b0c04a37db3a54f7bf3","indicators":[{"word":"tobacco","begin":704,"end":710,"sentenceIndex":2,"sentenceBegin":482,"sentenceEnd":740},{"word":"smoke","begin":712,"end":716,"sentenceIndex":2,"sentenceBegin":482,"sentenceEnd":740}]}
{"paperId":"291722931cc67a3b1721a262b95c61f71a74b62a","indicators":[{"word":"smoke","begin":341,"end":345,"sentenceIndex":2,"sentenceBegin":244,"sentenceEnd":432}]}
{"paperId":"12bc05b6a9ae2d8823f67b0a8200fb7f72c45f9b","indicators":[{"word":"smoking","begin":109,"end":115,"sentenceIndex":0,"sentenceBegin":0,"sentenceEnd":213}]}
{"paperId":"12bc05b6a9ae2d8823f67b0a8200fb7f72c45f9b","indicators":[{"word":"smoking","begin":2515,"end":2521,"sentenceIndex":14,"sentenceBegin":2263,"sentenceEnd":2560}]}
{"paperId":"0d03773fdafb2ab6ff88b766a589c8c34790d95e","indicators":[{"word":"smoking","begin":365,"end":371,"sentenceIndex":1,"sentenceBegin":245,"sentenceEnd":389},{"word":"smoked","begin":466,"end":471,"sentenceIndex":2,"sentenceBegin":391,"sentenceEnd":540},{"word":"smoking","begin":1753,"end":1759,"sentenceIndex":9,"sentenceBegin":1496,"sentenceEnd":1853}]}
