{"paperId":"5a854856c9e4121c95e480efa4c1d6ec87010bcf","indicators":[{"word":"smoking","begin":719,"end":725,"sentenceIndex":4,"sentenceBegin":684,"sentenceEnd":1095}]}
{"paperId":"5a854856c9e4121c95e480efa4c1d6ec87010bcf","indicators":[{"word":"cigarette","begin":729,"end":737,"sentenceIndex":4,"sentenceBegin":646,"sentenceEnd":855}]}
{"paperId":"5a854856c9e4121c95e480efa4c1d6ec87010bcf","indicators":[{"word":"cigarette","begin":1099,"end":1107,"sentenceIndex":7,"sentenceBegin":944,"sentenceEnd":1145},{"word":"smoking","begin":1109,"end":1115,"sentenceIndex":7,"sentenceBegin":944,"sentenceEnd":1145}]}
{"paperId":"fd424f00fb0386923706b1962b609acaca5a4cb2","indicators":[{"word":"vapor","begin":660,"end":664,"sentenceIndex":3,"sentenceBegin":520,"sentenceEnd":706}]}
{"paperId":"1664a9df618ca74e099245a2bd65f3172aeac284","indicators":[{"word":"cigarette","begin":406,"end":414,"sentenceIndex":2,"sentenceBegin":382,"sentenceEnd":485},{"word":"smoking","begin":416,"end":422,"sentenceIndex":2,"sentenceBegin":382,"sentenceEnd":485},{"word":"cigarette","begin":629,"end":637,"sentenceIndex":3,"sentenceBegin":487,"sentenceEnd":654},{"word":"smoking","begin":694,"end":700,"sentenceIndex":4,"sentenceBegin":656,"sentenceEnd":883},{"word":"smoking","begin":871,"end":877,"sentenceIndex":4,"sentenceBegin":656,"sentenceEnd":883}]}
{"paperId":"1664a9df618ca74e099245a2bd65f3172aeac284","indicators":[{"word":"tobacco","begin":57,"end":63,"sentenceIndex":1,"sentenceBegin":5,"sentenceEnd":181}]}
{"paperId":"1664a9df618ca74e099245a2bd65f3172aeac284","indicators":[{"word":"cigarette","begin":1086,"end":1094,"sentenceIndex":8,"sentenceBegin":1049,"sentenceEnd":1188},{"word":"smoking","begin":1096,"end":1102,"sentenceIndex":8,"sentenceBegin":1049,"sentenceEnd":1188},{"word":"smoking","begin":1358,"end":1364,"sentenceIndex":9,"sentenceBegin":1190,"sentenceEnd":1382}]}
{"paperId":"1664a9df618ca74e099245a2bd65f3172aeac284","indicators":[{"word":"cigarette","begin":371,"end":379,"sentenceIndex":1,"sentenceBegin":244,"sentenceEnd":455}]}
{"paperId":"f85045999d4040e8ec330b861f676b07c817122f","indicators":[{"word":"tobacco","begin":185,"end":191,"sentenceIndex":1,"sentenceBegin":82,"sentenceEnd":291},{"word":"tobacco","begin":237,"end":243,"sentenceIndex":1,"sentenceBegin":82,"sentenceEnd":291},{"word":"tobacco","begin":368,"end":374,"sentenceIndex":3,"sentenceBegin":318,"sentenceEnd":591}]}
{"paperId":"f85045999d4040e8ec330b861f676b07c817122f","indicators":[{"word":"tobacco","begin":874,"end":880,"sentenceIndex":3,"sentenceBegin":704,"sentenceEnd":924}]}
{"paperId":"f85045999d4040e8ec330b861f676b07c817122f","indicators":[{"word":"tobacco","begin":105,"end":111,"sentenceIndex":0,"sentenceBegin":0,"sentenceEnd":284}]}
{"paperId":"f85045999d4040e8ec330b861f676b07c817122f","indicators":[{"word":"tobacco","begin":504,"end":510,"sentenceIndex":5,"sentenceBegin":402,"sentenceEnd":511},{"word":"tobacco","begin":567,"end":573,"sentenceIndex":6,"sentenceBegin":513,"sentenceEnd":721}]}
{"paperId":"f85045999d4040e8ec330b861f676b07c817122f","indicators":[{"word":"tobacco","begin":1474,"end":1480,"sentenceIndex":13,"sentenceBegin":1363,"sentenceEnd":1488},{"word":"tobacco","begin":1579,"end":1585,"sentenceIndex":14,"sentenceBegin":1490,"sentenceEnd":1609}]}
{"paperId":"f85045999d4040e8ec330b861f676b07c817122f","indicators":[{"word":"tobacco","begin":1160,"end":1166,"sentenceIndex":9,"sentenceBegin":1115,"sentenceEnd":1198},{"word":"tobacco","begin":1215,"end":1221,"sentenceIndex":10,"sentenceBegin":1200,"sentenceEnd":1330}]}
{"paperId":"f85045999d4040e8ec330b861f676b07c817122f","indicators":[{"word":"tobacco","begin":1388,"end":1394,"sentenceIndex":16,"sentenceBegin":1354,"sentenceEnd":1448}]}
{"paperId":"f85045999d4040e8ec330b861f676b07c817122f","indicators":[{"word":"tobacco","begin":411,"end":417,"sentenceIndex":4,"sentenceBegin":383,"sentenceEnd":524},{"word":"tobacco","begin":647,"end":653,"sentenceIndex":6,"sentenceBegin":636,"sentenceEnd":835},{"word":"tobacco","begin":816,"end":822,"sentenceIndex":6,"sentenceBegin":636,"sentenceEnd":835},{"word":"tobacco","begin":927,"end":933,"sentenceIndex":7,"sentenceBegin":837,"sentenceEnd":1026}]}
{"paperId":"f85045999d4040e8ec330b861f676b07c817122f","indicators":[{"word":"tobacco","begin":130,"end":136,"sentenceIndex":0,"sentenceBegin":0,"sentenceEnd":156},{"word":"tobacco","begin":1255,"end":1261,"sentenceIndex":10,"sentenceBegin":1100,"sentenceEnd":1269}]}
{"paperId":"f85045999d4040e8ec330b861f676b07c817122f","indicators":[{"word":"tobacco","begin":372,"end":378,"sentenceIndex":1,"sentenceBegin":310,"sentenceEnd":727},{"word":"tobacco","begin":499,"end":505,"sentenceIndex":1,"sentenceBegin":310,"sentenceEnd":727},{"word":"tobacco","begin":584,"end":590,"sentenceIndex":1,"sentenceBegin":310,"sentenceEnd":727}]}
{"paperId":"f85045999d4040e8ec330b861f676b07c817122f","indicators":[{"word":"tobacco","begin":185,"end":191,"sentenceIndex":0,"sentenceBegin":0,"sentenceEnd":220},{"word":"tobacco","begin":310,"end":316,"sentenceIndex":2,"sentenceBegin":234,"sentenceEnd":428}]}
{"paperId":"f85045999d4040e8ec330b861f676b07c817122f","indicators":[{"word":"tobacco","begin":485,"end":491,"sentenceIndex":1,"sentenceBegin":338,"sentenceEnd":661}]}
{"paperId":"f85045999d4040e8ec330b861f676b07c817122f","indicators":[{"word":"tobacco","begin":879,"end":885,"sentenceIndex":9,"sentenceBegin":730,"sentenceEnd":964}]}
{"paperId":"f85045999d4040e8ec330b861f676b07c817122f","indicators":[{"word":"tobacco","begin":323,"end":329,"sentenceIndex":1,"sentenceBegin":157,"sentenceEnd":474},{"word":"tobacco","begin":557,"end":563,"sentenceIndex":2,"sentenceBegin":476,"sentenceEnd":790},{"word":"tobacco","begin":716,"end":722,"sentenceIndex":2,"sentenceBegin":476,"sentenceEnd":790}]}
{"paperId":"f85045999d4040e8ec330b861f676b07c817122f","indicators":[{"word":"weeds","begin":761,"end":765,"sentenceIndex":3,"sentenceBegin":479,"sentenceEnd":800},{"word":"weeds","begin":878,"end":882,"sentenceIndex":4,"sentenceBegin":802,"sentenceEnd":1026}]}
