{"paperId":"fa2318e3d0c2345a58e8380e1fa731beb90ef808","indicators":[{"word":"cannabis","begin":311,"end":318,"sentenceIndex":2,"sentenceBegin":226,"sentenceEnd":319}]}
{"paperId":"7d263dbb92c981f8adf5cd5cbc10eafca0a9718b","indicators":[{"word":"smoking","begin":84,"end":90,"sentenceIndex":0,"sentenceBegin":0,"sentenceEnd":153},{"word":"smoking","begin":405,"end":411,"sentenceIndex":4,"sentenceBegin":328,"sentenceEnd":419},{"word":"cigarette","begin":523,"end":531,"sentenceIndex":6,"sentenceBegin":473,"sentenceEnd":571},{"word":"smoking","begin":820,"end":826,"sentenceIndex":9,"sentenceBegin":727,"sentenceEnd":827}]}
{"paperId":"7d263dbb92c981f8adf5cd5cbc10eafca0a9718b","indicators":[{"word":"cigarettes","begin":97,"end":106,"sentenceIndex":0,"sentenceBegin":0,"sentenceEnd":243},{"word":"vape","begin":386,"end":389,"sentenceIndex":1,"sentenceBegin":245,"sentenceEnd":407}]}
{"paperId":"7d263dbb92c981f8adf5cd5cbc10eafca0a9718b","indicators":[{"word":"smoking","begin":1682,"end":1688,"sentenceIndex":11,"sentenceBegin":1622,"sentenceEnd":1724}]}
{"paperId":"7d263dbb92c981f8adf5cd5cbc10eafca0a9718b","indicators":[{"word":"smoking","begin":196,"end":202,"sentenceIndex":1,"sentenceBegin":56,"sentenceEnd":214}]}
{"paperId":"7d263dbb92c981f8adf5cd5cbc10eafca0a9718b","indicators":[{"word":"smoking","begin":271,"end":277,"sentenceIndex":1,"sentenceBegin":199,"sentenceEnd":285},{"word":"smoking","begin":488,"end":494,"sentenceIndex":3,"sentenceBegin":381,"sentenceEnd":502},{"word":"smoking","begin":738,"end":744,"sentenceIndex":5,"sentenceBegin":703,"sentenceEnd":786}]}
{"paperId":"7d263dbb92c981f8adf5cd5cbc10eafca0a9718b","indicators":[{"word":"smoke","begin":4791,"end":4795,"sentenceIndex":46,"sentenceBegin":4696,"sentenceEnd":4859}]}
{"paperId":"da7d435dc87153a0dc9f29b38bcd62b57f9af767","indicators":[{"word":"cigarette","begin":622,"end":630,"sentenceIndex":8,"sentenceBegin":588,"sentenceEnd":676}]}
{"paperId":"da7d435dc87153a0dc9f29b38bcd62b57f9af767","indicators":[{"word":"smoking","begin":164,"end":170,"sentenceIndex":0,"sentenceBegin":0,"sentenceEnd":171}]}
{"paperId":"da7d435dc87153a0dc9f29b38bcd62b57f9af767","indicators":[{"word":"cigarette","begin":747,"end":755,"sentenceIndex":5,"sentenceBegin":693,"sentenceEnd":837}]}
{"paperId":"e808c29b36fd39202f2788852d26b22d21062d9f","indicators":[{"word":"tobacco","begin":2533,"end":2539,"sentenceIndex":20,"sentenceBegin":2313,"sentenceEnd":2684},{"word":"tobacco","begin":4110,"end":4116,"sentenceIndex":35,"sentenceBegin":4064,"sentenceEnd":4277}]}
{"paperId":"e808c29b36fd39202f2788852d26b22d21062d9f","indicators":[{"word":"tobacco","begin":287,"end":293,"sentenceIndex":2,"sentenceBegin":33,"sentenceEnd":363}]}
{"paperId":"e808c29b36fd39202f2788852d26b22d21062d9f","indicators":[{"word":"tobacco","begin":155,"end":161,"sentenceIndex":2,"sentenceBegin":31,"sentenceEnd":226}]}
{"paperId":"e808c29b36fd39202f2788852d26b22d21062d9f","indicators":[{"word":"tobacco","begin":404,"end":410,"sentenceIndex":3,"sentenceBegin":313,"sentenceEnd":429}]}
{"paperId":"e808c29b36fd39202f2788852d26b22d21062d9f","indicators":[{"word":"tobacco","begin":82,"end":88,"sentenceIndex":0,"sentenceBegin":0,"sentenceEnd":108}]}
{"paperId":"e808c29b36fd39202f2788852d26b22d21062d9f","indicators":[{"word":"tobacco","begin":2990,"end":2996,"sentenceIndex":26,"sentenceBegin":2899,"sentenceEnd":3003}]}
{"paperId":"e808c29b36fd39202f2788852d26b22d21062d9f","indicators":[{"word":"weed","begin":1048,"end":1051,"sentenceIndex":4,"sentenceBegin":848,"sentenceEnd":1083}]}
{"paperId":"6064531b955540927af8d37123cad8c2bd48e5e3","indicators":[{"word":"tobacco","begin":90,"end":96,"sentenceIndex":0,"sentenceBegin":0,"sentenceEnd":105}]}
{"paperId":"6064531b955540927af8d37123cad8c2bd48e5e3","indicators":[{"word":"fume","begin":269,"end":272,"sentenceIndex":1,"sentenceBegin":170,"sentenceEnd":384}]}
{"paperId":"6064531b955540927af8d37123cad8c2bd48e5e3","indicators":[{"word":"cigarette","begin":1234,"end":1242,"sentenceIndex":8,"sentenceBegin":1103,"sentenceEnd":1311},{"word":"smoking","begin":1244,"end":1250,"sentenceIndex":8,"sentenceBegin":1103,"sentenceEnd":1311},{"word":"fumes","begin":1370,"end":1374,"sentenceIndex":9,"sentenceBegin":1313,"sentenceEnd":1440}]}
{"paperId":"6064531b955540927af8d37123cad8c2bd48e5e3","indicators":[{"word":"smoking","begin":291,"end":297,"sentenceIndex":2,"sentenceBegin":215,"sentenceEnd":305}]}
{"paperId":"6064531b955540927af8d37123cad8c2bd48e5e3","indicators":[{"word":"cigarette","begin":399,"end":407,"sentenceIndex":2,"sentenceBegin":226,"sentenceEnd":445}]}
{"paperId":"6064531b955540927af8d37123cad8c2bd48e5e3","indicators":[{"word":"smoking","begin":736,"end":742,"sentenceIndex":5,"sentenceBegin":724,"sentenceEnd":766}]}
{"paperId":"6064531b955540927af8d37123cad8c2bd48e5e3","indicators":[{"word":"cigarette","begin":90,"end":98,"sentenceIndex":0,"sentenceBegin":0,"sentenceEnd":187},{"word":"smoke","begin":100,"end":104,"sentenceIndex":0,"sentenceBegin":0,"sentenceEnd":187},{"word":"smoking","begin":267,"end":273,"sentenceIndex":1,"sentenceBegin":189,"sentenceEnd":340}]}
{"paperId":"6064531b955540927af8d37123cad8c2bd48e5e3","indicators":[{"word":"cigarette","begin":1387,"end":1395,"sentenceIndex":8,"sentenceBegin":1337,"sentenceEnd":1494},{"word":"smoking","begin":1397,"end":1403,"sentenceIndex":8,"sentenceBegin":1337,"sentenceEnd":1494},{"word":"cigarette","begin":1643,"end":1651,"sentenceIndex":10,"sentenceBegin":1581,"sentenceEnd":1658},{"word":"smoke","begin":1653,"end":1657,"sentenceIndex":10,"sentenceBegin":1581,"sentenceEnd":1658}]}
{"paperId":"6064531b955540927af8d37123cad8c2bd48e5e3","indicators":[{"word":"smoking","begin":31,"end":37,"sentenceIndex":0,"sentenceBegin":0,"sentenceEnd":65}]}
{"paperId":"6064531b955540927af8d37123cad8c2bd48e5e3","indicators":[{"word":"smoking","begin":74,"end":80,"sentenceIndex":0,"sentenceBegin":0,"sentenceEnd":111}]}
{"paperId":"6064531b955540927af8d37123cad8c2bd48e5e3","indicators":[{"word":"fumes","begin":154,"end":158,"sentenceIndex":0,"sentenceBegin":0,"sentenceEnd":186}]}
{"paperId":"6064531b955540927af8d37123cad8c2bd48e5e3","indicators":[{"word":"fume","begin":301,"end":304,"sentenceIndex":3,"sentenceBegin":250,"sentenceEnd":330},{"word":"fumes","begin":500,"end":504,"sentenceIndex":5,"sentenceBegin":465,"sentenceEnd":724}]}
{"paperId":"6064531b955540927af8d37123cad8c2bd48e5e3","indicators":[{"word":"fume","begin":951,"end":954,"sentenceIndex":6,"sentenceBegin":778,"sentenceEnd":1133},{"word":"fume","begin":971,"end":974,"sentenceIndex":6,"sentenceBegin":778,"sentenceEnd":1133},{"word":"fume","begin":1018,"end":1021,"sentenceIndex":6,"sentenceBegin":778,"sentenceEnd":1133}]}
{"paperId":"6064531b955540927af8d37123cad8c2bd48e5e3","indicators":[{"word":"fume","begin":6,"end":9,"sentenceIndex":0,"sentenceBegin":0,"sentenceEnd":103}]}
{"paperId":"6064531b955540927af8d37123cad8c2bd48e5e3","indicators":[{"word":"fume","begin":19,"end":22,"sentenceIndex":0,"sentenceBegin":0,"sentenceEnd":306},{"word":"fumes","begin":324,"end":328,"sentenceIndex":1,"sentenceBegin":308,"sentenceEnd":863},{"word":"fume","begin":404,"end":407,"sentenceIndex":1,"sentenceBegin":308,"sentenceEnd":863}]}
{"paperId":"6064531b955540927af8d37123cad8c2bd48e5e3","indicators":[{"word":"fumes","begin":175,"end":179,"sentenceIndex":1,"sentenceBegin":102,"sentenceEnd":225}]}
{"paperId":"6064531b955540927af8d37123cad8c2bd48e5e3","indicators":[{"word":"smoke","begin":148,"end":152,"sentenceIndex":0,"sentenceBegin":0,"sentenceEnd":171}]}
{"paperId":"6064531b955540927af8d37123cad8c2bd48e5e3","indicators":[{"word":"smog","begin":50,"end":53,"sentenceIndex":0,"sentenceBegin":0,"sentenceEnd":177}]}
{"paperId":"6064531b955540927af8d37123cad8c2bd48e5e3","indicators":[{"word":"fumes","begin":570,"end":574,"sentenceIndex":3,"sentenceBegin":402,"sentenceEnd":575}]}
{"paperId":"6064531b955540927af8d37123cad8c2bd48e5e3","indicators":[{"word":"fume","begin":451,"end":454,"sentenceIndex":3,"sentenceBegin":436,"sentenceEnd":714},{"word":"fumes","begin":1076,"end":1080,"sentenceIndex":7,"sentenceBegin":1019,"sentenceEnd":1107},{"word":"fume","begin":1286,"end":1289,"sentenceIndex":9,"sentenceBegin":1175,"sentenceEnd":1423}]}
{"paperId":"6064531b955540927af8d37123cad8c2bd48e5e3","indicators":[{"word":"fume","begin":29,"end":32,"sentenceIndex":0,"sentenceBegin":0,"sentenceEnd":183},{"word":"fume","begin":255,"end":258,"sentenceIndex":1,"sentenceBegin":185,"sentenceEnd":333}]}
{"paperId":"6064531b955540927af8d37123cad8c2bd48e5e3","indicators":[{"word":"fume","begin":412,"end":415,"sentenceIndex":2,"sentenceBegin":374,"sentenceEnd":526}]}
{"paperId":"6064531b955540927af8d37123cad8c2bd48e5e3","indicators":[{"word":"fumes","begin":341,"end":345,"sentenceIndex":1,"sentenceBegin":187,"sentenceEnd":499},{"word":"smog","begin":355,"end":358,"sentenceIndex":1,"sentenceBegin":187,"sentenceEnd":499},{"word":"smoke","begin":364,"end":368,"sentenceIndex":1,"sentenceBegin":187,"sentenceEnd":499},{"word":"smoke","begin":846,"end":850,"sentenceIndex":3,"sentenceBegin":694,"sentenceEnd":927},{"word":"fires","begin":1023,"end":1027,"sentenceIndex":4,"sentenceBegin":929,"sentenceEnd":1187},{"word":"smog","begin":1183,"end":1186,"sentenceIndex":4,"sentenceBegin":929,"sentenceEnd":1187},{"word":"smoke","begin":3230,"end":3234,"sentenceIndex":19,"sentenceBegin":3172,"sentenceEnd":3422}]}
{"paperId":"6064531b955540927af8d37123cad8c2bd48e5e3","indicators":[{"word":"smoking","begin":377,"end":383,"sentenceIndex":1,"sentenceBegin":120,"sentenceEnd":439},{"word":"cigarette","begin":568,"end":576,"sentenceIndex":3,"sentenceBegin":553,"sentenceEnd":675},{"word":"smoking","begin":1026,"end":1032,"sentenceIndex":5,"sentenceBegin":894,"sentenceEnd":1210},{"word":"cigarette","begin":1688,"end":1696,"sentenceIndex":8,"sentenceBegin":1496,"sentenceEnd":1705}]}
{"paperId":"6064531b955540927af8d37123cad8c2bd48e5e3","indicators":[{"word":"smokes","begin":37,"end":42,"sentenceIndex":0,"sentenceBegin":0,"sentenceEnd":254},{"word":"tobacco","begin":236,"end":242,"sentenceIndex":0,"sentenceBegin":0,"sentenceEnd":254},{"word":"smoke","begin":244,"end":248,"sentenceIndex":0,"sentenceBegin":0,"sentenceEnd":254}]}
{"paperId":"6064531b955540927af8d37123cad8c2bd48e5e3","indicators":[{"word":"cigar","begin":59,"end":63,"sentenceIndex":0,"sentenceBegin":0,"sentenceEnd":123},{"word":"cigarette","begin":146,"end":154,"sentenceIndex":1,"sentenceBegin":125,"sentenceEnd":300},{"word":"smoke","begin":156,"end":160,"sentenceIndex":1,"sentenceBegin":125,"sentenceEnd":300},{"word":"cigar","begin":180,"end":184,"sentenceIndex":1,"sentenceBegin":125,"sentenceEnd":300},{"word":"smoke","begin":195,"end":199,"sentenceIndex":1,"sentenceBegin":125,"sentenceEnd":300},{"word":"smoking","begin":392,"end":398,"sentenceIndex":2,"sentenceBegin":302,"sentenceEnd":436},{"word":"smoking","begin":446,"end":452,"sentenceIndex":3,"sentenceBegin":438,"sentenceEnd":594},{"word":"smoke","begin":472,"end":476,"sentenceIndex":3,"sentenceBegin":438,"sentenceEnd":594},{"word":"tobacco","begin":529,"end":535,"sentenceIndex":3,"sentenceBegin":438,"sentenceEnd":594},{"word":"puffs","begin":545,"end":549,"sentenceIndex":3,"sentenceBegin":438,"sentenceEnd":594},{"word":"smoke","begin":589,"end":593,"sentenceIndex":3,"sentenceBegin":438,"sentenceEnd":594},{"word":"smoking","begin":628,"end":634,"sentenceIndex":4,"sentenceBegin":596,"sentenceEnd":682}]}
{"paperId":"6064531b955540927af8d37123cad8c2bd48e5e3","indicators":[{"word":"smoking","begin":8,"end":14,"sentenceIndex":0,"sentenceBegin":0,"sentenceEnd":249},{"word":"smoking","begin":231,"end":237,"sentenceIndex":0,"sentenceBegin":0,"sentenceEnd":249},{"word":"cigarettes","begin":239,"end":248,"sentenceIndex":0,"sentenceBegin":0,"sentenceEnd":249},{"word":"tobacco","begin":336,"end":342,"sentenceIndex":2,"sentenceBegin":289,"sentenceEnd":407},{"word":"smoking","begin":344,"end":350,"sentenceIndex":2,"sentenceBegin":289,"sentenceEnd":407},{"word":"cigarette","begin":374,"end":382,"sentenceIndex":2,"sentenceBegin":289,"sentenceEnd":407},{"word":"smoking","begin":384,"end":390,"sentenceIndex":2,"sentenceBegin":289,"sentenceEnd":407}]}
{"paperId":"6064531b955540927af8d37123cad8c2bd48e5e3","indicators":[{"word":"smoke","begin":698,"end":702,"sentenceIndex":3,"sentenceBegin":649,"sentenceEnd":796}]}
{"paperId":"6064531b955540927af8d37123cad8c2bd48e5e3","indicators":[{"word":"smoke","begin":151,"end":155,"sentenceIndex":0,"sentenceBegin":0,"sentenceEnd":297},{"word":"fume","begin":158,"end":161,"sentenceIndex":0,"sentenceBegin":0,"sentenceEnd":297}]}
{"paperId":"6064531b955540927af8d37123cad8c2bd48e5e3","indicators":[{"word":"smoke","begin":414,"end":418,"sentenceIndex":1,"sentenceBegin":369,"sentenceEnd":515},{"word":"smoke","begin":526,"end":530,"sentenceIndex":2,"sentenceBegin":517,"sentenceEnd":567},{"word":"smoke","begin":1088,"end":1092,"sentenceIndex":7,"sentenceBegin":1038,"sentenceEnd":1280},{"word":"smoke","begin":1388,"end":1392,"sentenceIndex":9,"sentenceBegin":1362,"sentenceEnd":1458}]}
{"paperId":"6064531b955540927af8d37123cad8c2bd48e5e3","indicators":[{"word":"tobacco","begin":126,"end":132,"sentenceIndex":1,"sentenceBegin":117,"sentenceEnd":284},{"word":"smoking","begin":134,"end":140,"sentenceIndex":1,"sentenceBegin":117,"sentenceEnd":284},{"word":"smoking","begin":340,"end":346,"sentenceIndex":2,"sentenceBegin":286,"sentenceEnd":406},{"word":"tobacco","begin":357,"end":363,"sentenceIndex":2,"sentenceBegin":286,"sentenceEnd":406},{"word":"tobacco","begin":448,"end":454,"sentenceIndex":3,"sentenceBegin":408,"sentenceEnd":613},{"word":"tobacco","begin":540,"end":546,"sentenceIndex":3,"sentenceBegin":408,"sentenceEnd":613},{"word":"smoked","begin":551,"end":556,"sentenceIndex":3,"sentenceBegin":408,"sentenceEnd":613},{"word":"smoking","begin":639,"end":645,"sentenceIndex":4,"sentenceBegin":615,"sentenceEnd":719},{"word":"smoking","begin":776,"end":782,"sentenceIndex":5,"sentenceBegin":721,"sentenceEnd":879},{"word":"cigarette","begin":826,"end":834,"sentenceIndex":5,"sentenceBegin":721,"sentenceEnd":879},{"word":"smoking","begin":836,"end":842,"sentenceIndex":5,"sentenceBegin":721,"sentenceEnd":879},{"word":"tobacco","begin":937,"end":943,"sentenceIndex":6,"sentenceBegin":881,"sentenceEnd":1000},{"word":"smoking","begin":945,"end":951,"sentenceIndex":6,"sentenceBegin":881,"sentenceEnd":1000}]}
{"paperId":"6064531b955540927af8d37123cad8c2bd48e5e3","indicators":[{"word":"cannabis","begin":46,"end":53,"sentenceIndex":0,"sentenceBegin":0,"sentenceEnd":175},{"word":"weed","begin":165,"end":168,"sentenceIndex":0,"sentenceBegin":0,"sentenceEnd":175},{"word":"smoked","begin":202,"end":207,"sentenceIndex":1,"sentenceBegin":177,"sentenceEnd":280},{"word":"cannabis","begin":230,"end":237,"sentenceIndex":1,"sentenceBegin":177,"sentenceEnd":280},{"word":"tobacco","begin":385,"end":391,"sentenceIndex":2,"sentenceBegin":282,"sentenceEnd":398},{"word":"smoke","begin":393,"end":397,"sentenceIndex":2,"sentenceBegin":282,"sentenceEnd":398},{"word":"smoke","begin":430,"end":434,"sentenceIndex":3,"sentenceBegin":400,"sentenceEnd":505},{"word":"tobacco","begin":798,"end":804,"sentenceIndex":5,"sentenceBegin":701,"sentenceEnd":932},{"word":"smoke","begin":806,"end":810,"sentenceIndex":5,"sentenceBegin":701,"sentenceEnd":932},{"word":"smoking","begin":957,"end":963,"sentenceIndex":6,"sentenceBegin":934,"sentenceEnd":1190},{"word":"smoking","begin":1010,"end":1016,"sentenceIndex":6,"sentenceBegin":934,"sentenceEnd":1190},{"word":"tobacco","begin":1018,"end":1024,"sentenceIndex":6,"sentenceBegin":934,"sentenceEnd":1190},{"word":"tobacco","begin":1043,"end":1049,"sentenceIndex":6,"sentenceBegin":934,"sentenceEnd":1190},{"word":"smoking","begin":1051,"end":1057,"sentenceIndex":6,"sentenceBegin":934,"sentenceEnd":1190},{"word":"cannabis","begin":1223,"end":1230,"sentenceIndex":7,"sentenceBegin":1192,"sentenceEnd":1313},{"word":"cigarettes","begin":1232,"end":1241,"sentenceIndex":7,"sentenceBegin":1192,"sentenceEnd":1313},{"word":"tobacco","begin":1295,"end":1301,"sentenceIndex":7,"sentenceBegin":1192,"sentenceEnd":1313},{"word":"cigarettes","begin":1303,"end":1312,"sentenceIndex":7,"sentenceBegin":1192,"sentenceEnd":1313},{"word":"smoking","begin":1362,"end":1368,"sentenceIndex":8,"sentenceBegin":1315,"sentenceEnd":1404},{"word":"tobacco","begin":1384,"end":1390,"sentenceIndex":8,"sentenceBegin":1315,"sentenceEnd":1404},{"word":"smoking","begin":1614,"end":1620,"sentenceIndex":10,"sentenceBegin":1541,"sentenceEnd":1627},{"word":"smoking","begin":1752,"end":1758,"sentenceIndex":12,"sentenceBegin":1638,"sentenceEnd":1883},{"word":"cannabis","begin":2135,"end":2142,"sentenceIndex":14,"sentenceBegin":2070,"sentenceEnd":2181},{"word":"cannabis","begin":2195,"end":2202,"sentenceIndex":15,"sentenceBegin":2183,"sentenceEnd":2283},{"word":"weed","begin":2219,"end":2222,"sentenceIndex":15,"sentenceBegin":2183,"sentenceEnd":2283},{"word":"smoked","begin":2470,"end":2475,"sentenceIndex":17,"sentenceBegin":2428,"sentenceEnd":2476},{"word":"smoked","begin":2646,"end":2651,"sentenceIndex":19,"sentenceBegin":2596,"sentenceEnd":2741},{"word":"smoked","begin":2908,"end":2913,"sentenceIndex":20,"sentenceBegin":2743,"sentenceEnd":3139},{"word":"smoke","begin":3125,"end":3129,"sentenceIndex":20,"sentenceBegin":2743,"sentenceEnd":3139}]}
{"paperId":"6064531b955540927af8d37123cad8c2bd48e5e3","indicators":[{"word":"smoking","begin":40,"end":46,"sentenceIndex":0,"sentenceBegin":0,"sentenceEnd":83},{"word":"smoked","begin":853,"end":858,"sentenceIndex":6,"sentenceBegin":783,"sentenceEnd":1137}]}
{"paperId":"6064531b955540927af8d37123cad8c2bd48e5e3","indicators":[{"word":"smoked","begin":42,"end":47,"sentenceIndex":0,"sentenceBegin":0,"sentenceEnd":136}]}
{"paperId":"8bef600b13b4b188173fa692200b8db840fc7a2f","indicators":[{"word":"tobacco","begin":233,"end":239,"sentenceIndex":2,"sentenceBegin":187,"sentenceEnd":295},{"word":"smoking","begin":241,"end":247,"sentenceIndex":2,"sentenceBegin":187,"sentenceEnd":295}]}
{"paperId":"f822d4ecdfdab5df9aee15e162b483c464f3da4b","indicators":[{"word":"tobacco","begin":1174,"end":1180,"sentenceIndex":5,"sentenceBegin":1130,"sentenceEnd":1419},{"word":"smoke","begin":1182,"end":1186,"sentenceIndex":5,"sentenceBegin":1130,"sentenceEnd":1419}]}
{"paperId":"f822d4ecdfdab5df9aee15e162b483c464f3da4b","indicators":[{"word":"vapor","begin":559,"end":563,"sentenceIndex":3,"sentenceBegin":384,"sentenceEnd":576}]}
{"paperId":"f822d4ecdfdab5df9aee15e162b483c464f3da4b","indicators":[{"word":"vapor","begin":829,"end":833,"sentenceIndex":5,"sentenceBegin":686,"sentenceEnd":896},{"word":"vapor","begin":1572,"end":1576,"sentenceIndex":8,"sentenceBegin":1375,"sentenceEnd":1668}]}
{"paperId":"f822d4ecdfdab5df9aee15e162b483c464f3da4b","indicators":[{"word":"smoke","begin":81,"end":85,"sentenceIndex":0,"sentenceBegin":0,"sentenceEnd":202},{"word":"smoke","begin":250,"end":254,"sentenceIndex":1,"sentenceBegin":204,"sentenceEnd":400}]}
{"paperId":"f822d4ecdfdab5df9aee15e162b483c464f3da4b","indicators":[{"word":"smoke","begin":112,"end":116,"sentenceIndex":0,"sentenceBegin":0,"sentenceEnd":221}]}
{"paperId":"f822d4ecdfdab5df9aee15e162b483c464f3da4b","indicators":[{"word":"smoking","begin":97,"end":103,"sentenceIndex":0,"sentenceBegin":0,"sentenceEnd":212}]}
{"paperId":"f822d4ecdfdab5df9aee15e162b483c464f3da4b","indicators":[{"word":"smoke","begin":122,"end":126,"sentenceIndex":0,"sentenceBegin":0,"sentenceEnd":240}]}
{"paperId":"f822d4ecdfdab5df9aee15e162b483c464f3da4b","indicators":[{"word":"smoke","begin":148,"end":152,"sentenceIndex":1,"sentenceBegin":73,"sentenceEnd":225}]}
{"paperId":"f822d4ecdfdab5df9aee15e162b483c464f3da4b","indicators":[{"word":"smoke","begin":177,"end":181,"sentenceIndex":0,"sentenceBegin":0,"sentenceEnd":198},{"word":"smoke","begin":374,"end":378,"sentenceIndex":1,"sentenceBegin":200,"sentenceEnd":469}]}
{"paperId":"f822d4ecdfdab5df9aee15e162b483c464f3da4b","indicators":[{"word":"smoke","begin":705,"end":709,"sentenceIndex":3,"sentenceBegin":606,"sentenceEnd":764}]}
{"paperId":"f822d4ecdfdab5df9aee15e162b483c464f3da4b","indicators":[{"word":"smoking","begin":944,"end":950,"sentenceIndex":5,"sentenceBegin":794,"sentenceEnd":958}]}
{"paperId":"dceee7b26cc0ba318fe149bad2de51c5699bc959","indicators":[{"word":"fumes","begin":315,"end":319,"sentenceIndex":3,"sentenceBegin":290,"sentenceEnd":482}]}
{"paperId":"dceee7b26cc0ba318fe149bad2de51c5699bc959","indicators":[{"word":"fires","begin":291,"end":295,"sentenceIndex":2,"sentenceBegin":152,"sentenceEnd":362}]}
{"paperId":"dceee7b26cc0ba318fe149bad2de51c5699bc959","indicators":[{"word":"vapor","begin":75,"end":79,"sentenceIndex":1,"sentenceBegin":46,"sentenceEnd":146}]}
{"paperId":"dceee7b26cc0ba318fe149bad2de51c5699bc959","indicators":[{"word":"fires","begin":28,"end":32,"sentenceIndex":0,"sentenceBegin":0,"sentenceEnd":70},{"word":"fires","begin":215,"end":219,"sentenceIndex":2,"sentenceBegin":187,"sentenceEnd":220}]}
{"paperId":"dceee7b26cc0ba318fe149bad2de51c5699bc959","indicators":[{"word":"fires","begin":500,"end":504,"sentenceIndex":3,"sentenceBegin":430,"sentenceEnd":505}]}
{"paperId":"dceee7b26cc0ba318fe149bad2de51c5699bc959","indicators":[{"word":"fires","begin":157,"end":161,"sentenceIndex":0,"sentenceBegin":0,"sentenceEnd":199},{"word":"fires","begin":504,"end":508,"sentenceIndex":4,"sentenceBegin":387,"sentenceEnd":509}]}
{"paperId":"dceee7b26cc0ba318fe149bad2de51c5699bc959","indicators":[{"word":"fires","begin":69,"end":73,"sentenceIndex":0,"sentenceBegin":0,"sentenceEnd":101},{"word":"fires","begin":460,"end":464,"sentenceIndex":4,"sentenceBegin":451,"sentenceEnd":638},{"word":"fires","begin":1158,"end":1162,"sentenceIndex":8,"sentenceBegin":994,"sentenceEnd":1226},{"word":"fires","begin":1221,"end":1225,"sentenceIndex":8,"sentenceBegin":994,"sentenceEnd":1226}]}
{"paperId":"dceee7b26cc0ba318fe149bad2de51c5699bc959","indicators":[{"word":"fires","begin":35,"end":39,"sentenceIndex":0,"sentenceBegin":0,"sentenceEnd":211}]}
{"paperId":"dceee7b26cc0ba318fe149bad2de51c5699bc959","indicators":[{"word":"smoke","begin":43,"end":47,"sentenceIndex":1,"sentenceBegin":22,"sentenceEnd":163},{"word":"smoke","begin":151,"end":155,"sentenceIndex":1,"sentenceBegin":22,"sentenceEnd":163}]}
{"paperId":"dceee7b26cc0ba318fe149bad2de51c5699bc959","indicators":[{"word":"vapor","begin":323,"end":327,"sentenceIndex":3,"sentenceBegin":247,"sentenceEnd":375},{"word":"vapor","begin":835,"end":839,"sentenceIndex":6,"sentenceBegin":761,"sentenceEnd":877}]}
{"paperId":"dceee7b26cc0ba318fe149bad2de51c5699bc959","indicators":[{"word":"fires","begin":305,"end":309,"sentenceIndex":3,"sentenceBegin":262,"sentenceEnd":310}]}
{"paperId":"dceee7b26cc0ba318fe149bad2de51c5699bc959","indicators":[{"word":"vapor","begin":320,"end":324,"sentenceIndex":2,"sentenceBegin":158,"sentenceEnd":337}]}
{"paperId":"dceee7b26cc0ba318fe149bad2de51c5699bc959","indicators":[{"word":"fires","begin":468,"end":472,"sentenceIndex":3,"sentenceBegin":258,"sentenceEnd":486}]}
{"paperId":"dceee7b26cc0ba318fe149bad2de51c5699bc959","indicators":[{"word":"vapor","begin":361,"end":365,"sentenceIndex":2,"sentenceBegin":302,"sentenceEnd":410}]}
{"paperId":"dceee7b26cc0ba318fe149bad2de51c5699bc959","indicators":[{"word":"fires","begin":545,"end":549,"sentenceIndex":3,"sentenceBegin":421,"sentenceEnd":614}]}
{"paperId":"dceee7b26cc0ba318fe149bad2de51c5699bc959","indicators":[{"word":"fires","begin":603,"end":607,"sentenceIndex":4,"sentenceBegin":563,"sentenceEnd":675}]}
{"paperId":"dceee7b26cc0ba318fe149bad2de51c5699bc959","indicators":[{"word":"fires","begin":687,"end":691,"sentenceIndex":6,"sentenceBegin":645,"sentenceEnd":784},{"word":"fires","begin":820,"end":824,"sentenceIndex":8,"sentenceBegin":804,"sentenceEnd":937}]}
{"paperId":"dceee7b26cc0ba318fe149bad2de51c5699bc959","indicators":[{"word":"fires","begin":85,"end":89,"sentenceIndex":0,"sentenceBegin":0,"sentenceEnd":173}]}
{"paperId":"dceee7b26cc0ba318fe149bad2de51c5699bc959","indicators":[{"word":"fires","begin":10,"end":14,"sentenceIndex":0,"sentenceBegin":0,"sentenceEnd":117},{"word":"fires","begin":159,"end":163,"sentenceIndex":1,"sentenceBegin":119,"sentenceEnd":213}]}
{"paperId":"dceee7b26cc0ba318fe149bad2de51c5699bc959","indicators":[{"word":"fires","begin":24,"end":28,"sentenceIndex":0,"sentenceBegin":0,"sentenceEnd":257}]}
{"paperId":"bdda2cfccb17eb97e215f41070a4b50d7bd5cf0b","indicators":[{"word":"fumes","begin":315,"end":319,"sentenceIndex":3,"sentenceBegin":290,"sentenceEnd":482}]}
{"paperId":"bdda2cfccb17eb97e215f41070a4b50d7bd5cf0b","indicators":[{"word":"fires","begin":291,"end":295,"sentenceIndex":2,"sentenceBegin":152,"sentenceEnd":362}]}
{"paperId":"bdda2cfccb17eb97e215f41070a4b50d7bd5cf0b","indicators":[{"word":"vapor","begin":75,"end":79,"sentenceIndex":1,"sentenceBegin":46,"sentenceEnd":146}]}
{"paperId":"bdda2cfccb17eb97e215f41070a4b50d7bd5cf0b","indicators":[{"word":"fires","begin":28,"end":32,"sentenceIndex":0,"sentenceBegin":0,"sentenceEnd":70},{"word":"fires","begin":215,"end":219,"sentenceIndex":2,"sentenceBegin":187,"sentenceEnd":220}]}
{"paperId":"bdda2cfccb17eb97e215f41070a4b50d7bd5cf0b","indicators":[{"word":"fires","begin":500,"end":504,"sentenceIndex":3,"sentenceBegin":430,"sentenceEnd":505}]}
{"paperId":"bdda2cfccb17eb97e215f41070a4b50d7bd5cf0b","indicators":[{"word":"fires","begin":157,"end":161,"sentenceIndex":0,"sentenceBegin":0,"sentenceEnd":199},{"word":"fires","begin":504,"end":508,"sentenceIndex":4,"sentenceBegin":387,"sentenceEnd":509}]}
{"paperId":"bdda2cfccb17eb97e215f41070a4b50d7bd5cf0b","indicators":[{"word":"fires","begin":69,"end":73,"sentenceIndex":0,"sentenceBegin":0,"sentenceEnd":101},{"word":"fires","begin":460,"end":464,"sentenceIndex":4,"sentenceBegin":451,"sentenceEnd":638},{"word":"fires","begin":1158,"end":1162,"sentenceIndex":8,"sentenceBegin":994,"sentenceEnd":1226},{"word":"fires","begin":1221,"end":1225,"sentenceIndex":8,"sentenceBegin":994,"sentenceEnd":1226}]}
{"paperId":"bdda2cfccb17eb97e215f41070a4b50d7bd5cf0b","indicators":[{"word":"fires","begin":35,"end":39,"sentenceIndex":0,"sentenceBegin":0,"sentenceEnd":211}]}
{"paperId":"bdda2cfccb17eb97e215f41070a4b50d7bd5cf0b","indicators":[{"word":"smoke","begin":43,"end":47,"sentenceIndex":1,"sentenceBegin":22,"sentenceEnd":163},{"word":"smoke","begin":151,"end":155,"sentenceIndex":1,"sentenceBegin":22,"sentenceEnd":163}]}
{"paperId":"bdda2cfccb17eb97e215f41070a4b50d7bd5cf0b","indicators":[{"word":"vapor","begin":323,"end":327,"sentenceIndex":3,"sentenceBegin":247,"sentenceEnd":375},{"word":"vapor","begin":835,"end":839,"sentenceIndex":6,"sentenceBegin":761,"sentenceEnd":877}]}
{"paperId":"bdda2cfccb17eb97e215f41070a4b50d7bd5cf0b","indicators":[{"word":"fires","begin":305,"end":309,"sentenceIndex":3,"sentenceBegin":262,"sentenceEnd":310}]}
{"paperId":"bdda2cfccb17eb97e215f41070a4b50d7bd5cf0b","indicators":[{"word":"vapor","begin":320,"end":324,"sentenceIndex":2,"sentenceBegin":158,"sentenceEnd":337}]}
{"paperId":"bdda2cfccb17eb97e215f41070a4b50d7bd5cf0b","indicators":[{"word":"fires","begin":468,"end":472,"sentenceIndex":3,"sentenceBegin":258,"sentenceEnd":486}]}
{"paperId":"bdda2cfccb17eb97e215f41070a4b50d7bd5cf0b","indicators":[{"word":"vapor","begin":361,"end":365,"sentenceIndex":2,"sentenceBegin":302,"sentenceEnd":410}]}
{"paperId":"bdda2cfccb17eb97e215f41070a4b50d7bd5cf0b","indicators":[{"word":"fires","begin":545,"end":549,"sentenceIndex":3,"sentenceBegin":421,"sentenceEnd":614}]}
{"paperId":"bdda2cfccb17eb97e215f41070a4b50d7bd5cf0b","indicators":[{"word":"fires","begin":603,"end":607,"sentenceIndex":4,"sentenceBegin":563,"sentenceEnd":675}]}
{"paperId":"bdda2cfccb17eb97e215f41070a4b50d7bd5cf0b","indicators":[{"word":"fires","begin":687,"end":691,"sentenceIndex":6,"sentenceBegin":645,"sentenceEnd":784},{"word":"fires","begin":820,"end":824,"sentenceIndex":8,"sentenceBegin":804,"sentenceEnd":937}]}
{"paperId":"bdda2cfccb17eb97e215f41070a4b50d7bd5cf0b","indicators":[{"word":"fires","begin":85,"end":89,"sentenceIndex":0,"sentenceBegin":0,"sentenceEnd":173}]}
{"paperId":"bdda2cfccb17eb97e215f41070a4b50d7bd5cf0b","indicators":[{"word":"fires","begin":10,"end":14,"sentenceIndex":0,"sentenceBegin":0,"sentenceEnd":117},{"word":"fires","begin":159,"end":163,"sentenceIndex":1,"sentenceBegin":119,"sentenceEnd":213}]}
{"paperId":"bdda2cfccb17eb97e215f41070a4b50d7bd5cf0b","indicators":[{"word":"fires","begin":24,"end":28,"sentenceIndex":0,"sentenceBegin":0,"sentenceEnd":257}]}
{"paperId":"d0cd22e0a311d9bada38edb00ac33c3c71aff4b3","indicators":[{"word":"smoking","begin":207,"end":213,"sentenceIndex":1,"sentenceBegin":149,"sentenceEnd":325}]}
{"paperId":"d0cd22e0a311d9bada38edb00ac33c3c71aff4b3","indicators":[{"word":"smoking","begin":226,"end":232,"sentenceIndex":0,"sentenceBegin":0,"sentenceEnd":270}]}
{"paperId":"d0cd22e0a311d9bada38edb00ac33c3c71aff4b3","indicators":[{"word":"smoking","begin":183,"end":189,"sentenceIndex":0,"sentenceBegin":0,"sentenceEnd":271}]}
{"paperId":"d0cd22e0a311d9bada38edb00ac33c3c71aff4b3","indicators":[{"word":"cigarette","begin":1592,"end":1600,"sentenceIndex":15,"sentenceBegin":1581,"sentenceEnd":1637},{"word":"smoking","begin":1602,"end":1608,"sentenceIndex":15,"sentenceBegin":1581,"sentenceEnd":1637},{"word":"cigarette","begin":1675,"end":1683,"sentenceIndex":16,"sentenceBegin":1639,"sentenceEnd":1779},{"word":"smoke","begin":1685,"end":1689,"sentenceIndex":16,"sentenceBegin":1639,"sentenceEnd":1779},{"word":"smoking","begin":1713,"end":1719,"sentenceIndex":16,"sentenceBegin":1639,"sentenceEnd":1779},{"word":"smoking","begin":1861,"end":1867,"sentenceIndex":17,"sentenceBegin":1781,"sentenceEnd":1945},{"word":"smoking","begin":1887,"end":1893,"sentenceIndex":17,"sentenceBegin":1781,"sentenceEnd":1945}]}
{"paperId":"d0cd22e0a311d9bada38edb00ac33c3c71aff4b3","indicators":[{"word":"smoked","begin":75,"end":80,"sentenceIndex":2,"sentenceBegin":71,"sentenceEnd":98},{"word":"smoked","begin":110,"end":115,"sentenceIndex":3,"sentenceBegin":100,"sentenceEnd":116},{"word":"smoking","begin":241,"end":247,"sentenceIndex":5,"sentenceBegin":204,"sentenceEnd":321},{"word":"smoking","begin":428,"end":434,"sentenceIndex":7,"sentenceBegin":379,"sentenceEnd":452},{"word":"smoking","begin":500,"end":506,"sentenceIndex":8,"sentenceBegin":454,"sentenceEnd":538}]}
{"paperId":"d0cd22e0a311d9bada38edb00ac33c3c71aff4b3","indicators":[{"word":"smoking","begin":30,"end":36,"sentenceIndex":0,"sentenceBegin":0,"sentenceEnd":65}]}
{"paperId":"d0cd22e0a311d9bada38edb00ac33c3c71aff4b3","indicators":[{"word":"cigarette","begin":260,"end":268,"sentenceIndex":2,"sentenceBegin":135,"sentenceEnd":277},{"word":"smoking","begin":270,"end":276,"sentenceIndex":2,"sentenceBegin":135,"sentenceEnd":277}]}
{"paperId":"d0cd22e0a311d9bada38edb00ac33c3c71aff4b3","indicators":[{"word":"smoking","begin":292,"end":298,"sentenceIndex":4,"sentenceBegin":238,"sentenceEnd":454}]}
{"paperId":"d0cd22e0a311d9bada38edb00ac33c3c71aff4b3","indicators":[{"word":"cigarette","begin":136,"end":144,"sentenceIndex":1,"sentenceBegin":119,"sentenceEnd":265},{"word":"smoking","begin":146,"end":152,"sentenceIndex":1,"sentenceBegin":119,"sentenceEnd":265}]}
{"paperId":"d0cd22e0a311d9bada38edb00ac33c3c71aff4b3","indicators":[{"word":"smoked","begin":1638,"end":1643,"sentenceIndex":15,"sentenceBegin":1602,"sentenceEnd":1661}]}
{"paperId":"d0cd22e0a311d9bada38edb00ac33c3c71aff4b3","indicators":[{"word":"smoking","begin":151,"end":157,"sentenceIndex":1,"sentenceBegin":67,"sentenceEnd":573},{"word":"smoke","begin":236,"end":240,"sentenceIndex":1,"sentenceBegin":67,"sentenceEnd":573}]}
{"paperId":"d0cd22e0a311d9bada38edb00ac33c3c71aff4b3","indicators":[{"word":"puffs","begin":477,"end":481,"sentenceIndex":3,"sentenceBegin":336,"sentenceEnd":565}]}
{"paperId":"d0cd22e0a311d9bada38edb00ac33c3c71aff4b3","indicators":[{"word":"smoking","begin":39,"end":45,"sentenceIndex":0,"sentenceBegin":0,"sentenceEnd":87}]}
{"paperId":"8c19d1e5fe9cdef28e4762365d290317c909b501","indicators":[{"word":"tobacco","begin":887,"end":893,"sentenceIndex":5,"sentenceBegin":613,"sentenceEnd":918}]}
{"paperId":"8c19d1e5fe9cdef28e4762365d290317c909b501","indicators":[{"word":"smoking","begin":323,"end":329,"sentenceIndex":1,"sentenceBegin":247,"sentenceEnd":488}]}
{"paperId":"8c19d1e5fe9cdef28e4762365d290317c909b501","indicators":[{"word":"tobacco","begin":1048,"end":1054,"sentenceIndex":9,"sentenceBegin":1048,"sentenceEnd":1075}]}
{"paperId":"8c19d1e5fe9cdef28e4762365d290317c909b501","indicators":[{"word":"smoking","begin":524,"end":530,"sentenceIndex":2,"sentenceBegin":464,"sentenceEnd":664}]}
{"paperId":"8c19d1e5fe9cdef28e4762365d290317c909b501","indicators":[{"word":"smoking","begin":732,"end":738,"sentenceIndex":3,"sentenceBegin":686,"sentenceEnd":961}]}
{"paperId":"8c19d1e5fe9cdef28e4762365d290317c909b501","indicators":[{"word":"cigarette","begin":49,"end":57,"sentenceIndex":0,"sentenceBegin":0,"sentenceEnd":206},{"word":"smoking","begin":59,"end":65,"sentenceIndex":0,"sentenceBegin":0,"sentenceEnd":206}]}
{"paperId":"8c19d1e5fe9cdef28e4762365d290317c909b501","indicators":[{"word":"smoking","begin":46,"end":52,"sentenceIndex":0,"sentenceBegin":0,"sentenceEnd":146}]}
{"paperId":"8c19d1e5fe9cdef28e4762365d290317c909b501","indicators":[{"word":"tobacco","begin":576,"end":582,"sentenceIndex":2,"sentenceBegin":335,"sentenceEnd":632}]}
{"paperId":"8c19d1e5fe9cdef28e4762365d290317c909b501","indicators":[{"word":"smoking","begin":612,"end":618,"sentenceIndex":3,"sentenceBegin":579,"sentenceEnd":728},{"word":"tobacco","begin":624,"end":630,"sentenceIndex":3,"sentenceBegin":579,"sentenceEnd":728}]}
{"paperId":"8c19d1e5fe9cdef28e4762365d290317c909b501","indicators":[{"word":"smoking","begin":1258,"end":1264,"sentenceIndex":7,"sentenceBegin":1204,"sentenceEnd":1318}]}
{"paperId":"8c19d1e5fe9cdef28e4762365d290317c909b501","indicators":[{"word":"smoking","begin":322,"end":328,"sentenceIndex":1,"sentenceBegin":161,"sentenceEnd":346}]}
{"paperId":"8c19d1e5fe9cdef28e4762365d290317c909b501","indicators":[{"word":"smoking","begin":23,"end":29,"sentenceIndex":0,"sentenceBegin":0,"sentenceEnd":121}]}
{"paperId":"8c19d1e5fe9cdef28e4762365d290317c909b501","indicators":[{"word":"tobacco","begin":1368,"end":1374,"sentenceIndex":7,"sentenceBegin":1298,"sentenceEnd":1421},{"word":"smoking","begin":1566,"end":1572,"sentenceIndex":9,"sentenceBegin":1540,"sentenceEnd":1668}]}
{"paperId":"8c19d1e5fe9cdef28e4762365d290317c909b501","indicators":[{"word":"tobacco","begin":1225,"end":1231,"sentenceIndex":7,"sentenceBegin":1173,"sentenceEnd":1374},{"word":"smoking","begin":1319,"end":1325,"sentenceIndex":7,"sentenceBegin":1173,"sentenceEnd":1374}]}
{"paperId":"8c19d1e5fe9cdef28e4762365d290317c909b501","indicators":[{"word":"tobacco","begin":228,"end":234,"sentenceIndex":1,"sentenceBegin":91,"sentenceEnd":450}]}
{"paperId":"8c19d1e5fe9cdef28e4762365d290317c909b501","indicators":[{"word":"tobacco","begin":764,"end":770,"sentenceIndex":5,"sentenceBegin":735,"sentenceEnd":1015}]}
{"paperId":"8c19d1e5fe9cdef28e4762365d290317c909b501","indicators":[{"word":"smoking","begin":1010,"end":1016,"sentenceIndex":4,"sentenceBegin":913,"sentenceEnd":1093}]}
{"paperId":"8c19d1e5fe9cdef28e4762365d290317c909b501","indicators":[{"word":"smoking","begin":431,"end":437,"sentenceIndex":1,"sentenceBegin":207,"sentenceEnd":524}]}
{"paperId":"8c19d1e5fe9cdef28e4762365d290317c909b501","indicators":[{"word":"tobacco","begin":208,"end":214,"sentenceIndex":1,"sentenceBegin":146,"sentenceEnd":391},{"word":"tobacco","begin":355,"end":361,"sentenceIndex":1,"sentenceBegin":146,"sentenceEnd":391}]}
{"paperId":"709e981e423ac8d513e3ae5190d80b6546a2b915","indicators":[{"word":"fired","begin":178,"end":182,"sentenceIndex":1,"sentenceBegin":81,"sentenceEnd":212},{"word":"fired","begin":286,"end":290,"sentenceIndex":2,"sentenceBegin":214,"sentenceEnd":291},{"word":"fired","begin":408,"end":412,"sentenceIndex":3,"sentenceBegin":293,"sentenceEnd":413}]}
{"paperId":"709e981e423ac8d513e3ae5190d80b6546a2b915","indicators":[{"word":"pots","begin":480,"end":483,"sentenceIndex":2,"sentenceBegin":329,"sentenceEnd":484}]}
{"paperId":"f8fee87468d60e19bc12d9a88c189abcda28b98c","indicators":[{"word":"smoking","begin":321,"end":327,"sentenceIndex":1,"sentenceBegin":206,"sentenceEnd":328},{"word":"smoking","begin":856,"end":862,"sentenceIndex":6,"sentenceBegin":808,"sentenceEnd":961},{"word":"smoking","begin":1012,"end":1018,"sentenceIndex":7,"sentenceBegin":963,"sentenceEnd":1183},{"word":"smoking","begin":1199,"end":1205,"sentenceIndex":8,"sentenceBegin":1185,"sentenceEnd":1266}]}
{"paperId":"06559dd625491d6474ee88f08c12fc17c1830995","indicators":[{"word":"fires","begin":93,"end":97,"sentenceIndex":0,"sentenceBegin":0,"sentenceEnd":240}]}
{"paperId":"06559dd625491d6474ee88f08c12fc17c1830995","indicators":[{"word":"tobacco","begin":734,"end":740,"sentenceIndex":4,"sentenceBegin":546,"sentenceEnd":1196}]}
{"paperId":"bc3575cce4fb95a77596f85eec9ad9e75137e06e","indicators":[{"word":"vapor","begin":604,"end":608,"sentenceIndex":4,"sentenceBegin":399,"sentenceEnd":617}]}
{"paperId":"a520b75ec6e357522dafef8d7209e552a9374368","indicators":[{"word":"cigarette","begin":719,"end":727,"sentenceIndex":3,"sentenceBegin":693,"sentenceEnd":948},{"word":"smoking","begin":729,"end":735,"sentenceIndex":3,"sentenceBegin":693,"sentenceEnd":948},{"word":"smoking","begin":987,"end":993,"sentenceIndex":4,"sentenceBegin":950,"sentenceEnd":1194},{"word":"smoking","begin":1158,"end":1164,"sentenceIndex":4,"sentenceBegin":950,"sentenceEnd":1194},{"word":"smoking","begin":1210,"end":1216,"sentenceIndex":5,"sentenceBegin":1196,"sentenceEnd":1287}]}
{"paperId":"a520b75ec6e357522dafef8d7209e552a9374368","indicators":[{"word":"smoking","begin":552,"end":558,"sentenceIndex":3,"sentenceBegin":525,"sentenceEnd":665}]}
{"paperId":"a520b75ec6e357522dafef8d7209e552a9374368","indicators":[{"word":"smoking","begin":448,"end":454,"sentenceIndex":1,"sentenceBegin":252,"sentenceEnd":501}]}
{"paperId":"a520b75ec6e357522dafef8d7209e552a9374368","indicators":[{"word":"smoking","begin":271,"end":277,"sentenceIndex":1,"sentenceBegin":238,"sentenceEnd":488},{"word":"smoked","begin":394,"end":399,"sentenceIndex":1,"sentenceBegin":238,"sentenceEnd":488},{"word":"cigarettes","begin":414,"end":423,"sentenceIndex":1,"sentenceBegin":238,"sentenceEnd":488},{"word":"smoking","begin":481,"end":487,"sentenceIndex":1,"sentenceBegin":238,"sentenceEnd":488},{"word":"smoking","begin":562,"end":568,"sentenceIndex":2,"sentenceBegin":490,"sentenceEnd":608}]}
{"paperId":"a520b75ec6e357522dafef8d7209e552a9374368","indicators":[{"word":"smoking","begin":488,"end":494,"sentenceIndex":5,"sentenceBegin":468,"sentenceEnd":527},{"word":"smoking","begin":961,"end":967,"sentenceIndex":15,"sentenceBegin":951,"sentenceEnd":968}]}
{"paperId":"a520b75ec6e357522dafef8d7209e552a9374368","indicators":[{"word":"smoking","begin":248,"end":254,"sentenceIndex":1,"sentenceBegin":197,"sentenceEnd":653},{"word":"smoking","begin":337,"end":343,"sentenceIndex":1,"sentenceBegin":197,"sentenceEnd":653},{"word":"smoking","begin":399,"end":405,"sentenceIndex":1,"sentenceBegin":197,"sentenceEnd":653},{"word":"smoking","begin":457,"end":463,"sentenceIndex":1,"sentenceBegin":197,"sentenceEnd":653},{"word":"smoking","begin":552,"end":558,"sentenceIndex":1,"sentenceBegin":197,"sentenceEnd":653},{"word":"smoking","begin":592,"end":598,"sentenceIndex":1,"sentenceBegin":197,"sentenceEnd":653}]}
{"paperId":"a520b75ec6e357522dafef8d7209e552a9374368","indicators":[{"word":"cigarette","begin":720,"end":728,"sentenceIndex":3,"sentenceBegin":694,"sentenceEnd":949},{"word":"smoking","begin":730,"end":736,"sentenceIndex":3,"sentenceBegin":694,"sentenceEnd":949},{"word":"smoking","begin":988,"end":994,"sentenceIndex":4,"sentenceBegin":951,"sentenceEnd":1195},{"word":"smoking","begin":1159,"end":1165,"sentenceIndex":4,"sentenceBegin":951,"sentenceEnd":1195},{"word":"smoking","begin":1211,"end":1217,"sentenceIndex":5,"sentenceBegin":1197,"sentenceEnd":1288}]}
{"paperId":"a520b75ec6e357522dafef8d7209e552a9374368","indicators":[{"word":"smoking","begin":552,"end":558,"sentenceIndex":3,"sentenceBegin":525,"sentenceEnd":665}]}
{"paperId":"a520b75ec6e357522dafef8d7209e552a9374368","indicators":[{"word":"smoking","begin":448,"end":454,"sentenceIndex":1,"sentenceBegin":252,"sentenceEnd":501}]}
{"paperId":"a520b75ec6e357522dafef8d7209e552a9374368","indicators":[{"word":"smoking","begin":271,"end":277,"sentenceIndex":1,"sentenceBegin":238,"sentenceEnd":488},{"word":"smoked","begin":394,"end":399,"sentenceIndex":1,"sentenceBegin":238,"sentenceEnd":488},{"word":"cigarettes","begin":414,"end":423,"sentenceIndex":1,"sentenceBegin":238,"sentenceEnd":488},{"word":"smoking","begin":481,"end":487,"sentenceIndex":1,"sentenceBegin":238,"sentenceEnd":488},{"word":"smoking","begin":562,"end":568,"sentenceIndex":2,"sentenceBegin":490,"sentenceEnd":608}]}
{"paperId":"a520b75ec6e357522dafef8d7209e552a9374368","indicators":[{"word":"smoking","begin":488,"end":494,"sentenceIndex":5,"sentenceBegin":468,"sentenceEnd":527},{"word":"smoking","begin":961,"end":967,"sentenceIndex":15,"sentenceBegin":951,"sentenceEnd":968}]}
{"paperId":"a520b75ec6e357522dafef8d7209e552a9374368","indicators":[{"word":"smoking","begin":248,"end":254,"sentenceIndex":1,"sentenceBegin":197,"sentenceEnd":653},{"word":"smoking","begin":337,"end":343,"sentenceIndex":1,"sentenceBegin":197,"sentenceEnd":653},{"word":"smoking","begin":399,"end":405,"sentenceIndex":1,"sentenceBegin":197,"sentenceEnd":653},{"word":"smoking","begin":457,"end":463,"sentenceIndex":1,"sentenceBegin":197,"sentenceEnd":653},{"word":"smoking","begin":552,"end":558,"sentenceIndex":1,"sentenceBegin":197,"sentenceEnd":653},{"word":"smoking","begin":592,"end":598,"sentenceIndex":1,"sentenceBegin":197,"sentenceEnd":653}]}
{"paperId":"a520b75ec6e357522dafef8d7209e552a9374368","indicators":[{"word":"cigarette","begin":719,"end":727,"sentenceIndex":3,"sentenceBegin":693,"sentenceEnd":948},{"word":"smoking","begin":729,"end":735,"sentenceIndex":3,"sentenceBegin":693,"sentenceEnd":948},{"word":"smoking","begin":987,"end":993,"sentenceIndex":4,"sentenceBegin":950,"sentenceEnd":1194},{"word":"smoking","begin":1158,"end":1164,"sentenceIndex":4,"sentenceBegin":950,"sentenceEnd":1194},{"word":"smoking","begin":1210,"end":1216,"sentenceIndex":5,"sentenceBegin":1196,"sentenceEnd":1287}]}
{"paperId":"a520b75ec6e357522dafef8d7209e552a9374368","indicators":[{"word":"smoking","begin":552,"end":558,"sentenceIndex":3,"sentenceBegin":525,"sentenceEnd":665}]}
{"paperId":"a520b75ec6e357522dafef8d7209e552a9374368","indicators":[{"word":"smoking","begin":448,"end":454,"sentenceIndex":1,"sentenceBegin":252,"sentenceEnd":501}]}
{"paperId":"a520b75ec6e357522dafef8d7209e552a9374368","indicators":[{"word":"smoking","begin":271,"end":277,"sentenceIndex":1,"sentenceBegin":238,"sentenceEnd":488},{"word":"smoked","begin":394,"end":399,"sentenceIndex":1,"sentenceBegin":238,"sentenceEnd":488},{"word":"cigarettes","begin":414,"end":423,"sentenceIndex":1,"sentenceBegin":238,"sentenceEnd":488},{"word":"smoking","begin":481,"end":487,"sentenceIndex":1,"sentenceBegin":238,"sentenceEnd":488},{"word":"smoking","begin":562,"end":568,"sentenceIndex":2,"sentenceBegin":490,"sentenceEnd":608}]}
{"paperId":"a520b75ec6e357522dafef8d7209e552a9374368","indicators":[{"word":"smoking","begin":488,"end":494,"sentenceIndex":5,"sentenceBegin":468,"sentenceEnd":527},{"word":"smoking","begin":961,"end":967,"sentenceIndex":15,"sentenceBegin":951,"sentenceEnd":968}]}
{"paperId":"a520b75ec6e357522dafef8d7209e552a9374368","indicators":[{"word":"smoking","begin":248,"end":254,"sentenceIndex":1,"sentenceBegin":197,"sentenceEnd":653},{"word":"smoking","begin":337,"end":343,"sentenceIndex":1,"sentenceBegin":197,"sentenceEnd":653},{"word":"smoking","begin":399,"end":405,"sentenceIndex":1,"sentenceBegin":197,"sentenceEnd":653},{"word":"smoking","begin":457,"end":463,"sentenceIndex":1,"sentenceBegin":197,"sentenceEnd":653},{"word":"smoking","begin":552,"end":558,"sentenceIndex":1,"sentenceBegin":197,"sentenceEnd":653},{"word":"smoking","begin":592,"end":598,"sentenceIndex":1,"sentenceBegin":197,"sentenceEnd":653}]}
