{"paperId":"2d646b4f2d6aeebf507fe6d8264e99645fc80fa9","indicators":[{"word":"smoke","begin":421,"end":425,"sentenceIndex":2,"sentenceBegin":241,"sentenceEnd":439}]}
{"paperId":"4e5a3317c1513bac21c939d6db704cdf73284cce","indicators":[{"word":"tobacco","begin":463,"end":469,"sentenceIndex":2,"sentenceBegin":287,"sentenceEnd":536},{"word":"tobacco","begin":477,"end":483,"sentenceIndex":2,"sentenceBegin":287,"sentenceEnd":536},{"word":"tobacco","begin":866,"end":872,"sentenceIndex":4,"sentenceBegin":863,"sentenceEnd":1069}]}
{"paperId":"4e5a3317c1513bac21c939d6db704cdf73284cce","indicators":[{"word":"tobacco","begin":763,"end":769,"sentenceIndex":5,"sentenceBegin":608,"sentenceEnd":801}]}
{"paperId":"4e5a3317c1513bac21c939d6db704cdf73284cce","indicators":[{"word":"tobacco","begin":157,"end":163,"sentenceIndex":1,"sentenceBegin":110,"sentenceEnd":203},{"word":"tobacco","begin":477,"end":483,"sentenceIndex":4,"sentenceBegin":435,"sentenceEnd":704},{"word":"tobacco","begin":618,"end":624,"sentenceIndex":4,"sentenceBegin":435,"sentenceEnd":704}]}
{"paperId":"4e5a3317c1513bac21c939d6db704cdf73284cce","indicators":[{"word":"tobacco","begin":871,"end":877,"sentenceIndex":5,"sentenceBegin":864,"sentenceEnd":966},{"word":"tobacco","begin":1493,"end":1499,"sentenceIndex":10,"sentenceBegin":1402,"sentenceEnd":1507}]}
{"paperId":"c1f4e7386b0fe1d34b7c4b6ffa64810fdc7acf7b","indicators":[{"word":"smoking","begin":1536,"end":1542,"sentenceIndex":9,"sentenceBegin":1426,"sentenceEnd":1543}]}
