{"paperId":"3f7a102976d2f58c29dffefe3de66bef35bd6292","indicators":[{"word":"vapor","begin":646,"end":650,"sentenceIndex":3,"sentenceBegin":425,"sentenceEnd":701}]}
{"paperId":"7de5ab169387161a4b90c49826e7aad9f28f641c","indicators":[{"word":"smoking","begin":653,"end":659,"sentenceIndex":0,"sentenceBegin":0,"sentenceEnd":1121}]}
{"paperId":"8f7547c68c637fa412818f993e4501fa83bfdb25","indicators":[{"word":"fume","begin":340,"end":343,"sentenceIndex":5,"sentenceBegin":307,"sentenceEnd":368}]}
{"paperId":"8f7547c68c637fa412818f993e4501fa83bfdb25","indicators":[{"word":"fume","begin":335,"end":338,"sentenceIndex":2,"sentenceBegin":302,"sentenceEnd":363}]}
