{"paperId":"1c6f1888177420011ff0c6e714490bb9216898d9","indicators":[{"word":"tobacco","begin":548,"end":554,"sentenceIndex":4,"sentenceBegin":372,"sentenceEnd":573},{"word":"smoking","begin":556,"end":562,"sentenceIndex":4,"sentenceBegin":372,"sentenceEnd":573}]}
{"paperId":"1c6f1888177420011ff0c6e714490bb9216898d9","indicators":[{"word":"tobacco","begin":811,"end":817,"sentenceIndex":7,"sentenceBegin":796,"sentenceEnd":937},{"word":"smoking","begin":819,"end":825,"sentenceIndex":7,"sentenceBegin":796,"sentenceEnd":937}]}
{"paperId":"e599e7b6cc7894775d63531d4d388948a24d5c1a","indicators":[{"word":"fires","begin":369,"end":373,"sentenceIndex":1,"sentenceBegin":299,"sentenceEnd":430}]}
