{"paperId":"50e66b341a99b63f136f8fa8503dcdbe99a78689","indicators":[{"word":"tobacco","begin":1544,"end":1550,"sentenceIndex":15,"sentenceBegin":1427,"sentenceEnd":1706},{"word":"tobacco","begin":1856,"end":1862,"sentenceIndex":16,"sentenceBegin":1708,"sentenceEnd":1881}]}
{"paperId":"50e66b341a99b63f136f8fa8503dcdbe99a78689","indicators":[{"word":"tobacco","begin":1601,"end":1607,"sentenceIndex":14,"sentenceBegin":1516,"sentenceEnd":1674},{"word":"tobacco","begin":1815,"end":1821,"sentenceIndex":16,"sentenceBegin":1756,"sentenceEnd":1930}]}
{"paperId":"50e66b341a99b63f136f8fa8503dcdbe99a78689","indicators":[{"word":"tobacco","begin":87,"end":93,"sentenceIndex":0,"sentenceBegin":0,"sentenceEnd":118}]}
{"paperId":"50e66b341a99b63f136f8fa8503dcdbe99a78689","indicators":[{"word":"tobacco","begin":14,"end":20,"sentenceIndex":0,"sentenceBegin":0,"sentenceEnd":196},{"word":"tobacco","begin":202,"end":208,"sentenceIndex":1,"sentenceBegin":198,"sentenceEnd":599}]}
{"paperId":"50e66b341a99b63f136f8fa8503dcdbe99a78689","indicators":[{"word":"tobacco","begin":55,"end":61,"sentenceIndex":0,"sentenceBegin":0,"sentenceEnd":311}]}
{"paperId":"50e66b341a99b63f136f8fa8503dcdbe99a78689","indicators":[{"word":"tobacco","begin":43,"end":49,"sentenceIndex":0,"sentenceBegin":0,"sentenceEnd":106}]}
{"paperId":"50e66b341a99b63f136f8fa8503dcdbe99a78689","indicators":[{"word":"tobacco","begin":106,"end":112,"sentenceIndex":1,"sentenceBegin":91,"sentenceEnd":238}]}
{"paperId":"50e66b341a99b63f136f8fa8503dcdbe99a78689","indicators":[{"word":"tobacco","begin":955,"end":961,"sentenceIndex":5,"sentenceBegin":900,"sentenceEnd":966},{"word":"tobacco","begin":984,"end":990,"sentenceIndex":6,"sentenceBegin":968,"sentenceEnd":1180},{"word":"tobacco","begin":1564,"end":1570,"sentenceIndex":9,"sentenceBegin":1524,"sentenceEnd":1749}]}
{"paperId":"50e66b341a99b63f136f8fa8503dcdbe99a78689","indicators":[{"word":"tobacco","begin":194,"end":200,"sentenceIndex":1,"sentenceBegin":171,"sentenceEnd":320}]}
{"paperId":"50e66b341a99b63f136f8fa8503dcdbe99a78689","indicators":[{"word":"tobacco","begin":298,"end":304,"sentenceIndex":2,"sentenceBegin":251,"sentenceEnd":436},{"word":"tobacco","begin":646,"end":652,"sentenceIndex":4,"sentenceBegin":603,"sentenceEnd":720},{"word":"tobacco","begin":827,"end":833,"sentenceIndex":5,"sentenceBegin":722,"sentenceEnd":869}]}
{"paperId":"50e66b341a99b63f136f8fa8503dcdbe99a78689","indicators":[{"word":"tobacco","begin":688,"end":694,"sentenceIndex":4,"sentenceBegin":662,"sentenceEnd":875},{"word":"tobacco","begin":968,"end":974,"sentenceIndex":5,"sentenceBegin":877,"sentenceEnd":1058}]}
