{"paperId":"766398b576402973f5fe2e2e5b0c5a9d6017b0c0","indicators":[{"word":"cigarettes","begin":1471,"end":1480,"sentenceIndex":7,"sentenceBegin":1317,"sentenceEnd":1532}]}
{"paperId":"3f4deedda8499b88af6cc0b0ee00a4b3dbb6ae59","indicators":[{"word":"smoking","begin":437,"end":443,"sentenceIndex":2,"sentenceBegin":254,"sentenceEnd":581}]}
{"paperId":"7a2c674aba08c7a55d6f0e1766ed926fafcdb513","indicators":[{"word":"pots","begin":145,"end":148,"sentenceIndex":0,"sentenceBegin":0,"sentenceEnd":215}]}
