{"paperId":"d40b30876d8b015add47f6a8b5bf7596348597d5","indicators":[{"word":"cigarette","begin":562,"end":570,"sentenceIndex":7,"sentenceBegin":459,"sentenceEnd":628},{"word":"smoking","begin":572,"end":578,"sentenceIndex":7,"sentenceBegin":459,"sentenceEnd":628}]}
{"paperId":"5792e14254bd86e31f15ffd0650f613ada373b3e","indicators":[{"word":"smoked","begin":320,"end":325,"sentenceIndex":1,"sentenceBegin":137,"sentenceEnd":409},{"word":"tobacco","begin":327,"end":333,"sentenceIndex":1,"sentenceBegin":137,"sentenceEnd":409},{"word":"smoke","begin":404,"end":408,"sentenceIndex":1,"sentenceBegin":137,"sentenceEnd":409}]}
{"paperId":"df99f9c1da4ba098b9d6a493d003713b4f7e1355","indicators":[{"word":"smoking","begin":252,"end":258,"sentenceIndex":0,"sentenceBegin":0,"sentenceEnd":1059}]}
{"paperId":"4a3db119a260825a3f659f948c4e85491559013e","indicators":[{"word":"tobacco","begin":121,"end":127,"sentenceIndex":0,"sentenceBegin":0,"sentenceEnd":128},{"word":"tobacco","begin":229,"end":235,"sentenceIndex":1,"sentenceBegin":130,"sentenceEnd":275},{"word":"smoke","begin":237,"end":241,"sentenceIndex":1,"sentenceBegin":130,"sentenceEnd":275}]}
