{"paperId":"1e26a0c50d7cc401461714da25edf808cec12b51","indicators":[{"word":"fired","begin":1772,"end":1776,"sentenceIndex":10,"sentenceBegin":1655,"sentenceEnd":1777}]}
{"paperId":"23421cb20aecb11a6875ecaa1b4a9bbf698d560b","indicators":[{"word":"tobacco","begin":403,"end":409,"sentenceIndex":2,"sentenceBegin":339,"sentenceEnd":545},{"word":"smoke","begin":411,"end":415,"sentenceIndex":2,"sentenceBegin":339,"sentenceEnd":545}]}
{"paperId":"23421cb20aecb11a6875ecaa1b4a9bbf698d560b","indicators":[{"word":"smoking","begin":248,"end":254,"sentenceIndex":1,"sentenceBegin":225,"sentenceEnd":309}]}
{"paperId":"94d9ccc247565c05de2751ee2216526deb5392ca","indicators":[{"word":"cigarette","begin":560,"end":568,"sentenceIndex":4,"sentenceBegin":521,"sentenceEnd":596},{"word":"smoke","begin":570,"end":574,"sentenceIndex":4,"sentenceBegin":521,"sentenceEnd":596}]}
{"paperId":"94d9ccc247565c05de2751ee2216526deb5392ca","indicators":[{"word":"smoking","begin":154,"end":160,"sentenceIndex":0,"sentenceBegin":0,"sentenceEnd":202}]}
{"paperId":"94d9ccc247565c05de2751ee2216526deb5392ca","indicators":[{"word":"smoking","begin":132,"end":138,"sentenceIndex":1,"sentenceBegin":71,"sentenceEnd":151}]}
{"paperId":"1a7be3326d27bd2f56d37de030b53542674b9b2a","indicators":[{"word":"tobacco","begin":268,"end":274,"sentenceIndex":2,"sentenceBegin":209,"sentenceEnd":336},{"word":"smoking","begin":857,"end":863,"sentenceIndex":4,"sentenceBegin":735,"sentenceEnd":864},{"word":"tobacco","begin":1410,"end":1416,"sentenceIndex":8,"sentenceBegin":1331,"sentenceEnd":1652},{"word":"smoke","begin":1418,"end":1422,"sentenceIndex":8,"sentenceBegin":1331,"sentenceEnd":1652},{"word":"smoking","begin":7695,"end":7701,"sentenceIndex":48,"sentenceBegin":7525,"sentenceEnd":7840},{"word":"tobacco","begin":10658,"end":10664,"sentenceIndex":66,"sentenceBegin":10611,"sentenceEnd":10872},{"word":"smoke","begin":10666,"end":10670,"sentenceIndex":66,"sentenceBegin":10611,"sentenceEnd":10872}]}
{"paperId":"a26cba1141058e2fb0eb6353210ef80d2713a093","indicators":[{"word":"tobacco","begin":176,"end":182,"sentenceIndex":1,"sentenceBegin":163,"sentenceEnd":360},{"word":"smoking","begin":184,"end":190,"sentenceIndex":1,"sentenceBegin":163,"sentenceEnd":360}]}
