{"paperId":"c3596a08c0af71b030890cfb40b770143ef0064a","indicators":[{"word":"tobacco","begin":301,"end":307,"sentenceIndex":1,"sentenceBegin":172,"sentenceEnd":378},{"word":"smoking","begin":309,"end":315,"sentenceIndex":1,"sentenceBegin":172,"sentenceEnd":378}]}
{"paperId":"c3596a08c0af71b030890cfb40b770143ef0064a","indicators":[{"word":"tobacco","begin":952,"end":958,"sentenceIndex":5,"sentenceBegin":921,"sentenceEnd":998}]}
{"paperId":"c3596a08c0af71b030890cfb40b770143ef0064a","indicators":[{"word":"tobacco","begin":574,"end":580,"sentenceIndex":3,"sentenceBegin":541,"sentenceEnd":620}]}
{"paperId":"abb9ffe0f460d3bc5c6954c71bb78446aa3990c7","indicators":[{"word":"tobacco","begin":301,"end":307,"sentenceIndex":1,"sentenceBegin":172,"sentenceEnd":378},{"word":"smoking","begin":309,"end":315,"sentenceIndex":1,"sentenceBegin":172,"sentenceEnd":378}]}
{"paperId":"abb9ffe0f460d3bc5c6954c71bb78446aa3990c7","indicators":[{"word":"tobacco","begin":952,"end":958,"sentenceIndex":5,"sentenceBegin":921,"sentenceEnd":998}]}
{"paperId":"abb9ffe0f460d3bc5c6954c71bb78446aa3990c7","indicators":[{"word":"tobacco","begin":574,"end":580,"sentenceIndex":3,"sentenceBegin":541,"sentenceEnd":620}]}
{"paperId":"e3b748c735f2ba33e17ce4d92cfac9293b1c4866","indicators":[{"word":"smoking","begin":214,"end":220,"sentenceIndex":1,"sentenceBegin":26,"sentenceEnd":329}]}
