{"paperId":"bcb0855b58b356b4e47c8349b5c0047d76a61bc0","indicators":[{"word":"vapor","begin":345,"end":349,"sentenceIndex":2,"sentenceBegin":321,"sentenceEnd":451}]}
{"paperId":"bcb0855b58b356b4e47c8349b5c0047d76a61bc0","indicators":[{"word":"fumes","begin":289,"end":293,"sentenceIndex":1,"sentenceBegin":157,"sentenceEnd":294}]}
{"paperId":"e6f34a87a901f0cf2ea7f3931829ad9f1cf4fa15","indicators":[{"word":"smog","begin":154,"end":157,"sentenceIndex":0,"sentenceBegin":0,"sentenceEnd":269}]}
{"paperId":"e6f34a87a901f0cf2ea7f3931829ad9f1cf4fa15","indicators":[{"word":"smoking","begin":979,"end":985,"sentenceIndex":5,"sentenceBegin":886,"sentenceEnd":1076}]}
{"paperId":"e6f34a87a901f0cf2ea7f3931829ad9f1cf4fa15","indicators":[{"word":"smoking","begin":418,"end":424,"sentenceIndex":1,"sentenceBegin":135,"sentenceEnd":841}]}
{"paperId":"e6f34a87a901f0cf2ea7f3931829ad9f1cf4fa15","indicators":[{"word":"smoking","begin":795,"end":801,"sentenceIndex":5,"sentenceBegin":720,"sentenceEnd":920}]}
{"paperId":"c1358cb7e6147e80e39aa8737c9741b574d8ba48","indicators":[{"word":"smog","begin":154,"end":157,"sentenceIndex":0,"sentenceBegin":0,"sentenceEnd":269}]}
{"paperId":"c1358cb7e6147e80e39aa8737c9741b574d8ba48","indicators":[{"word":"smoking","begin":979,"end":985,"sentenceIndex":5,"sentenceBegin":886,"sentenceEnd":1076}]}
{"paperId":"c1358cb7e6147e80e39aa8737c9741b574d8ba48","indicators":[{"word":"smoking","begin":418,"end":424,"sentenceIndex":1,"sentenceBegin":135,"sentenceEnd":841}]}
{"paperId":"c1358cb7e6147e80e39aa8737c9741b574d8ba48","indicators":[{"word":"smoking","begin":795,"end":801,"sentenceIndex":5,"sentenceBegin":720,"sentenceEnd":920}]}
{"paperId":"83a6a45a591e9222cf68f14d60dce7d3c810c1f0","indicators":[{"word":"vapor","begin":58,"end":62,"sentenceIndex":0,"sentenceBegin":0,"sentenceEnd":179}]}
{"paperId":"eb3de066dc4351376aba246cb82ba8f74cd2b9de","indicators":[{"word":"fires","begin":313,"end":317,"sentenceIndex":1,"sentenceBegin":122,"sentenceEnd":360}]}
{"paperId":"551a6a898e18ff65bf9eb1c99fe593fea22545b9","indicators":[{"word":"smoking","begin":263,"end":269,"sentenceIndex":2,"sentenceBegin":204,"sentenceEnd":284}]}
