{"paperId":"340d711afbe87007f8e40a08544ff207769f33df","indicators":[{"word":"smoked","begin":200,"end":205,"sentenceIndex":2,"sentenceBegin":187,"sentenceEnd":274}]}
{"paperId":"ccba352e63a8fa0318dfe475a23669833ca09806","indicators":[{"word":"tobacco","begin":211,"end":217,"sentenceIndex":0,"sentenceBegin":0,"sentenceEnd":356},{"word":"smoke","begin":219,"end":223,"sentenceIndex":0,"sentenceBegin":0,"sentenceEnd":356},{"word":"smoking","begin":767,"end":773,"sentenceIndex":1,"sentenceBegin":358,"sentenceEnd":799}]}
{"paperId":"ccba352e63a8fa0318dfe475a23669833ca09806","indicators":[{"word":"smoking","begin":248,"end":254,"sentenceIndex":2,"sentenceBegin":75,"sentenceEnd":295},{"word":"tobacco","begin":382,"end":388,"sentenceIndex":3,"sentenceBegin":297,"sentenceEnd":491},{"word":"smoking","begin":390,"end":396,"sentenceIndex":3,"sentenceBegin":297,"sentenceEnd":491}]}
{"paperId":"ccba352e63a8fa0318dfe475a23669833ca09806","indicators":[{"word":"tobacco","begin":598,"end":604,"sentenceIndex":3,"sentenceBegin":428,"sentenceEnd":733},{"word":"smoking","begin":606,"end":612,"sentenceIndex":3,"sentenceBegin":428,"sentenceEnd":733},{"word":"tobacco","begin":676,"end":682,"sentenceIndex":3,"sentenceBegin":428,"sentenceEnd":733},{"word":"smoking","begin":684,"end":690,"sentenceIndex":3,"sentenceBegin":428,"sentenceEnd":733}]}
{"paperId":"ccba352e63a8fa0318dfe475a23669833ca09806","indicators":[{"word":"tobacco","begin":355,"end":361,"sentenceIndex":6,"sentenceBegin":273,"sentenceEnd":415},{"word":"smoking","begin":363,"end":369,"sentenceIndex":6,"sentenceBegin":273,"sentenceEnd":415}]}
{"paperId":"ccba352e63a8fa0318dfe475a23669833ca09806","indicators":[{"word":"tobacco","begin":136,"end":142,"sentenceIndex":0,"sentenceBegin":0,"sentenceEnd":357},{"word":"smoking","begin":144,"end":150,"sentenceIndex":0,"sentenceBegin":0,"sentenceEnd":357},{"word":"tobacco","begin":292,"end":298,"sentenceIndex":0,"sentenceBegin":0,"sentenceEnd":357},{"word":"smoking","begin":300,"end":306,"sentenceIndex":0,"sentenceBegin":0,"sentenceEnd":357}]}
{"paperId":"ccba352e63a8fa0318dfe475a23669833ca09806","indicators":[{"word":"tobacco","begin":26,"end":32,"sentenceIndex":0,"sentenceBegin":0,"sentenceEnd":335},{"word":"smoke","begin":34,"end":38,"sentenceIndex":0,"sentenceBegin":0,"sentenceEnd":335}]}
{"paperId":"ccba352e63a8fa0318dfe475a23669833ca09806","indicators":[{"word":"tobacco","begin":297,"end":303,"sentenceIndex":3,"sentenceBegin":172,"sentenceEnd":381},{"word":"smoking","begin":305,"end":311,"sentenceIndex":3,"sentenceBegin":172,"sentenceEnd":381}]}
{"paperId":"ccba352e63a8fa0318dfe475a23669833ca09806","indicators":[{"word":"smoking","begin":140,"end":146,"sentenceIndex":0,"sentenceBegin":0,"sentenceEnd":191}]}
{"paperId":"ccba352e63a8fa0318dfe475a23669833ca09806","indicators":[{"word":"tobacco","begin":82,"end":88,"sentenceIndex":0,"sentenceBegin":0,"sentenceEnd":98},{"word":"smoking","begin":90,"end":96,"sentenceIndex":0,"sentenceBegin":0,"sentenceEnd":98}]}
{"paperId":"15c6a84316fd29d739bd12b4851d6a5a11153088","indicators":[{"word":"tobacco","begin":9,"end":15,"sentenceIndex":0,"sentenceBegin":0,"sentenceEnd":124},{"word":"smoked","begin":94,"end":99,"sentenceIndex":0,"sentenceBegin":0,"sentenceEnd":124},{"word":"cigarettes","begin":101,"end":110,"sentenceIndex":0,"sentenceBegin":0,"sentenceEnd":124},{"word":"cannabis","begin":207,"end":214,"sentenceIndex":1,"sentenceBegin":126,"sentenceEnd":377},{"word":"smoking","begin":409,"end":415,"sentenceIndex":2,"sentenceBegin":379,"sentenceEnd":486},{"word":"tobacco","begin":417,"end":423,"sentenceIndex":2,"sentenceBegin":379,"sentenceEnd":486},{"word":"tobacco","begin":688,"end":694,"sentenceIndex":4,"sentenceBegin":625,"sentenceEnd":847}]}
{"paperId":"15c6a84316fd29d739bd12b4851d6a5a11153088","indicators":[{"word":"smoked","begin":82,"end":87,"sentenceIndex":0,"sentenceBegin":0,"sentenceEnd":235},{"word":"tobacco","begin":89,"end":95,"sentenceIndex":0,"sentenceBegin":0,"sentenceEnd":235},{"word":"smoking","begin":257,"end":263,"sentenceIndex":1,"sentenceBegin":237,"sentenceEnd":371},{"word":"cannabis","begin":390,"end":397,"sentenceIndex":2,"sentenceBegin":373,"sentenceEnd":457},{"word":"cannabis","begin":416,"end":423,"sentenceIndex":2,"sentenceBegin":373,"sentenceEnd":457},{"word":"smoking","begin":440,"end":446,"sentenceIndex":2,"sentenceBegin":373,"sentenceEnd":457}]}
{"paperId":"15c6a84316fd29d739bd12b4851d6a5a11153088","indicators":[{"word":"cannabis","begin":61,"end":68,"sentenceIndex":0,"sentenceBegin":0,"sentenceEnd":125}]}
{"paperId":"719edc0fefc60bfe93510d2a165d1bbcc7e02c04","indicators":[{"word":"fires","begin":611,"end":615,"sentenceIndex":8,"sentenceBegin":577,"sentenceEnd":668}]}
