{"paperId":"9173f0c5493346bc9215241e4f14557544878d42","indicators":[{"word":"smoking","begin":386,"end":392,"sentenceIndex":2,"sentenceBegin":276,"sentenceEnd":408},{"word":"cigarettes","begin":398,"end":407,"sentenceIndex":2,"sentenceBegin":276,"sentenceEnd":408}]}
{"paperId":"9173f0c5493346bc9215241e4f14557544878d42","indicators":[{"word":"fires","begin":378,"end":382,"sentenceIndex":2,"sentenceBegin":280,"sentenceEnd":409}]}
{"paperId":"a6f36e3233319626ec737895c1d52dedd7aac0bf","indicators":[{"word":"pot","begin":573,"end":575,"sentenceIndex":3,"sentenceBegin":518,"sentenceEnd":780}]}
{"paperId":"8b2a3c0ea6527c10c6a317f874f947e0f2ad0b92","indicators":[{"word":"fires","begin":887,"end":891,"sentenceIndex":4,"sentenceBegin":760,"sentenceEnd":943}]}
{"paperId":"8b2a3c0ea6527c10c6a317f874f947e0f2ad0b92","indicators":[{"word":"smoke","begin":111,"end":115,"sentenceIndex":0,"sentenceBegin":0,"sentenceEnd":280}]}
{"paperId":"8b2a3c0ea6527c10c6a317f874f947e0f2ad0b92","indicators":[{"word":"cigarette","begin":151,"end":159,"sentenceIndex":1,"sentenceBegin":71,"sentenceEnd":242}]}
{"paperId":"8b2a3c0ea6527c10c6a317f874f947e0f2ad0b92","indicators":[{"word":"vapor","begin":1611,"end":1615,"sentenceIndex":9,"sentenceBegin":1563,"sentenceEnd":1653},{"word":"vapor","begin":1670,"end":1674,"sentenceIndex":10,"sentenceBegin":1655,"sentenceEnd":1729}]}
{"paperId":"8b2a3c0ea6527c10c6a317f874f947e0f2ad0b92","indicators":[{"word":"weeds","begin":668,"end":672,"sentenceIndex":5,"sentenceBegin":645,"sentenceEnd":805}]}
{"paperId":"8b2a3c0ea6527c10c6a317f874f947e0f2ad0b92","indicators":[{"word":"weeds","begin":409,"end":413,"sentenceIndex":3,"sentenceBegin":293,"sentenceEnd":447}]}
{"paperId":"8b2a3c0ea6527c10c6a317f874f947e0f2ad0b92","indicators":[{"word":"weeds","begin":1025,"end":1029,"sentenceIndex":5,"sentenceBegin":988,"sentenceEnd":1156}]}
{"paperId":"8b2a3c0ea6527c10c6a317f874f947e0f2ad0b92","indicators":[{"word":"smoking","begin":315,"end":321,"sentenceIndex":2,"sentenceBegin":301,"sentenceEnd":508}]}
{"paperId":"7929f212fd84de96269ef7692663aee95b2d7956","indicators":[{"word":"pots","begin":625,"end":628,"sentenceIndex":3,"sentenceBegin":559,"sentenceEnd":767},{"word":"potted","begin":2797,"end":2802,"sentenceIndex":17,"sentenceBegin":2658,"sentenceEnd":2839}]}
