{"paperId":"88097c1e961f5a0154fd54b2d56c0112e30712d3","indicators":[{"word":"smoking","begin":340,"end":346,"sentenceIndex":2,"sentenceBegin":158,"sentenceEnd":625}]}
{"paperId":"07935c9132abb30bb01e2bee018f4f6aca25fa14","indicators":[{"word":"firing","begin":273,"end":278,"sentenceIndex":4,"sentenceBegin":218,"sentenceEnd":319},{"word":"firing","begin":325,"end":330,"sentenceIndex":5,"sentenceBegin":321,"sentenceEnd":373},{"word":"firing","begin":557,"end":562,"sentenceIndex":7,"sentenceBegin":492,"sentenceEnd":642}]}
{"paperId":"07935c9132abb30bb01e2bee018f4f6aca25fa14","indicators":[{"word":"firing","begin":11,"end":16,"sentenceIndex":0,"sentenceBegin":0,"sentenceEnd":109}]}
{"paperId":"07935c9132abb30bb01e2bee018f4f6aca25fa14","indicators":[{"word":"firing","begin":188,"end":193,"sentenceIndex":3,"sentenceBegin":178,"sentenceEnd":446}]}
{"paperId":"07935c9132abb30bb01e2bee018f4f6aca25fa14","indicators":[{"word":"firing","begin":46,"end":51,"sentenceIndex":0,"sentenceBegin":0,"sentenceEnd":106},{"word":"fired","begin":69,"end":73,"sentenceIndex":0,"sentenceBegin":0,"sentenceEnd":106}]}
{"paperId":"07935c9132abb30bb01e2bee018f4f6aca25fa14","indicators":[{"word":"fired","begin":137,"end":141,"sentenceIndex":0,"sentenceBegin":0,"sentenceEnd":245}]}
{"paperId":"07935c9132abb30bb01e2bee018f4f6aca25fa14","indicators":[{"word":"fired","begin":769,"end":773,"sentenceIndex":5,"sentenceBegin":614,"sentenceEnd":803}]}
{"paperId":"4413b2b39dac3c02a0b6b8f0d6b862fa7cf20fb2","indicators":[{"word":"tobacco","begin":489,"end":495,"sentenceIndex":7,"sentenceBegin":375,"sentenceEnd":507}]}
{"paperId":"4413b2b39dac3c02a0b6b8f0d6b862fa7cf20fb2","indicators":[{"word":"tobacco","begin":1200,"end":1206,"sentenceIndex":9,"sentenceBegin":975,"sentenceEnd":1301}]}
{"paperId":"4413b2b39dac3c02a0b6b8f0d6b862fa7cf20fb2","indicators":[{"word":"tobacco","begin":944,"end":950,"sentenceIndex":6,"sentenceBegin":834,"sentenceEnd":964},{"word":"tobacco","begin":996,"end":1002,"sentenceIndex":7,"sentenceBegin":966,"sentenceEnd":1085},{"word":"tobacco","begin":1195,"end":1201,"sentenceIndex":8,"sentenceBegin":1087,"sentenceEnd":1225},{"word":"tobacco","begin":1281,"end":1287,"sentenceIndex":9,"sentenceBegin":1227,"sentenceEnd":1344}]}
{"paperId":"4413b2b39dac3c02a0b6b8f0d6b862fa7cf20fb2","indicators":[{"word":"tobacco","begin":113,"end":119,"sentenceIndex":0,"sentenceBegin":0,"sentenceEnd":129},{"word":"tobacco","begin":368,"end":374,"sentenceIndex":2,"sentenceBegin":277,"sentenceEnd":415}]}
{"paperId":"4413b2b39dac3c02a0b6b8f0d6b862fa7cf20fb2","indicators":[{"word":"tobacco","begin":86,"end":92,"sentenceIndex":0,"sentenceBegin":0,"sentenceEnd":162},{"word":"tobacco","begin":643,"end":649,"sentenceIndex":3,"sentenceBegin":490,"sentenceEnd":659}]}
{"paperId":"4413b2b39dac3c02a0b6b8f0d6b862fa7cf20fb2","indicators":[{"word":"tobacco","begin":471,"end":477,"sentenceIndex":5,"sentenceBegin":408,"sentenceEnd":497},{"word":"tobacco","begin":853,"end":859,"sentenceIndex":11,"sentenceBegin":787,"sentenceEnd":957},{"word":"tobacco","begin":945,"end":951,"sentenceIndex":11,"sentenceBegin":787,"sentenceEnd":957}]}
{"paperId":"4413b2b39dac3c02a0b6b8f0d6b862fa7cf20fb2","indicators":[{"word":"tobacco","begin":71,"end":77,"sentenceIndex":0,"sentenceBegin":0,"sentenceEnd":216}]}
{"paperId":"4413b2b39dac3c02a0b6b8f0d6b862fa7cf20fb2","indicators":[{"word":"tobacco","begin":293,"end":299,"sentenceIndex":0,"sentenceBegin":0,"sentenceEnd":306}]}
{"paperId":"4413b2b39dac3c02a0b6b8f0d6b862fa7cf20fb2","indicators":[{"word":"tobacco","begin":30,"end":36,"sentenceIndex":0,"sentenceBegin":0,"sentenceEnd":199}]}
{"paperId":"4413b2b39dac3c02a0b6b8f0d6b862fa7cf20fb2","indicators":[{"word":"tobacco","begin":43,"end":49,"sentenceIndex":0,"sentenceBegin":0,"sentenceEnd":167}]}
{"paperId":"4413b2b39dac3c02a0b6b8f0d6b862fa7cf20fb2","indicators":[{"word":"tobacco","begin":254,"end":260,"sentenceIndex":1,"sentenceBegin":140,"sentenceEnd":279},{"word":"pots","begin":321,"end":324,"sentenceIndex":2,"sentenceBegin":281,"sentenceEnd":400}]}
{"paperId":"4413b2b39dac3c02a0b6b8f0d6b862fa7cf20fb2","indicators":[{"word":"tobacco","begin":295,"end":301,"sentenceIndex":2,"sentenceBegin":245,"sentenceEnd":360},{"word":"tobacco","begin":337,"end":343,"sentenceIndex":2,"sentenceBegin":245,"sentenceEnd":360}]}
{"paperId":"4413b2b39dac3c02a0b6b8f0d6b862fa7cf20fb2","indicators":[{"word":"tobacco","begin":116,"end":122,"sentenceIndex":0,"sentenceBegin":0,"sentenceEnd":130},{"word":"tobacco","begin":285,"end":291,"sentenceIndex":2,"sentenceBegin":261,"sentenceEnd":474},{"word":"tobacco","begin":502,"end":508,"sentenceIndex":3,"sentenceBegin":476,"sentenceEnd":565},{"word":"tobacco","begin":805,"end":811,"sentenceIndex":5,"sentenceBegin":721,"sentenceEnd":819}]}
{"paperId":"4413b2b39dac3c02a0b6b8f0d6b862fa7cf20fb2","indicators":[{"word":"tobacco","begin":86,"end":92,"sentenceIndex":0,"sentenceBegin":0,"sentenceEnd":127},{"word":"tobacco","begin":231,"end":237,"sentenceIndex":1,"sentenceBegin":129,"sentenceEnd":251}]}
{"paperId":"4413b2b39dac3c02a0b6b8f0d6b862fa7cf20fb2","indicators":[{"word":"tobacco","begin":522,"end":528,"sentenceIndex":4,"sentenceBegin":464,"sentenceEnd":589},{"word":"tobacco","begin":1083,"end":1089,"sentenceIndex":8,"sentenceBegin":961,"sentenceEnd":1099},{"word":"tobacco","begin":1561,"end":1567,"sentenceIndex":14,"sentenceBegin":1506,"sentenceEnd":1617}]}
{"paperId":"4413b2b39dac3c02a0b6b8f0d6b862fa7cf20fb2","indicators":[{"word":"tobacco","begin":98,"end":104,"sentenceIndex":0,"sentenceBegin":0,"sentenceEnd":177}]}
