{"paperId":"4805cf18a23d41241f7103f5425a56f53366d72c","indicators":[{"word":"weeds","begin":291,"end":295,"sentenceIndex":0,"sentenceBegin":0,"sentenceEnd":355}]}
{"paperId":"42b852fec5e54b38097b41a4135a39602df90afe","indicators":[{"word":"smoking","begin":738,"end":744,"sentenceIndex":5,"sentenceBegin":616,"sentenceEnd":784}]}
{"paperId":"a652d618a8a622b7b2fa20d6e0eb2ffe7a3657d1","indicators":[{"word":"smoking","begin":114,"end":120,"sentenceIndex":0,"sentenceBegin":0,"sentenceEnd":450}]}
{"paperId":"3ccbd07ee1865e4f2afffdb6cc8b6039ab605ee7","indicators":[{"word":"smoke","begin":1228,"end":1232,"sentenceIndex":4,"sentenceBegin":1071,"sentenceEnd":1292}]}
