{"paperId":"31401bddf57db3194d7593e2879734b4e137400a","indicators":[{"word":"vapor","begin":46,"end":50,"sentenceIndex":0,"sentenceBegin":0,"sentenceEnd":113},{"word":"vapor","begin":85,"end":89,"sentenceIndex":0,"sentenceBegin":0,"sentenceEnd":113},{"word":"vapor","begin":134,"end":138,"sentenceIndex":1,"sentenceBegin":115,"sentenceEnd":265},{"word":"vapor","begin":245,"end":249,"sentenceIndex":1,"sentenceBegin":115,"sentenceEnd":265},{"word":"vapor","begin":337,"end":341,"sentenceIndex":2,"sentenceBegin":267,"sentenceEnd":389},{"word":"vapor","begin":444,"end":448,"sentenceIndex":3,"sentenceBegin":391,"sentenceEnd":491},{"word":"vapor","begin":736,"end":740,"sentenceIndex":5,"sentenceBegin":534,"sentenceEnd":772}]}
{"paperId":"94bfa6d1715b34ce3f50681c551083e8d9ca762e","indicators":[{"word":"tobacco","begin":373,"end":379,"sentenceIndex":1,"sentenceBegin":242,"sentenceEnd":460}]}
{"paperId":"94bfa6d1715b34ce3f50681c551083e8d9ca762e","indicators":[{"word":"smoke","begin":445,"end":449,"sentenceIndex":3,"sentenceBegin":259,"sentenceEnd":484}]}
{"paperId":"7efe3f925876eb0518ed29586e7b03fed45fc08f","indicators":[{"word":"smoking","begin":156,"end":162,"sentenceIndex":3,"sentenceBegin":108,"sentenceEnd":191}]}
{"paperId":"d377f33b063b05d9ccac80895475df06e66de8c8","indicators":[{"word":"smoking","begin":188,"end":194,"sentenceIndex":2,"sentenceBegin":152,"sentenceEnd":203}]}
