{"paperId":"090a67641b3f6a9170a75d00795a0ac9d83b8945","indicators":[{"word":"smoking","begin":776,"end":782,"sentenceIndex":5,"sentenceBegin":739,"sentenceEnd":979}]}
{"paperId":"090a67641b3f6a9170a75d00795a0ac9d83b8945","indicators":[{"word":"smoking","begin":133,"end":139,"sentenceIndex":0,"sentenceBegin":0,"sentenceEnd":226}]}
{"paperId":"7836c4175c66262f9ecf21ebdd32fe983552d83a","indicators":[{"word":"smoking","begin":758,"end":764,"sentenceIndex":4,"sentenceBegin":591,"sentenceEnd":947},{"word":"smoking","begin":2623,"end":2629,"sentenceIndex":13,"sentenceBegin":2536,"sentenceEnd":2681}]}
{"paperId":"947fa4851b5ee530763ea60bd09e4a5b0dd39b32","indicators":[{"word":"tobacco","begin":244,"end":250,"sentenceIndex":3,"sentenceBegin":183,"sentenceEnd":314},{"word":"tobacco","begin":376,"end":382,"sentenceIndex":4,"sentenceBegin":316,"sentenceEnd":580},{"word":"tobacco","begin":432,"end":438,"sentenceIndex":4,"sentenceBegin":316,"sentenceEnd":580},{"word":"tobacco","begin":458,"end":464,"sentenceIndex":4,"sentenceBegin":316,"sentenceEnd":580},{"word":"tobacco","begin":544,"end":550,"sentenceIndex":4,"sentenceBegin":316,"sentenceEnd":580},{"word":"tobacco","begin":643,"end":649,"sentenceIndex":5,"sentenceBegin":582,"sentenceEnd":716},{"word":"tobacco","begin":700,"end":706,"sentenceIndex":5,"sentenceBegin":582,"sentenceEnd":716},{"word":"tobacco","begin":795,"end":801,"sentenceIndex":6,"sentenceBegin":718,"sentenceEnd":810}]}
{"paperId":"947fa4851b5ee530763ea60bd09e4a5b0dd39b32","indicators":[{"word":"tobacco","begin":115,"end":121,"sentenceIndex":0,"sentenceBegin":0,"sentenceEnd":122}]}
{"paperId":"947fa4851b5ee530763ea60bd09e4a5b0dd39b32","indicators":[{"word":"tobacco","begin":150,"end":156,"sentenceIndex":0,"sentenceBegin":0,"sentenceEnd":198},{"word":"tobacco","begin":349,"end":355,"sentenceIndex":2,"sentenceBegin":285,"sentenceEnd":489},{"word":"tobacco","begin":401,"end":407,"sentenceIndex":2,"sentenceBegin":285,"sentenceEnd":489},{"word":"tobacco","begin":449,"end":455,"sentenceIndex":2,"sentenceBegin":285,"sentenceEnd":489},{"word":"tobacco","begin":644,"end":650,"sentenceIndex":3,"sentenceBegin":491,"sentenceEnd":783},{"word":"tobacco","begin":693,"end":699,"sentenceIndex":3,"sentenceBegin":491,"sentenceEnd":783},{"word":"tobacco","begin":1173,"end":1179,"sentenceIndex":6,"sentenceBegin":1156,"sentenceEnd":1298},{"word":"tobacco","begin":1415,"end":1421,"sentenceIndex":7,"sentenceBegin":1300,"sentenceEnd":1471}]}
{"paperId":"947fa4851b5ee530763ea60bd09e4a5b0dd39b32","indicators":[{"word":"tobacco","begin":50,"end":56,"sentenceIndex":0,"sentenceBegin":0,"sentenceEnd":189},{"word":"tobacco","begin":553,"end":559,"sentenceIndex":3,"sentenceBegin":498,"sentenceEnd":776}]}
{"paperId":"947fa4851b5ee530763ea60bd09e4a5b0dd39b32","indicators":[{"word":"tobacco","begin":30,"end":36,"sentenceIndex":0,"sentenceBegin":0,"sentenceEnd":78}]}
{"paperId":"947fa4851b5ee530763ea60bd09e4a5b0dd39b32","indicators":[{"word":"tobacco","begin":60,"end":66,"sentenceIndex":0,"sentenceBegin":0,"sentenceEnd":144}]}
{"paperId":"947fa4851b5ee530763ea60bd09e4a5b0dd39b32","indicators":[{"word":"tobacco","begin":336,"end":342,"sentenceIndex":2,"sentenceBegin":164,"sentenceEnd":362},{"word":"tobacco","begin":696,"end":702,"sentenceIndex":4,"sentenceBegin":569,"sentenceEnd":780}]}
{"paperId":"947fa4851b5ee530763ea60bd09e4a5b0dd39b32","indicators":[{"word":"tobacco","begin":59,"end":65,"sentenceIndex":0,"sentenceBegin":0,"sentenceEnd":177},{"word":"tobacco","begin":130,"end":136,"sentenceIndex":0,"sentenceBegin":0,"sentenceEnd":177},{"word":"tobacco","begin":273,"end":279,"sentenceIndex":1,"sentenceBegin":179,"sentenceEnd":411},{"word":"tobacco","begin":351,"end":357,"sentenceIndex":1,"sentenceBegin":179,"sentenceEnd":411}]}
{"paperId":"947fa4851b5ee530763ea60bd09e4a5b0dd39b32","indicators":[{"word":"tobacco","begin":215,"end":221,"sentenceIndex":1,"sentenceBegin":151,"sentenceEnd":275},{"word":"tobacco","begin":768,"end":774,"sentenceIndex":4,"sentenceBegin":768,"sentenceEnd":878}]}
{"paperId":"947fa4851b5ee530763ea60bd09e4a5b0dd39b32","indicators":[{"word":"tobacco","begin":627,"end":633,"sentenceIndex":3,"sentenceBegin":593,"sentenceEnd":764}]}
{"paperId":"947fa4851b5ee530763ea60bd09e4a5b0dd39b32","indicators":[{"word":"tobacco","begin":71,"end":77,"sentenceIndex":0,"sentenceBegin":0,"sentenceEnd":312},{"word":"tobacco","begin":337,"end":343,"sentenceIndex":1,"sentenceBegin":314,"sentenceEnd":673},{"word":"tobacco","begin":408,"end":414,"sentenceIndex":1,"sentenceBegin":314,"sentenceEnd":673},{"word":"smoke","begin":416,"end":420,"sentenceIndex":1,"sentenceBegin":314,"sentenceEnd":673},{"word":"tobacco","begin":652,"end":658,"sentenceIndex":1,"sentenceBegin":314,"sentenceEnd":673},{"word":"tobacco","begin":929,"end":935,"sentenceIndex":5,"sentenceBegin":894,"sentenceEnd":1064},{"word":"tobacco","begin":1047,"end":1053,"sentenceIndex":5,"sentenceBegin":894,"sentenceEnd":1064}]}
{"paperId":"947fa4851b5ee530763ea60bd09e4a5b0dd39b32","indicators":[{"word":"tobacco","begin":91,"end":97,"sentenceIndex":0,"sentenceBegin":0,"sentenceEnd":98},{"word":"tobacco","begin":179,"end":185,"sentenceIndex":1,"sentenceBegin":100,"sentenceEnd":273}]}
{"paperId":"947fa4851b5ee530763ea60bd09e4a5b0dd39b32","indicators":[{"word":"tobacco","begin":293,"end":299,"sentenceIndex":2,"sentenceBegin":148,"sentenceEnd":308},{"word":"tobacco","begin":746,"end":752,"sentenceIndex":6,"sentenceBegin":726,"sentenceEnd":863},{"word":"tobacco","begin":833,"end":839,"sentenceIndex":6,"sentenceBegin":726,"sentenceEnd":863},{"word":"tobacco","begin":966,"end":972,"sentenceIndex":7,"sentenceBegin":865,"sentenceEnd":1061},{"word":"tobacco","begin":1160,"end":1166,"sentenceIndex":9,"sentenceBegin":1110,"sentenceEnd":1284},{"word":"tobacco","begin":1817,"end":1823,"sentenceIndex":13,"sentenceBegin":1752,"sentenceEnd":1893},{"word":"tobacco","begin":2162,"end":2168,"sentenceIndex":16,"sentenceBegin":2100,"sentenceEnd":2314}]}
{"paperId":"947fa4851b5ee530763ea60bd09e4a5b0dd39b32","indicators":[{"word":"tobacco","begin":76,"end":82,"sentenceIndex":0,"sentenceBegin":0,"sentenceEnd":147}]}
{"paperId":"947fa4851b5ee530763ea60bd09e4a5b0dd39b32","indicators":[{"word":"tobacco","begin":112,"end":118,"sentenceIndex":0,"sentenceBegin":0,"sentenceEnd":130}]}
{"paperId":"947fa4851b5ee530763ea60bd09e4a5b0dd39b32","indicators":[{"word":"tobacco","begin":277,"end":283,"sentenceIndex":3,"sentenceBegin":273,"sentenceEnd":356}]}
{"paperId":"947fa4851b5ee530763ea60bd09e4a5b0dd39b32","indicators":[{"word":"tobacco","begin":31,"end":37,"sentenceIndex":0,"sentenceBegin":0,"sentenceEnd":138},{"word":"tobacco","begin":1028,"end":1034,"sentenceIndex":6,"sentenceBegin":852,"sentenceEnd":1117},{"word":"tobacco","begin":1101,"end":1107,"sentenceIndex":6,"sentenceBegin":852,"sentenceEnd":1117}]}
{"paperId":"8677876337f082d6d322652ab647d5fbd6cd0739","indicators":[{"word":"tobacco","begin":652,"end":658,"sentenceIndex":4,"sentenceBegin":627,"sentenceEnd":800},{"word":"smoking","begin":660,"end":666,"sentenceIndex":4,"sentenceBegin":627,"sentenceEnd":800}]}
{"paperId":"875b7c463f00772fa0dc18ada678bc1ff16a4274","indicators":[{"word":"smoking","begin":41,"end":47,"sentenceIndex":0,"sentenceBegin":0,"sentenceEnd":56}]}
