{"paperId":"738feab98eb5db51d4c7a6c8242cebdaae8a5696","indicators":[{"word":"smoking","begin":273,"end":279,"sentenceIndex":1,"sentenceBegin":243,"sentenceEnd":407}]}
{"paperId":"15a26728d56b04876bb2843cbbec9132e134605e","indicators":[{"word":"tobacco","begin":668,"end":674,"sentenceIndex":4,"sentenceBegin":502,"sentenceEnd":698}]}
{"paperId":"1f3b83accf5603ba19f99d05039d1a1d03dcfa98","indicators":[{"word":"smoking","begin":624,"end":630,"sentenceIndex":2,"sentenceBegin":540,"sentenceEnd":800},{"word":"cigarette","begin":673,"end":681,"sentenceIndex":2,"sentenceBegin":540,"sentenceEnd":800},{"word":"smoking","begin":715,"end":721,"sentenceIndex":2,"sentenceBegin":540,"sentenceEnd":800},{"word":"tobacco","begin":755,"end":761,"sentenceIndex":2,"sentenceBegin":540,"sentenceEnd":800},{"word":"smoking","begin":895,"end":901,"sentenceIndex":3,"sentenceBegin":802,"sentenceEnd":913},{"word":"cigarette","begin":932,"end":940,"sentenceIndex":4,"sentenceBegin":915,"sentenceEnd":1088},{"word":"cigarettes","begin":1016,"end":1025,"sentenceIndex":4,"sentenceBegin":915,"sentenceEnd":1088},{"word":"smoking","begin":1032,"end":1038,"sentenceIndex":4,"sentenceBegin":915,"sentenceEnd":1088},{"word":"tobacco","begin":1069,"end":1075,"sentenceIndex":4,"sentenceBegin":915,"sentenceEnd":1088}]}
{"paperId":"87f3424e174af548f4fcf288f59a23c41e1b910a","indicators":[{"word":"smoking","begin":1592,"end":1598,"sentenceIndex":7,"sentenceBegin":1426,"sentenceEnd":1677}]}
