{"paperId":"3bd56ae4a76caf910da9be6266e18b74308364b6","indicators":[{"word":"smoking","begin":124,"end":130,"sentenceIndex":0,"sentenceBegin":0,"sentenceEnd":480}]}
{"paperId":"e29425dbc37811e314513aed5880fbd088f52971","indicators":[{"word":"smoking","begin":292,"end":298,"sentenceIndex":2,"sentenceBegin":77,"sentenceEnd":333}]}
{"paperId":"32aa227842cc4f823282ca71554cc85fcc038d88","indicators":[{"word":"cigarette","begin":462,"end":470,"sentenceIndex":2,"sentenceBegin":366,"sentenceEnd":526},{"word":"smoking","begin":472,"end":478,"sentenceIndex":2,"sentenceBegin":366,"sentenceEnd":526}]}
