{"paperId":"eacb25fb033c494e6ec756635af02e6a7a319f2f","indicators":[{"word":"smoking","begin":275,"end":281,"sentenceIndex":1,"sentenceBegin":105,"sentenceEnd":346}]}
{"paperId":"ffc50bbba1bd8bed7df66cb54a5988a5abe6b7ad","indicators":[{"word":"smoked","begin":57,"end":62,"sentenceIndex":1,"sentenceBegin":48,"sentenceEnd":63}]}
{"paperId":"dd5d65ff615f943e64b6dbed4da6129294c734f7","indicators":[{"word":"smoking","begin":96,"end":102,"sentenceIndex":0,"sentenceBegin":0,"sentenceEnd":119},{"word":"smoking","begin":273,"end":279,"sentenceIndex":1,"sentenceBegin":121,"sentenceEnd":296}]}
