{"paperId":"8588b896b81f44dec6aa90413072aab0a4f0257a","indicators":[{"word":"smoking","begin":409,"end":415,"sentenceIndex":4,"sentenceBegin":376,"sentenceEnd":486},{"word":"cigarettes","begin":448,"end":457,"sentenceIndex":4,"sentenceBegin":376,"sentenceEnd":486}]}
{"paperId":"2ac01d66a51c9f1f38a9c384b31ecd31f95ddca6","indicators":[{"word":"smoking","begin":569,"end":575,"sentenceIndex":5,"sentenceBegin":536,"sentenceEnd":677},{"word":"cigarette","begin":717,"end":725,"sentenceIndex":6,"sentenceBegin":679,"sentenceEnd":839},{"word":"smoking","begin":926,"end":932,"sentenceIndex":7,"sentenceBegin":841,"sentenceEnd":964}]}
{"paperId":"b4e31f8443cab9925288ba43829b609ca11c3f49","indicators":[{"word":"smoke","begin":1782,"end":1786,"sentenceIndex":11,"sentenceBegin":1743,"sentenceEnd":1916},{"word":"smoke","begin":1795,"end":1799,"sentenceIndex":11,"sentenceBegin":1743,"sentenceEnd":1916}]}
