{"paperId":"420944cb316179f6529d1d7a99d92910df8e49a5","indicators":[{"word":"tobacco","begin":23,"end":29,"sentenceIndex":0,"sentenceBegin":0,"sentenceEnd":195}]}
{"paperId":"420944cb316179f6529d1d7a99d92910df8e49a5","indicators":[{"word":"tobacco","begin":1147,"end":1153,"sentenceIndex":14,"sentenceBegin":1085,"sentenceEnd":1356}]}
{"paperId":"420944cb316179f6529d1d7a99d92910df8e49a5","indicators":[{"word":"tobacco","begin":1024,"end":1030,"sentenceIndex":7,"sentenceBegin":943,"sentenceEnd":1113}]}
{"paperId":"560f3ae525853866ceac7c383a63cb69c2ea520f","indicators":[{"word":"smokes","begin":883,"end":888,"sentenceIndex":7,"sentenceBegin":739,"sentenceEnd":998},{"word":"cigarettes","begin":901,"end":910,"sentenceIndex":7,"sentenceBegin":739,"sentenceEnd":998}]}
{"paperId":"560f3ae525853866ceac7c383a63cb69c2ea520f","indicators":[{"word":"smoke","begin":529,"end":533,"sentenceIndex":3,"sentenceBegin":421,"sentenceEnd":577}]}
{"paperId":"560f3ae525853866ceac7c383a63cb69c2ea520f","indicators":[{"word":"smoking","begin":69,"end":75,"sentenceIndex":0,"sentenceBegin":0,"sentenceEnd":168},{"word":"smokes","begin":233,"end":238,"sentenceIndex":1,"sentenceBegin":170,"sentenceEnd":300},{"word":"cigarettes","begin":251,"end":260,"sentenceIndex":1,"sentenceBegin":170,"sentenceEnd":300}]}
{"paperId":"560f3ae525853866ceac7c383a63cb69c2ea520f","indicators":[{"word":"smoking","begin":489,"end":495,"sentenceIndex":4,"sentenceBegin":402,"sentenceEnd":571}]}
{"paperId":"560f3ae525853866ceac7c383a63cb69c2ea520f","indicators":[{"word":"smoke","begin":667,"end":671,"sentenceIndex":4,"sentenceBegin":615,"sentenceEnd":768}]}
{"paperId":"cd41591f91d828c8c84deceaed633d1dc6cb5a9e","indicators":[{"word":"smoking","begin":1282,"end":1288,"sentenceIndex":5,"sentenceBegin":949,"sentenceEnd":1325}]}
