{"paperId":"009e8db6e8ad5814895dfd7c3207e46d0bb5d326","indicators":[{"word":"smoke","begin":164,"end":168,"sentenceIndex":1,"sentenceBegin":86,"sentenceEnd":256}]}
{"paperId":"3bacb937f044c8efc911f7cf77b4b525e2328ffe","indicators":[{"word":"vapor","begin":385,"end":389,"sentenceIndex":2,"sentenceBegin":267,"sentenceEnd":550}]}
{"paperId":"cab83150f6a2199249918297638108ce1c45e4e4","indicators":[{"word":"tobacco","begin":904,"end":910,"sentenceIndex":5,"sentenceBegin":797,"sentenceEnd":981}]}
{"paperId":"cab83150f6a2199249918297638108ce1c45e4e4","indicators":[{"word":"tobacco","begin":1093,"end":1099,"sentenceIndex":5,"sentenceBegin":1065,"sentenceEnd":1146},{"word":"smoking","begin":1113,"end":1119,"sentenceIndex":5,"sentenceBegin":1065,"sentenceEnd":1146}]}
{"paperId":"cab83150f6a2199249918297638108ce1c45e4e4","indicators":[{"word":"tobacco","begin":68,"end":74,"sentenceIndex":0,"sentenceBegin":0,"sentenceEnd":170},{"word":"smoking","begin":107,"end":113,"sentenceIndex":0,"sentenceBegin":0,"sentenceEnd":170}]}
{"paperId":"cab83150f6a2199249918297638108ce1c45e4e4","indicators":[{"word":"smoking","begin":246,"end":252,"sentenceIndex":1,"sentenceBegin":239,"sentenceEnd":319}]}
{"paperId":"cab83150f6a2199249918297638108ce1c45e4e4","indicators":[{"word":"tobacco","begin":611,"end":617,"sentenceIndex":3,"sentenceBegin":496,"sentenceEnd":644}]}
{"paperId":"db9cea6a24f86d7bc1250050693fd459e3de6e2b","indicators":[{"word":"vapor","begin":524,"end":528,"sentenceIndex":4,"sentenceBegin":517,"sentenceEnd":568}]}
{"paperId":"db9cea6a24f86d7bc1250050693fd459e3de6e2b","indicators":[{"word":"vapor","begin":317,"end":321,"sentenceIndex":1,"sentenceBegin":144,"sentenceEnd":336}]}
{"paperId":"db9cea6a24f86d7bc1250050693fd459e3de6e2b","indicators":[{"word":"vapor","begin":924,"end":928,"sentenceIndex":9,"sentenceBegin":916,"sentenceEnd":1061}]}
{"paperId":"42ef2bf3057aeedc9a51d599553ee98527e2bfb4","indicators":[{"word":"vapor","begin":2101,"end":2105,"sentenceIndex":13,"sentenceBegin":1946,"sentenceEnd":2178}]}
{"paperId":"55e3468d270f676cab1990daa34b710b33cae6f4","indicators":[{"word":"smoke","begin":435,"end":439,"sentenceIndex":3,"sentenceBegin":345,"sentenceEnd":446}]}
{"paperId":"55e3468d270f676cab1990daa34b710b33cae6f4","indicators":[{"word":"smoke","begin":903,"end":907,"sentenceIndex":5,"sentenceBegin":829,"sentenceEnd":1034}]}
{"paperId":"4031ee5769b14b24ce93c7b6e74d2f16efa57520","indicators":[{"word":"smog","begin":818,"end":821,"sentenceIndex":5,"sentenceBegin":768,"sentenceEnd":914},{"word":"smog","begin":968,"end":971,"sentenceIndex":6,"sentenceBegin":916,"sentenceEnd":1162}]}
{"paperId":"4031ee5769b14b24ce93c7b6e74d2f16efa57520","indicators":[{"word":"vapor","begin":248,"end":252,"sentenceIndex":2,"sentenceBegin":145,"sentenceEnd":524}]}
{"paperId":"43caea63f88af0488b96da42e9b5ae8d978c1bf6","indicators":[{"word":"tobacco","begin":411,"end":417,"sentenceIndex":6,"sentenceBegin":396,"sentenceEnd":536}]}
{"paperId":"43caea63f88af0488b96da42e9b5ae8d978c1bf6","indicators":[{"word":"tobacco","begin":81,"end":87,"sentenceIndex":0,"sentenceBegin":0,"sentenceEnd":214},{"word":"tobacco","begin":335,"end":341,"sentenceIndex":2,"sentenceBegin":311,"sentenceEnd":533},{"word":"tobacco","begin":687,"end":693,"sentenceIndex":4,"sentenceBegin":621,"sentenceEnd":793}]}
{"paperId":"43caea63f88af0488b96da42e9b5ae8d978c1bf6","indicators":[{"word":"tobacco","begin":1749,"end":1755,"sentenceIndex":24,"sentenceBegin":1722,"sentenceEnd":1830},{"word":"tobacco","begin":2513,"end":2519,"sentenceIndex":46,"sentenceBegin":2438,"sentenceEnd":2533}]}
