{"paperId":"3544b3974fdeb9415092ae530cfc86f81bb30915","indicators":[{"word":"smoking","begin":178,"end":184,"sentenceIndex":0,"sentenceBegin":0,"sentenceEnd":332}]}
{"paperId":"8ec00570545815082437dfe85b943b0bed3d2375","indicators":[{"word":"smoke","begin":94,"end":98,"sentenceIndex":0,"sentenceBegin":0,"sentenceEnd":277},{"word":"smoke","begin":188,"end":192,"sentenceIndex":0,"sentenceBegin":0,"sentenceEnd":277}]}
{"paperId":"063ef853a4d797646b484d16345ed589a979fcc9","indicators":[{"word":"vapor","begin":42,"end":46,"sentenceIndex":0,"sentenceBegin":0,"sentenceEnd":117}]}
