{"paperId":"afe8566ab2726a0c5c0801739999194e90294a16","indicators":[{"word":"tobacco","begin":435,"end":441,"sentenceIndex":3,"sentenceBegin":346,"sentenceEnd":505},{"word":"smoke","begin":443,"end":447,"sentenceIndex":3,"sentenceBegin":346,"sentenceEnd":505}]}
{"paperId":"afe8566ab2726a0c5c0801739999194e90294a16","indicators":[{"word":"tobacco","begin":218,"end":224,"sentenceIndex":1,"sentenceBegin":102,"sentenceEnd":541},{"word":"smoke","begin":226,"end":230,"sentenceIndex":1,"sentenceBegin":102,"sentenceEnd":541}]}
{"paperId":"afe8566ab2726a0c5c0801739999194e90294a16","indicators":[{"word":"tobacco","begin":268,"end":274,"sentenceIndex":1,"sentenceBegin":135,"sentenceEnd":345},{"word":"smoke","begin":276,"end":280,"sentenceIndex":1,"sentenceBegin":135,"sentenceEnd":345}]}
{"paperId":"afe8566ab2726a0c5c0801739999194e90294a16","indicators":[{"word":"smoke","begin":1317,"end":1321,"sentenceIndex":21,"sentenceBegin":1189,"sentenceEnd":1355}]}
{"paperId":"c3a6451d69ba69ded9a9e9683d2668237482399f","indicators":[{"word":"cigarette","begin":168,"end":176,"sentenceIndex":0,"sentenceBegin":0,"sentenceEnd":183},{"word":"smoke","begin":178,"end":182,"sentenceIndex":0,"sentenceBegin":0,"sentenceEnd":183}]}
{"paperId":"c3a6451d69ba69ded9a9e9683d2668237482399f","indicators":[{"word":"tobacco","begin":1472,"end":1478,"sentenceIndex":6,"sentenceBegin":1138,"sentenceEnd":1627},{"word":"smoke","begin":1480,"end":1484,"sentenceIndex":6,"sentenceBegin":1138,"sentenceEnd":1627},{"word":"cigarette","begin":1709,"end":1717,"sentenceIndex":7,"sentenceBegin":1629,"sentenceEnd":1907},{"word":"smoke","begin":1719,"end":1723,"sentenceIndex":7,"sentenceBegin":1629,"sentenceEnd":1907},{"word":"tobacco","begin":1894,"end":1900,"sentenceIndex":7,"sentenceBegin":1629,"sentenceEnd":1907},{"word":"smoke","begin":1902,"end":1906,"sentenceIndex":7,"sentenceBegin":1629,"sentenceEnd":1907},{"word":"cigarette","begin":1945,"end":1953,"sentenceIndex":8,"sentenceBegin":1909,"sentenceEnd":2063},{"word":"smoke","begin":1955,"end":1959,"sentenceIndex":8,"sentenceBegin":1909,"sentenceEnd":2063},{"word":"cigarette","begin":2245,"end":2253,"sentenceIndex":9,"sentenceBegin":2065,"sentenceEnd":2286},{"word":"smoke","begin":2255,"end":2259,"sentenceIndex":9,"sentenceBegin":2065,"sentenceEnd":2286}]}
{"paperId":"c3a6451d69ba69ded9a9e9683d2668237482399f","indicators":[{"word":"cigar","begin":631,"end":635,"sentenceIndex":2,"sentenceBegin":523,"sentenceEnd":727},{"word":"smoke","begin":637,"end":641,"sentenceIndex":2,"sentenceBegin":523,"sentenceEnd":727}]}
{"paperId":"c3a6451d69ba69ded9a9e9683d2668237482399f","indicators":[{"word":"cigarette","begin":2051,"end":2059,"sentenceIndex":12,"sentenceBegin":1792,"sentenceEnd":2060}]}
{"paperId":"c3a6451d69ba69ded9a9e9683d2668237482399f","indicators":[{"word":"smoking","begin":2510,"end":2516,"sentenceIndex":13,"sentenceBegin":2363,"sentenceEnd":2547}]}
{"paperId":"c3a6451d69ba69ded9a9e9683d2668237482399f","indicators":[{"word":"cigarette","begin":967,"end":975,"sentenceIndex":4,"sentenceBegin":898,"sentenceEnd":1240},{"word":"smoke","begin":977,"end":981,"sentenceIndex":4,"sentenceBegin":898,"sentenceEnd":1240}]}
{"paperId":"c3a6451d69ba69ded9a9e9683d2668237482399f","indicators":[{"word":"cigarette","begin":239,"end":247,"sentenceIndex":2,"sentenceBegin":204,"sentenceEnd":328},{"word":"smoke","begin":249,"end":253,"sentenceIndex":2,"sentenceBegin":204,"sentenceEnd":328}]}
{"paperId":"4d186611ecffce20666431e3e9988308833c0236","indicators":[{"word":"smoking","begin":1844,"end":1850,"sentenceIndex":8,"sentenceBegin":1789,"sentenceEnd":1872}]}
{"paperId":"4d186611ecffce20666431e3e9988308833c0236","indicators":[{"word":"smoking","begin":258,"end":264,"sentenceIndex":1,"sentenceBegin":147,"sentenceEnd":309}]}
{"paperId":"5dc3af2d8f81ab42751edc2f518bbc7eb535b9a5","indicators":[{"word":"cigarette","begin":440,"end":448,"sentenceIndex":1,"sentenceBegin":174,"sentenceEnd":480},{"word":"smoking","begin":450,"end":456,"sentenceIndex":1,"sentenceBegin":174,"sentenceEnd":480}]}
