{"paperId":"55930dd8e96ee14eb6e5500fcaa4562cfb42fd41","indicators":[{"word":"smoking","begin":1442,"end":1448,"sentenceIndex":14,"sentenceBegin":1427,"sentenceEnd":1449},{"word":"smoking","begin":1461,"end":1467,"sentenceIndex":15,"sentenceBegin":1451,"sentenceEnd":1533}]}
{"paperId":"55930dd8e96ee14eb6e5500fcaa4562cfb42fd41","indicators":[{"word":"smoking","begin":180,"end":186,"sentenceIndex":0,"sentenceBegin":0,"sentenceEnd":251}]}
{"paperId":"55930dd8e96ee14eb6e5500fcaa4562cfb42fd41","indicators":[{"word":"tobacco","begin":158,"end":164,"sentenceIndex":1,"sentenceBegin":65,"sentenceEnd":311},{"word":"smoke","begin":166,"end":170,"sentenceIndex":1,"sentenceBegin":65,"sentenceEnd":311},{"word":"tobacco","begin":413,"end":419,"sentenceIndex":6,"sentenceBegin":355,"sentenceEnd":469},{"word":"smoke","begin":421,"end":425,"sentenceIndex":6,"sentenceBegin":355,"sentenceEnd":469},{"word":"smoking","begin":572,"end":578,"sentenceIndex":7,"sentenceBegin":471,"sentenceEnd":704},{"word":"smoking","begin":692,"end":698,"sentenceIndex":7,"sentenceBegin":471,"sentenceEnd":704}]}
{"paperId":"55930dd8e96ee14eb6e5500fcaa4562cfb42fd41","indicators":[{"word":"smog","begin":188,"end":191,"sentenceIndex":0,"sentenceBegin":0,"sentenceEnd":204}]}
{"paperId":"55930dd8e96ee14eb6e5500fcaa4562cfb42fd41","indicators":[{"word":"smoking","begin":420,"end":426,"sentenceIndex":3,"sentenceBegin":381,"sentenceEnd":492},{"word":"smoking","begin":699,"end":705,"sentenceIndex":7,"sentenceBegin":689,"sentenceEnd":778}]}
{"paperId":"a72ac41caba42455550b1aa98334291d1bcb57f7","indicators":[{"word":"vapors","begin":424,"end":429,"sentenceIndex":2,"sentenceBegin":340,"sentenceEnd":575},{"word":"fume","begin":747,"end":750,"sentenceIndex":4,"sentenceBegin":690,"sentenceEnd":844}]}
{"paperId":"05f0cb1e55b3546608a417c80a33cc28f080c569","indicators":[{"word":"firing","begin":61,"end":66,"sentenceIndex":0,"sentenceBegin":0,"sentenceEnd":323},{"word":"firing","begin":156,"end":161,"sentenceIndex":0,"sentenceBegin":0,"sentenceEnd":323}]}
{"paperId":"05f0cb1e55b3546608a417c80a33cc28f080c569","indicators":[{"word":"firing","begin":58,"end":63,"sentenceIndex":0,"sentenceBegin":0,"sentenceEnd":93}]}
{"paperId":"05f0cb1e55b3546608a417c80a33cc28f080c569","indicators":[{"word":"firing","begin":177,"end":182,"sentenceIndex":0,"sentenceBegin":0,"sentenceEnd":205}]}
{"paperId":"05f0cb1e55b3546608a417c80a33cc28f080c569","indicators":[{"word":"firing","begin":38,"end":43,"sentenceIndex":0,"sentenceBegin":0,"sentenceEnd":114}]}
{"paperId":"05f0cb1e55b3546608a417c80a33cc28f080c569","indicators":[{"word":"firing","begin":192,"end":197,"sentenceIndex":1,"sentenceBegin":94,"sentenceEnd":208},{"word":"firing","begin":245,"end":250,"sentenceIndex":2,"sentenceBegin":210,"sentenceEnd":269}]}
{"paperId":"d9f0eb374b8403ddfe2ba3bca5db8392bbe83506","indicators":[{"word":"cigarette","begin":304,"end":312,"sentenceIndex":3,"sentenceBegin":277,"sentenceEnd":537},{"word":"smoke","begin":314,"end":318,"sentenceIndex":3,"sentenceBegin":277,"sentenceEnd":537}]}
