{"paperId":"b472f58728eedf75411b7f5c6941663d792312cc","indicators":[{"word":"vapors","begin":201,"end":206,"sentenceIndex":1,"sentenceBegin":50,"sentenceEnd":250}]}
{"paperId":"b472f58728eedf75411b7f5c6941663d792312cc","indicators":[{"word":"vapor","begin":139,"end":143,"sentenceIndex":1,"sentenceBegin":60,"sentenceEnd":198},{"word":"vapor","begin":176,"end":180,"sentenceIndex":1,"sentenceBegin":60,"sentenceEnd":198}]}
{"paperId":"131dcaa1dc8f9d68a5c65799e9eebbc1827c54a2","indicators":[{"word":"smoke","begin":1248,"end":1252,"sentenceIndex":7,"sentenceBegin":1235,"sentenceEnd":1460}]}
{"paperId":"e28710c6368f1d8824297dfb765402e7a5930fe3","indicators":[{"word":"smoke","begin":1248,"end":1252,"sentenceIndex":7,"sentenceBegin":1235,"sentenceEnd":1460}]}
