{"paperId":"68fe69b0afb16db3b0107efa84585c01ae84c762","indicators":[{"word":"tobacco","begin":950,"end":956,"sentenceIndex":4,"sentenceBegin":819,"sentenceEnd":1035},{"word":"smoke","begin":958,"end":962,"sentenceIndex":4,"sentenceBegin":819,"sentenceEnd":1035}]}
{"paperId":"68fe69b0afb16db3b0107efa84585c01ae84c762","indicators":[{"word":"tobacco","begin":499,"end":505,"sentenceIndex":3,"sentenceBegin":446,"sentenceEnd":523},{"word":"smoke","begin":507,"end":511,"sentenceIndex":3,"sentenceBegin":446,"sentenceEnd":523}]}
{"paperId":"e6ce1897300b3ec7ee6be552d0b1a8d3da743b54","indicators":[{"word":"tobacco","begin":435,"end":441,"sentenceIndex":2,"sentenceBegin":375,"sentenceEnd":548}]}
{"paperId":"dd16f577544b23cccabbd362af476defc9a88048","indicators":[{"word":"smoked","begin":507,"end":512,"sentenceIndex":2,"sentenceBegin":369,"sentenceEnd":528}]}
{"paperId":"dd16f577544b23cccabbd362af476defc9a88048","indicators":[{"word":"smoked","begin":1924,"end":1929,"sentenceIndex":14,"sentenceBegin":1858,"sentenceEnd":2035},{"word":"smoked","begin":2087,"end":2092,"sentenceIndex":15,"sentenceBegin":2037,"sentenceEnd":2162}]}
{"paperId":"e705c098f909abb8f4e863e4450eeed214fd7361","indicators":[{"word":"cigarette","begin":33,"end":41,"sentenceIndex":0,"sentenceBegin":0,"sentenceEnd":161},{"word":"smoke","begin":43,"end":47,"sentenceIndex":0,"sentenceBegin":0,"sentenceEnd":161}]}
