{"paperId":"359417eec03774de55b638845646f0f377f35de8","indicators":[{"word":"smoking","begin":218,"end":224,"sentenceIndex":1,"sentenceBegin":197,"sentenceEnd":451}]}
{"paperId":"359417eec03774de55b638845646f0f377f35de8","indicators":[{"word":"smoking","begin":172,"end":178,"sentenceIndex":0,"sentenceBegin":0,"sentenceEnd":218},{"word":"smoking","begin":361,"end":367,"sentenceIndex":2,"sentenceBegin":347,"sentenceEnd":449}]}
{"paperId":"359417eec03774de55b638845646f0f377f35de8","indicators":[{"word":"smoking","begin":1005,"end":1011,"sentenceIndex":8,"sentenceBegin":984,"sentenceEnd":1069}]}
{"paperId":"359417eec03774de55b638845646f0f377f35de8","indicators":[{"word":"smoking","begin":54,"end":60,"sentenceIndex":0,"sentenceBegin":0,"sentenceEnd":145}]}
{"paperId":"359417eec03774de55b638845646f0f377f35de8","indicators":[{"word":"smoking","begin":1175,"end":1181,"sentenceIndex":9,"sentenceBegin":1106,"sentenceEnd":1584}]}
{"paperId":"505ad842037b1469938e62dac5c6b85fb4a841ae","indicators":[{"word":"tobacco","begin":72,"end":78,"sentenceIndex":0,"sentenceBegin":0,"sentenceEnd":110}]}
