{"paperId":"24709e4ba406a998d011ea9b31d33279bbabedb5","indicators":[{"word":"smoking","begin":394,"end":400,"sentenceIndex":1,"sentenceBegin":351,"sentenceEnd":669}]}
{"paperId":"ebeef7ed15f08b86ff80ec8aea566c2604476492","indicators":[{"word":"smoking","begin":1532,"end":1538,"sentenceIndex":5,"sentenceBegin":842,"sentenceEnd":1724}]}
{"paperId":"5f7671868f71e4f374d0366bc4f5b11c17929cca","indicators":[{"word":"tobacco","begin":2818,"end":2824,"sentenceIndex":16,"sentenceBegin":2491,"sentenceEnd":2946}]}
{"paperId":"f1cbfea49f80dba95b89fafe468d2aaf2bc722fb","indicators":[{"word":"smoking","begin":423,"end":429,"sentenceIndex":5,"sentenceBegin":414,"sentenceEnd":514}]}
{"paperId":"4b6bfeaad1b4e32e1e0a7d832a50df32e5940d2e","indicators":[{"word":"weeds","begin":188,"end":192,"sentenceIndex":1,"sentenceBegin":178,"sentenceEnd":295},{"word":"weeds","begin":343,"end":347,"sentenceIndex":2,"sentenceBegin":297,"sentenceEnd":415},{"word":"weeds","begin":431,"end":435,"sentenceIndex":3,"sentenceBegin":417,"sentenceEnd":523},{"word":"weeds","begin":577,"end":581,"sentenceIndex":4,"sentenceBegin":525,"sentenceEnd":802}]}
{"paperId":"4b6bfeaad1b4e32e1e0a7d832a50df32e5940d2e","indicators":[{"word":"weeds","begin":348,"end":352,"sentenceIndex":2,"sentenceBegin":339,"sentenceEnd":467}]}
{"paperId":"4b6bfeaad1b4e32e1e0a7d832a50df32e5940d2e","indicators":[{"word":"weeds","begin":172,"end":176,"sentenceIndex":4,"sentenceBegin":150,"sentenceEnd":266},{"word":"weeds","begin":370,"end":374,"sentenceIndex":12,"sentenceBegin":353,"sentenceEnd":475},{"word":"weeds","begin":418,"end":422,"sentenceIndex":12,"sentenceBegin":353,"sentenceEnd":475},{"word":"weeds","begin":944,"end":948,"sentenceIndex":23,"sentenceBegin":889,"sentenceEnd":1063},{"word":"weed","begin":1136,"end":1139,"sentenceIndex":25,"sentenceBegin":1078,"sentenceEnd":1223},{"word":"weed","begin":1278,"end":1281,"sentenceIndex":26,"sentenceBegin":1225,"sentenceEnd":1400}]}
{"paperId":"4b6bfeaad1b4e32e1e0a7d832a50df32e5940d2e","indicators":[{"word":"weed","begin":242,"end":245,"sentenceIndex":1,"sentenceBegin":166,"sentenceEnd":401},{"word":"weeds","begin":357,"end":361,"sentenceIndex":1,"sentenceBegin":166,"sentenceEnd":401},{"word":"weeds","begin":639,"end":643,"sentenceIndex":3,"sentenceBegin":500,"sentenceEnd":696}]}
{"paperId":"4b6bfeaad1b4e32e1e0a7d832a50df32e5940d2e","indicators":[{"word":"weeds","begin":1288,"end":1292,"sentenceIndex":11,"sentenceBegin":1284,"sentenceEnd":1374}]}
{"paperId":"4b6bfeaad1b4e32e1e0a7d832a50df32e5940d2e","indicators":[{"word":"weed","begin":4,"end":7,"sentenceIndex":0,"sentenceBegin":0,"sentenceEnd":124},{"word":"weed","begin":135,"end":138,"sentenceIndex":1,"sentenceBegin":126,"sentenceEnd":266},{"word":"weeds","begin":306,"end":310,"sentenceIndex":2,"sentenceBegin":268,"sentenceEnd":339},{"word":"weeds","begin":501,"end":505,"sentenceIndex":5,"sentenceBegin":434,"sentenceEnd":599}]}
{"paperId":"4b6bfeaad1b4e32e1e0a7d832a50df32e5940d2e","indicators":[{"word":"weed","begin":87,"end":90,"sentenceIndex":1,"sentenceBegin":21,"sentenceEnd":162},{"word":"weed","begin":363,"end":366,"sentenceIndex":4,"sentenceBegin":284,"sentenceEnd":425},{"word":"weed","begin":476,"end":479,"sentenceIndex":5,"sentenceBegin":427,"sentenceEnd":581}]}
{"paperId":"4b6bfeaad1b4e32e1e0a7d832a50df32e5940d2e","indicators":[{"word":"weed","begin":20,"end":23,"sentenceIndex":0,"sentenceBegin":0,"sentenceEnd":94},{"word":"weeds","begin":146,"end":150,"sentenceIndex":1,"sentenceBegin":96,"sentenceEnd":214}]}
{"paperId":"4b6bfeaad1b4e32e1e0a7d832a50df32e5940d2e","indicators":[{"word":"vapor","begin":466,"end":470,"sentenceIndex":5,"sentenceBegin":462,"sentenceEnd":554}]}
{"paperId":"4b6bfeaad1b4e32e1e0a7d832a50df32e5940d2e","indicators":[{"word":"weeds","begin":585,"end":589,"sentenceIndex":4,"sentenceBegin":511,"sentenceEnd":785}]}
{"paperId":"4b6bfeaad1b4e32e1e0a7d832a50df32e5940d2e","indicators":[{"word":"weeds","begin":201,"end":205,"sentenceIndex":1,"sentenceBegin":111,"sentenceEnd":318},{"word":"weeds","begin":480,"end":484,"sentenceIndex":2,"sentenceBegin":320,"sentenceEnd":485},{"word":"weeds","begin":601,"end":605,"sentenceIndex":4,"sentenceBegin":505,"sentenceEnd":671},{"word":"weeds","begin":655,"end":659,"sentenceIndex":4,"sentenceBegin":505,"sentenceEnd":671}]}
{"paperId":"4b6bfeaad1b4e32e1e0a7d832a50df32e5940d2e","indicators":[{"word":"weeds","begin":82,"end":86,"sentenceIndex":0,"sentenceBegin":0,"sentenceEnd":215},{"word":"weeds","begin":380,"end":384,"sentenceIndex":2,"sentenceBegin":373,"sentenceEnd":679},{"word":"weeds","begin":545,"end":549,"sentenceIndex":2,"sentenceBegin":373,"sentenceEnd":679},{"word":"weeds","begin":749,"end":753,"sentenceIndex":3,"sentenceBegin":681,"sentenceEnd":792},{"word":"weeds","begin":865,"end":869,"sentenceIndex":6,"sentenceBegin":844,"sentenceEnd":1046},{"word":"weeds","begin":1017,"end":1021,"sentenceIndex":6,"sentenceBegin":844,"sentenceEnd":1046},{"word":"weeds","begin":1186,"end":1190,"sentenceIndex":8,"sentenceBegin":1134,"sentenceEnd":1231}]}
{"paperId":"4b6bfeaad1b4e32e1e0a7d832a50df32e5940d2e","indicators":[{"word":"weeds","begin":664,"end":668,"sentenceIndex":6,"sentenceBegin":613,"sentenceEnd":672}]}
{"paperId":"4b6bfeaad1b4e32e1e0a7d832a50df32e5940d2e","indicators":[{"word":"weeds","begin":130,"end":134,"sentenceIndex":1,"sentenceBegin":118,"sentenceEnd":138}]}
