{"paperId":"501e3a3bd720addfaf6859ad4f473660ab56bd56","indicators":[{"word":"fumes","begin":903,"end":907,"sentenceIndex":7,"sentenceBegin":742,"sentenceEnd":1058}]}
{"paperId":"501e3a3bd720addfaf6859ad4f473660ab56bd56","indicators":[{"word":"smoke","begin":17,"end":21,"sentenceIndex":0,"sentenceBegin":0,"sentenceEnd":110}]}
{"paperId":"501e3a3bd720addfaf6859ad4f473660ab56bd56","indicators":[{"word":"cigarette","begin":195,"end":203,"sentenceIndex":0,"sentenceBegin":0,"sentenceEnd":212}]}
{"paperId":"501e3a3bd720addfaf6859ad4f473660ab56bd56","indicators":[{"word":"smoking","begin":140,"end":146,"sentenceIndex":0,"sentenceBegin":0,"sentenceEnd":147}]}
{"paperId":"501e3a3bd720addfaf6859ad4f473660ab56bd56","indicators":[{"word":"fumes","begin":409,"end":413,"sentenceIndex":3,"sentenceBegin":308,"sentenceEnd":743},{"word":"smoke","begin":419,"end":423,"sentenceIndex":3,"sentenceBegin":308,"sentenceEnd":743},{"word":"fumes","begin":623,"end":627,"sentenceIndex":3,"sentenceBegin":308,"sentenceEnd":743}]}
{"paperId":"501e3a3bd720addfaf6859ad4f473660ab56bd56","indicators":[{"word":"fume","begin":41,"end":44,"sentenceIndex":0,"sentenceBegin":0,"sentenceEnd":140},{"word":"fume","begin":682,"end":685,"sentenceIndex":5,"sentenceBegin":600,"sentenceEnd":695}]}
{"paperId":"efa709d35a459e7655763486cc6d5ee29aca19a6","indicators":[{"word":"tobacco","begin":639,"end":645,"sentenceIndex":2,"sentenceBegin":497,"sentenceEnd":740}]}
{"paperId":"efa709d35a459e7655763486cc6d5ee29aca19a6","indicators":[{"word":"tobacco","begin":453,"end":459,"sentenceIndex":2,"sentenceBegin":408,"sentenceEnd":702}]}
{"paperId":"efa709d35a459e7655763486cc6d5ee29aca19a6","indicators":[{"word":"tobacco","begin":257,"end":263,"sentenceIndex":2,"sentenceBegin":191,"sentenceEnd":328}]}
{"paperId":"b75473c62f53c71ee4d5cd2f9838a20a4c15449a","indicators":[{"word":"vapor","begin":243,"end":247,"sentenceIndex":2,"sentenceBegin":128,"sentenceEnd":248},{"word":"fume","begin":307,"end":310,"sentenceIndex":3,"sentenceBegin":250,"sentenceEnd":316}]}
{"paperId":"62a67d1f86138972ae0d79681ddd2a4a75f6dec0","indicators":[{"word":"smoking","begin":666,"end":672,"sentenceIndex":3,"sentenceBegin":393,"sentenceEnd":698}]}
