{"paperId":"b3eb240255977b2090a3fa3507ed36f2bf6d6c74","indicators":[{"word":"smoking","begin":29,"end":35,"sentenceIndex":0,"sentenceBegin":0,"sentenceEnd":182}]}
{"paperId":"06b83dca5fb6ae5b3d808518f67b281d4806391f","indicators":[{"word":"vapor","begin":74,"end":78,"sentenceIndex":0,"sentenceBegin":0,"sentenceEnd":228}]}
{"paperId":"06b83dca5fb6ae5b3d808518f67b281d4806391f","indicators":[{"word":"vapor","begin":506,"end":510,"sentenceIndex":3,"sentenceBegin":432,"sentenceEnd":535}]}
{"paperId":"06b83dca5fb6ae5b3d808518f67b281d4806391f","indicators":[{"word":"vapor","begin":129,"end":133,"sentenceIndex":0,"sentenceBegin":0,"sentenceEnd":134}]}
{"paperId":"7b54dd4073c30ebd5ef1c799e0bd1443f0a13e37","indicators":[{"word":"vapor","begin":74,"end":78,"sentenceIndex":0,"sentenceBegin":0,"sentenceEnd":228}]}
{"paperId":"7b54dd4073c30ebd5ef1c799e0bd1443f0a13e37","indicators":[{"word":"vapor","begin":506,"end":510,"sentenceIndex":3,"sentenceBegin":432,"sentenceEnd":535}]}
{"paperId":"7b54dd4073c30ebd5ef1c799e0bd1443f0a13e37","indicators":[{"word":"vapor","begin":129,"end":133,"sentenceIndex":0,"sentenceBegin":0,"sentenceEnd":134}]}
