{"paperId":"04be45dba1c24d640d5da8298c5f01e3165d84c4","indicators":[{"word":"smoking","begin":2294,"end":2300,"sentenceIndex":15,"sentenceBegin":2239,"sentenceEnd":2370}]}
{"paperId":"8af5a646bd45375ab6163c2154c3197bbc6b35a6","indicators":[{"word":"tobacco","begin":165,"end":171,"sentenceIndex":2,"sentenceBegin":76,"sentenceEnd":256}]}
{"paperId":"8af5a646bd45375ab6163c2154c3197bbc6b35a6","indicators":[{"word":"tobacco","begin":212,"end":218,"sentenceIndex":1,"sentenceBegin":109,"sentenceEnd":219}]}
{"paperId":"8af5a646bd45375ab6163c2154c3197bbc6b35a6","indicators":[{"word":"tobacco","begin":305,"end":311,"sentenceIndex":2,"sentenceBegin":230,"sentenceEnd":381},{"word":"tobacco","begin":687,"end":693,"sentenceIndex":5,"sentenceBegin":649,"sentenceEnd":767},{"word":"tobacco","begin":1813,"end":1819,"sentenceIndex":14,"sentenceBegin":1645,"sentenceEnd":1908},{"word":"tobacco","begin":1935,"end":1941,"sentenceIndex":15,"sentenceBegin":1910,"sentenceEnd":2059}]}
{"paperId":"8af5a646bd45375ab6163c2154c3197bbc6b35a6","indicators":[{"word":"tobacco","begin":375,"end":381,"sentenceIndex":2,"sentenceBegin":269,"sentenceEnd":459}]}
{"paperId":"8af5a646bd45375ab6163c2154c3197bbc6b35a6","indicators":[{"word":"tobacco","begin":80,"end":86,"sentenceIndex":1,"sentenceBegin":69,"sentenceEnd":152}]}
{"paperId":"8af5a646bd45375ab6163c2154c3197bbc6b35a6","indicators":[{"word":"tobacco","begin":387,"end":393,"sentenceIndex":3,"sentenceBegin":383,"sentenceEnd":477}]}
{"paperId":"8af5a646bd45375ab6163c2154c3197bbc6b35a6","indicators":[{"word":"tobacco","begin":593,"end":599,"sentenceIndex":3,"sentenceBegin":492,"sentenceEnd":607}]}
{"paperId":"8af5a646bd45375ab6163c2154c3197bbc6b35a6","indicators":[{"word":"tobacco","begin":479,"end":485,"sentenceIndex":3,"sentenceBegin":430,"sentenceEnd":582}]}
{"paperId":"78b0fc1f4a496b5f1f7b8b55900b6a0fb2450628","indicators":[{"word":"smoke","begin":448,"end":452,"sentenceIndex":4,"sentenceBegin":439,"sentenceEnd":671}]}
{"paperId":"e3ae0428ec2e004bce148a15d8bb932fefaacac0","indicators":[{"word":"tobacco","begin":2283,"end":2289,"sentenceIndex":14,"sentenceBegin":2065,"sentenceEnd":2343}]}
{"paperId":"751764ca73c84e497075d172d6417ea95c1a7e09","indicators":[{"word":"smoking","begin":1106,"end":1112,"sentenceIndex":7,"sentenceBegin":938,"sentenceEnd":1354}]}
{"paperId":"751764ca73c84e497075d172d6417ea95c1a7e09","indicators":[{"word":"tobacco","begin":1756,"end":1762,"sentenceIndex":14,"sentenceBegin":1729,"sentenceEnd":1928}]}
{"paperId":"751764ca73c84e497075d172d6417ea95c1a7e09","indicators":[{"word":"tobacco","begin":807,"end":813,"sentenceIndex":5,"sentenceBegin":775,"sentenceEnd":904}]}
