{"paperId":"a436590d308c72f7bf7435142fe1576c1efa24a2","indicators":[{"word":"vapor","begin":52,"end":56,"sentenceIndex":0,"sentenceBegin":0,"sentenceEnd":124},{"word":"vapor","begin":757,"end":761,"sentenceIndex":2,"sentenceBegin":560,"sentenceEnd":845}]}
{"paperId":"a436590d308c72f7bf7435142fe1576c1efa24a2","indicators":[{"word":"vapor","begin":17,"end":21,"sentenceIndex":0,"sentenceBegin":0,"sentenceEnd":75}]}
{"paperId":"a436590d308c72f7bf7435142fe1576c1efa24a2","indicators":[{"word":"vapor","begin":65,"end":69,"sentenceIndex":0,"sentenceBegin":0,"sentenceEnd":141}]}
{"paperId":"a436590d308c72f7bf7435142fe1576c1efa24a2","indicators":[{"word":"vapor","begin":90,"end":94,"sentenceIndex":1,"sentenceBegin":33,"sentenceEnd":130}]}
{"paperId":"a436590d308c72f7bf7435142fe1576c1efa24a2","indicators":[{"word":"vapor","begin":78,"end":82,"sentenceIndex":1,"sentenceBegin":46,"sentenceEnd":261}]}
{"paperId":"a436590d308c72f7bf7435142fe1576c1efa24a2","indicators":[{"word":"vapor","begin":40,"end":44,"sentenceIndex":0,"sentenceBegin":0,"sentenceEnd":81}]}
{"paperId":"a436590d308c72f7bf7435142fe1576c1efa24a2","indicators":[{"word":"vapor","begin":209,"end":213,"sentenceIndex":2,"sentenceBegin":172,"sentenceEnd":236},{"word":"vapor","begin":269,"end":273,"sentenceIndex":3,"sentenceBegin":238,"sentenceEnd":316}]}
{"paperId":"a436590d308c72f7bf7435142fe1576c1efa24a2","indicators":[{"word":"vapor","begin":6,"end":10,"sentenceIndex":0,"sentenceBegin":0,"sentenceEnd":123}]}
{"paperId":"a436590d308c72f7bf7435142fe1576c1efa24a2","indicators":[{"word":"vapor","begin":20,"end":24,"sentenceIndex":0,"sentenceBegin":0,"sentenceEnd":63}]}
{"paperId":"a436590d308c72f7bf7435142fe1576c1efa24a2","indicators":[{"word":"vapor","begin":46,"end":50,"sentenceIndex":0,"sentenceBegin":0,"sentenceEnd":72}]}
{"paperId":"a436590d308c72f7bf7435142fe1576c1efa24a2","indicators":[{"word":"vapor","begin":543,"end":547,"sentenceIndex":5,"sentenceBegin":499,"sentenceEnd":587},{"word":"vapor","begin":1935,"end":1939,"sentenceIndex":28,"sentenceBegin":1916,"sentenceEnd":1972}]}
{"paperId":"a436590d308c72f7bf7435142fe1576c1efa24a2","indicators":[{"word":"vapor","begin":320,"end":324,"sentenceIndex":3,"sentenceBegin":301,"sentenceEnd":424}]}
{"paperId":"867805d5127cc78c8a1a38248f819e3d503baab6","indicators":[{"word":"fired","begin":419,"end":423,"sentenceIndex":1,"sentenceBegin":257,"sentenceEnd":425}]}
{"paperId":"0409e26a6c93752d1dcaba11b785a485592b76ac","indicators":[{"word":"cigarettes","begin":714,"end":723,"sentenceIndex":5,"sentenceBegin":596,"sentenceEnd":785},{"word":"smog","begin":728,"end":731,"sentenceIndex":5,"sentenceBegin":596,"sentenceEnd":785}]}
{"paperId":"010a7cb6ff7d38c99062e80efe703b3df142325d","indicators":[{"word":"fires","begin":531,"end":535,"sentenceIndex":1,"sentenceBegin":265,"sentenceEnd":603}]}
{"paperId":"25f4a5990fcb174f80bc472629eb47be50d5b3f7","indicators":[{"word":"cigarette","begin":1449,"end":1457,"sentenceIndex":8,"sentenceBegin":1381,"sentenceEnd":1637},{"word":"smoking","begin":1459,"end":1465,"sentenceIndex":8,"sentenceBegin":1381,"sentenceEnd":1637}]}
