{"paperId":"278f9bc7cda220a1ca3bb3429b5229a412b8639a","indicators":[{"word":"tobacco","begin":693,"end":699,"sentenceIndex":4,"sentenceBegin":557,"sentenceEnd":723}]}
{"paperId":"278f9bc7cda220a1ca3bb3429b5229a412b8639a","indicators":[{"word":"tobacco","begin":1270,"end":1276,"sentenceIndex":4,"sentenceBegin":1179,"sentenceEnd":1463}]}
{"paperId":"069bf4da8f0f4f540b9f6a16021e007442e7e027","indicators":[{"word":"vapors","begin":521,"end":526,"sentenceIndex":2,"sentenceBegin":428,"sentenceEnd":551}]}
{"paperId":"069bf4da8f0f4f540b9f6a16021e007442e7e027","indicators":[{"word":"vapors","begin":203,"end":208,"sentenceIndex":1,"sentenceBegin":153,"sentenceEnd":285}]}
{"paperId":"9cda7cc79c0dee43d486d8165181e5b5ca09a817","indicators":[{"word":"weeds","begin":249,"end":253,"sentenceIndex":1,"sentenceBegin":150,"sentenceEnd":299}]}
