{"paperId":"3f7311b4207a1e955acec9c6a03d358ecb49a7c5","indicators":[{"word":"vapor","begin":1727,"end":1731,"sentenceIndex":10,"sentenceBegin":1710,"sentenceEnd":1761}]}
{"paperId":"4d24604dfb8448378baba480bd54c6162f023886","indicators":[{"word":"smoking","begin":684,"end":690,"sentenceIndex":4,"sentenceBegin":626,"sentenceEnd":727},{"word":"smoking","begin":1235,"end":1241,"sentenceIndex":8,"sentenceBegin":1166,"sentenceEnd":1287}]}
{"paperId":"28eff46758dd5afc3a67c2e21cb27c159929451b","indicators":[{"word":"fume","begin":314,"end":317,"sentenceIndex":1,"sentenceBegin":312,"sentenceEnd":438}]}
{"paperId":"db755e4ceb02ff510ccd4880830bb51214bb5aa7","indicators":[{"word":"tobacco","begin":697,"end":703,"sentenceIndex":4,"sentenceBegin":546,"sentenceEnd":746},{"word":"tobacco","begin":733,"end":739,"sentenceIndex":4,"sentenceBegin":546,"sentenceEnd":746},{"word":"smoke","begin":741,"end":745,"sentenceIndex":4,"sentenceBegin":546,"sentenceEnd":746}]}
{"paperId":"a230b1296c1e059a0e9e2cc0844c5d606b404ba6","indicators":[{"word":"tobacco","begin":210,"end":216,"sentenceIndex":3,"sentenceBegin":192,"sentenceEnd":258}]}
{"paperId":"e84b07d4bd208aa18f867d8cb843796a65edfe9e","indicators":[{"word":"smog","begin":461,"end":464,"sentenceIndex":4,"sentenceBegin":336,"sentenceEnd":465}]}
{"paperId":"52075e1e28bc2952fb7a2360fae88c76b36c722a","indicators":[{"word":"fumes","begin":215,"end":219,"sentenceIndex":0,"sentenceBegin":0,"sentenceEnd":229}]}
{"paperId":"b2fc8d4c4e67d6ceb0d7fd9d28d9f915c4183d01","indicators":[{"word":"cigarette","begin":96,"end":104,"sentenceIndex":0,"sentenceBegin":0,"sentenceEnd":127},{"word":"smoking","begin":106,"end":112,"sentenceIndex":0,"sentenceBegin":0,"sentenceEnd":127}]}
