{"paperId":"ca34ab96806eca903b4245e472559f29f23e4fac","indicators":[{"word":"tobacco","begin":2571,"end":2577,"sentenceIndex":12,"sentenceBegin":2442,"sentenceEnd":2755},{"word":"smoke","begin":2579,"end":2583,"sentenceIndex":12,"sentenceBegin":2442,"sentenceEnd":2755}]}
{"paperId":"b673f5281f550b997d1293829a4c91bed50436d6","indicators":[{"word":"smoking","begin":69,"end":75,"sentenceIndex":0,"sentenceBegin":0,"sentenceEnd":123}]}
{"paperId":"b673f5281f550b997d1293829a4c91bed50436d6","indicators":[{"word":"smoking","begin":740,"end":746,"sentenceIndex":3,"sentenceBegin":731,"sentenceEnd":843}]}
{"paperId":"15faeb36b7cbca302a2d08b69d3d5bed221a62e5","indicators":[{"word":"tobacco","begin":347,"end":353,"sentenceIndex":0,"sentenceBegin":0,"sentenceEnd":797}]}
{"paperId":"15faeb36b7cbca302a2d08b69d3d5bed221a62e5","indicators":[{"word":"tobacco","begin":269,"end":275,"sentenceIndex":0,"sentenceBegin":0,"sentenceEnd":488}]}
{"paperId":"15faeb36b7cbca302a2d08b69d3d5bed221a62e5","indicators":[{"word":"tobacco","begin":860,"end":866,"sentenceIndex":5,"sentenceBegin":840,"sentenceEnd":1046}]}
