{"paperId":"808b1b91afc0f210f38964deec327afb4bfdaba8","indicators":[{"word":"smoking","begin":92,"end":98,"sentenceIndex":0,"sentenceBegin":0,"sentenceEnd":256}]}
{"paperId":"808b1b91afc0f210f38964deec327afb4bfdaba8","indicators":[{"word":"cigarette","begin":109,"end":117,"sentenceIndex":0,"sentenceBegin":0,"sentenceEnd":183},{"word":"smoke","begin":119,"end":123,"sentenceIndex":0,"sentenceBegin":0,"sentenceEnd":183}]}
{"paperId":"d6c0d22d9fb8282e92158ffbdc5b8d2af8cea14e","indicators":[{"word":"smoking","begin":276,"end":282,"sentenceIndex":1,"sentenceBegin":121,"sentenceEnd":296}]}
{"paperId":"232dc9f3baa927facbe91722ae717e0738a73981","indicators":[{"word":"tobacco","begin":599,"end":605,"sentenceIndex":2,"sentenceBegin":519,"sentenceEnd":632}]}
