{"paperId":"8ea6fbcd74fb1047817fa1d4ae2c828586a75901","indicators":[{"word":"smoking","begin":947,"end":953,"sentenceIndex":4,"sentenceBegin":597,"sentenceEnd":1028}]}
{"paperId":"8ea6fbcd74fb1047817fa1d4ae2c828586a75901","indicators":[{"word":"smoking","begin":105,"end":111,"sentenceIndex":0,"sentenceBegin":0,"sentenceEnd":173}]}
{"paperId":"8ea6fbcd74fb1047817fa1d4ae2c828586a75901","indicators":[{"word":"smoking","begin":1033,"end":1039,"sentenceIndex":14,"sentenceBegin":1016,"sentenceEnd":1081},{"word":"smoking","begin":1071,"end":1077,"sentenceIndex":14,"sentenceBegin":1016,"sentenceEnd":1081}]}
