{"paperId":"e62cb095daf5a1269bf1437f310ba96a6fd865c0","indicators":[{"word":"smoking","begin":89,"end":95,"sentenceIndex":0,"sentenceBegin":0,"sentenceEnd":253}]}
{"paperId":"e62cb095daf5a1269bf1437f310ba96a6fd865c0","indicators":[{"word":"smoking","begin":12,"end":18,"sentenceIndex":0,"sentenceBegin":0,"sentenceEnd":154},{"word":"smoking","begin":165,"end":171,"sentenceIndex":1,"sentenceBegin":156,"sentenceEnd":449},{"word":"smoke","begin":188,"end":192,"sentenceIndex":1,"sentenceBegin":156,"sentenceEnd":449},{"word":"tobacco","begin":477,"end":483,"sentenceIndex":2,"sentenceBegin":451,"sentenceEnd":632}]}
{"paperId":"e62cb095daf5a1269bf1437f310ba96a6fd865c0","indicators":[{"word":"tobacco","begin":289,"end":295,"sentenceIndex":2,"sentenceBegin":246,"sentenceEnd":316}]}
{"paperId":"e62cb095daf5a1269bf1437f310ba96a6fd865c0","indicators":[{"word":"tobacco","begin":31,"end":37,"sentenceIndex":0,"sentenceBegin":0,"sentenceEnd":206},{"word":"smoking","begin":51,"end":57,"sentenceIndex":0,"sentenceBegin":0,"sentenceEnd":206}]}
{"paperId":"356cb25a846e41b2001aa8e0f083f8f9850a044d","indicators":[{"word":"smoking","begin":871,"end":877,"sentenceIndex":7,"sentenceBegin":831,"sentenceEnd":909}]}
{"paperId":"621fb61c827a3f1f0c6c69849319ed45f6dc1f5b","indicators":[{"word":"smoking","begin":76,"end":82,"sentenceIndex":0,"sentenceBegin":0,"sentenceEnd":515},{"word":"smoking","begin":105,"end":111,"sentenceIndex":0,"sentenceBegin":0,"sentenceEnd":515},{"word":"smokes","begin":139,"end":144,"sentenceIndex":0,"sentenceBegin":0,"sentenceEnd":515}]}
{"paperId":"e381eaa71842a7140b867330a3d28a8d964ff628","indicators":[{"word":"smoke","begin":692,"end":696,"sentenceIndex":5,"sentenceBegin":585,"sentenceEnd":770}]}
{"paperId":"e381eaa71842a7140b867330a3d28a8d964ff628","indicators":[{"word":"smoke","begin":158,"end":162,"sentenceIndex":0,"sentenceBegin":0,"sentenceEnd":286}]}
{"paperId":"e381eaa71842a7140b867330a3d28a8d964ff628","indicators":[{"word":"vapor","begin":1128,"end":1132,"sentenceIndex":9,"sentenceBegin":1085,"sentenceEnd":1205}]}
{"paperId":"e381eaa71842a7140b867330a3d28a8d964ff628","indicators":[{"word":"vapor","begin":1577,"end":1581,"sentenceIndex":9,"sentenceBegin":1526,"sentenceEnd":1660},{"word":"smoke","begin":1588,"end":1592,"sentenceIndex":9,"sentenceBegin":1526,"sentenceEnd":1660},{"word":"smoke","begin":2993,"end":2997,"sentenceIndex":16,"sentenceBegin":2911,"sentenceEnd":3033},{"word":"smokes","begin":3092,"end":3097,"sentenceIndex":17,"sentenceBegin":3035,"sentenceEnd":3179}]}
{"paperId":"e381eaa71842a7140b867330a3d28a8d964ff628","indicators":[{"word":"smoke","begin":1204,"end":1208,"sentenceIndex":5,"sentenceBegin":971,"sentenceEnd":1335},{"word":"smoke","begin":1249,"end":1253,"sentenceIndex":5,"sentenceBegin":971,"sentenceEnd":1335}]}
{"paperId":"e381eaa71842a7140b867330a3d28a8d964ff628","indicators":[{"word":"smoke","begin":168,"end":172,"sentenceIndex":0,"sentenceBegin":0,"sentenceEnd":306}]}
{"paperId":"d986c44da50830e309f5d89cd81595edf1f05200","indicators":[{"word":"tobacco","begin":209,"end":215,"sentenceIndex":0,"sentenceBegin":0,"sentenceEnd":333}]}
