{"paperId":"571c374a369ea8ce0c85cd3b11fa62d8d4b499d2","indicators":[{"word":"weeds","begin":236,"end":240,"sentenceIndex":1,"sentenceBegin":105,"sentenceEnd":325}]}
{"paperId":"571c374a369ea8ce0c85cd3b11fa62d8d4b499d2","indicators":[{"word":"weeds","begin":756,"end":760,"sentenceIndex":5,"sentenceBegin":579,"sentenceEnd":775}]}
{"paperId":"731750c7f73db321ad61847e252069d4018af077","indicators":[{"word":"smoking","begin":591,"end":597,"sentenceIndex":4,"sentenceBegin":570,"sentenceEnd":665},{"word":"smoked","begin":615,"end":620,"sentenceIndex":4,"sentenceBegin":570,"sentenceEnd":665},{"word":"smoking","begin":675,"end":681,"sentenceIndex":5,"sentenceBegin":667,"sentenceEnd":788}]}
{"paperId":"dc25a4c67fea8c5b554713864640e4067799c7ce","indicators":[{"word":"vapor","begin":73,"end":77,"sentenceIndex":0,"sentenceBegin":0,"sentenceEnd":179},{"word":"vapor","begin":209,"end":213,"sentenceIndex":1,"sentenceBegin":181,"sentenceEnd":290}]}
{"paperId":"dc25a4c67fea8c5b554713864640e4067799c7ce","indicators":[{"word":"vapor","begin":28,"end":32,"sentenceIndex":0,"sentenceBegin":0,"sentenceEnd":109},{"word":"vapor","begin":657,"end":661,"sentenceIndex":4,"sentenceBegin":612,"sentenceEnd":718},{"word":"vapor","begin":730,"end":734,"sentenceIndex":5,"sentenceBegin":720,"sentenceEnd":790}]}
{"paperId":"ee95e78d7943fcb6e9e71781a81ed83c354faa39","indicators":[{"word":"cigarette","begin":2005,"end":2013,"sentenceIndex":15,"sentenceBegin":1867,"sentenceEnd":2021},{"word":"smoke","begin":2015,"end":2019,"sentenceIndex":15,"sentenceBegin":1867,"sentenceEnd":2021}]}
{"paperId":"ee95e78d7943fcb6e9e71781a81ed83c354faa39","indicators":[{"word":"cigarette","begin":717,"end":725,"sentenceIndex":3,"sentenceBegin":628,"sentenceEnd":919},{"word":"smoking","begin":727,"end":733,"sentenceIndex":3,"sentenceBegin":628,"sentenceEnd":919}]}
{"paperId":"132e2d4508600352abb78c2c6a7ef179d4a18d8a","indicators":[{"word":"smoking","begin":30,"end":36,"sentenceIndex":0,"sentenceBegin":0,"sentenceEnd":176}]}
{"paperId":"132e2d4508600352abb78c2c6a7ef179d4a18d8a","indicators":[{"word":"cigarette","begin":681,"end":689,"sentenceIndex":3,"sentenceBegin":655,"sentenceEnd":917},{"word":"smoke","begin":691,"end":695,"sentenceIndex":3,"sentenceBegin":655,"sentenceEnd":917}]}
{"paperId":"132e2d4508600352abb78c2c6a7ef179d4a18d8a","indicators":[{"word":"cigarette","begin":500,"end":508,"sentenceIndex":3,"sentenceBegin":477,"sentenceEnd":580},{"word":"smoke","begin":510,"end":514,"sentenceIndex":3,"sentenceBegin":477,"sentenceEnd":580},{"word":"cigarette","begin":998,"end":1006,"sentenceIndex":5,"sentenceBegin":792,"sentenceEnd":1013},{"word":"smoke","begin":1008,"end":1012,"sentenceIndex":5,"sentenceBegin":792,"sentenceEnd":1013},{"word":"cigarette","begin":1223,"end":1231,"sentenceIndex":6,"sentenceBegin":1015,"sentenceEnd":1244},{"word":"smoke","begin":1233,"end":1237,"sentenceIndex":6,"sentenceBegin":1015,"sentenceEnd":1244},{"word":"smoking","begin":1615,"end":1621,"sentenceIndex":8,"sentenceBegin":1444,"sentenceEnd":1628}]}
{"paperId":"132e2d4508600352abb78c2c6a7ef179d4a18d8a","indicators":[{"word":"tobacco","begin":236,"end":242,"sentenceIndex":1,"sentenceBegin":126,"sentenceEnd":442},{"word":"smoke","begin":244,"end":248,"sentenceIndex":1,"sentenceBegin":126,"sentenceEnd":442}]}
