{"paperId":"5e0a713a7436909c940dc70693cf666dd9c8ac62","indicators":[{"word":"smoking","begin":423,"end":429,"sentenceIndex":4,"sentenceBegin":409,"sentenceEnd":454}]}
{"paperId":"5e0a713a7436909c940dc70693cf666dd9c8ac62","indicators":[{"word":"smoking","begin":302,"end":308,"sentenceIndex":1,"sentenceBegin":240,"sentenceEnd":368}]}
{"paperId":"5e0a713a7436909c940dc70693cf666dd9c8ac62","indicators":[{"word":"smoked","begin":450,"end":455,"sentenceIndex":3,"sentenceBegin":440,"sentenceEnd":534},{"word":"smoking","begin":514,"end":520,"sentenceIndex":3,"sentenceBegin":440,"sentenceEnd":534}]}
{"paperId":"25f2100f8e0a35ed3636d4638105dd38e766c5b3","indicators":[{"word":"smoking","begin":181,"end":187,"sentenceIndex":0,"sentenceBegin":0,"sentenceEnd":212}]}
{"paperId":"2b81cdad690d8b6667b5399453bf9e4a73707640","indicators":[{"word":"smoke","begin":244,"end":248,"sentenceIndex":1,"sentenceBegin":104,"sentenceEnd":292},{"word":"smoke","begin":395,"end":399,"sentenceIndex":2,"sentenceBegin":294,"sentenceEnd":416}]}
{"paperId":"7f67766814dbcedf511eafe5b6348d87d082815a","indicators":[{"word":"smoking","begin":356,"end":362,"sentenceIndex":1,"sentenceBegin":216,"sentenceEnd":543},{"word":"tobacco","begin":477,"end":483,"sentenceIndex":1,"sentenceBegin":216,"sentenceEnd":543},{"word":"smoke","begin":485,"end":489,"sentenceIndex":1,"sentenceBegin":216,"sentenceEnd":543}]}
