{"paperId":"bc857b3d3f00b258346c09ec347d70d3e942f156","indicators":[{"word":"fume","begin":1172,"end":1175,"sentenceIndex":7,"sentenceBegin":1071,"sentenceEnd":1205}]}
{"paperId":"6b91da3d41c24e0d9cd5ab42446d3b8b6d3fbbfc","indicators":[{"word":"cigarette","begin":480,"end":488,"sentenceIndex":2,"sentenceBegin":448,"sentenceEnd":647},{"word":"smoking","begin":490,"end":496,"sentenceIndex":2,"sentenceBegin":448,"sentenceEnd":647}]}
{"paperId":"6b91da3d41c24e0d9cd5ab42446d3b8b6d3fbbfc","indicators":[{"word":"cigarette","begin":1646,"end":1654,"sentenceIndex":10,"sentenceBegin":1631,"sentenceEnd":1663}]}
{"paperId":"6b91da3d41c24e0d9cd5ab42446d3b8b6d3fbbfc","indicators":[{"word":"cigarette","begin":1017,"end":1025,"sentenceIndex":7,"sentenceBegin":985,"sentenceEnd":1055},{"word":"smoking","begin":1027,"end":1033,"sentenceIndex":7,"sentenceBegin":985,"sentenceEnd":1055}]}
{"paperId":"3a1a9007b9afd684679b587c8159aea112e1849e","indicators":[{"word":"smoking","begin":456,"end":462,"sentenceIndex":2,"sentenceBegin":308,"sentenceEnd":478}]}
{"paperId":"3a1a9007b9afd684679b587c8159aea112e1849e","indicators":[{"word":"smoking","begin":339,"end":345,"sentenceIndex":2,"sentenceBegin":222,"sentenceEnd":346}]}
{"paperId":"f0a81ef5904f18f92f59b48bb0b7bb6ec7f1c2a8","indicators":[{"word":"tobacco","begin":723,"end":729,"sentenceIndex":3,"sentenceBegin":566,"sentenceEnd":807}]}
{"paperId":"3448dfcf784b01174ac9662872167c2c32b7677f","indicators":[{"word":"fumes","begin":25,"end":29,"sentenceIndex":0,"sentenceBegin":0,"sentenceEnd":30}]}
{"paperId":"3448dfcf784b01174ac9662872167c2c32b7677f","indicators":[{"word":"smoke","begin":108,"end":112,"sentenceIndex":1,"sentenceBegin":20,"sentenceEnd":169}]}
{"paperId":"4137d97c264fd2eaa9e52bb26af921eb6c9199d2","indicators":[{"word":"tobacco","begin":495,"end":501,"sentenceIndex":2,"sentenceBegin":488,"sentenceEnd":750}]}
