{"paperId":"48e516e9056814f1541fc337612f0bc649d05536","indicators":[{"word":"tobacco","begin":306,"end":312,"sentenceIndex":2,"sentenceBegin":170,"sentenceEnd":389}]}
{"paperId":"48e516e9056814f1541fc337612f0bc649d05536","indicators":[{"word":"vapor","begin":350,"end":354,"sentenceIndex":2,"sentenceBegin":166,"sentenceEnd":355}]}
{"paperId":"48e516e9056814f1541fc337612f0bc649d05536","indicators":[{"word":"vapor","begin":330,"end":334,"sentenceIndex":2,"sentenceBegin":215,"sentenceEnd":407}]}
{"paperId":"7562c7352e2e8e40ce61f89699316db81c1565e2","indicators":[{"word":"vapors","begin":271,"end":276,"sentenceIndex":0,"sentenceBegin":0,"sentenceEnd":277}]}
{"paperId":"7562c7352e2e8e40ce61f89699316db81c1565e2","indicators":[{"word":"vapors","begin":557,"end":562,"sentenceIndex":4,"sentenceBegin":464,"sentenceEnd":610}]}
{"paperId":"7562c7352e2e8e40ce61f89699316db81c1565e2","indicators":[{"word":"vapors","begin":675,"end":680,"sentenceIndex":4,"sentenceBegin":490,"sentenceEnd":681}]}
{"paperId":"7562c7352e2e8e40ce61f89699316db81c1565e2","indicators":[{"word":"vapors","begin":272,"end":277,"sentenceIndex":1,"sentenceBegin":188,"sentenceEnd":389}]}
{"paperId":"7562c7352e2e8e40ce61f89699316db81c1565e2","indicators":[{"word":"vapors","begin":437,"end":442,"sentenceIndex":2,"sentenceBegin":313,"sentenceEnd":443}]}
{"paperId":"7562c7352e2e8e40ce61f89699316db81c1565e2","indicators":[{"word":"vapors","begin":385,"end":390,"sentenceIndex":2,"sentenceBegin":236,"sentenceEnd":404}]}
{"paperId":"7562c7352e2e8e40ce61f89699316db81c1565e2","indicators":[{"word":"vapors","begin":126,"end":131,"sentenceIndex":0,"sentenceBegin":0,"sentenceEnd":145}]}
{"paperId":"7562c7352e2e8e40ce61f89699316db81c1565e2","indicators":[{"word":"vapor","begin":174,"end":178,"sentenceIndex":0,"sentenceBegin":0,"sentenceEnd":200}]}
{"paperId":"7562c7352e2e8e40ce61f89699316db81c1565e2","indicators":[{"word":"cigarette","begin":213,"end":221,"sentenceIndex":1,"sentenceBegin":178,"sentenceEnd":303},{"word":"smoke","begin":223,"end":227,"sentenceIndex":1,"sentenceBegin":178,"sentenceEnd":303},{"word":"cigarette","begin":364,"end":372,"sentenceIndex":2,"sentenceBegin":305,"sentenceEnd":546},{"word":"smoke","begin":374,"end":378,"sentenceIndex":2,"sentenceBegin":305,"sentenceEnd":546}]}
{"paperId":"7562c7352e2e8e40ce61f89699316db81c1565e2","indicators":[{"word":"cigarette","begin":439,"end":447,"sentenceIndex":2,"sentenceBegin":265,"sentenceEnd":491},{"word":"smoke","begin":449,"end":453,"sentenceIndex":2,"sentenceBegin":265,"sentenceEnd":491}]}
{"paperId":"7555871496cfdf5945f87f2ef1f382d416179e1e","indicators":[{"word":"tobacco","begin":127,"end":133,"sentenceIndex":0,"sentenceBegin":0,"sentenceEnd":146}]}
{"paperId":"7555871496cfdf5945f87f2ef1f382d416179e1e","indicators":[{"word":"smoke","begin":560,"end":564,"sentenceIndex":3,"sentenceBegin":552,"sentenceEnd":710},{"word":"cigarette","begin":1049,"end":1057,"sentenceIndex":6,"sentenceBegin":995,"sentenceEnd":1121},{"word":"smoke","begin":1059,"end":1063,"sentenceIndex":6,"sentenceBegin":995,"sentenceEnd":1121},{"word":"cigarette","begin":1156,"end":1164,"sentenceIndex":7,"sentenceBegin":1123,"sentenceEnd":1332},{"word":"smoke","begin":1166,"end":1170,"sentenceIndex":7,"sentenceBegin":1123,"sentenceEnd":1332},{"word":"cigarette","begin":1236,"end":1244,"sentenceIndex":7,"sentenceBegin":1123,"sentenceEnd":1332},{"word":"smoke","begin":1246,"end":1250,"sentenceIndex":7,"sentenceBegin":1123,"sentenceEnd":1332}]}
{"paperId":"7e75f054fdd40882cfab57a44521ef706e9c8b20","indicators":[{"word":"smoking","begin":965,"end":971,"sentenceIndex":8,"sentenceBegin":864,"sentenceEnd":972}]}
{"paperId":"81f9bd0e0377dbd8e67c579b6614003e6d825ab3","indicators":[{"word":"pot","begin":1023,"end":1025,"sentenceIndex":5,"sentenceBegin":914,"sentenceEnd":1127}]}
{"paperId":"81f9bd0e0377dbd8e67c579b6614003e6d825ab3","indicators":[{"word":"pot","begin":155,"end":157,"sentenceIndex":1,"sentenceBegin":93,"sentenceEnd":198}]}
{"paperId":"031a727d260cd553094f58e4d18763f7d0b48889","indicators":[{"word":"smoke","begin":224,"end":228,"sentenceIndex":1,"sentenceBegin":115,"sentenceEnd":229}]}
{"paperId":"031a727d260cd553094f58e4d18763f7d0b48889","indicators":[{"word":"smoking","begin":446,"end":452,"sentenceIndex":4,"sentenceBegin":408,"sentenceEnd":472},{"word":"smoked","begin":608,"end":613,"sentenceIndex":5,"sentenceBegin":474,"sentenceEnd":614}]}
{"paperId":"031a727d260cd553094f58e4d18763f7d0b48889","indicators":[{"word":"smoke","begin":268,"end":272,"sentenceIndex":3,"sentenceBegin":228,"sentenceEnd":358}]}
{"paperId":"3c6ae08a76ec58954289d4a7759a3eb2e4a015f4","indicators":[{"word":"vapors","begin":1857,"end":1862,"sentenceIndex":11,"sentenceBegin":1812,"sentenceEnd":1987}]}
{"paperId":"b87c57272be8a74547d9fffd2d0ee58b1817b3a0","indicators":[{"word":"smoking","begin":1473,"end":1479,"sentenceIndex":14,"sentenceBegin":1468,"sentenceEnd":1556}]}
{"paperId":"b87c57272be8a74547d9fffd2d0ee58b1817b3a0","indicators":[{"word":"smoking","begin":1295,"end":1301,"sentenceIndex":26,"sentenceBegin":1192,"sentenceEnd":1416}]}
{"paperId":"e209a644a1c92ea938d8d14ab3c677238123f673","indicators":[{"word":"pots","begin":155,"end":158,"sentenceIndex":2,"sentenceBegin":105,"sentenceEnd":207},{"word":"pots","begin":542,"end":545,"sentenceIndex":7,"sentenceBegin":500,"sentenceEnd":546}]}
{"paperId":"e209a644a1c92ea938d8d14ab3c677238123f673","indicators":[{"word":"firing","begin":938,"end":943,"sentenceIndex":15,"sentenceBegin":912,"sentenceEnd":963}]}
