{"paperId":"4ce068e882b45ec4d09a5d90127c20b80b7e7fe7","indicators":[{"word":"tobacco","begin":537,"end":543,"sentenceIndex":2,"sentenceBegin":439,"sentenceEnd":647},{"word":"smoke","begin":545,"end":549,"sentenceIndex":2,"sentenceBegin":439,"sentenceEnd":647}]}
{"paperId":"4ce068e882b45ec4d09a5d90127c20b80b7e7fe7","indicators":[{"word":"tobacco","begin":86,"end":92,"sentenceIndex":0,"sentenceBegin":0,"sentenceEnd":253},{"word":"smoke","begin":94,"end":98,"sentenceIndex":0,"sentenceBegin":0,"sentenceEnd":253},{"word":"tobacco","begin":578,"end":584,"sentenceIndex":3,"sentenceBegin":537,"sentenceEnd":875},{"word":"smoke","begin":586,"end":590,"sentenceIndex":3,"sentenceBegin":537,"sentenceEnd":875}]}
{"paperId":"e03e153ea70a6cca66e7c82009d0bc815b5e2d85","indicators":[{"word":"tobacco","begin":1154,"end":1160,"sentenceIndex":5,"sentenceBegin":1128,"sentenceEnd":1289},{"word":"tobacco","begin":1344,"end":1350,"sentenceIndex":6,"sentenceBegin":1291,"sentenceEnd":1465},{"word":"tobacco","begin":2685,"end":2691,"sentenceIndex":21,"sentenceBegin":2625,"sentenceEnd":2897}]}
{"paperId":"a0aebcef0a0f84194abcfdc8181905306b8342cf","indicators":[{"word":"vapor","begin":262,"end":266,"sentenceIndex":2,"sentenceBegin":173,"sentenceEnd":292},{"word":"vapor","begin":1178,"end":1182,"sentenceIndex":8,"sentenceBegin":1066,"sentenceEnd":1223}]}
