{"paperId":"34417e7d5567385577929d30c9b65d1d20fe2580","indicators":[{"word":"smoking","begin":224,"end":230,"sentenceIndex":1,"sentenceBegin":183,"sentenceEnd":391}]}
{"paperId":"6b921efed7222c4732100bc5af073bc2d651a606","indicators":[{"word":"smoking","begin":712,"end":718,"sentenceIndex":4,"sentenceBegin":536,"sentenceEnd":719}]}
{"paperId":"4b60d22d3109a2e9c4d2e96045f6fdbcf7692cae","indicators":[{"word":"vapor","begin":39,"end":43,"sentenceIndex":0,"sentenceBegin":0,"sentenceEnd":80}]}
{"paperId":"4531c09198087cbcdb177e14a0a42d475aa412e9","indicators":[{"word":"smoking","begin":634,"end":640,"sentenceIndex":2,"sentenceBegin":375,"sentenceEnd":654}]}
