{"paperId":"2eb06838c62a16822b1a0aa7be0a43d380025f50","indicators":[{"word":"smoking","begin":212,"end":218,"sentenceIndex":0,"sentenceBegin":0,"sentenceEnd":274}]}
{"paperId":"2eb06838c62a16822b1a0aa7be0a43d380025f50","indicators":[{"word":"smoking","begin":487,"end":493,"sentenceIndex":0,"sentenceBegin":0,"sentenceEnd":508},{"word":"smoking","begin":663,"end":669,"sentenceIndex":1,"sentenceBegin":510,"sentenceEnd":737}]}
{"paperId":"2eb06838c62a16822b1a0aa7be0a43d380025f50","indicators":[{"word":"smoking","begin":603,"end":609,"sentenceIndex":2,"sentenceBegin":375,"sentenceEnd":692}]}
{"paperId":"6fa76790be17b5874ff6402f20c43a89e5caaf43","indicators":[{"word":"tobacco","begin":657,"end":663,"sentenceIndex":5,"sentenceBegin":551,"sentenceEnd":706},{"word":"tobacco","begin":1944,"end":1950,"sentenceIndex":19,"sentenceBegin":1920,"sentenceEnd":2058},{"word":"tobacco","begin":2085,"end":2091,"sentenceIndex":20,"sentenceBegin":2060,"sentenceEnd":2183}]}
{"paperId":"6fa76790be17b5874ff6402f20c43a89e5caaf43","indicators":[{"word":"tobacco","begin":114,"end":120,"sentenceIndex":0,"sentenceBegin":0,"sentenceEnd":421},{"word":"tobacco","begin":307,"end":313,"sentenceIndex":0,"sentenceBegin":0,"sentenceEnd":421}]}
{"paperId":"c3707f63904a49ea98f1d084a78c2e94defd0547","indicators":[{"word":"fired","begin":162,"end":166,"sentenceIndex":1,"sentenceBegin":142,"sentenceEnd":416}]}
{"paperId":"c3707f63904a49ea98f1d084a78c2e94defd0547","indicators":[{"word":"fired","begin":1796,"end":1800,"sentenceIndex":13,"sentenceBegin":1754,"sentenceEnd":1837}]}
{"paperId":"c3707f63904a49ea98f1d084a78c2e94defd0547","indicators":[{"word":"fired","begin":2411,"end":2415,"sentenceIndex":13,"sentenceBegin":2386,"sentenceEnd":2738}]}
{"paperId":"c3707f63904a49ea98f1d084a78c2e94defd0547","indicators":[{"word":"fired","begin":1344,"end":1348,"sentenceIndex":7,"sentenceBegin":1247,"sentenceEnd":1416},{"word":"firing","begin":2187,"end":2192,"sentenceIndex":14,"sentenceBegin":2152,"sentenceEnd":2348}]}
{"paperId":"822233763421a1e054abbc49c00a8726cb3ebfe1","indicators":[{"word":"pots","begin":222,"end":225,"sentenceIndex":1,"sentenceBegin":148,"sentenceEnd":239}]}
{"paperId":"9084b835852b9eb81706969fc4389ebaf48f0210","indicators":[{"word":"cigarette","begin":1406,"end":1414,"sentenceIndex":7,"sentenceBegin":1201,"sentenceEnd":1416}]}
{"paperId":"14731c68a9c8e84229b68e5606ca96b2b3292b6b","indicators":[{"word":"smoking","begin":1717,"end":1723,"sentenceIndex":14,"sentenceBegin":1698,"sentenceEnd":2035},{"word":"cigarette","begin":1747,"end":1755,"sentenceIndex":14,"sentenceBegin":1698,"sentenceEnd":2035}]}
{"paperId":"14731c68a9c8e84229b68e5606ca96b2b3292b6b","indicators":[{"word":"smoking","begin":1037,"end":1043,"sentenceIndex":9,"sentenceBegin":979,"sentenceEnd":1106}]}
