{"paperId":"162cabbd68031358b72a2e4da4f3e6b0b723a984","indicators":[{"word":"fires","begin":71,"end":75,"sentenceIndex":0,"sentenceBegin":0,"sentenceEnd":129}]}
{"paperId":"ec7c68c7366953b34c42d131c2de9d76b0cad867","indicators":[{"word":"vapors","begin":253,"end":258,"sentenceIndex":1,"sentenceBegin":148,"sentenceEnd":459}]}
{"paperId":"7baba805a4ea49e33a8ab8c306afccfa1b6a9935","indicators":[{"word":"vapors","begin":253,"end":258,"sentenceIndex":1,"sentenceBegin":148,"sentenceEnd":459}]}
{"paperId":"a4fa84ca8389cfe248ba23922f555c24a28afbf7","indicators":[{"word":"cigarettes","begin":405,"end":414,"sentenceIndex":2,"sentenceBegin":303,"sentenceEnd":427}]}
