{"paperId":"985304a925f8e0907ac412e693ec3c95c8b65772","indicators":[{"word":"smoking","begin":1365,"end":1371,"sentenceIndex":8,"sentenceBegin":1309,"sentenceEnd":1554}]}
{"paperId":"6483c05ba9e9eb6c58c06cb7190fca40c8844ff1","indicators":[{"word":"cigarette","begin":1068,"end":1076,"sentenceIndex":8,"sentenceBegin":994,"sentenceEnd":1112},{"word":"smoking","begin":1078,"end":1084,"sentenceIndex":8,"sentenceBegin":994,"sentenceEnd":1112}]}
{"paperId":"99b12163d1110a79ad5cb1f182fa480678f04d36","indicators":[{"word":"cigarette","begin":346,"end":354,"sentenceIndex":1,"sentenceBegin":258,"sentenceEnd":460}]}
{"paperId":"fa0827d9f5e3cbef3bbf5f48611a34e911a470fc","indicators":[{"word":"tobacco","begin":32,"end":38,"sentenceIndex":0,"sentenceBegin":0,"sentenceEnd":118}]}
{"paperId":"fa0827d9f5e3cbef3bbf5f48611a34e911a470fc","indicators":[{"word":"tobacco","begin":24,"end":30,"sentenceIndex":0,"sentenceBegin":0,"sentenceEnd":136},{"word":"smoking","begin":204,"end":210,"sentenceIndex":1,"sentenceBegin":138,"sentenceEnd":259}]}
{"paperId":"fa0827d9f5e3cbef3bbf5f48611a34e911a470fc","indicators":[{"word":"tobacco","begin":1766,"end":1772,"sentenceIndex":13,"sentenceBegin":1488,"sentenceEnd":1794}]}
{"paperId":"fa0827d9f5e3cbef3bbf5f48611a34e911a470fc","indicators":[{"word":"cigarette","begin":409,"end":417,"sentenceIndex":3,"sentenceBegin":344,"sentenceEnd":426},{"word":"smoking","begin":419,"end":425,"sentenceIndex":3,"sentenceBegin":344,"sentenceEnd":426}]}
{"paperId":"fa0827d9f5e3cbef3bbf5f48611a34e911a470fc","indicators":[{"word":"tobacco","begin":388,"end":394,"sentenceIndex":1,"sentenceBegin":303,"sentenceEnd":451},{"word":"smoke","begin":396,"end":400,"sentenceIndex":1,"sentenceBegin":303,"sentenceEnd":451}]}
{"paperId":"b2b90b3519bdcdd02d17595b01c3bb30cb8be63a","indicators":[{"word":"fume","begin":2195,"end":2198,"sentenceIndex":17,"sentenceBegin":2142,"sentenceEnd":2257}]}
{"paperId":"e0ad030c1b8382ee731e6c2c4dc766c97322fd30","indicators":[{"word":"fired","begin":102,"end":106,"sentenceIndex":0,"sentenceBegin":0,"sentenceEnd":149}]}
{"paperId":"19009426e72b8b177fa320acc5b0e5f4d9766c62","indicators":[{"word":"smoking","begin":201,"end":207,"sentenceIndex":1,"sentenceBegin":159,"sentenceEnd":354}]}
{"paperId":"6cd6c08cc339455e391a1bf8c2a588d6217d4b14","indicators":[{"word":"firing","begin":429,"end":434,"sentenceIndex":3,"sentenceBegin":348,"sentenceEnd":564}]}
{"paperId":"6cd6c08cc339455e391a1bf8c2a588d6217d4b14","indicators":[{"word":"firing","begin":800,"end":805,"sentenceIndex":3,"sentenceBegin":692,"sentenceEnd":844}]}
{"paperId":"89c57d5561ec6e36387dbd41ea562eb6d5263dd9","indicators":[{"word":"smoke","begin":2263,"end":2267,"sentenceIndex":14,"sentenceBegin":2187,"sentenceEnd":2325}]}
