{"paperId":"041e50456e5c62980ff8bb61d83283f58f09ef6d","indicators":[{"word":"weeds","begin":1949,"end":1953,"sentenceIndex":11,"sentenceBegin":1809,"sentenceEnd":1954}]}
{"paperId":"52dacb421f56e54d18d8545c8bb4f1488ffd10d5","indicators":[{"word":"smoking","begin":148,"end":154,"sentenceIndex":2,"sentenceBegin":89,"sentenceEnd":198}]}
{"paperId":"52dacb421f56e54d18d8545c8bb4f1488ffd10d5","indicators":[{"word":"smoking","begin":514,"end":520,"sentenceIndex":5,"sentenceBegin":367,"sentenceEnd":623}]}
{"paperId":"3e33aaf67e97cb125978c8f3a67f22307ffcd1d2","indicators":[{"word":"smoking","begin":2713,"end":2719,"sentenceIndex":21,"sentenceBegin":2693,"sentenceEnd":2790}]}
{"paperId":"3e33aaf67e97cb125978c8f3a67f22307ffcd1d2","indicators":[{"word":"smoking","begin":1190,"end":1196,"sentenceIndex":7,"sentenceBegin":1080,"sentenceEnd":1244}]}
{"paperId":"3e33aaf67e97cb125978c8f3a67f22307ffcd1d2","indicators":[{"word":"smoking","begin":951,"end":957,"sentenceIndex":5,"sentenceBegin":847,"sentenceEnd":997},{"word":"smoking","begin":1131,"end":1137,"sentenceIndex":6,"sentenceBegin":999,"sentenceEnd":1216}]}
{"paperId":"3e33aaf67e97cb125978c8f3a67f22307ffcd1d2","indicators":[{"word":"smoking","begin":2940,"end":2946,"sentenceIndex":16,"sentenceBegin":2794,"sentenceEnd":3015}]}
{"paperId":"3e33aaf67e97cb125978c8f3a67f22307ffcd1d2","indicators":[{"word":"smoking","begin":449,"end":455,"sentenceIndex":3,"sentenceBegin":329,"sentenceEnd":497}]}
{"paperId":"3e33aaf67e97cb125978c8f3a67f22307ffcd1d2","indicators":[{"word":"smoking","begin":2428,"end":2434,"sentenceIndex":23,"sentenceBegin":2293,"sentenceEnd":2451}]}
{"paperId":"7918a948d0ee675a4faa436a4ed4e4cdcaf545ac","indicators":[{"word":"smoking","begin":366,"end":372,"sentenceIndex":4,"sentenceBegin":293,"sentenceEnd":422}]}
{"paperId":"5f0e43b6b2db5b67a419bf41f70b141b21a209f0","indicators":[{"word":"smoking","begin":4738,"end":4744,"sentenceIndex":38,"sentenceBegin":4541,"sentenceEnd":4785}]}
{"paperId":"5f0e43b6b2db5b67a419bf41f70b141b21a209f0","indicators":[{"word":"smoking","begin":2025,"end":2031,"sentenceIndex":17,"sentenceBegin":1903,"sentenceEnd":2222}]}
{"paperId":"5f0e43b6b2db5b67a419bf41f70b141b21a209f0","indicators":[{"word":"smoking","begin":425,"end":431,"sentenceIndex":5,"sentenceBegin":403,"sentenceEnd":514},{"word":"smoking","begin":542,"end":548,"sentenceIndex":6,"sentenceBegin":516,"sentenceEnd":598},{"word":"smoking","begin":725,"end":731,"sentenceIndex":7,"sentenceBegin":600,"sentenceEnd":762},{"word":"smoking","begin":1201,"end":1207,"sentenceIndex":10,"sentenceBegin":1133,"sentenceEnd":1266},{"word":"smoking","begin":1481,"end":1487,"sentenceIndex":12,"sentenceBegin":1436,"sentenceEnd":1519},{"word":"smoking","begin":2424,"end":2430,"sentenceIndex":25,"sentenceBegin":2386,"sentenceEnd":2495},{"word":"smoking","begin":2558,"end":2564,"sentenceIndex":26,"sentenceBegin":2497,"sentenceEnd":2627}]}
{"paperId":"d96fc404703090f9e4d53cb0eab3f3574fa5fdb1","indicators":[{"word":"firing","begin":27588,"end":27593,"sentenceIndex":194,"sentenceBegin":27400,"sentenceEnd":27713},{"word":"firing","begin":27643,"end":27648,"sentenceIndex":194,"sentenceBegin":27400,"sentenceEnd":27713},{"word":"firing","begin":28154,"end":28159,"sentenceIndex":197,"sentenceBegin":28062,"sentenceEnd":28160}]}
{"paperId":"d96fc404703090f9e4d53cb0eab3f3574fa5fdb1","indicators":[{"word":"firing","begin":3641,"end":3646,"sentenceIndex":24,"sentenceBegin":3493,"sentenceEnd":3689}]}
{"paperId":"d96fc404703090f9e4d53cb0eab3f3574fa5fdb1","indicators":[{"word":"tobacco","begin":17183,"end":17189,"sentenceIndex":116,"sentenceBegin":17183,"sentenceEnd":17211},{"word":"smoke","begin":17191,"end":17195,"sentenceIndex":116,"sentenceBegin":17183,"sentenceEnd":17211}]}
{"paperId":"d96fc404703090f9e4d53cb0eab3f3574fa5fdb1","indicators":[{"word":"vapors","begin":4403,"end":4408,"sentenceIndex":30,"sentenceBegin":4296,"sentenceEnd":4409},{"word":"smog","begin":8894,"end":8897,"sentenceIndex":62,"sentenceBegin":8855,"sentenceEnd":8942}]}
{"paperId":"d96fc404703090f9e4d53cb0eab3f3574fa5fdb1","indicators":[{"word":"cigarette","begin":48723,"end":48731,"sentenceIndex":321,"sentenceBegin":48595,"sentenceEnd":48767},{"word":"smoke","begin":48733,"end":48737,"sentenceIndex":321,"sentenceBegin":48595,"sentenceEnd":48767}]}
{"paperId":"d96fc404703090f9e4d53cb0eab3f3574fa5fdb1","indicators":[{"word":"smoke","begin":4300,"end":4304,"sentenceIndex":27,"sentenceBegin":4290,"sentenceEnd":4375},{"word":"smoking","begin":4980,"end":4986,"sentenceIndex":29,"sentenceBegin":4598,"sentenceEnd":4987}]}
{"paperId":"fc7bbe3a81e94ce0303d6164563713a54288e201","indicators":[{"word":"smoking","begin":4775,"end":4781,"sentenceIndex":34,"sentenceBegin":4611,"sentenceEnd":4877}]}
{"paperId":"fc7bbe3a81e94ce0303d6164563713a54288e201","indicators":[{"word":"smoking","begin":3535,"end":3541,"sentenceIndex":27,"sentenceBegin":3473,"sentenceEnd":3542},{"word":"smoking","begin":3624,"end":3630,"sentenceIndex":28,"sentenceBegin":3544,"sentenceEnd":3804},{"word":"cigarettes","begin":3688,"end":3697,"sentenceIndex":28,"sentenceBegin":3544,"sentenceEnd":3804},{"word":"smoking","begin":3720,"end":3726,"sentenceIndex":28,"sentenceBegin":3544,"sentenceEnd":3804},{"word":"smoking","begin":3779,"end":3785,"sentenceIndex":28,"sentenceBegin":3544,"sentenceEnd":3804},{"word":"smoking","begin":4801,"end":4807,"sentenceIndex":36,"sentenceBegin":4776,"sentenceEnd":4954},{"word":"smoking","begin":5032,"end":5038,"sentenceIndex":37,"sentenceBegin":4956,"sentenceEnd":5063}]}
{"paperId":"fc7bbe3a81e94ce0303d6164563713a54288e201","indicators":[{"word":"smoking","begin":855,"end":861,"sentenceIndex":4,"sentenceBegin":820,"sentenceEnd":1110},{"word":"smoking","begin":1506,"end":1512,"sentenceIndex":7,"sentenceBegin":1355,"sentenceEnd":1728},{"word":"smoking","begin":1549,"end":1555,"sentenceIndex":7,"sentenceBegin":1355,"sentenceEnd":1728},{"word":"smoking","begin":1873,"end":1879,"sentenceIndex":9,"sentenceBegin":1856,"sentenceEnd":1987}]}
{"paperId":"3057b4cb6ca0c5620986a92422b680f6a978fc98","indicators":[{"word":"smoking","begin":242,"end":248,"sentenceIndex":2,"sentenceBegin":131,"sentenceEnd":287}]}
{"paperId":"3057b4cb6ca0c5620986a92422b680f6a978fc98","indicators":[{"word":"smoking","begin":154,"end":160,"sentenceIndex":1,"sentenceBegin":112,"sentenceEnd":209},{"word":"tobacco","begin":466,"end":472,"sentenceIndex":3,"sentenceBegin":388,"sentenceEnd":571}]}
{"paperId":"3057b4cb6ca0c5620986a92422b680f6a978fc98","indicators":[{"word":"smoking","begin":288,"end":294,"sentenceIndex":3,"sentenceBegin":209,"sentenceEnd":329}]}
{"paperId":"3057b4cb6ca0c5620986a92422b680f6a978fc98","indicators":[{"word":"smoking","begin":675,"end":681,"sentenceIndex":4,"sentenceBegin":653,"sentenceEnd":795}]}
{"paperId":"3057b4cb6ca0c5620986a92422b680f6a978fc98","indicators":[{"word":"smoking","begin":24,"end":30,"sentenceIndex":0,"sentenceBegin":0,"sentenceEnd":62}]}
{"paperId":"3057b4cb6ca0c5620986a92422b680f6a978fc98","indicators":[{"word":"smoking","begin":504,"end":510,"sentenceIndex":7,"sentenceBegin":479,"sentenceEnd":787}]}
{"paperId":"3057b4cb6ca0c5620986a92422b680f6a978fc98","indicators":[{"word":"smoking","begin":333,"end":339,"sentenceIndex":3,"sentenceBegin":238,"sentenceEnd":555}]}
{"paperId":"7b4b3a28e39fabfe08ae0e595f1dd4df9f70e366","indicators":[{"word":"tobacco","begin":1233,"end":1239,"sentenceIndex":8,"sentenceBegin":1230,"sentenceEnd":1410}]}
{"paperId":"7b4b3a28e39fabfe08ae0e595f1dd4df9f70e366","indicators":[{"word":"tobacco","begin":491,"end":497,"sentenceIndex":2,"sentenceBegin":358,"sentenceEnd":551}]}
{"paperId":"880d3a65e93a987c730cc71af94918ca1eb6393d","indicators":[{"word":"tobacco","begin":2818,"end":2824,"sentenceIndex":20,"sentenceBegin":2571,"sentenceEnd":2896}]}
{"paperId":"880d3a65e93a987c730cc71af94918ca1eb6393d","indicators":[{"word":"firing","begin":7473,"end":7478,"sentenceIndex":59,"sentenceBegin":7455,"sentenceEnd":7578}]}
{"paperId":"880d3a65e93a987c730cc71af94918ca1eb6393d","indicators":[{"word":"firing","begin":1719,"end":1724,"sentenceIndex":12,"sentenceBegin":1649,"sentenceEnd":1771}]}
{"paperId":"880d3a65e93a987c730cc71af94918ca1eb6393d","indicators":[{"word":"smoke","begin":851,"end":855,"sentenceIndex":7,"sentenceBegin":715,"sentenceEnd":856}]}
{"paperId":"b616293107ee48ebc8884fc55ebc66965df4feb8","indicators":[{"word":"smoke","begin":75,"end":79,"sentenceIndex":1,"sentenceBegin":39,"sentenceEnd":172}]}
{"paperId":"a70b3f1aa7fad72026590a18deef39c12cbbaa03","indicators":[{"word":"smoking","begin":243,"end":249,"sentenceIndex":3,"sentenceBegin":153,"sentenceEnd":415}]}
{"paperId":"a70b3f1aa7fad72026590a18deef39c12cbbaa03","indicators":[{"word":"smoking","begin":140,"end":146,"sentenceIndex":2,"sentenceBegin":108,"sentenceEnd":195}]}
{"paperId":"a70b3f1aa7fad72026590a18deef39c12cbbaa03","indicators":[{"word":"smoking","begin":667,"end":673,"sentenceIndex":5,"sentenceBegin":512,"sentenceEnd":920}]}
{"paperId":"0ba08d35d8c3d827a79950dbadc0e76a6f6da45a","indicators":[{"word":"tobacco","begin":571,"end":577,"sentenceIndex":3,"sentenceBegin":384,"sentenceEnd":578}]}
{"paperId":"0ba08d35d8c3d827a79950dbadc0e76a6f6da45a","indicators":[{"word":"firing","begin":1103,"end":1108,"sentenceIndex":6,"sentenceBegin":898,"sentenceEnd":1114}]}
{"paperId":"0ba08d35d8c3d827a79950dbadc0e76a6f6da45a","indicators":[{"word":"firing","begin":459,"end":464,"sentenceIndex":2,"sentenceBegin":289,"sentenceEnd":517}]}
{"paperId":"de34c6bec604cf403101b1a2f8b0f76fbb327670","indicators":[{"word":"smoking","begin":538,"end":544,"sentenceIndex":5,"sentenceBegin":499,"sentenceEnd":757}]}
{"paperId":"de34c6bec604cf403101b1a2f8b0f76fbb327670","indicators":[{"word":"cigarette","begin":262,"end":270,"sentenceIndex":1,"sentenceBegin":98,"sentenceEnd":318},{"word":"smoking","begin":272,"end":278,"sentenceIndex":1,"sentenceBegin":98,"sentenceEnd":318}]}
{"paperId":"de34c6bec604cf403101b1a2f8b0f76fbb327670","indicators":[{"word":"smoking","begin":288,"end":294,"sentenceIndex":1,"sentenceBegin":73,"sentenceEnd":302}]}
{"paperId":"de34c6bec604cf403101b1a2f8b0f76fbb327670","indicators":[{"word":"firing","begin":1386,"end":1391,"sentenceIndex":10,"sentenceBegin":1243,"sentenceEnd":1476}]}
{"paperId":"317d8d3f6e1d5181db422854e0a84c1f2732752f","indicators":[{"word":"tobacco","begin":2202,"end":2208,"sentenceIndex":13,"sentenceBegin":2084,"sentenceEnd":2209},{"word":"tobacco","begin":2463,"end":2469,"sentenceIndex":15,"sentenceBegin":2441,"sentenceEnd":2614}]}
{"paperId":"317d8d3f6e1d5181db422854e0a84c1f2732752f","indicators":[{"word":"puff","begin":6336,"end":6339,"sentenceIndex":38,"sentenceBegin":6230,"sentenceEnd":6377}]}
{"paperId":"317d8d3f6e1d5181db422854e0a84c1f2732752f","indicators":[{"word":"puffs","begin":3291,"end":3295,"sentenceIndex":19,"sentenceBegin":3080,"sentenceEnd":3320}]}
{"paperId":"317d8d3f6e1d5181db422854e0a84c1f2732752f","indicators":[{"word":"tobacco","begin":448,"end":454,"sentenceIndex":1,"sentenceBegin":283,"sentenceEnd":455},{"word":"tobacco","begin":1267,"end":1273,"sentenceIndex":8,"sentenceBegin":1114,"sentenceEnd":1274}]}
{"paperId":"317d8d3f6e1d5181db422854e0a84c1f2732752f","indicators":[{"word":"tobacco","begin":60,"end":66,"sentenceIndex":0,"sentenceBegin":0,"sentenceEnd":146},{"word":"tobacco","begin":132,"end":138,"sentenceIndex":0,"sentenceBegin":0,"sentenceEnd":146}]}
{"paperId":"317d8d3f6e1d5181db422854e0a84c1f2732752f","indicators":[{"word":"tobacco","begin":248,"end":254,"sentenceIndex":1,"sentenceBegin":188,"sentenceEnd":283}]}
{"paperId":"317d8d3f6e1d5181db422854e0a84c1f2732752f","indicators":[{"word":"tobacco","begin":411,"end":417,"sentenceIndex":7,"sentenceBegin":372,"sentenceEnd":629},{"word":"tobacco","begin":1223,"end":1229,"sentenceIndex":11,"sentenceBegin":1125,"sentenceEnd":1267}]}
{"paperId":"317d8d3f6e1d5181db422854e0a84c1f2732752f","indicators":[{"word":"tobacco","begin":610,"end":616,"sentenceIndex":5,"sentenceBegin":596,"sentenceEnd":643}]}
{"paperId":"317d8d3f6e1d5181db422854e0a84c1f2732752f","indicators":[{"word":"fired","begin":88,"end":92,"sentenceIndex":0,"sentenceBegin":0,"sentenceEnd":161}]}
{"paperId":"317d8d3f6e1d5181db422854e0a84c1f2732752f","indicators":[{"word":"firing","begin":2367,"end":2372,"sentenceIndex":15,"sentenceBegin":2363,"sentenceEnd":2627}]}
{"paperId":"317d8d3f6e1d5181db422854e0a84c1f2732752f","indicators":[{"word":"firing","begin":1701,"end":1706,"sentenceIndex":11,"sentenceBegin":1656,"sentenceEnd":1791},{"word":"firing","begin":3105,"end":3110,"sentenceIndex":19,"sentenceBegin":3050,"sentenceEnd":3207}]}
{"paperId":"317d8d3f6e1d5181db422854e0a84c1f2732752f","indicators":[{"word":"cigarettes","begin":34,"end":43,"sentenceIndex":0,"sentenceBegin":0,"sentenceEnd":322},{"word":"smoke","begin":134,"end":138,"sentenceIndex":0,"sentenceBegin":0,"sentenceEnd":322},{"word":"smoking","begin":209,"end":215,"sentenceIndex":0,"sentenceBegin":0,"sentenceEnd":322},{"word":"cigarettes","begin":238,"end":247,"sentenceIndex":0,"sentenceBegin":0,"sentenceEnd":322},{"word":"cigarettes","begin":295,"end":304,"sentenceIndex":0,"sentenceBegin":0,"sentenceEnd":322},{"word":"cigarette","begin":312,"end":320,"sentenceIndex":0,"sentenceBegin":0,"sentenceEnd":322},{"word":"puffing","begin":370,"end":376,"sentenceIndex":1,"sentenceBegin":324,"sentenceEnd":435},{"word":"puffing","begin":419,"end":425,"sentenceIndex":1,"sentenceBegin":324,"sentenceEnd":435},{"word":"smoking","begin":490,"end":496,"sentenceIndex":2,"sentenceBegin":437,"sentenceEnd":552},{"word":"cigarettes","begin":498,"end":507,"sentenceIndex":2,"sentenceBegin":437,"sentenceEnd":552},{"word":"cigarettes","begin":820,"end":829,"sentenceIndex":8,"sentenceBegin":803,"sentenceEnd":1024},{"word":"cigarettes","begin":922,"end":931,"sentenceIndex":8,"sentenceBegin":803,"sentenceEnd":1024},{"word":"cigarettes","begin":989,"end":998,"sentenceIndex":8,"sentenceBegin":803,"sentenceEnd":1024},{"word":"puffing","begin":1038,"end":1044,"sentenceIndex":9,"sentenceBegin":1026,"sentenceEnd":1312},{"word":"puffs","begin":1097,"end":1101,"sentenceIndex":9,"sentenceBegin":1026,"sentenceEnd":1312},{"word":"puff","begin":1121,"end":1124,"sentenceIndex":9,"sentenceBegin":1026,"sentenceEnd":1312},{"word":"cigarettes","begin":1177,"end":1186,"sentenceIndex":9,"sentenceBegin":1026,"sentenceEnd":1312},{"word":"puff","begin":1194,"end":1197,"sentenceIndex":9,"sentenceBegin":1026,"sentenceEnd":1312},{"word":"cigarettes","begin":1237,"end":1246,"sentenceIndex":9,"sentenceBegin":1026,"sentenceEnd":1312},{"word":"cigarettes","begin":1302,"end":1311,"sentenceIndex":9,"sentenceBegin":1026,"sentenceEnd":1312},{"word":"cigarettes","begin":1374,"end":1383,"sentenceIndex":10,"sentenceBegin":1314,"sentenceEnd":1513},{"word":"smoked","begin":1390,"end":1395,"sentenceIndex":10,"sentenceBegin":1314,"sentenceEnd":1513},{"word":"cigarettes","begin":1429,"end":1438,"sentenceIndex":10,"sentenceBegin":1314,"sentenceEnd":1513}]}
{"paperId":"317d8d3f6e1d5181db422854e0a84c1f2732752f","indicators":[{"word":"smoking","begin":372,"end":378,"sentenceIndex":1,"sentenceBegin":369,"sentenceEnd":453},{"word":"cigarette","begin":444,"end":452,"sentenceIndex":1,"sentenceBegin":369,"sentenceEnd":453},{"word":"smoking","begin":480,"end":486,"sentenceIndex":2,"sentenceBegin":455,"sentenceEnd":559},{"word":"smoke","begin":537,"end":541,"sentenceIndex":2,"sentenceBegin":455,"sentenceEnd":559},{"word":"cigarettes","begin":662,"end":671,"sentenceIndex":3,"sentenceBegin":561,"sentenceEnd":761},{"word":"cigarettes","begin":751,"end":760,"sentenceIndex":3,"sentenceBegin":561,"sentenceEnd":761},{"word":"cigarettes","begin":871,"end":880,"sentenceIndex":4,"sentenceBegin":763,"sentenceEnd":1064},{"word":"cigarettes","begin":1293,"end":1302,"sentenceIndex":6,"sentenceBegin":1247,"sentenceEnd":1514},{"word":"cigarettes","begin":1437,"end":1446,"sentenceIndex":6,"sentenceBegin":1247,"sentenceEnd":1514},{"word":"cigarette","begin":1496,"end":1504,"sentenceIndex":6,"sentenceBegin":1247,"sentenceEnd":1514},{"word":"smoking","begin":1663,"end":1669,"sentenceIndex":7,"sentenceBegin":1516,"sentenceEnd":1769},{"word":"cigarettes","begin":1838,"end":1847,"sentenceIndex":8,"sentenceBegin":1771,"sentenceEnd":1930},{"word":"cigarette","begin":1921,"end":1929,"sentenceIndex":8,"sentenceBegin":1771,"sentenceEnd":1930}]}
{"paperId":"2fd9561f1513fd066a821f16cd0c75e7abb79a20","indicators":[{"word":"puff","begin":5283,"end":5286,"sentenceIndex":52,"sentenceBegin":5231,"sentenceEnd":5329}]}
{"paperId":"2fd9561f1513fd066a821f16cd0c75e7abb79a20","indicators":[{"word":"tobacco","begin":118,"end":124,"sentenceIndex":1,"sentenceBegin":84,"sentenceEnd":293}]}
{"paperId":"2fd9561f1513fd066a821f16cd0c75e7abb79a20","indicators":[{"word":"smoking","begin":2744,"end":2750,"sentenceIndex":23,"sentenceBegin":2664,"sentenceEnd":2845}]}
{"paperId":"1f63075aa219ae29132b49a0c7277632b9b31ba8","indicators":[{"word":"smoking","begin":4584,"end":4590,"sentenceIndex":37,"sentenceBegin":4551,"sentenceEnd":4652},{"word":"cigarette","begin":4706,"end":4714,"sentenceIndex":38,"sentenceBegin":4654,"sentenceEnd":4889},{"word":"smoking","begin":4716,"end":4722,"sentenceIndex":38,"sentenceBegin":4654,"sentenceEnd":4889},{"word":"smoked","begin":6119,"end":6124,"sentenceIndex":48,"sentenceBegin":6106,"sentenceEnd":6264},{"word":"smoked","begin":6210,"end":6215,"sentenceIndex":48,"sentenceBegin":6106,"sentenceEnd":6264},{"word":"cigarette","begin":6326,"end":6334,"sentenceIndex":49,"sentenceBegin":6266,"sentenceEnd":6573},{"word":"smoking","begin":6336,"end":6342,"sentenceIndex":49,"sentenceBegin":6266,"sentenceEnd":6573},{"word":"smoking","begin":6819,"end":6825,"sentenceIndex":51,"sentenceBegin":6770,"sentenceEnd":6844}]}
{"paperId":"1f63075aa219ae29132b49a0c7277632b9b31ba8","indicators":[{"word":"smoking","begin":1589,"end":1595,"sentenceIndex":11,"sentenceBegin":1572,"sentenceEnd":1709}]}
{"paperId":"02e359329ec03045275aaf6a153b97dc4e0866af","indicators":[{"word":"smoking","begin":443,"end":449,"sentenceIndex":2,"sentenceBegin":333,"sentenceEnd":550},{"word":"smoking","begin":533,"end":539,"sentenceIndex":2,"sentenceBegin":333,"sentenceEnd":550},{"word":"tobacco","begin":612,"end":618,"sentenceIndex":3,"sentenceBegin":552,"sentenceEnd":640},{"word":"tobacco","begin":965,"end":971,"sentenceIndex":6,"sentenceBegin":901,"sentenceEnd":1095}]}
{"paperId":"3f46fc3941e7a30144ac1b2c37c91056cfc5c382","indicators":[{"word":"smoking","begin":608,"end":614,"sentenceIndex":2,"sentenceBegin":323,"sentenceEnd":675}]}
{"paperId":"3f46fc3941e7a30144ac1b2c37c91056cfc5c382","indicators":[{"word":"smoking","begin":2250,"end":2256,"sentenceIndex":18,"sentenceBegin":2122,"sentenceEnd":2329},{"word":"smoking","begin":2366,"end":2372,"sentenceIndex":19,"sentenceBegin":2331,"sentenceEnd":2490}]}
{"paperId":"3f46fc3941e7a30144ac1b2c37c91056cfc5c382","indicators":[{"word":"smoking","begin":438,"end":444,"sentenceIndex":3,"sentenceBegin":354,"sentenceEnd":475}]}
{"paperId":"3f46fc3941e7a30144ac1b2c37c91056cfc5c382","indicators":[{"word":"cigarette","begin":716,"end":724,"sentenceIndex":5,"sentenceBegin":664,"sentenceEnd":783},{"word":"smoke","begin":726,"end":730,"sentenceIndex":5,"sentenceBegin":664,"sentenceEnd":783},{"word":"smoking","begin":917,"end":923,"sentenceIndex":6,"sentenceBegin":785,"sentenceEnd":1024},{"word":"tobacco","begin":1002,"end":1008,"sentenceIndex":6,"sentenceBegin":785,"sentenceEnd":1024},{"word":"smoke","begin":1010,"end":1014,"sentenceIndex":6,"sentenceBegin":785,"sentenceEnd":1024},{"word":"cigarettes","begin":1564,"end":1573,"sentenceIndex":12,"sentenceBegin":1390,"sentenceEnd":1770},{"word":"tobacco","begin":5244,"end":5250,"sentenceIndex":44,"sentenceBegin":5187,"sentenceEnd":5344}]}
{"paperId":"3f46fc3941e7a30144ac1b2c37c91056cfc5c382","indicators":[{"word":"smoking","begin":2387,"end":2393,"sentenceIndex":17,"sentenceBegin":2312,"sentenceEnd":2451},{"word":"smoking","begin":2684,"end":2690,"sentenceIndex":20,"sentenceBegin":2670,"sentenceEnd":2759},{"word":"smoking","begin":2784,"end":2790,"sentenceIndex":21,"sentenceBegin":2761,"sentenceEnd":2829},{"word":"smoking","begin":3011,"end":3017,"sentenceIndex":23,"sentenceBegin":2984,"sentenceEnd":3028},{"word":"smoking","begin":3091,"end":3097,"sentenceIndex":26,"sentenceBegin":3074,"sentenceEnd":3108},{"word":"smoking","begin":3243,"end":3249,"sentenceIndex":29,"sentenceBegin":3185,"sentenceEnd":3250},{"word":"smoking","begin":3286,"end":3292,"sentenceIndex":30,"sentenceBegin":3252,"sentenceEnd":3494},{"word":"smoking","begin":3374,"end":3380,"sentenceIndex":30,"sentenceBegin":3252,"sentenceEnd":3494},{"word":"tobacco","begin":3431,"end":3437,"sentenceIndex":30,"sentenceBegin":3252,"sentenceEnd":3494},{"word":"smoking","begin":7107,"end":7113,"sentenceIndex":58,"sentenceBegin":7074,"sentenceEnd":7280},{"word":"smoking","begin":15790,"end":15796,"sentenceIndex":130,"sentenceBegin":15694,"sentenceEnd":15842}]}
{"paperId":"3f46fc3941e7a30144ac1b2c37c91056cfc5c382","indicators":[{"word":"smoking","begin":7975,"end":7981,"sentenceIndex":66,"sentenceBegin":7957,"sentenceEnd":8148},{"word":"smoking","begin":8325,"end":8331,"sentenceIndex":68,"sentenceBegin":8262,"sentenceEnd":8355},{"word":"smoking","begin":8564,"end":8570,"sentenceIndex":70,"sentenceBegin":8468,"sentenceEnd":8634},{"word":"smoking","begin":8851,"end":8857,"sentenceIndex":73,"sentenceBegin":8773,"sentenceEnd":8858},{"word":"smoking","begin":8918,"end":8924,"sentenceIndex":74,"sentenceBegin":8860,"sentenceEnd":9135},{"word":"smoke","begin":8966,"end":8970,"sentenceIndex":74,"sentenceBegin":8860,"sentenceEnd":9135},{"word":"smoking","begin":8982,"end":8988,"sentenceIndex":74,"sentenceBegin":8860,"sentenceEnd":9135},{"word":"smoking","begin":9049,"end":9055,"sentenceIndex":74,"sentenceBegin":8860,"sentenceEnd":9135},{"word":"smoking","begin":9213,"end":9219,"sentenceIndex":76,"sentenceBegin":9149,"sentenceEnd":9298},{"word":"smoking","begin":13752,"end":13758,"sentenceIndex":115,"sentenceBegin":13682,"sentenceEnd":13823},{"word":"smoking","begin":14874,"end":14880,"sentenceIndex":124,"sentenceBegin":14825,"sentenceEnd":14995}]}
{"paperId":"3f46fc3941e7a30144ac1b2c37c91056cfc5c382","indicators":[{"word":"smoking","begin":1777,"end":1783,"sentenceIndex":12,"sentenceBegin":1627,"sentenceEnd":1784}]}
{"paperId":"3f46fc3941e7a30144ac1b2c37c91056cfc5c382","indicators":[{"word":"smoking","begin":1359,"end":1365,"sentenceIndex":14,"sentenceBegin":1345,"sentenceEnd":1488},{"word":"smoking","begin":1514,"end":1520,"sentenceIndex":15,"sentenceBegin":1490,"sentenceEnd":1709},{"word":"smoking","begin":1974,"end":1980,"sentenceIndex":18,"sentenceBegin":1908,"sentenceEnd":1988},{"word":"smoking","begin":2129,"end":2135,"sentenceIndex":20,"sentenceBegin":2110,"sentenceEnd":2286},{"word":"smoking","begin":2325,"end":2331,"sentenceIndex":21,"sentenceBegin":2288,"sentenceEnd":2372},{"word":"smoking","begin":2555,"end":2561,"sentenceIndex":24,"sentenceBegin":2540,"sentenceEnd":2678},{"word":"smoking","begin":3376,"end":3382,"sentenceIndex":28,"sentenceBegin":3166,"sentenceEnd":3389},{"word":"smoking","begin":3433,"end":3439,"sentenceIndex":29,"sentenceBegin":3391,"sentenceEnd":3583},{"word":"smoking","begin":19382,"end":19388,"sentenceIndex":143,"sentenceBegin":19320,"sentenceEnd":19422},{"word":"smoking","begin":25746,"end":25752,"sentenceIndex":193,"sentenceBegin":25644,"sentenceEnd":25753}]}
{"paperId":"3f46fc3941e7a30144ac1b2c37c91056cfc5c382","indicators":[{"word":"smoking","begin":46,"end":52,"sentenceIndex":0,"sentenceBegin":0,"sentenceEnd":154},{"word":"smoking","begin":236,"end":242,"sentenceIndex":1,"sentenceBegin":156,"sentenceEnd":269},{"word":"smoking","begin":373,"end":379,"sentenceIndex":3,"sentenceBegin":330,"sentenceEnd":441},{"word":"smoking","begin":556,"end":562,"sentenceIndex":4,"sentenceBegin":443,"sentenceEnd":563},{"word":"smoking","begin":581,"end":587,"sentenceIndex":5,"sentenceBegin":565,"sentenceEnd":692},{"word":"smoking","begin":764,"end":770,"sentenceIndex":6,"sentenceBegin":694,"sentenceEnd":771},{"word":"smoking","begin":894,"end":900,"sentenceIndex":8,"sentenceBegin":885,"sentenceEnd":976},{"word":"smoking","begin":1064,"end":1070,"sentenceIndex":9,"sentenceBegin":978,"sentenceEnd":1081},{"word":"smoking","begin":1116,"end":1122,"sentenceIndex":10,"sentenceBegin":1083,"sentenceEnd":1226},{"word":"smoking","begin":6713,"end":6719,"sentenceIndex":59,"sentenceBegin":6654,"sentenceEnd":6774},{"word":"smoking","begin":6823,"end":6829,"sentenceIndex":60,"sentenceBegin":6776,"sentenceEnd":6868},{"word":"smoking","begin":7144,"end":7150,"sentenceIndex":62,"sentenceBegin":7129,"sentenceEnd":7214},{"word":"smoking","begin":7605,"end":7611,"sentenceIndex":64,"sentenceBegin":7520,"sentenceEnd":7620},{"word":"smoking","begin":7864,"end":7870,"sentenceIndex":68,"sentenceBegin":7812,"sentenceEnd":7911},{"word":"smoking","begin":7965,"end":7971,"sentenceIndex":69,"sentenceBegin":7913,"sentenceEnd":8046},{"word":"smoking","begin":8084,"end":8090,"sentenceIndex":70,"sentenceBegin":8048,"sentenceEnd":8156},{"word":"smoking","begin":8108,"end":8114,"sentenceIndex":70,"sentenceBegin":8048,"sentenceEnd":8156}]}
{"paperId":"3f46fc3941e7a30144ac1b2c37c91056cfc5c382","indicators":[{"word":"smoking","begin":9740,"end":9746,"sentenceIndex":75,"sentenceBegin":9628,"sentenceEnd":9754}]}
{"paperId":"3f46fc3941e7a30144ac1b2c37c91056cfc5c382","indicators":[{"word":"smoking","begin":36,"end":42,"sentenceIndex":0,"sentenceBegin":0,"sentenceEnd":93},{"word":"tobacco","begin":147,"end":153,"sentenceIndex":1,"sentenceBegin":95,"sentenceEnd":230},{"word":"smoke","begin":155,"end":159,"sentenceIndex":1,"sentenceBegin":95,"sentenceEnd":230},{"word":"smoking","begin":449,"end":455,"sentenceIndex":3,"sentenceBegin":342,"sentenceEnd":509},{"word":"smoking","begin":1175,"end":1181,"sentenceIndex":9,"sentenceBegin":1115,"sentenceEnd":1223}]}
{"paperId":"3f46fc3941e7a30144ac1b2c37c91056cfc5c382","indicators":[{"word":"tobacco","begin":1156,"end":1162,"sentenceIndex":11,"sentenceBegin":1128,"sentenceEnd":1169},{"word":"smoke","begin":1164,"end":1168,"sentenceIndex":11,"sentenceBegin":1128,"sentenceEnd":1169},{"word":"tobacco","begin":1330,"end":1336,"sentenceIndex":12,"sentenceBegin":1171,"sentenceEnd":1346},{"word":"tobacco","begin":1635,"end":1641,"sentenceIndex":15,"sentenceBegin":1592,"sentenceEnd":1651},{"word":"tobacco","begin":1952,"end":1958,"sentenceIndex":19,"sentenceBegin":1887,"sentenceEnd":1999}]}
{"paperId":"3f46fc3941e7a30144ac1b2c37c91056cfc5c382","indicators":[{"word":"smoking","begin":3787,"end":3793,"sentenceIndex":28,"sentenceBegin":3703,"sentenceEnd":4032},{"word":"smoking","begin":7653,"end":7659,"sentenceIndex":54,"sentenceBegin":7643,"sentenceEnd":7767},{"word":"smoking","begin":9283,"end":9289,"sentenceIndex":63,"sentenceBegin":9147,"sentenceEnd":9290},{"word":"smoking","begin":35645,"end":35651,"sentenceIndex":287,"sentenceBegin":35416,"sentenceEnd":35699},{"word":"smoking","begin":36800,"end":36806,"sentenceIndex":301,"sentenceBegin":36734,"sentenceEnd":36886},{"word":"smoking","begin":41434,"end":41440,"sentenceIndex":336,"sentenceBegin":41405,"sentenceEnd":41524},{"word":"smoking","begin":41548,"end":41554,"sentenceIndex":337,"sentenceBegin":41526,"sentenceEnd":41633},{"word":"smoking","begin":41687,"end":41693,"sentenceIndex":338,"sentenceBegin":41635,"sentenceEnd":41705},{"word":"tobacco","begin":41778,"end":41784,"sentenceIndex":339,"sentenceBegin":41707,"sentenceEnd":41797},{"word":"smoke","begin":41786,"end":41790,"sentenceIndex":339,"sentenceBegin":41707,"sentenceEnd":41797},{"word":"smoking","begin":41890,"end":41896,"sentenceIndex":341,"sentenceBegin":41869,"sentenceEnd":41948},{"word":"smoking","begin":42037,"end":42043,"sentenceIndex":342,"sentenceBegin":41950,"sentenceEnd":42044},{"word":"smoking","begin":42149,"end":42155,"sentenceIndex":343,"sentenceBegin":42046,"sentenceEnd":42187},{"word":"smoking","begin":42286,"end":42292,"sentenceIndex":345,"sentenceBegin":42250,"sentenceEnd":42345},{"word":"smoking","begin":42383,"end":42389,"sentenceIndex":346,"sentenceBegin":42347,"sentenceEnd":42492},{"word":"smoking","begin":42446,"end":42452,"sentenceIndex":346,"sentenceBegin":42347,"sentenceEnd":42492},{"word":"smoking","begin":42515,"end":42521,"sentenceIndex":347,"sentenceBegin":42494,"sentenceEnd":42570},{"word":"smoking","begin":42695,"end":42701,"sentenceIndex":348,"sentenceBegin":42572,"sentenceEnd":42702}]}
{"paperId":"3f46fc3941e7a30144ac1b2c37c91056cfc5c382","indicators":[{"word":"smoking","begin":3438,"end":3444,"sentenceIndex":27,"sentenceBegin":3415,"sentenceEnd":3550},{"word":"smoke","begin":3835,"end":3839,"sentenceIndex":29,"sentenceBegin":3760,"sentenceEnd":3970},{"word":"tobacco","begin":3841,"end":3847,"sentenceIndex":29,"sentenceBegin":3760,"sentenceEnd":3970},{"word":"smoke","begin":3957,"end":3961,"sentenceIndex":29,"sentenceBegin":3760,"sentenceEnd":3970},{"word":"tobacco","begin":3963,"end":3969,"sentenceIndex":29,"sentenceBegin":3760,"sentenceEnd":3970}]}
{"paperId":"3f46fc3941e7a30144ac1b2c37c91056cfc5c382","indicators":[{"word":"tobacco","begin":4613,"end":4619,"sentenceIndex":37,"sentenceBegin":4577,"sentenceEnd":4691},{"word":"smoke","begin":4621,"end":4625,"sentenceIndex":37,"sentenceBegin":4577,"sentenceEnd":4691},{"word":"smoking","begin":4856,"end":4862,"sentenceIndex":39,"sentenceBegin":4797,"sentenceEnd":4917},{"word":"tobacco","begin":4945,"end":4951,"sentenceIndex":40,"sentenceBegin":4919,"sentenceEnd":5034},{"word":"smoke","begin":4953,"end":4957,"sentenceIndex":40,"sentenceBegin":4919,"sentenceEnd":5034},{"word":"smoking","begin":5283,"end":5289,"sentenceIndex":42,"sentenceBegin":5157,"sentenceEnd":5381}]}
{"paperId":"3f46fc3941e7a30144ac1b2c37c91056cfc5c382","indicators":[{"word":"smoking","begin":2660,"end":2666,"sentenceIndex":20,"sentenceBegin":2627,"sentenceEnd":2722},{"word":"smoking","begin":2735,"end":2741,"sentenceIndex":21,"sentenceBegin":2724,"sentenceEnd":2783},{"word":"smoking","begin":2828,"end":2834,"sentenceIndex":22,"sentenceBegin":2785,"sentenceEnd":2865},{"word":"smoking","begin":2974,"end":2980,"sentenceIndex":23,"sentenceBegin":2867,"sentenceEnd":3006}]}
{"paperId":"3f46fc3941e7a30144ac1b2c37c91056cfc5c382","indicators":[{"word":"smoking","begin":27,"end":33,"sentenceIndex":0,"sentenceBegin":0,"sentenceEnd":94},{"word":"smoking","begin":271,"end":277,"sentenceIndex":2,"sentenceBegin":229,"sentenceEnd":314},{"word":"tobacco","begin":3923,"end":3929,"sentenceIndex":33,"sentenceBegin":3839,"sentenceEnd":3999},{"word":"smoking","begin":4069,"end":4075,"sentenceIndex":34,"sentenceBegin":4001,"sentenceEnd":4106},{"word":"smoked","begin":4263,"end":4268,"sentenceIndex":36,"sentenceBegin":4229,"sentenceEnd":4365},{"word":"cigarettes","begin":4282,"end":4291,"sentenceIndex":36,"sentenceBegin":4229,"sentenceEnd":4365},{"word":"smoking","begin":4342,"end":4348,"sentenceIndex":36,"sentenceBegin":4229,"sentenceEnd":4365},{"word":"smoking","begin":4454,"end":4460,"sentenceIndex":37,"sentenceBegin":4367,"sentenceEnd":4572},{"word":"smoking","begin":4537,"end":4543,"sentenceIndex":37,"sentenceBegin":4367,"sentenceEnd":4572},{"word":"smoking","begin":5159,"end":5165,"sentenceIndex":40,"sentenceBegin":4994,"sentenceEnd":5206}]}
{"paperId":"3f46fc3941e7a30144ac1b2c37c91056cfc5c382","indicators":[{"word":"smoking","begin":339,"end":345,"sentenceIndex":2,"sentenceBegin":198,"sentenceEnd":356},{"word":"smoking","begin":555,"end":561,"sentenceIndex":5,"sentenceBegin":524,"sentenceEnd":625},{"word":"smoking","begin":805,"end":811,"sentenceIndex":7,"sentenceBegin":735,"sentenceEnd":884},{"word":"smoking","begin":1187,"end":1193,"sentenceIndex":11,"sentenceBegin":1135,"sentenceEnd":1236},{"word":"smoking","begin":1402,"end":1408,"sentenceIndex":13,"sentenceBegin":1375,"sentenceEnd":1460}]}
{"paperId":"3f46fc3941e7a30144ac1b2c37c91056cfc5c382","indicators":[{"word":"smoking","begin":3346,"end":3352,"sentenceIndex":25,"sentenceBegin":3266,"sentenceEnd":3388},{"word":"smoking","begin":8233,"end":8239,"sentenceIndex":67,"sentenceBegin":8093,"sentenceEnd":8328}]}
{"paperId":"3f46fc3941e7a30144ac1b2c37c91056cfc5c382","indicators":[{"word":"tobacco","begin":8220,"end":8226,"sentenceIndex":63,"sentenceBegin":8137,"sentenceEnd":8322},{"word":"smoking","begin":8228,"end":8234,"sentenceIndex":63,"sentenceBegin":8137,"sentenceEnd":8322}]}
{"paperId":"3f46fc3941e7a30144ac1b2c37c91056cfc5c382","indicators":[{"word":"smoking","begin":4734,"end":4740,"sentenceIndex":39,"sentenceBegin":4699,"sentenceEnd":4851},{"word":"smoking","begin":5837,"end":5843,"sentenceIndex":50,"sentenceBegin":5802,"sentenceEnd":5963}]}
{"paperId":"3f46fc3941e7a30144ac1b2c37c91056cfc5c382","indicators":[{"word":"smoking","begin":4650,"end":4656,"sentenceIndex":34,"sentenceBegin":4574,"sentenceEnd":4709},{"word":"smoking","begin":4811,"end":4817,"sentenceIndex":35,"sentenceBegin":4711,"sentenceEnd":4881}]}
{"paperId":"3f46fc3941e7a30144ac1b2c37c91056cfc5c382","indicators":[{"word":"smoking","begin":194,"end":200,"sentenceIndex":0,"sentenceBegin":0,"sentenceEnd":225}]}
{"paperId":"3f46fc3941e7a30144ac1b2c37c91056cfc5c382","indicators":[{"word":"smoking","begin":3817,"end":3823,"sentenceIndex":31,"sentenceBegin":3798,"sentenceEnd":3895},{"word":"smoked","begin":8421,"end":8426,"sentenceIndex":78,"sentenceBegin":8387,"sentenceEnd":8443},{"word":"smoked","begin":8492,"end":8497,"sentenceIndex":80,"sentenceBegin":8465,"sentenceEnd":8514}]}
{"paperId":"3f46fc3941e7a30144ac1b2c37c91056cfc5c382","indicators":[{"word":"smoking","begin":7640,"end":7646,"sentenceIndex":59,"sentenceBegin":7464,"sentenceEnd":7685},{"word":"smoking","begin":7808,"end":7814,"sentenceIndex":61,"sentenceBegin":7790,"sentenceEnd":7822},{"word":"smoking","begin":8042,"end":8048,"sentenceIndex":64,"sentenceBegin":7916,"sentenceEnd":8056},{"word":"smoking","begin":8074,"end":8080,"sentenceIndex":65,"sentenceBegin":8058,"sentenceEnd":8127},{"word":"smoking","begin":13069,"end":13075,"sentenceIndex":109,"sentenceBegin":13014,"sentenceEnd":13083}]}
{"paperId":"3f46fc3941e7a30144ac1b2c37c91056cfc5c382","indicators":[{"word":"smoked","begin":1409,"end":1414,"sentenceIndex":11,"sentenceBegin":1389,"sentenceEnd":1415}]}
{"paperId":"3f46fc3941e7a30144ac1b2c37c91056cfc5c382","indicators":[{"word":"cigarette","begin":547,"end":555,"sentenceIndex":5,"sentenceBegin":456,"sentenceEnd":641},{"word":"smoking","begin":557,"end":563,"sentenceIndex":5,"sentenceBegin":456,"sentenceEnd":641}]}
{"paperId":"3f46fc3941e7a30144ac1b2c37c91056cfc5c382","indicators":[{"word":"tobacco","begin":16415,"end":16421,"sentenceIndex":141,"sentenceBegin":16285,"sentenceEnd":16459},{"word":"tobacco","begin":16991,"end":16997,"sentenceIndex":145,"sentenceBegin":16942,"sentenceEnd":17033},{"word":"tobacco","begin":17160,"end":17166,"sentenceIndex":147,"sentenceBegin":17101,"sentenceEnd":17179}]}
{"paperId":"3f46fc3941e7a30144ac1b2c37c91056cfc5c382","indicators":[{"word":"smoking","begin":7289,"end":7295,"sentenceIndex":59,"sentenceBegin":7186,"sentenceEnd":7382},{"word":"smoking","begin":8158,"end":8164,"sentenceIndex":64,"sentenceBegin":8050,"sentenceEnd":8181},{"word":"cigarette","begin":15783,"end":15791,"sentenceIndex":121,"sentenceBegin":15694,"sentenceEnd":15864},{"word":"smoking","begin":16141,"end":16147,"sentenceIndex":124,"sentenceBegin":16084,"sentenceEnd":16304},{"word":"cigarette","begin":16163,"end":16171,"sentenceIndex":124,"sentenceBegin":16084,"sentenceEnd":16304},{"word":"tobacco","begin":16255,"end":16261,"sentenceIndex":124,"sentenceBegin":16084,"sentenceEnd":16304},{"word":"smoking","begin":16683,"end":16689,"sentenceIndex":128,"sentenceBegin":16609,"sentenceEnd":16697},{"word":"smoking","begin":16768,"end":16774,"sentenceIndex":129,"sentenceBegin":16699,"sentenceEnd":16785},{"word":"smoking","begin":16891,"end":16897,"sentenceIndex":130,"sentenceBegin":16787,"sentenceEnd":16906},{"word":"smoking","begin":16948,"end":16954,"sentenceIndex":131,"sentenceBegin":16908,"sentenceEnd":16991},{"word":"smoking","begin":17057,"end":17063,"sentenceIndex":132,"sentenceBegin":16993,"sentenceEnd":17103},{"word":"smoking","begin":26740,"end":26746,"sentenceIndex":215,"sentenceBegin":26701,"sentenceEnd":26757}]}
{"paperId":"3f46fc3941e7a30144ac1b2c37c91056cfc5c382","indicators":[{"word":"smoking","begin":4485,"end":4491,"sentenceIndex":38,"sentenceBegin":4393,"sentenceEnd":4649}]}
{"paperId":"3f46fc3941e7a30144ac1b2c37c91056cfc5c382","indicators":[{"word":"smoking","begin":986,"end":992,"sentenceIndex":9,"sentenceBegin":961,"sentenceEnd":1046}]}
{"paperId":"3f46fc3941e7a30144ac1b2c37c91056cfc5c382","indicators":[{"word":"smoking","begin":831,"end":837,"sentenceIndex":6,"sentenceBegin":682,"sentenceEnd":844}]}
{"paperId":"3f46fc3941e7a30144ac1b2c37c91056cfc5c382","indicators":[{"word":"smoking","begin":1943,"end":1949,"sentenceIndex":13,"sentenceBegin":1854,"sentenceEnd":2064},{"word":"smoked","begin":2473,"end":2478,"sentenceIndex":17,"sentenceBegin":2377,"sentenceEnd":2521}]}
{"paperId":"3f46fc3941e7a30144ac1b2c37c91056cfc5c382","indicators":[{"word":"smoking","begin":3330,"end":3336,"sentenceIndex":25,"sentenceBegin":3287,"sentenceEnd":3337},{"word":"cigarette","begin":3623,"end":3631,"sentenceIndex":28,"sentenceBegin":3550,"sentenceEnd":3640},{"word":"smoking","begin":5422,"end":5428,"sentenceIndex":44,"sentenceBegin":5389,"sentenceEnd":5506},{"word":"smoking","begin":5852,"end":5858,"sentenceIndex":48,"sentenceBegin":5835,"sentenceEnd":5894}]}
{"paperId":"3f46fc3941e7a30144ac1b2c37c91056cfc5c382","indicators":[{"word":"smoking","begin":76,"end":82,"sentenceIndex":0,"sentenceBegin":0,"sentenceEnd":124},{"word":"smoking","begin":156,"end":162,"sentenceIndex":1,"sentenceBegin":126,"sentenceEnd":262},{"word":"smoking","begin":175,"end":181,"sentenceIndex":1,"sentenceBegin":126,"sentenceEnd":262},{"word":"smoke","begin":229,"end":233,"sentenceIndex":1,"sentenceBegin":126,"sentenceEnd":262},{"word":"smoking","begin":349,"end":355,"sentenceIndex":4,"sentenceBegin":294,"sentenceEnd":436},{"word":"smoking","begin":735,"end":741,"sentenceIndex":8,"sentenceBegin":659,"sentenceEnd":752}]}
{"paperId":"3f46fc3941e7a30144ac1b2c37c91056cfc5c382","indicators":[{"word":"smoking","begin":59,"end":65,"sentenceIndex":0,"sentenceBegin":0,"sentenceEnd":66},{"word":"tobacco","begin":700,"end":706,"sentenceIndex":6,"sentenceBegin":658,"sentenceEnd":785},{"word":"smoking","begin":708,"end":714,"sentenceIndex":6,"sentenceBegin":658,"sentenceEnd":785}]}
{"paperId":"3f46fc3941e7a30144ac1b2c37c91056cfc5c382","indicators":[{"word":"smoking","begin":20703,"end":20709,"sentenceIndex":162,"sentenceBegin":20640,"sentenceEnd":20760},{"word":"smoking","begin":21053,"end":21059,"sentenceIndex":164,"sentenceBegin":20894,"sentenceEnd":21060},{"word":"smoking","begin":21494,"end":21500,"sentenceIndex":168,"sentenceBegin":21363,"sentenceEnd":21509},{"word":"smoking","begin":21698,"end":21704,"sentenceIndex":171,"sentenceBegin":21658,"sentenceEnd":21791},{"word":"smoking","begin":22146,"end":22152,"sentenceIndex":173,"sentenceBegin":22013,"sentenceEnd":22153},{"word":"smoking","begin":22232,"end":22238,"sentenceIndex":174,"sentenceBegin":22155,"sentenceEnd":22239}]}
{"paperId":"281cf43a9e8d1c6f4daf7ec53c56f3cbec610251","indicators":[{"word":"puffed","begin":55,"end":60,"sentenceIndex":0,"sentenceBegin":0,"sentenceEnd":84}]}
{"paperId":"281cf43a9e8d1c6f4daf7ec53c56f3cbec610251","indicators":[{"word":"cigarette","begin":2013,"end":2021,"sentenceIndex":10,"sentenceBegin":1943,"sentenceEnd":2198},{"word":"smoking","begin":2023,"end":2029,"sentenceIndex":10,"sentenceBegin":1943,"sentenceEnd":2198},{"word":"cigarette","begin":2668,"end":2676,"sentenceIndex":13,"sentenceBegin":2537,"sentenceEnd":2732},{"word":"smoke","begin":2678,"end":2682,"sentenceIndex":13,"sentenceBegin":2537,"sentenceEnd":2732}]}
{"paperId":"281cf43a9e8d1c6f4daf7ec53c56f3cbec610251","indicators":[{"word":"vapors","begin":472,"end":477,"sentenceIndex":2,"sentenceBegin":315,"sentenceEnd":532}]}
{"paperId":"281cf43a9e8d1c6f4daf7ec53c56f3cbec610251","indicators":[{"word":"fumes","begin":1688,"end":1692,"sentenceIndex":11,"sentenceBegin":1582,"sentenceEnd":1840}]}
{"paperId":"281cf43a9e8d1c6f4daf7ec53c56f3cbec610251","indicators":[{"word":"fumes","begin":517,"end":521,"sentenceIndex":4,"sentenceBegin":478,"sentenceEnd":644},{"word":"vapors","begin":528,"end":533,"sentenceIndex":4,"sentenceBegin":478,"sentenceEnd":644}]}
{"paperId":"281cf43a9e8d1c6f4daf7ec53c56f3cbec610251","indicators":[{"word":"fumes","begin":70,"end":74,"sentenceIndex":0,"sentenceBegin":0,"sentenceEnd":222},{"word":"vapors","begin":81,"end":86,"sentenceIndex":0,"sentenceBegin":0,"sentenceEnd":222},{"word":"smoke","begin":533,"end":537,"sentenceIndex":3,"sentenceBegin":448,"sentenceEnd":625}]}
{"paperId":"281cf43a9e8d1c6f4daf7ec53c56f3cbec610251","indicators":[{"word":"weed","begin":888,"end":891,"sentenceIndex":6,"sentenceBegin":880,"sentenceEnd":999}]}
{"paperId":"281cf43a9e8d1c6f4daf7ec53c56f3cbec610251","indicators":[{"word":"cigarette","begin":180,"end":188,"sentenceIndex":1,"sentenceBegin":104,"sentenceEnd":299},{"word":"smoke","begin":190,"end":194,"sentenceIndex":1,"sentenceBegin":104,"sentenceEnd":299}]}
{"paperId":"99d7c5e30b5f356524f19a9cdab70b5e1ce534ca","indicators":[{"word":"smoking","begin":662,"end":668,"sentenceIndex":4,"sentenceBegin":608,"sentenceEnd":778}]}
{"paperId":"99d7c5e30b5f356524f19a9cdab70b5e1ce534ca","indicators":[{"word":"smoking","begin":1090,"end":1096,"sentenceIndex":9,"sentenceBegin":1059,"sentenceEnd":1143}]}
{"paperId":"99d7c5e30b5f356524f19a9cdab70b5e1ce534ca","indicators":[{"word":"smoked","begin":2219,"end":2224,"sentenceIndex":22,"sentenceBegin":2014,"sentenceEnd":2419}]}
{"paperId":"8588f72873ce47275ef47d395351f6284cc59428","indicators":[{"word":"smoking","begin":1318,"end":1324,"sentenceIndex":12,"sentenceBegin":1172,"sentenceEnd":1334}]}
{"paperId":"7fa31ba02757720cdd1cb91fac7d5cf4b659f39f","indicators":[{"word":"smoking","begin":8887,"end":8893,"sentenceIndex":70,"sentenceBegin":8718,"sentenceEnd":8933}]}
{"paperId":"7fa31ba02757720cdd1cb91fac7d5cf4b659f39f","indicators":[{"word":"cigars","begin":2384,"end":2389,"sentenceIndex":22,"sentenceBegin":2267,"sentenceEnd":2390}]}
{"paperId":"7fa31ba02757720cdd1cb91fac7d5cf4b659f39f","indicators":[{"word":"cannabis","begin":1209,"end":1216,"sentenceIndex":7,"sentenceBegin":1103,"sentenceEnd":1279}]}
{"paperId":"7fa31ba02757720cdd1cb91fac7d5cf4b659f39f","indicators":[{"word":"smoking","begin":799,"end":805,"sentenceIndex":5,"sentenceBegin":669,"sentenceEnd":883}]}
{"paperId":"7fa31ba02757720cdd1cb91fac7d5cf4b659f39f","indicators":[{"word":"smoking","begin":1447,"end":1453,"sentenceIndex":9,"sentenceBegin":1022,"sentenceEnd":1513},{"word":"cigarettes","begin":1468,"end":1477,"sentenceIndex":9,"sentenceBegin":1022,"sentenceEnd":1513}]}
