{"paperId":"eaf489950d9d10752a58d8fb0a384054707c7d8d","indicators":[{"word":"tobacco","begin":354,"end":360,"sentenceIndex":3,"sentenceBegin":258,"sentenceEnd":564}]}
{"paperId":"5a63186e3d015f0bb7378218ebd26b96f7bae63e","indicators":[{"word":"fires","begin":295,"end":299,"sentenceIndex":2,"sentenceBegin":194,"sentenceEnd":300}]}
{"paperId":"d575a035df4bc12c4cf214417217b6d322c3a70e","indicators":[{"word":"tobacco","begin":117,"end":123,"sentenceIndex":0,"sentenceBegin":0,"sentenceEnd":364}]}
{"paperId":"b72f20dbe4155d82a02a898720519a978df27a6a","indicators":[{"word":"fume","begin":627,"end":630,"sentenceIndex":4,"sentenceBegin":552,"sentenceEnd":665}]}
