{"paperId":"2c64394abb5e97b4efcb57c18e8e649b869a61bd","indicators":[{"word":"fires","begin":491,"end":495,"sentenceIndex":3,"sentenceBegin":354,"sentenceEnd":496}]}
{"paperId":"2c64394abb5e97b4efcb57c18e8e649b869a61bd","indicators":[{"word":"smoking","begin":182,"end":188,"sentenceIndex":1,"sentenceBegin":139,"sentenceEnd":286}]}
{"paperId":"3359ea81b72a9d6002755539aa7f91bde5fc87bb","indicators":[{"word":"firing","begin":1913,"end":1918,"sentenceIndex":85,"sentenceBegin":1846,"sentenceEnd":1953}]}
{"paperId":"e73dea1124bab4bff672d6ceaf2709b5039761ae","indicators":[{"word":"firing","begin":1375,"end":1380,"sentenceIndex":7,"sentenceBegin":1108,"sentenceEnd":1432}]}
{"paperId":"18398efee4f86430e44c6af7c42cf9f9c9e7fff3","indicators":[{"word":"smoke","begin":771,"end":775,"sentenceIndex":3,"sentenceBegin":625,"sentenceEnd":785}]}
{"paperId":"f85bd0d827aa6ec1bff4d54ca648493ca38fc249","indicators":[{"word":"fires","begin":293,"end":297,"sentenceIndex":2,"sentenceBegin":277,"sentenceEnd":346}]}
{"paperId":"7480b463b721952c7a9f17de9cfdcc6ca3a04ab3","indicators":[{"word":"smoking","begin":398,"end":404,"sentenceIndex":1,"sentenceBegin":254,"sentenceEnd":597}]}
{"paperId":"7480b463b721952c7a9f17de9cfdcc6ca3a04ab3","indicators":[{"word":"tobacco","begin":420,"end":426,"sentenceIndex":1,"sentenceBegin":350,"sentenceEnd":483},{"word":"smoke","begin":428,"end":432,"sentenceIndex":1,"sentenceBegin":350,"sentenceEnd":483}]}
{"paperId":"7480b463b721952c7a9f17de9cfdcc6ca3a04ab3","indicators":[{"word":"cigarette","begin":122,"end":130,"sentenceIndex":0,"sentenceBegin":0,"sentenceEnd":359},{"word":"smoke","begin":132,"end":136,"sentenceIndex":0,"sentenceBegin":0,"sentenceEnd":359}]}
{"paperId":"7480b463b721952c7a9f17de9cfdcc6ca3a04ab3","indicators":[{"word":"smoking","begin":889,"end":895,"sentenceIndex":2,"sentenceBegin":458,"sentenceEnd":951}]}
{"paperId":"7480b463b721952c7a9f17de9cfdcc6ca3a04ab3","indicators":[{"word":"cigarette","begin":881,"end":889,"sentenceIndex":3,"sentenceBegin":794,"sentenceEnd":1167},{"word":"smoke","begin":891,"end":895,"sentenceIndex":3,"sentenceBegin":794,"sentenceEnd":1167}]}
{"paperId":"37d343a84c697b86e84a72c657fd4ef7007872de","indicators":[{"word":"fumes","begin":970,"end":974,"sentenceIndex":4,"sentenceBegin":813,"sentenceEnd":1007}]}
{"paperId":"37d343a84c697b86e84a72c657fd4ef7007872de","indicators":[{"word":"smoke","begin":59,"end":63,"sentenceIndex":0,"sentenceBegin":0,"sentenceEnd":112},{"word":"smoke","begin":145,"end":149,"sentenceIndex":1,"sentenceBegin":114,"sentenceEnd":262}]}
{"paperId":"37d343a84c697b86e84a72c657fd4ef7007872de","indicators":[{"word":"smoke","begin":277,"end":281,"sentenceIndex":1,"sentenceBegin":183,"sentenceEnd":350}]}
{"paperId":"37d343a84c697b86e84a72c657fd4ef7007872de","indicators":[{"word":"fumes","begin":332,"end":336,"sentenceIndex":1,"sentenceBegin":156,"sentenceEnd":360}]}
{"paperId":"37d343a84c697b86e84a72c657fd4ef7007872de","indicators":[{"word":"smoke","begin":66,"end":70,"sentenceIndex":0,"sentenceBegin":0,"sentenceEnd":93}]}
{"paperId":"37d343a84c697b86e84a72c657fd4ef7007872de","indicators":[{"word":"smoke","begin":38,"end":42,"sentenceIndex":0,"sentenceBegin":0,"sentenceEnd":67}]}
{"paperId":"37d343a84c697b86e84a72c657fd4ef7007872de","indicators":[{"word":"smoke","begin":31,"end":35,"sentenceIndex":0,"sentenceBegin":0,"sentenceEnd":252}]}
{"paperId":"37d343a84c697b86e84a72c657fd4ef7007872de","indicators":[{"word":"smoke","begin":247,"end":251,"sentenceIndex":1,"sentenceBegin":163,"sentenceEnd":261}]}
{"paperId":"37d343a84c697b86e84a72c657fd4ef7007872de","indicators":[{"word":"smoke","begin":47,"end":51,"sentenceIndex":0,"sentenceBegin":0,"sentenceEnd":365}]}
{"paperId":"37d343a84c697b86e84a72c657fd4ef7007872de","indicators":[{"word":"smoke","begin":468,"end":472,"sentenceIndex":2,"sentenceBegin":384,"sentenceEnd":603}]}
{"paperId":"37d343a84c697b86e84a72c657fd4ef7007872de","indicators":[{"word":"vapor","begin":592,"end":596,"sentenceIndex":3,"sentenceBegin":547,"sentenceEnd":672}]}
{"paperId":"37d343a84c697b86e84a72c657fd4ef7007872de","indicators":[{"word":"smoke","begin":213,"end":217,"sentenceIndex":2,"sentenceBegin":199,"sentenceEnd":317}]}
