{"paperId":"a705147176403a593b690b49d125cde92050d6c0","indicators":[{"word":"smoking","begin":546,"end":552,"sentenceIndex":13,"sentenceBegin":518,"sentenceEnd":561}]}
{"paperId":"a705147176403a593b690b49d125cde92050d6c0","indicators":[{"word":"smoking","begin":810,"end":816,"sentenceIndex":5,"sentenceBegin":690,"sentenceEnd":866}]}
{"paperId":"a705147176403a593b690b49d125cde92050d6c0","indicators":[{"word":"smoking","begin":1843,"end":1849,"sentenceIndex":21,"sentenceBegin":1798,"sentenceEnd":1918},{"word":"smoking","begin":1982,"end":1988,"sentenceIndex":22,"sentenceBegin":1920,"sentenceEnd":2023},{"word":"smoking","begin":2056,"end":2062,"sentenceIndex":23,"sentenceBegin":2025,"sentenceEnd":2111}]}
{"paperId":"a705147176403a593b690b49d125cde92050d6c0","indicators":[{"word":"smoking","begin":306,"end":312,"sentenceIndex":2,"sentenceBegin":246,"sentenceEnd":377},{"word":"smoking","begin":566,"end":572,"sentenceIndex":4,"sentenceBegin":553,"sentenceEnd":629},{"word":"smoking","begin":740,"end":746,"sentenceIndex":5,"sentenceBegin":631,"sentenceEnd":828},{"word":"smoking","begin":782,"end":788,"sentenceIndex":5,"sentenceBegin":631,"sentenceEnd":828}]}
