{"paperId":"c57a94225226db249a718e94fd6bbb4e2bb7e175","indicators":[{"word":"smog","begin":3777,"end":3780,"sentenceIndex":23,"sentenceBegin":3682,"sentenceEnd":3890}]}
{"paperId":"c57a94225226db249a718e94fd6bbb4e2bb7e175","indicators":[{"word":"smoke","begin":547,"end":551,"sentenceIndex":4,"sentenceBegin":491,"sentenceEnd":677}]}
{"paperId":"95ccbe734401301dcb6b52cbdddfb391de6b9760","indicators":[{"word":"tobacco","begin":513,"end":519,"sentenceIndex":2,"sentenceBegin":365,"sentenceEnd":709}]}
{"paperId":"9439183d2e5253d1641a64c775dbc17767b01690","indicators":[{"word":"smoking","begin":591,"end":597,"sentenceIndex":3,"sentenceBegin":551,"sentenceEnd":617}]}
{"paperId":"a9b8ebf91135473eb1874921283551d45975b9f0","indicators":[{"word":"cigarette","begin":244,"end":252,"sentenceIndex":2,"sentenceBegin":216,"sentenceEnd":301}]}
