{"paperId":"cdb2516154d753fa0fd6780b4699f929140cec36","indicators":[{"word":"fumes","begin":607,"end":611,"sentenceIndex":4,"sentenceBegin":501,"sentenceEnd":724}]}
{"paperId":"74d0123c640ff827c1312e4058ef7e1c31e2636f","indicators":[{"word":"fume","begin":242,"end":245,"sentenceIndex":4,"sentenceBegin":229,"sentenceEnd":251},{"word":"fume","begin":468,"end":471,"sentenceIndex":9,"sentenceBegin":454,"sentenceEnd":477}]}
{"paperId":"bb7718e2a9a390578e8d3f5ea081f08d3fd17185","indicators":[{"word":"smoking","begin":798,"end":804,"sentenceIndex":4,"sentenceBegin":568,"sentenceEnd":902}]}
