{"paperId":"fa54d33ada2ba76e0521592fa7669a29228cbc3e","indicators":[{"word":"smoking","begin":517,"end":523,"sentenceIndex":3,"sentenceBegin":407,"sentenceEnd":539}]}
{"paperId":"eed02dd025c4dea760352d3d3b5ae981bd654bd0","indicators":[{"word":"smoking","begin":441,"end":447,"sentenceIndex":2,"sentenceBegin":193,"sentenceEnd":448}]}
{"paperId":"12995f91769bf2a2cf4dc7eaca32ee7b637e0301","indicators":[{"word":"smoking","begin":629,"end":635,"sentenceIndex":9,"sentenceBegin":523,"sentenceEnd":681},{"word":"smoke","begin":1013,"end":1017,"sentenceIndex":17,"sentenceBegin":978,"sentenceEnd":1225},{"word":"smoke","begin":1067,"end":1071,"sentenceIndex":17,"sentenceBegin":978,"sentenceEnd":1225}]}
{"paperId":"12995f91769bf2a2cf4dc7eaca32ee7b637e0301","indicators":[{"word":"smoking","begin":142,"end":148,"sentenceIndex":1,"sentenceBegin":75,"sentenceEnd":223},{"word":"tobacco","begin":371,"end":377,"sentenceIndex":3,"sentenceBegin":338,"sentenceEnd":610},{"word":"smoking","begin":493,"end":499,"sentenceIndex":3,"sentenceBegin":338,"sentenceEnd":610},{"word":"smoking","begin":561,"end":567,"sentenceIndex":3,"sentenceBegin":338,"sentenceEnd":610},{"word":"smoking","begin":643,"end":649,"sentenceIndex":4,"sentenceBegin":612,"sentenceEnd":780},{"word":"smoking","begin":694,"end":700,"sentenceIndex":4,"sentenceBegin":612,"sentenceEnd":780},{"word":"tobacco","begin":874,"end":880,"sentenceIndex":5,"sentenceBegin":782,"sentenceEnd":973},{"word":"smoking","begin":916,"end":922,"sentenceIndex":5,"sentenceBegin":782,"sentenceEnd":973}]}
{"paperId":"1cc390787cfd5b4bbc4258abec05892cbff629f8","indicators":[{"word":"tobacco","begin":476,"end":482,"sentenceIndex":1,"sentenceBegin":277,"sentenceEnd":550}]}
{"paperId":"1cc390787cfd5b4bbc4258abec05892cbff629f8","indicators":[{"word":"tobacco","begin":709,"end":715,"sentenceIndex":5,"sentenceBegin":660,"sentenceEnd":773}]}
{"paperId":"1cc390787cfd5b4bbc4258abec05892cbff629f8","indicators":[{"word":"vapor","begin":219,"end":223,"sentenceIndex":2,"sentenceBegin":163,"sentenceEnd":275}]}
{"paperId":"69f5726e6b53f93b94630c1388479879f49f456e","indicators":[{"word":"smoking","begin":374,"end":380,"sentenceIndex":4,"sentenceBegin":302,"sentenceEnd":472}]}
{"paperId":"69f5726e6b53f93b94630c1388479879f49f456e","indicators":[{"word":"smoke","begin":247,"end":251,"sentenceIndex":2,"sentenceBegin":140,"sentenceEnd":387}]}
{"paperId":"69f5726e6b53f93b94630c1388479879f49f456e","indicators":[{"word":"smoke","begin":829,"end":833,"sentenceIndex":5,"sentenceBegin":673,"sentenceEnd":893}]}
{"paperId":"2c602e06cc01660017717021bf172b821491700e","indicators":[{"word":"tobacco","begin":179,"end":185,"sentenceIndex":1,"sentenceBegin":100,"sentenceEnd":223}]}
