{"paperId":"f60970538fd2f998cfa25cea45312dc6eafed536","indicators":[{"word":"smoke","begin":133,"end":137,"sentenceIndex":0,"sentenceBegin":0,"sentenceEnd":369}]}
{"paperId":"e06022e85d59209981ff67b7bd0d4bebd2becfa5","indicators":[{"word":"cigarette","begin":219,"end":227,"sentenceIndex":1,"sentenceBegin":163,"sentenceEnd":273},{"word":"smoke","begin":229,"end":233,"sentenceIndex":1,"sentenceBegin":163,"sentenceEnd":273}]}
{"paperId":"e06022e85d59209981ff67b7bd0d4bebd2becfa5","indicators":[{"word":"fume","begin":1472,"end":1475,"sentenceIndex":11,"sentenceBegin":1442,"sentenceEnd":1569},{"word":"fume","begin":1535,"end":1538,"sentenceIndex":11,"sentenceBegin":1442,"sentenceEnd":1569}]}
{"paperId":"e06022e85d59209981ff67b7bd0d4bebd2becfa5","indicators":[{"word":"fume","begin":1884,"end":1887,"sentenceIndex":11,"sentenceBegin":1807,"sentenceEnd":1930}]}
