{"paperId":"491f000353cbe2d030d16077ecb01f02d7c6bf3f","indicators":[{"word":"weeds","begin":937,"end":941,"sentenceIndex":3,"sentenceBegin":692,"sentenceEnd":986}]}
{"paperId":"1c995ac4ae70bbcc5da53211e20df4398d1ce55d","indicators":[{"word":"tobacco","begin":646,"end":652,"sentenceIndex":3,"sentenceBegin":611,"sentenceEnd":848}]}
{"paperId":"f7ef8b5d989ac724f2520aa8a0a83e60f8851e91","indicators":[{"word":"pot","begin":54,"end":56,"sentenceIndex":0,"sentenceBegin":0,"sentenceEnd":66}]}
