{"paperId":"487d08d67b78a4ab2588543ca45c496c947fc418","indicators":[{"word":"smoke","begin":1224,"end":1228,"sentenceIndex":7,"sentenceBegin":1052,"sentenceEnd":1286},{"word":"smoke","begin":1411,"end":1415,"sentenceIndex":8,"sentenceBegin":1288,"sentenceEnd":1429}]}
{"paperId":"925c5b6f923139055016b06cc29f960ba3aed423","indicators":[{"word":"smoke","begin":1224,"end":1228,"sentenceIndex":7,"sentenceBegin":1052,"sentenceEnd":1286},{"word":"smoke","begin":1411,"end":1415,"sentenceIndex":8,"sentenceBegin":1288,"sentenceEnd":1429}]}
{"paperId":"a0db70a4983061336357e80dddf6577d866cec58","indicators":[{"word":"cigarette","begin":312,"end":320,"sentenceIndex":1,"sentenceBegin":200,"sentenceEnd":325}]}
{"paperId":"50df9397456aaa4085328d9d0e7ddd345d9a8362","indicators":[{"word":"smoking","begin":123,"end":129,"sentenceIndex":0,"sentenceBegin":0,"sentenceEnd":497}]}
{"paperId":"8079251d592948e90eea241771030ea99981a738","indicators":[{"word":"smoking","begin":165,"end":171,"sentenceIndex":1,"sentenceBegin":74,"sentenceEnd":281}]}
