{"paperId":"fa17926b788d506bab530e85503fa1e2b037a4cb","indicators":[{"word":"tobacco","begin":375,"end":381,"sentenceIndex":0,"sentenceBegin":0,"sentenceEnd":621},{"word":"smoking","begin":383,"end":389,"sentenceIndex":0,"sentenceBegin":0,"sentenceEnd":621}]}
{"paperId":"fa17926b788d506bab530e85503fa1e2b037a4cb","indicators":[{"word":"tobacco","begin":377,"end":383,"sentenceIndex":2,"sentenceBegin":304,"sentenceEnd":390},{"word":"smoke","begin":385,"end":389,"sentenceIndex":2,"sentenceBegin":304,"sentenceEnd":390},{"word":"tobacco","begin":917,"end":923,"sentenceIndex":5,"sentenceBegin":716,"sentenceEnd":1094},{"word":"smoking","begin":925,"end":931,"sentenceIndex":5,"sentenceBegin":716,"sentenceEnd":1094},{"word":"tobacco","begin":964,"end":970,"sentenceIndex":5,"sentenceBegin":716,"sentenceEnd":1094},{"word":"smoking","begin":972,"end":978,"sentenceIndex":5,"sentenceBegin":716,"sentenceEnd":1094}]}
{"paperId":"a8dce19462bb8704fc8c97a6a9634f43fcf6aabe","indicators":[{"word":"smoking","begin":395,"end":401,"sentenceIndex":4,"sentenceBegin":318,"sentenceEnd":408}]}
