{"paperId":"de5427785ad1385b62f0fbf18af129dc8cff303f","indicators":[{"word":"pot","begin":1290,"end":1292,"sentenceIndex":10,"sentenceBegin":1212,"sentenceEnd":1322}]}
{"paperId":"658d8397e3226c1c04c1579c7cb60784b580c027","indicators":[{"word":"smoking","begin":169,"end":175,"sentenceIndex":0,"sentenceBegin":0,"sentenceEnd":317}]}
{"paperId":"658d8397e3226c1c04c1579c7cb60784b580c027","indicators":[{"word":"smoking","begin":255,"end":261,"sentenceIndex":0,"sentenceBegin":0,"sentenceEnd":289},{"word":"smoking","begin":594,"end":600,"sentenceIndex":3,"sentenceBegin":583,"sentenceEnd":723}]}
{"paperId":"658d8397e3226c1c04c1579c7cb60784b580c027","indicators":[{"word":"smoking","begin":2585,"end":2591,"sentenceIndex":10,"sentenceBegin":2424,"sentenceEnd":2616}]}
{"paperId":"658d8397e3226c1c04c1579c7cb60784b580c027","indicators":[{"word":"smoking","begin":836,"end":842,"sentenceIndex":3,"sentenceBegin":668,"sentenceEnd":949}]}
{"paperId":"a26b054a91fe0a20febf5a003fb1dee563176af2","indicators":[{"word":"potted","begin":428,"end":433,"sentenceIndex":5,"sentenceBegin":399,"sentenceEnd":527},{"word":"potting","begin":568,"end":574,"sentenceIndex":6,"sentenceBegin":529,"sentenceEnd":575}]}
{"paperId":"55fbba8d0018233e32cfd446ca54bca998bac636","indicators":[{"word":"smokes","begin":448,"end":453,"sentenceIndex":2,"sentenceBegin":381,"sentenceEnd":505},{"word":"fires","begin":460,"end":464,"sentenceIndex":2,"sentenceBegin":381,"sentenceEnd":505}]}
