{"paperId":"8dedaee19e09c9fd5a849dda12a4521ea675b1a4","indicators":[{"word":"vapors","begin":262,"end":267,"sentenceIndex":1,"sentenceBegin":168,"sentenceEnd":571}]}
{"paperId":"8dedaee19e09c9fd5a849dda12a4521ea675b1a4","indicators":[{"word":"smoking","begin":303,"end":309,"sentenceIndex":3,"sentenceBegin":238,"sentenceEnd":316}]}
{"paperId":"8dedaee19e09c9fd5a849dda12a4521ea675b1a4","indicators":[{"word":"smoking","begin":8,"end":14,"sentenceIndex":0,"sentenceBegin":0,"sentenceEnd":189}]}
{"paperId":"8dedaee19e09c9fd5a849dda12a4521ea675b1a4","indicators":[{"word":"smoking","begin":201,"end":207,"sentenceIndex":0,"sentenceBegin":0,"sentenceEnd":208}]}
{"paperId":"2a28f7474afd9cb61eb6e949c1bc793557d6830b","indicators":[{"word":"smoking","begin":920,"end":926,"sentenceIndex":5,"sentenceBegin":837,"sentenceEnd":975}]}
{"paperId":"f7a8372a51005f99a8e7028675a2907038dba53a","indicators":[{"word":"smoke","begin":604,"end":608,"sentenceIndex":3,"sentenceBegin":518,"sentenceEnd":716}]}
{"paperId":"f7a8372a51005f99a8e7028675a2907038dba53a","indicators":[{"word":"smoke","begin":28,"end":32,"sentenceIndex":0,"sentenceBegin":0,"sentenceEnd":234}]}
{"paperId":"7e55726d345571690d0e3046664cfac5003c2a89","indicators":[{"word":"fume","begin":509,"end":512,"sentenceIndex":3,"sentenceBegin":465,"sentenceEnd":811}]}
{"paperId":"7e55726d345571690d0e3046664cfac5003c2a89","indicators":[{"word":"fume","begin":444,"end":447,"sentenceIndex":3,"sentenceBegin":331,"sentenceEnd":498}]}
