{"paperId":"85d7df32a52adc5699ba4cce08fd366119194f28","indicators":[{"word":"smoke","begin":1622,"end":1626,"sentenceIndex":14,"sentenceBegin":1606,"sentenceEnd":1665},{"word":"smoke","begin":1650,"end":1654,"sentenceIndex":14,"sentenceBegin":1606,"sentenceEnd":1665}]}
{"paperId":"525511c3e146527c02bc25aed2833f0ef103d62a","indicators":[{"word":"smoking","begin":1203,"end":1209,"sentenceIndex":9,"sentenceBegin":1096,"sentenceEnd":1234}]}
{"paperId":"07f76b90fe285ea907ceff68902d9444ef6102a1","indicators":[{"word":"cigarette","begin":582,"end":590,"sentenceIndex":4,"sentenceBegin":553,"sentenceEnd":598}]}
{"paperId":"2c6673de911ab286c8e5853a7899684a3d1a5094","indicators":[{"word":"fires","begin":1146,"end":1150,"sentenceIndex":9,"sentenceBegin":1059,"sentenceEnd":1252}]}
