{"paperId":"a79eda4de7857a7fe88b83a1cc494013c23fc048","indicators":[{"word":"smoking","begin":662,"end":668,"sentenceIndex":4,"sentenceBegin":582,"sentenceEnd":692}]}
{"paperId":"ec40da3014c3302a854528a5b071dfe0b59f5d9d","indicators":[{"word":"smoking","begin":349,"end":355,"sentenceIndex":1,"sentenceBegin":235,"sentenceEnd":399}]}
{"paperId":"ec40da3014c3302a854528a5b071dfe0b59f5d9d","indicators":[{"word":"smoking","begin":272,"end":278,"sentenceIndex":1,"sentenceBegin":207,"sentenceEnd":374}]}
{"paperId":"ec40da3014c3302a854528a5b071dfe0b59f5d9d","indicators":[{"word":"smoked","begin":309,"end":314,"sentenceIndex":0,"sentenceBegin":0,"sentenceEnd":344}]}
{"paperId":"ec40da3014c3302a854528a5b071dfe0b59f5d9d","indicators":[{"word":"smoked","begin":82,"end":87,"sentenceIndex":0,"sentenceBegin":0,"sentenceEnd":139},{"word":"tobacco","begin":245,"end":251,"sentenceIndex":1,"sentenceBegin":141,"sentenceEnd":424},{"word":"smoke","begin":253,"end":257,"sentenceIndex":1,"sentenceBegin":141,"sentenceEnd":424},{"word":"tobacco","begin":395,"end":401,"sentenceIndex":1,"sentenceBegin":141,"sentenceEnd":424},{"word":"smoke","begin":403,"end":407,"sentenceIndex":1,"sentenceBegin":141,"sentenceEnd":424}]}
{"paperId":"ec40da3014c3302a854528a5b071dfe0b59f5d9d","indicators":[{"word":"smoking","begin":422,"end":428,"sentenceIndex":2,"sentenceBegin":251,"sentenceEnd":446}]}
{"paperId":"ec40da3014c3302a854528a5b071dfe0b59f5d9d","indicators":[{"word":"smoked","begin":830,"end":835,"sentenceIndex":2,"sentenceBegin":491,"sentenceEnd":882},{"word":"smoking","begin":911,"end":917,"sentenceIndex":3,"sentenceBegin":884,"sentenceEnd":1056},{"word":"smoked","begin":999,"end":1004,"sentenceIndex":3,"sentenceBegin":884,"sentenceEnd":1056}]}
{"paperId":"ec40da3014c3302a854528a5b071dfe0b59f5d9d","indicators":[{"word":"smoked","begin":935,"end":940,"sentenceIndex":7,"sentenceBegin":907,"sentenceEnd":1061},{"word":"tobacco","begin":991,"end":997,"sentenceIndex":7,"sentenceBegin":907,"sentenceEnd":1061},{"word":"smoke","begin":999,"end":1003,"sentenceIndex":7,"sentenceBegin":907,"sentenceEnd":1061}]}
{"paperId":"ec40da3014c3302a854528a5b071dfe0b59f5d9d","indicators":[{"word":"smoking","begin":755,"end":761,"sentenceIndex":3,"sentenceBegin":474,"sentenceEnd":791}]}
{"paperId":"65b9002fddcf6c32adaf8d89bb4d84042ce79422","indicators":[{"word":"smoking","begin":1501,"end":1507,"sentenceIndex":10,"sentenceBegin":1415,"sentenceEnd":1576},{"word":"smoking","begin":1584,"end":1590,"sentenceIndex":11,"sentenceBegin":1578,"sentenceEnd":1747}]}
{"paperId":"3b7800c0729cca579fb9858b0694e40f38c8ec2f","indicators":[{"word":"fired","begin":1876,"end":1880,"sentenceIndex":16,"sentenceBegin":1859,"sentenceEnd":1930}]}
{"paperId":"33703e2029e591656f0292aada7918ca734c4688","indicators":[{"word":"cigarette","begin":625,"end":633,"sentenceIndex":3,"sentenceBegin":499,"sentenceEnd":665},{"word":"cigarette","begin":1176,"end":1184,"sentenceIndex":7,"sentenceBegin":1125,"sentenceEnd":1372}]}
