{"paperId":"9525c11985c67a792c56dbe4da86cb90ba71e013","indicators":[{"word":"vapor","begin":436,"end":440,"sentenceIndex":4,"sentenceBegin":373,"sentenceEnd":665},{"word":"vapor","begin":2218,"end":2222,"sentenceIndex":20,"sentenceBegin":2153,"sentenceEnd":2249}]}
{"paperId":"6279ce483525ce98d005f6ce199222c5e1ff7121","indicators":[{"word":"smoking","begin":1173,"end":1179,"sentenceIndex":6,"sentenceBegin":1090,"sentenceEnd":1190}]}
{"paperId":"ead4eb0d9efefd60ae894fc2f3e685f1d47128bb","indicators":[{"word":"smoke","begin":1216,"end":1220,"sentenceIndex":6,"sentenceBegin":1180,"sentenceEnd":1364},{"word":"vapor","begin":1243,"end":1247,"sentenceIndex":6,"sentenceBegin":1180,"sentenceEnd":1364}]}
{"paperId":"ead4eb0d9efefd60ae894fc2f3e685f1d47128bb","indicators":[{"word":"smoke","begin":38,"end":42,"sentenceIndex":0,"sentenceBegin":0,"sentenceEnd":255}]}
