{"paperId":"2afa3da371e5495dd55f0b4dde4ae7700eaf99d6","indicators":[{"word":"cigarette","begin":281,"end":289,"sentenceIndex":2,"sentenceBegin":150,"sentenceEnd":306},{"word":"smoke","begin":291,"end":295,"sentenceIndex":2,"sentenceBegin":150,"sentenceEnd":306}]}
{"paperId":"2afa3da371e5495dd55f0b4dde4ae7700eaf99d6","indicators":[{"word":"tobacco","begin":35,"end":41,"sentenceIndex":0,"sentenceBegin":0,"sentenceEnd":141},{"word":"smoke","begin":43,"end":47,"sentenceIndex":0,"sentenceBegin":0,"sentenceEnd":141}]}
{"paperId":"2afa3da371e5495dd55f0b4dde4ae7700eaf99d6","indicators":[{"word":"tobacco","begin":347,"end":353,"sentenceIndex":5,"sentenceBegin":321,"sentenceEnd":466},{"word":"smoke","begin":355,"end":359,"sentenceIndex":5,"sentenceBegin":321,"sentenceEnd":466}]}
{"paperId":"2afa3da371e5495dd55f0b4dde4ae7700eaf99d6","indicators":[{"word":"smoking","begin":365,"end":371,"sentenceIndex":2,"sentenceBegin":185,"sentenceEnd":372},{"word":"smoking","begin":633,"end":639,"sentenceIndex":4,"sentenceBegin":478,"sentenceEnd":640},{"word":"smoking","begin":840,"end":846,"sentenceIndex":5,"sentenceBegin":642,"sentenceEnd":847}]}
{"paperId":"2afa3da371e5495dd55f0b4dde4ae7700eaf99d6","indicators":[{"word":"smoking","begin":310,"end":316,"sentenceIndex":0,"sentenceBegin":0,"sentenceEnd":317},{"word":"smoking","begin":474,"end":480,"sentenceIndex":1,"sentenceBegin":319,"sentenceEnd":481}]}
{"paperId":"2afa3da371e5495dd55f0b4dde4ae7700eaf99d6","indicators":[{"word":"smoking","begin":18,"end":24,"sentenceIndex":0,"sentenceBegin":0,"sentenceEnd":156},{"word":"smoking","begin":556,"end":562,"sentenceIndex":10,"sentenceBegin":530,"sentenceEnd":680}]}
{"paperId":"2afa3da371e5495dd55f0b4dde4ae7700eaf99d6","indicators":[{"word":"smoking","begin":734,"end":740,"sentenceIndex":7,"sentenceBegin":718,"sentenceEnd":795}]}
{"paperId":"2afa3da371e5495dd55f0b4dde4ae7700eaf99d6","indicators":[{"word":"smoking","begin":1822,"end":1828,"sentenceIndex":12,"sentenceBegin":1791,"sentenceEnd":1829},{"word":"smoking","begin":1884,"end":1890,"sentenceIndex":13,"sentenceBegin":1831,"sentenceEnd":1954},{"word":"smoking","begin":2009,"end":2015,"sentenceIndex":14,"sentenceBegin":1956,"sentenceEnd":2089},{"word":"smoking","begin":2144,"end":2150,"sentenceIndex":15,"sentenceBegin":2091,"sentenceEnd":2224}]}
{"paperId":"2afa3da371e5495dd55f0b4dde4ae7700eaf99d6","indicators":[{"word":"smoking","begin":86,"end":92,"sentenceIndex":0,"sentenceBegin":0,"sentenceEnd":156},{"word":"smoking","begin":211,"end":217,"sentenceIndex":1,"sentenceBegin":158,"sentenceEnd":291},{"word":"smoking","begin":346,"end":352,"sentenceIndex":2,"sentenceBegin":293,"sentenceEnd":426},{"word":"smoking","begin":3166,"end":3172,"sentenceIndex":23,"sentenceBegin":3115,"sentenceEnd":3236},{"word":"smoking","begin":3291,"end":3297,"sentenceIndex":24,"sentenceBegin":3238,"sentenceEnd":3371},{"word":"smoking","begin":3426,"end":3432,"sentenceIndex":25,"sentenceBegin":3373,"sentenceEnd":3506}]}
