{"paperId":"d00f4eefbb543784810c112130616cdef8718c0a","indicators":[{"word":"smoking","begin":939,"end":945,"sentenceIndex":16,"sentenceBegin":912,"sentenceEnd":1053}]}
{"paperId":"ce10d3f8b3407a8ebb188bb56b5de1075ab4dce1","indicators":[{"word":"smoking","begin":855,"end":861,"sentenceIndex":6,"sentenceBegin":749,"sentenceEnd":921}]}
{"paperId":"ce10d3f8b3407a8ebb188bb56b5de1075ab4dce1","indicators":[{"word":"tobacco","begin":455,"end":461,"sentenceIndex":3,"sentenceBegin":333,"sentenceEnd":568},{"word":"smoke","begin":463,"end":467,"sentenceIndex":3,"sentenceBegin":333,"sentenceEnd":568}]}
{"paperId":"ce10d3f8b3407a8ebb188bb56b5de1075ab4dce1","indicators":[{"word":"tobacco","begin":655,"end":661,"sentenceIndex":3,"sentenceBegin":563,"sentenceEnd":726},{"word":"smoke","begin":663,"end":667,"sentenceIndex":3,"sentenceBegin":563,"sentenceEnd":726}]}
{"paperId":"2c9475aa7971ae4c5ae18329ae9895b2c1b8bbe7","indicators":[{"word":"tobacco","begin":344,"end":350,"sentenceIndex":2,"sentenceBegin":275,"sentenceEnd":691},{"word":"smoke","begin":352,"end":356,"sentenceIndex":2,"sentenceBegin":275,"sentenceEnd":691},{"word":"smoking","begin":922,"end":928,"sentenceIndex":3,"sentenceBegin":693,"sentenceEnd":951}]}
{"paperId":"2c9475aa7971ae4c5ae18329ae9895b2c1b8bbe7","indicators":[{"word":"smoking","begin":10,"end":16,"sentenceIndex":0,"sentenceBegin":0,"sentenceEnd":211}]}
{"paperId":"2c9475aa7971ae4c5ae18329ae9895b2c1b8bbe7","indicators":[{"word":"smoking","begin":738,"end":744,"sentenceIndex":5,"sentenceBegin":709,"sentenceEnd":871}]}
{"paperId":"2c9475aa7971ae4c5ae18329ae9895b2c1b8bbe7","indicators":[{"word":"smoking","begin":140,"end":146,"sentenceIndex":1,"sentenceBegin":94,"sentenceEnd":198},{"word":"smoking","begin":217,"end":223,"sentenceIndex":2,"sentenceBegin":199,"sentenceEnd":516},{"word":"smoking","begin":420,"end":426,"sentenceIndex":2,"sentenceBegin":199,"sentenceEnd":516}]}
{"paperId":"2c9475aa7971ae4c5ae18329ae9895b2c1b8bbe7","indicators":[{"word":"puffs","begin":809,"end":813,"sentenceIndex":2,"sentenceBegin":320,"sentenceEnd":879},{"word":"puffs","begin":2043,"end":2047,"sentenceIndex":8,"sentenceBegin":1981,"sentenceEnd":2054}]}
{"paperId":"2c9475aa7971ae4c5ae18329ae9895b2c1b8bbe7","indicators":[{"word":"smoking","begin":491,"end":497,"sentenceIndex":4,"sentenceBegin":476,"sentenceEnd":596}]}
{"paperId":"edcf9e16c1e2ae85d55fe951cf1c4a8d6ccbdac8","indicators":[{"word":"smoking","begin":50,"end":56,"sentenceIndex":0,"sentenceBegin":0,"sentenceEnd":204}]}
{"paperId":"edead548fccabfaf28fe69d6495b8693a6279697","indicators":[{"word":"fired","begin":416,"end":420,"sentenceIndex":3,"sentenceBegin":391,"sentenceEnd":514}]}
{"paperId":"72ab7e35006675a1b8f26365d8c03e3f0b0631d2","indicators":[{"word":"fired","begin":780,"end":784,"sentenceIndex":4,"sentenceBegin":705,"sentenceEnd":980},{"word":"fires","begin":921,"end":925,"sentenceIndex":4,"sentenceBegin":705,"sentenceEnd":980}]}
{"paperId":"72ab7e35006675a1b8f26365d8c03e3f0b0631d2","indicators":[{"word":"vapor","begin":1028,"end":1032,"sentenceIndex":4,"sentenceBegin":724,"sentenceEnd":1266}]}
{"paperId":"72ab7e35006675a1b8f26365d8c03e3f0b0631d2","indicators":[{"word":"weed","begin":600,"end":603,"sentenceIndex":2,"sentenceBegin":393,"sentenceEnd":811}]}
{"paperId":"178b337e3bfe27168f64d041af51ca9bf6d54bb2","indicators":[{"word":"weed","begin":383,"end":386,"sentenceIndex":2,"sentenceBegin":231,"sentenceEnd":453}]}
{"paperId":"da84b1de18c2934a0ea6255362c64a6c2e97075d","indicators":[{"word":"pot","begin":1444,"end":1446,"sentenceIndex":5,"sentenceBegin":1262,"sentenceEnd":1496}]}
{"paperId":"49e1868b232e6ec98ae7cbc0745613925205e056","indicators":[{"word":"vapor","begin":78,"end":82,"sentenceIndex":1,"sentenceBegin":23,"sentenceEnd":100}]}
{"paperId":"5b762aad8d986397c11473bc2b29b08e512cb9ba","indicators":[{"word":"weeds","begin":283,"end":287,"sentenceIndex":1,"sentenceBegin":194,"sentenceEnd":293}]}
{"paperId":"f18f54b3b4f54ef64c1c44b03bab3dfcf7bb581f","indicators":[{"word":"tobacco","begin":519,"end":525,"sentenceIndex":5,"sentenceBegin":493,"sentenceEnd":611}]}
{"paperId":"f18f54b3b4f54ef64c1c44b03bab3dfcf7bb581f","indicators":[{"word":"potted","begin":229,"end":234,"sentenceIndex":2,"sentenceBegin":186,"sentenceEnd":348}]}
{"paperId":"511d6ded668d2fa314594254327adb540fa2368a","indicators":[{"word":"smoking","begin":730,"end":736,"sentenceIndex":4,"sentenceBegin":683,"sentenceEnd":865}]}
