{"paperId":"1552cf77b6385950e197c67c2ed55ed6e1879ced","indicators":[{"word":"smoking","begin":1235,"end":1241,"sentenceIndex":4,"sentenceBegin":1126,"sentenceEnd":1411}]}
{"paperId":"57b837acb7ae6bb608ab7e7ce16745f48c17cf2f","indicators":[{"word":"tobacco","begin":3085,"end":3091,"sentenceIndex":36,"sentenceBegin":2904,"sentenceEnd":3164}]}
{"paperId":"33e41f34710b9542cf2f302aa4a11860d2622ce4","indicators":[{"word":"fires","begin":886,"end":890,"sentenceIndex":7,"sentenceBegin":791,"sentenceEnd":910}]}
