{"paperId":"e1c6eae3486c45eb5ac9144b946a7836cfee2ce1","indicators":[{"word":"tobacco","begin":186,"end":192,"sentenceIndex":0,"sentenceBegin":0,"sentenceEnd":599},{"word":"smoke","begin":194,"end":198,"sentenceIndex":0,"sentenceBegin":0,"sentenceEnd":599}]}
{"paperId":"52c8263bd68f130de753af23287d1def5722cb37","indicators":[{"word":"smoking","begin":54,"end":60,"sentenceIndex":2,"sentenceBegin":46,"sentenceEnd":61}]}
{"paperId":"52c8263bd68f130de753af23287d1def5722cb37","indicators":[{"word":"cigarettes","begin":574,"end":583,"sentenceIndex":3,"sentenceBegin":520,"sentenceEnd":683},{"word":"smoked","begin":585,"end":590,"sentenceIndex":3,"sentenceBegin":520,"sentenceEnd":683},{"word":"smoked","begin":1639,"end":1644,"sentenceIndex":11,"sentenceBegin":1617,"sentenceEnd":1691}]}
{"paperId":"f7fa104d1259d9cc1801864a819513f26469bd7f","indicators":[{"word":"vapor","begin":91,"end":95,"sentenceIndex":2,"sentenceBegin":81,"sentenceEnd":288},{"word":"vapor","begin":270,"end":274,"sentenceIndex":2,"sentenceBegin":81,"sentenceEnd":288}]}
{"paperId":"f7fa104d1259d9cc1801864a819513f26469bd7f","indicators":[{"word":"vapor","begin":440,"end":444,"sentenceIndex":2,"sentenceBegin":265,"sentenceEnd":445}]}
