{"paperId":"01871bea25a8ec1f2fc4cea4964f86eb6378f321","indicators":[{"word":"tobacco","begin":312,"end":318,"sentenceIndex":0,"sentenceBegin":0,"sentenceEnd":334}]}
{"paperId":"01871bea25a8ec1f2fc4cea4964f86eb6378f321","indicators":[{"word":"smoking","begin":697,"end":703,"sentenceIndex":2,"sentenceBegin":374,"sentenceEnd":710}]}
{"paperId":"681a8e1fb48060f3b784fb224d80d6ed43510bda","indicators":[{"word":"smoke","begin":543,"end":547,"sentenceIndex":5,"sentenceBegin":506,"sentenceEnd":572}]}
{"paperId":"681a8e1fb48060f3b784fb224d80d6ed43510bda","indicators":[{"word":"smoke","begin":470,"end":474,"sentenceIndex":2,"sentenceBegin":352,"sentenceEnd":570}]}
