{"paperId":"344868d285fc1031b2ad08f4521a176348d43ac0","indicators":[{"word":"vapor","begin":3703,"end":3707,"sentenceIndex":24,"sentenceBegin":3444,"sentenceEnd":3887}]}
{"paperId":"344868d285fc1031b2ad08f4521a176348d43ac0","indicators":[{"word":"vapor","begin":231,"end":235,"sentenceIndex":2,"sentenceBegin":207,"sentenceEnd":499}]}
{"paperId":"bf2ae4872782e95e5493c2c0ae7c40cf10a6d049","indicators":[{"word":"fires","begin":482,"end":486,"sentenceIndex":9,"sentenceBegin":471,"sentenceEnd":600},{"word":"fires","begin":650,"end":654,"sentenceIndex":10,"sentenceBegin":602,"sentenceEnd":737}]}
{"paperId":"bf2ae4872782e95e5493c2c0ae7c40cf10a6d049","indicators":[{"word":"fires","begin":139,"end":143,"sentenceIndex":2,"sentenceBegin":118,"sentenceEnd":278}]}
{"paperId":"bf2ae4872782e95e5493c2c0ae7c40cf10a6d049","indicators":[{"word":"fired","begin":554,"end":558,"sentenceIndex":5,"sentenceBegin":475,"sentenceEnd":579}]}
{"paperId":"cfae688b1014092affc318bf264bcf2f159a0858","indicators":[{"word":"tobacco","begin":519,"end":525,"sentenceIndex":3,"sentenceBegin":473,"sentenceEnd":720},{"word":"tobacco","begin":648,"end":654,"sentenceIndex":3,"sentenceBegin":473,"sentenceEnd":720},{"word":"tobacco","begin":754,"end":760,"sentenceIndex":4,"sentenceBegin":722,"sentenceEnd":898}]}
{"paperId":"cfae688b1014092affc318bf264bcf2f159a0858","indicators":[{"word":"tobacco","begin":406,"end":412,"sentenceIndex":2,"sentenceBegin":396,"sentenceEnd":720}]}
{"paperId":"cfae688b1014092affc318bf264bcf2f159a0858","indicators":[{"word":"tobacco","begin":212,"end":218,"sentenceIndex":1,"sentenceBegin":141,"sentenceEnd":356},{"word":"tobacco","begin":743,"end":749,"sentenceIndex":5,"sentenceBegin":711,"sentenceEnd":827}]}
{"paperId":"cfae688b1014092affc318bf264bcf2f159a0858","indicators":[{"word":"tobacco","begin":540,"end":546,"sentenceIndex":7,"sentenceBegin":520,"sentenceEnd":557}]}
{"paperId":"cfae688b1014092affc318bf264bcf2f159a0858","indicators":[{"word":"tobacco","begin":582,"end":588,"sentenceIndex":3,"sentenceBegin":422,"sentenceEnd":612}]}
