{"paperId":"2cd3bc58106dafddfe933f2fa2c45c74b47e6e9c","indicators":[{"word":"tobacco","begin":131,"end":137,"sentenceIndex":0,"sentenceBegin":0,"sentenceEnd":196},{"word":"smoke","begin":139,"end":143,"sentenceIndex":0,"sentenceBegin":0,"sentenceEnd":196}]}
{"paperId":"1aeb7a9cfcab3236c6b4168ccac7479a73e5f38b","indicators":[{"word":"smoke","begin":224,"end":228,"sentenceIndex":1,"sentenceBegin":49,"sentenceEnd":323}]}
{"paperId":"1aeb7a9cfcab3236c6b4168ccac7479a73e5f38b","indicators":[{"word":"smoking","begin":539,"end":545,"sentenceIndex":3,"sentenceBegin":516,"sentenceEnd":742}]}
{"paperId":"1aeb7a9cfcab3236c6b4168ccac7479a73e5f38b","indicators":[{"word":"smoking","begin":466,"end":472,"sentenceIndex":2,"sentenceBegin":315,"sentenceEnd":673}]}
{"paperId":"4f4acbe3c4d292acb46a0642787d2dba7e1aceb3","indicators":[{"word":"cigarette","begin":225,"end":233,"sentenceIndex":1,"sentenceBegin":88,"sentenceEnd":256},{"word":"smoking","begin":235,"end":241,"sentenceIndex":1,"sentenceBegin":88,"sentenceEnd":256},{"word":"smoking","begin":302,"end":308,"sentenceIndex":2,"sentenceBegin":258,"sentenceEnd":442}]}
{"paperId":"373da319d734b56874fbb85a366c365f1a962543","indicators":[{"word":"smoking","begin":226,"end":232,"sentenceIndex":1,"sentenceBegin":180,"sentenceEnd":405}]}
