{"paperId":"12fa7878bd3f2d4ef2bf1a57cdff821b8b772369","indicators":[{"word":"smoking","begin":268,"end":274,"sentenceIndex":1,"sentenceBegin":260,"sentenceEnd":537}]}
{"paperId":"2f47b0b1d2688551d04874af0053cc6297466bd7","indicators":[{"word":"tobacco","begin":1367,"end":1373,"sentenceIndex":22,"sentenceBegin":1312,"sentenceEnd":1439}]}
{"paperId":"2f47b0b1d2688551d04874af0053cc6297466bd7","indicators":[{"word":"tobacco","begin":315,"end":321,"sentenceIndex":1,"sentenceBegin":170,"sentenceEnd":437}]}
{"paperId":"2f47b0b1d2688551d04874af0053cc6297466bd7","indicators":[{"word":"tobacco","begin":54,"end":60,"sentenceIndex":0,"sentenceBegin":0,"sentenceEnd":246},{"word":"tobacco","begin":113,"end":119,"sentenceIndex":0,"sentenceBegin":0,"sentenceEnd":246},{"word":"tobacco","begin":565,"end":571,"sentenceIndex":2,"sentenceBegin":490,"sentenceEnd":638}]}
{"paperId":"2f47b0b1d2688551d04874af0053cc6297466bd7","indicators":[{"word":"tobacco","begin":489,"end":495,"sentenceIndex":3,"sentenceBegin":388,"sentenceEnd":819},{"word":"tobacco","begin":1537,"end":1543,"sentenceIndex":10,"sentenceBegin":1489,"sentenceEnd":1732}]}
{"paperId":"2f47b0b1d2688551d04874af0053cc6297466bd7","indicators":[{"word":"tobacco","begin":255,"end":261,"sentenceIndex":2,"sentenceBegin":165,"sentenceEnd":290}]}
{"paperId":"2f47b0b1d2688551d04874af0053cc6297466bd7","indicators":[{"word":"tobacco","begin":55,"end":61,"sentenceIndex":0,"sentenceBegin":0,"sentenceEnd":197},{"word":"tobacco","begin":549,"end":555,"sentenceIndex":2,"sentenceBegin":389,"sentenceEnd":582},{"word":"tobacco","begin":960,"end":966,"sentenceIndex":5,"sentenceBegin":944,"sentenceEnd":1045},{"word":"tobacco","begin":1060,"end":1066,"sentenceIndex":6,"sentenceBegin":1047,"sentenceEnd":1136},{"word":"tobacco","begin":1191,"end":1197,"sentenceIndex":7,"sentenceBegin":1138,"sentenceEnd":1263},{"word":"tobacco","begin":1589,"end":1595,"sentenceIndex":11,"sentenceBegin":1474,"sentenceEnd":1607}]}
{"paperId":"2f47b0b1d2688551d04874af0053cc6297466bd7","indicators":[{"word":"tobacco","begin":70,"end":76,"sentenceIndex":0,"sentenceBegin":0,"sentenceEnd":90}]}
{"paperId":"2f47b0b1d2688551d04874af0053cc6297466bd7","indicators":[{"word":"tobacco","begin":52,"end":58,"sentenceIndex":0,"sentenceBegin":0,"sentenceEnd":246},{"word":"tobacco","begin":463,"end":469,"sentenceIndex":2,"sentenceBegin":344,"sentenceEnd":482},{"word":"tobacco","begin":1591,"end":1597,"sentenceIndex":10,"sentenceBegin":1530,"sentenceEnd":1755}]}
{"paperId":"2f47b0b1d2688551d04874af0053cc6297466bd7","indicators":[{"word":"tobacco","begin":411,"end":417,"sentenceIndex":5,"sentenceBegin":321,"sentenceEnd":448}]}
{"paperId":"2f47b0b1d2688551d04874af0053cc6297466bd7","indicators":[{"word":"tobacco","begin":51,"end":57,"sentenceIndex":0,"sentenceBegin":0,"sentenceEnd":115},{"word":"tobacco","begin":1157,"end":1163,"sentenceIndex":9,"sentenceBegin":992,"sentenceEnd":1170},{"word":"tobacco","begin":1385,"end":1391,"sentenceIndex":11,"sentenceBegin":1301,"sentenceEnd":1582},{"word":"tobacco","begin":1568,"end":1574,"sentenceIndex":11,"sentenceBegin":1301,"sentenceEnd":1582}]}
{"paperId":"2f47b0b1d2688551d04874af0053cc6297466bd7","indicators":[{"word":"tobacco","begin":342,"end":348,"sentenceIndex":1,"sentenceBegin":198,"sentenceEnd":384},{"word":"tobacco","begin":765,"end":771,"sentenceIndex":8,"sentenceBegin":739,"sentenceEnd":779},{"word":"tobacco","begin":1264,"end":1270,"sentenceIndex":12,"sentenceBegin":1160,"sentenceEnd":1321}]}
{"paperId":"2f47b0b1d2688551d04874af0053cc6297466bd7","indicators":[{"word":"tobacco","begin":12,"end":18,"sentenceIndex":0,"sentenceBegin":0,"sentenceEnd":152},{"word":"tobacco","begin":250,"end":256,"sentenceIndex":3,"sentenceBegin":239,"sentenceEnd":559},{"word":"tobacco","begin":1542,"end":1548,"sentenceIndex":11,"sentenceBegin":1461,"sentenceEnd":1571},{"word":"tobacco","begin":1633,"end":1639,"sentenceIndex":12,"sentenceBegin":1573,"sentenceEnd":1715}]}
{"paperId":"2f47b0b1d2688551d04874af0053cc6297466bd7","indicators":[{"word":"tobacco","begin":474,"end":480,"sentenceIndex":3,"sentenceBegin":434,"sentenceEnd":553},{"word":"tobacco","begin":808,"end":814,"sentenceIndex":6,"sentenceBegin":757,"sentenceEnd":850},{"word":"tobacco","begin":1228,"end":1234,"sentenceIndex":13,"sentenceBegin":1202,"sentenceEnd":1242}]}
{"paperId":"2f47b0b1d2688551d04874af0053cc6297466bd7","indicators":[{"word":"tobacco","begin":210,"end":216,"sentenceIndex":0,"sentenceBegin":0,"sentenceEnd":314}]}
{"paperId":"2f47b0b1d2688551d04874af0053cc6297466bd7","indicators":[{"word":"tobacco","begin":228,"end":234,"sentenceIndex":2,"sentenceBegin":172,"sentenceEnd":248},{"word":"tobacco","begin":708,"end":714,"sentenceIndex":7,"sentenceBegin":643,"sentenceEnd":837},{"word":"tobacco","begin":1944,"end":1950,"sentenceIndex":18,"sentenceBegin":1891,"sentenceEnd":2146}]}
{"paperId":"2f47b0b1d2688551d04874af0053cc6297466bd7","indicators":[{"word":"tobacco","begin":1573,"end":1579,"sentenceIndex":15,"sentenceBegin":1411,"sentenceEnd":1613}]}
{"paperId":"2f47b0b1d2688551d04874af0053cc6297466bd7","indicators":[{"word":"tobacco","begin":80,"end":86,"sentenceIndex":0,"sentenceBegin":0,"sentenceEnd":99},{"word":"tobacco","begin":221,"end":227,"sentenceIndex":4,"sentenceBegin":190,"sentenceEnd":240},{"word":"tobacco","begin":420,"end":426,"sentenceIndex":6,"sentenceBegin":377,"sentenceEnd":427}]}
{"paperId":"bb16742bf320d4f199b22e31bd6cdffef426cc2f","indicators":[{"word":"tobacco","begin":574,"end":580,"sentenceIndex":3,"sentenceBegin":523,"sentenceEnd":585}]}
{"paperId":"8d3af2b775151437febbb1c40db4e683acec53ca","indicators":[{"word":"smoking","begin":269,"end":275,"sentenceIndex":1,"sentenceBegin":94,"sentenceEnd":378}]}
{"paperId":"8d3af2b775151437febbb1c40db4e683acec53ca","indicators":[{"word":"smoking","begin":780,"end":786,"sentenceIndex":0,"sentenceBegin":0,"sentenceEnd":788}]}
