{"paperId":"d0964b1a5b546a6096d8b00f5f84fba27626e04f","indicators":[{"word":"smoked","begin":222,"end":227,"sentenceIndex":3,"sentenceBegin":219,"sentenceEnd":281},{"word":"cigarettes","begin":229,"end":238,"sentenceIndex":3,"sentenceBegin":219,"sentenceEnd":281}]}
{"paperId":"0ca486c3ab1a5050411a08f1cd9c1fa4dd447128","indicators":[{"word":"smoking","begin":1040,"end":1046,"sentenceIndex":7,"sentenceBegin":897,"sentenceEnd":1081}]}
{"paperId":"6338516a8a50b32709e70a26b434bb85a0d46646","indicators":[{"word":"tobacco","begin":295,"end":301,"sentenceIndex":1,"sentenceBegin":206,"sentenceEnd":343}]}
