{"paperId":"1a1e8d72785bbd53a2ccec172d72cf8c29031509","indicators":[{"word":"smoking","begin":1221,"end":1227,"sentenceIndex":9,"sentenceBegin":1112,"sentenceEnd":1304}]}
{"paperId":"614bdc20634e2ba70040a0121c88176dfe0fb949","indicators":[{"word":"cannabis","begin":663,"end":670,"sentenceIndex":2,"sentenceBegin":558,"sentenceEnd":895}]}
{"paperId":"614bdc20634e2ba70040a0121c88176dfe0fb949","indicators":[{"word":"smoke","begin":196,"end":200,"sentenceIndex":0,"sentenceBegin":0,"sentenceEnd":380},{"word":"vape","begin":205,"end":208,"sentenceIndex":0,"sentenceBegin":0,"sentenceEnd":380},{"word":"tobacco","begin":210,"end":216,"sentenceIndex":0,"sentenceBegin":0,"sentenceEnd":380},{"word":"cannabis","begin":225,"end":232,"sentenceIndex":0,"sentenceBegin":0,"sentenceEnd":380}]}
{"paperId":"614bdc20634e2ba70040a0121c88176dfe0fb949","indicators":[{"word":"cannabis","begin":128,"end":135,"sentenceIndex":0,"sentenceBegin":0,"sentenceEnd":157},{"word":"cannabis","begin":827,"end":834,"sentenceIndex":4,"sentenceBegin":771,"sentenceEnd":1063}]}
