{"paperId":"2a3361d84f69b58625251610c7591ae2e4759f9b","indicators":[{"word":"smoke","begin":336,"end":340,"sentenceIndex":1,"sentenceBegin":258,"sentenceEnd":406}]}
{"paperId":"2a3361d84f69b58625251610c7591ae2e4759f9b","indicators":[{"word":"smoke","begin":547,"end":551,"sentenceIndex":3,"sentenceBegin":451,"sentenceEnd":581},{"word":"smoke","begin":928,"end":932,"sentenceIndex":5,"sentenceBegin":771,"sentenceEnd":1075}]}
{"paperId":"2a3361d84f69b58625251610c7591ae2e4759f9b","indicators":[{"word":"smoke","begin":326,"end":330,"sentenceIndex":2,"sentenceBegin":290,"sentenceEnd":416},{"word":"smoke","begin":502,"end":506,"sentenceIndex":3,"sentenceBegin":418,"sentenceEnd":507}]}
{"paperId":"e8041691889938fa8e374b16167f56a0a01443b4","indicators":[{"word":"smoke","begin":861,"end":865,"sentenceIndex":5,"sentenceBegin":847,"sentenceEnd":1085}]}
{"paperId":"e8041691889938fa8e374b16167f56a0a01443b4","indicators":[{"word":"smoke","begin":1182,"end":1186,"sentenceIndex":8,"sentenceBegin":1101,"sentenceEnd":1262}]}
{"paperId":"b630d56a66504c84534260014ea5707d13984e83","indicators":[{"word":"vapor","begin":246,"end":250,"sentenceIndex":1,"sentenceBegin":182,"sentenceEnd":330}]}
{"paperId":"b630d56a66504c84534260014ea5707d13984e83","indicators":[{"word":"cigarette","begin":403,"end":411,"sentenceIndex":0,"sentenceBegin":0,"sentenceEnd":430},{"word":"smoke","begin":413,"end":417,"sentenceIndex":0,"sentenceBegin":0,"sentenceEnd":430}]}
