{"paperId":"a642d4021e92bf6974af05b20f17e6e8b25c368c","indicators":[{"word":"smoking","begin":591,"end":597,"sentenceIndex":4,"sentenceBegin":515,"sentenceEnd":788}]}
{"paperId":"81b10c25c40a5ed58834810e031457c38673c2a3","indicators":[{"word":"smoking","begin":1709,"end":1715,"sentenceIndex":13,"sentenceBegin":1636,"sentenceEnd":1749}]}
{"paperId":"d1eecf25e925b3c331a75d38e687648718e2d4f1","indicators":[{"word":"smoking","begin":326,"end":332,"sentenceIndex":0,"sentenceBegin":0,"sentenceEnd":391}]}
{"paperId":"08ce0654b900fd7a14ec91a9ab73ffab25cb0ae2","indicators":[{"word":"pot","begin":1643,"end":1645,"sentenceIndex":9,"sentenceBegin":1597,"sentenceEnd":1783}]}
