{"paperId":"9e4f6e2dd8f847c11cc774c7083aa426f42a530e","indicators":[{"word":"tobacco","begin":163,"end":169,"sentenceIndex":0,"sentenceBegin":0,"sentenceEnd":249}]}
{"paperId":"9e4f6e2dd8f847c11cc774c7083aa426f42a530e","indicators":[{"word":"tobacco","begin":2367,"end":2373,"sentenceIndex":19,"sentenceBegin":2330,"sentenceEnd":2464}]}
{"paperId":"9e4f6e2dd8f847c11cc774c7083aa426f42a530e","indicators":[{"word":"cigarettes","begin":1718,"end":1727,"sentenceIndex":15,"sentenceBegin":1665,"sentenceEnd":1854},{"word":"tobacco","begin":1952,"end":1958,"sentenceIndex":16,"sentenceBegin":1856,"sentenceEnd":1972},{"word":"smoking","begin":2942,"end":2948,"sentenceIndex":23,"sentenceBegin":2835,"sentenceEnd":2949}]}
{"paperId":"be900433da9f3130008dff4bd6e5b69d463cdbb3","indicators":[{"word":"smoking","begin":196,"end":202,"sentenceIndex":1,"sentenceBegin":127,"sentenceEnd":283}]}
