{"paperId":"9bddad5b8597afa80f799ae234986958e1628387","indicators":[{"word":"tobacco","begin":651,"end":657,"sentenceIndex":8,"sentenceBegin":592,"sentenceEnd":715}]}
{"paperId":"ce8425df8e3bbf7035249c071ab1fa54b6484eb8","indicators":[{"word":"smoke","begin":1091,"end":1095,"sentenceIndex":5,"sentenceBegin":939,"sentenceEnd":1245}]}
{"paperId":"ce8425df8e3bbf7035249c071ab1fa54b6484eb8","indicators":[{"word":"smoke","begin":155,"end":159,"sentenceIndex":0,"sentenceBegin":0,"sentenceEnd":328}]}
{"paperId":"22828ae7e5ade2da9032b49690fb85db80947137","indicators":[{"word":"tobacco","begin":605,"end":611,"sentenceIndex":4,"sentenceBegin":499,"sentenceEnd":760}]}
