{"paperId":"ee46c9064c2ef4916ba7d54c80236d3cb1781635","indicators":[{"word":"tobacco","begin":442,"end":448,"sentenceIndex":2,"sentenceBegin":248,"sentenceEnd":582},{"word":"smoke","begin":450,"end":454,"sentenceIndex":2,"sentenceBegin":248,"sentenceEnd":582}]}
{"paperId":"3efed917d1be127696f7c6c8194b9ce2ed9cec6a","indicators":[{"word":"smoking","begin":1445,"end":1451,"sentenceIndex":3,"sentenceBegin":1273,"sentenceEnd":1605}]}
{"paperId":"3efed917d1be127696f7c6c8194b9ce2ed9cec6a","indicators":[{"word":"tobacco","begin":401,"end":407,"sentenceIndex":0,"sentenceBegin":0,"sentenceEnd":573}]}
