{"paperId":"efc50ae4c08699212311dc5f0f5cd335b88f1415","indicators":[{"word":"smoke","begin":30,"end":34,"sentenceIndex":1,"sentenceBegin":18,"sentenceEnd":233},{"word":"smoking","begin":57,"end":63,"sentenceIndex":1,"sentenceBegin":18,"sentenceEnd":233},{"word":"tobacco","begin":401,"end":407,"sentenceIndex":2,"sentenceBegin":235,"sentenceEnd":474},{"word":"smoke","begin":409,"end":413,"sentenceIndex":2,"sentenceBegin":235,"sentenceEnd":474},{"word":"smoking","begin":444,"end":450,"sentenceIndex":2,"sentenceBegin":235,"sentenceEnd":474}]}
{"paperId":"efc50ae4c08699212311dc5f0f5cd335b88f1415","indicators":[{"word":"smoking","begin":702,"end":708,"sentenceIndex":4,"sentenceBegin":568,"sentenceEnd":739},{"word":"smoking","begin":784,"end":790,"sentenceIndex":5,"sentenceBegin":741,"sentenceEnd":908},{"word":"smoking","begin":959,"end":965,"sentenceIndex":6,"sentenceBegin":910,"sentenceEnd":981},{"word":"smoking","begin":1228,"end":1234,"sentenceIndex":8,"sentenceBegin":1198,"sentenceEnd":1363}]}
{"paperId":"efc50ae4c08699212311dc5f0f5cd335b88f1415","indicators":[{"word":"smoke","begin":967,"end":971,"sentenceIndex":8,"sentenceBegin":913,"sentenceEnd":1042}]}
{"paperId":"efc50ae4c08699212311dc5f0f5cd335b88f1415","indicators":[{"word":"smoke","begin":69,"end":73,"sentenceIndex":0,"sentenceBegin":0,"sentenceEnd":101}]}
{"paperId":"efc50ae4c08699212311dc5f0f5cd335b88f1415","indicators":[{"word":"smoking","begin":244,"end":250,"sentenceIndex":1,"sentenceBegin":195,"sentenceEnd":327}]}
{"paperId":"efc50ae4c08699212311dc5f0f5cd335b88f1415","indicators":[{"word":"tobacco","begin":185,"end":191,"sentenceIndex":1,"sentenceBegin":78,"sentenceEnd":402},{"word":"smoke","begin":193,"end":197,"sentenceIndex":1,"sentenceBegin":78,"sentenceEnd":402},{"word":"cigarette","begin":283,"end":291,"sentenceIndex":1,"sentenceBegin":78,"sentenceEnd":402},{"word":"smoking","begin":293,"end":299,"sentenceIndex":1,"sentenceBegin":78,"sentenceEnd":402},{"word":"cigarette","begin":494,"end":502,"sentenceIndex":2,"sentenceBegin":404,"sentenceEnd":665},{"word":"smoking","begin":504,"end":510,"sentenceIndex":2,"sentenceBegin":404,"sentenceEnd":665},{"word":"smoking","begin":767,"end":773,"sentenceIndex":3,"sentenceBegin":667,"sentenceEnd":1004},{"word":"cigarette","begin":814,"end":822,"sentenceIndex":3,"sentenceBegin":667,"sentenceEnd":1004},{"word":"smoke","begin":824,"end":828,"sentenceIndex":3,"sentenceBegin":667,"sentenceEnd":1004},{"word":"tobacco","begin":1205,"end":1211,"sentenceIndex":5,"sentenceBegin":1088,"sentenceEnd":1383},{"word":"smoking","begin":1218,"end":1224,"sentenceIndex":5,"sentenceBegin":1088,"sentenceEnd":1383},{"word":"smoke","begin":1500,"end":1504,"sentenceIndex":6,"sentenceBegin":1385,"sentenceEnd":1764},{"word":"tobacco","begin":1506,"end":1512,"sentenceIndex":6,"sentenceBegin":1385,"sentenceEnd":1764},{"word":"tobacco","begin":1671,"end":1677,"sentenceIndex":6,"sentenceBegin":1385,"sentenceEnd":1764},{"word":"smoke","begin":1679,"end":1683,"sentenceIndex":6,"sentenceBegin":1385,"sentenceEnd":1764}]}
{"paperId":"efc50ae4c08699212311dc5f0f5cd335b88f1415","indicators":[{"word":"smoking","begin":5,"end":11,"sentenceIndex":0,"sentenceBegin":0,"sentenceEnd":159}]}
{"paperId":"efc50ae4c08699212311dc5f0f5cd335b88f1415","indicators":[{"word":"smoking","begin":123,"end":129,"sentenceIndex":1,"sentenceBegin":98,"sentenceEnd":358}]}
{"paperId":"efc50ae4c08699212311dc5f0f5cd335b88f1415","indicators":[{"word":"smoke","begin":1186,"end":1190,"sentenceIndex":6,"sentenceBegin":897,"sentenceEnd":1346},{"word":"smoking","begin":1204,"end":1210,"sentenceIndex":6,"sentenceBegin":897,"sentenceEnd":1346}]}
{"paperId":"efc50ae4c08699212311dc5f0f5cd335b88f1415","indicators":[{"word":"smoking","begin":235,"end":241,"sentenceIndex":0,"sentenceBegin":0,"sentenceEnd":261},{"word":"smoking","begin":275,"end":281,"sentenceIndex":1,"sentenceBegin":263,"sentenceEnd":509}]}
{"paperId":"8053681913fd4f6115645624eda127b533532e1b","indicators":[{"word":"smoke","begin":70,"end":74,"sentenceIndex":1,"sentenceBegin":10,"sentenceEnd":212},{"word":"smoke","begin":394,"end":398,"sentenceIndex":4,"sentenceBegin":324,"sentenceEnd":460}]}
{"paperId":"8053681913fd4f6115645624eda127b533532e1b","indicators":[{"word":"smoke","begin":247,"end":251,"sentenceIndex":0,"sentenceBegin":0,"sentenceEnd":329},{"word":"smoke","begin":372,"end":376,"sentenceIndex":1,"sentenceBegin":331,"sentenceEnd":550},{"word":"smoke","begin":787,"end":791,"sentenceIndex":3,"sentenceBegin":762,"sentenceEnd":858},{"word":"smoke","begin":846,"end":850,"sentenceIndex":3,"sentenceBegin":762,"sentenceEnd":858}]}
{"paperId":"8053681913fd4f6115645624eda127b533532e1b","indicators":[{"word":"smoke","begin":844,"end":848,"sentenceIndex":4,"sentenceBegin":682,"sentenceEnd":857}]}
