{"paperId":"38ed93a33250b6983c5bb78f5619fd6da435a5ba","indicators":[{"word":"smoking","begin":740,"end":746,"sentenceIndex":6,"sentenceBegin":675,"sentenceEnd":1227}]}
{"paperId":"1d44b78805f7baf17f811f8e5957c546c020abbc","indicators":[{"word":"smoking","begin":260,"end":266,"sentenceIndex":0,"sentenceBegin":0,"sentenceEnd":278}]}
{"paperId":"1d44b78805f7baf17f811f8e5957c546c020abbc","indicators":[{"word":"smoking","begin":838,"end":844,"sentenceIndex":5,"sentenceBegin":702,"sentenceEnd":901}]}
{"paperId":"1d44b78805f7baf17f811f8e5957c546c020abbc","indicators":[{"word":"smoking","begin":179,"end":185,"sentenceIndex":1,"sentenceBegin":141,"sentenceEnd":201}]}
{"paperId":"1d44b78805f7baf17f811f8e5957c546c020abbc","indicators":[{"word":"smoking","begin":67,"end":73,"sentenceIndex":0,"sentenceBegin":0,"sentenceEnd":136},{"word":"smoking","begin":196,"end":202,"sentenceIndex":2,"sentenceBegin":157,"sentenceEnd":411},{"word":"smoking","begin":441,"end":447,"sentenceIndex":3,"sentenceBegin":413,"sentenceEnd":552}]}
{"paperId":"af14a06572f3f6ffcc708b2a121f398b11a0a5cc","indicators":[{"word":"smoking","begin":2153,"end":2159,"sentenceIndex":8,"sentenceBegin":2008,"sentenceEnd":2673}]}
