{"paperId":"5e93750f999d2d9a74e43f51d61de527957e8502","indicators":[{"word":"smoke","begin":1095,"end":1099,"sentenceIndex":7,"sentenceBegin":1054,"sentenceEnd":1131},{"word":"smoke","begin":1148,"end":1152,"sentenceIndex":8,"sentenceBegin":1133,"sentenceEnd":1260},{"word":"smoke","begin":1196,"end":1200,"sentenceIndex":8,"sentenceBegin":1133,"sentenceEnd":1260},{"word":"smoke","begin":1316,"end":1320,"sentenceIndex":9,"sentenceBegin":1262,"sentenceEnd":1347}]}
{"paperId":"aaced93f65162e95222aee866dd1248133cb4e0b","indicators":[{"word":"fires","begin":81,"end":85,"sentenceIndex":0,"sentenceBegin":0,"sentenceEnd":356},{"word":"smoke","begin":112,"end":116,"sentenceIndex":0,"sentenceBegin":0,"sentenceEnd":356}]}
{"paperId":"bf81a0f6d1566b8d6709e7498706eb813520a2a2","indicators":[{"word":"smoking","begin":429,"end":435,"sentenceIndex":4,"sentenceBegin":320,"sentenceEnd":463}]}
{"paperId":"c8d6b93a43ec16e86c706d638d1de31ffd961588","indicators":[{"word":"tobacco","begin":1098,"end":1104,"sentenceIndex":6,"sentenceBegin":1050,"sentenceEnd":1181}]}
{"paperId":"c8d6b93a43ec16e86c706d638d1de31ffd961588","indicators":[{"word":"smoking","begin":1101,"end":1107,"sentenceIndex":7,"sentenceBegin":1090,"sentenceEnd":1255},{"word":"smoking","begin":1182,"end":1188,"sentenceIndex":7,"sentenceBegin":1090,"sentenceEnd":1255}]}
{"paperId":"c8d6b93a43ec16e86c706d638d1de31ffd961588","indicators":[{"word":"smoking","begin":1702,"end":1708,"sentenceIndex":12,"sentenceBegin":1603,"sentenceEnd":1917},{"word":"smoking","begin":2117,"end":2123,"sentenceIndex":13,"sentenceBegin":1919,"sentenceEnd":2235}]}
