{"paperId":"7e0a5c500fc430a24c69d666057b3969d90d389d","indicators":[{"word":"tobacco","begin":192,"end":198,"sentenceIndex":1,"sentenceBegin":142,"sentenceEnd":282}]}
{"paperId":"d0212b73d578c0840e5b020f96932cd8b0c1e42a","indicators":[{"word":"smoke","begin":1319,"end":1323,"sentenceIndex":12,"sentenceBegin":1125,"sentenceEnd":1441}]}
{"paperId":"d0212b73d578c0840e5b020f96932cd8b0c1e42a","indicators":[{"word":"smoke","begin":151,"end":155,"sentenceIndex":2,"sentenceBegin":132,"sentenceEnd":317}]}
{"paperId":"59f96c4166966aa929450a859c3d3fb2b6058c50","indicators":[{"word":"puff","begin":1256,"end":1259,"sentenceIndex":10,"sentenceBegin":1082,"sentenceEnd":1512}]}
{"paperId":"98d1f618da4e5ca7c4e988b152d52621d1e62baf","indicators":[{"word":"vapor","begin":473,"end":477,"sentenceIndex":2,"sentenceBegin":300,"sentenceEnd":523}]}
{"paperId":"30e71c93b88ca5e2231243b0d2c408cc36de3262","indicators":[{"word":"cigarette","begin":228,"end":236,"sentenceIndex":1,"sentenceBegin":198,"sentenceEnd":391},{"word":"smoking","begin":238,"end":244,"sentenceIndex":1,"sentenceBegin":198,"sentenceEnd":391}]}
