{"paperId":"7574e8c8c1e0e6df24e6ef15177e2eff23262511","indicators":[{"word":"tobacco","begin":673,"end":679,"sentenceIndex":5,"sentenceBegin":647,"sentenceEnd":751},{"word":"smoking","begin":681,"end":687,"sentenceIndex":5,"sentenceBegin":647,"sentenceEnd":751}]}
{"paperId":"7574e8c8c1e0e6df24e6ef15177e2eff23262511","indicators":[{"word":"smoking","begin":71,"end":77,"sentenceIndex":0,"sentenceBegin":0,"sentenceEnd":118}]}
{"paperId":"76380a438d17f67cfa6f9760485ec9837cfcc1e1","indicators":[{"word":"tobacco","begin":470,"end":476,"sentenceIndex":1,"sentenceBegin":171,"sentenceEnd":583},{"word":"smoke","begin":478,"end":482,"sentenceIndex":1,"sentenceBegin":171,"sentenceEnd":583}]}
