{"paperId":"a484db449f6d41927b645a3d5bcdd1ada691e694","indicators":[{"word":"vapor","begin":1286,"end":1290,"sentenceIndex":8,"sentenceBegin":1189,"sentenceEnd":1315}]}
{"paperId":"a484db449f6d41927b645a3d5bcdd1ada691e694","indicators":[{"word":"vapor","begin":382,"end":386,"sentenceIndex":2,"sentenceBegin":324,"sentenceEnd":497}]}
{"paperId":"557b8184eac96894bbf01ee96b8269885851b38c","indicators":[{"word":"tobacco","begin":400,"end":406,"sentenceIndex":1,"sentenceBegin":127,"sentenceEnd":420}]}
{"paperId":"557b8184eac96894bbf01ee96b8269885851b38c","indicators":[{"word":"tobacco","begin":323,"end":329,"sentenceIndex":1,"sentenceBegin":226,"sentenceEnd":342}]}
{"paperId":"557b8184eac96894bbf01ee96b8269885851b38c","indicators":[{"word":"tobacco","begin":193,"end":199,"sentenceIndex":1,"sentenceBegin":156,"sentenceEnd":297},{"word":"tobacco","begin":1091,"end":1097,"sentenceIndex":7,"sentenceBegin":1044,"sentenceEnd":1163}]}
{"paperId":"557b8184eac96894bbf01ee96b8269885851b38c","indicators":[{"word":"tobacco","begin":225,"end":231,"sentenceIndex":3,"sentenceBegin":210,"sentenceEnd":280},{"word":"tobacco","begin":645,"end":651,"sentenceIndex":8,"sentenceBegin":602,"sentenceEnd":809}]}
{"paperId":"557b8184eac96894bbf01ee96b8269885851b38c","indicators":[{"word":"tobacco","begin":116,"end":122,"sentenceIndex":0,"sentenceBegin":0,"sentenceEnd":194}]}
{"paperId":"557b8184eac96894bbf01ee96b8269885851b38c","indicators":[{"word":"tobacco","begin":154,"end":160,"sentenceIndex":0,"sentenceBegin":0,"sentenceEnd":174}]}
{"paperId":"557b8184eac96894bbf01ee96b8269885851b38c","indicators":[{"word":"tobacco","begin":408,"end":414,"sentenceIndex":3,"sentenceBegin":327,"sentenceEnd":519},{"word":"tobacco","begin":548,"end":554,"sentenceIndex":4,"sentenceBegin":521,"sentenceEnd":709},{"word":"tobacco","begin":690,"end":696,"sentenceIndex":4,"sentenceBegin":521,"sentenceEnd":709}]}
{"paperId":"557b8184eac96894bbf01ee96b8269885851b38c","indicators":[{"word":"tobacco","begin":318,"end":324,"sentenceIndex":2,"sentenceBegin":296,"sentenceEnd":426},{"word":"tobacco","begin":669,"end":675,"sentenceIndex":5,"sentenceBegin":589,"sentenceEnd":737},{"word":"tobacco","begin":987,"end":993,"sentenceIndex":7,"sentenceBegin":906,"sentenceEnd":1108},{"word":"tobacco","begin":1614,"end":1620,"sentenceIndex":13,"sentenceBegin":1556,"sentenceEnd":1689},{"word":"tobacco","begin":1813,"end":1819,"sentenceIndex":14,"sentenceBegin":1691,"sentenceEnd":1896},{"word":"tobacco","begin":2591,"end":2597,"sentenceIndex":21,"sentenceBegin":2493,"sentenceEnd":2607}]}
{"paperId":"557b8184eac96894bbf01ee96b8269885851b38c","indicators":[{"word":"tobacco","begin":322,"end":328,"sentenceIndex":5,"sentenceBegin":186,"sentenceEnd":329},{"word":"tobacco","begin":670,"end":676,"sentenceIndex":8,"sentenceBegin":591,"sentenceEnd":797},{"word":"tobacco","begin":1143,"end":1149,"sentenceIndex":10,"sentenceBegin":1075,"sentenceEnd":1333},{"word":"tobacco","begin":1617,"end":1623,"sentenceIndex":12,"sentenceBegin":1523,"sentenceEnd":1780}]}
{"paperId":"557b8184eac96894bbf01ee96b8269885851b38c","indicators":[{"word":"tobacco","begin":69,"end":75,"sentenceIndex":1,"sentenceBegin":22,"sentenceEnd":206},{"word":"tobacco","begin":359,"end":365,"sentenceIndex":3,"sentenceBegin":286,"sentenceEnd":375}]}
{"paperId":"557b8184eac96894bbf01ee96b8269885851b38c","indicators":[{"word":"tobacco","begin":806,"end":812,"sentenceIndex":4,"sentenceBegin":722,"sentenceEnd":897}]}
{"paperId":"557b8184eac96894bbf01ee96b8269885851b38c","indicators":[{"word":"tobacco","begin":253,"end":259,"sentenceIndex":1,"sentenceBegin":130,"sentenceEnd":337}]}
