{
    "stop_words":[
        "doi",
        "preprint",
        "copyright",
        "org",
        "https",
        "et",
        "al",
        "author",
        "figure",
        "table",
        "rights",
        "reserved",
        "permission",
        "use",
        "used",
        "using",
        "biorxiv",
        "medrxiv",
        "license",
        "fig",
        "fig.",
        "al.",
        "+",
        "II",
        "III",
        "Å"
    ]
}