{"paper_id":"0a1abc458accfcceb47f047357f06b4a86fddcbe","paragraph_index":14,"text":"Follow-up time started at the time participants first reported on the app and accrued until the report of a positive Covid-19 test or the time of last data entry, whichever occurred first. We employed Cox proportional hazards modeling stratified by age, date, and country to estimate age-and multivariable-adjusted hazard ratios (aHRs) and their 95% confidence intervals (95% CIs). CI widths were not adjusted for multiplicity. A test of correlation between Schoenfeld residuals and survival time demonstrated no violation of the proportional hazards assumption. Covariates were selected a priori based on putative risk factors and included sex, history of diabetes, heart disease, lung disease, kidney disease, current smoking status (each yes/no), and body mass index (17-19.9, 20-24.9, 25-29.9 , and ≥ 30 kg/m 2 ). Missing categorical data was denoted with a missing indicator, while imputation methods for missing numerical data replaced no more than 5% with the median.","smoking":true,"smoking_indicator_words":[{"word":"smoking","begin":720,"end":726,"sentenceBegin":563,"sentenceEnd":816}]}
{"paper_id":"0a1abc458accfcceb47f047357f06b4a86fddcbe","paragraph_index":19,"text":"After excluding 670,298 participants who had follow-up time of less than 24 hours and 4,615 who reported a baseline positive Covid-19 test, we included 2,135,190 participants in our prospective inception cohort, among whom 99,795 persons identified as frontline HCWs (Fig. S1) . In this cohort, we recorded 24.4 million entries or 11.4 logs per participant with a median follow-up of 18.9 days (interquartile range [IQR] 5.1 to 26.1). The median age was 44 years (IQR 32 to 57). Compared to the general community, frontline HCWs were more frequently female, had a slightly higher prevalence of BMI ≥ 30, were slightly more likely to smoke, and use several common medications ( Table 1 & Table S3 ). At baseline, 20.2% of frontline HCWs reported at least one symptom associated with Covid-19 infection compared to 14.4% of the general population with fatigue, loss of smell/taste, and hoarse voice being particularly more frequent (Table S4) .","smoking":true,"smoking_indicator_words":[{"word":"smoke","begin":633,"end":637,"sentenceBegin":479,"sentenceEnd":697}]}
{"paper_id":"0a1abc458accfcceb47f047357f06b4a86fddcbe","paragraph_index":39,"text":"History of cancer, aspirin use, and smoking status have been queried since launch in the U.S. and since 3/29/2020 in the U.K. Race and ethnicity questions were queried as of 4/17/2020 . CC-BY-ND 4.0 International license It is made available under a is the author/funder, who has granted medRxiv a license to display the preprint in perpetuity.","smoking":true,"smoking_indicator_words":[{"word":"smoking","begin":36,"end":42,"sentenceBegin":0,"sentenceEnd":124}]}
{"paper_id":"0a1abc458accfcceb47f047357f06b4a86fddcbe","paragraph_index":41,"text":"The copyright holder for this preprint this version posted May 5, 2020. . Model was stratified by 5-year age group, calendar date at study entry, and country and adjusted for sex, history of diabetes, heart disease, lung disease, kidney disease, and current smoking (each yes/no), and body mass index (17-19.9, 20-24.9, 25-29.9 , and ≥ 30 kg/m 2 ).","smoking":true,"smoking_indicator_words":[{"word":"smoking","begin":258,"end":264,"sentenceBegin":74,"sentenceEnd":347}]}
