<?xml version="1.0" encoding="utf-8" standalone="no"?>
<!DOCTYPE svg PUBLIC "-//W3C//DTD SVG 1.1//EN"
  "http://www.w3.org/Graphics/SVG/1.1/DTD/svg11.dtd">
<!-- Created with matplotlib (https://matplotlib.org/) -->
<svg height="1080pt" version="1.1" viewBox="0 0 1080 1080" width="1080pt" xmlns="http://www.w3.org/2000/svg" xmlns:xlink="http://www.w3.org/1999/xlink">
 <metadata>
  <rdf:RDF xmlns:cc="http://creativecommons.org/ns#" xmlns:dc="http://purl.org/dc/elements/1.1/" xmlns:rdf="http://www.w3.org/1999/02/22-rdf-syntax-ns#">
   <cc:Work>
    <dc:type rdf:resource="http://purl.org/dc/dcmitype/StillImage"/>
    <dc:date>2020-08-15T18:20:20.555425</dc:date>
    <dc:format>image/svg+xml</dc:format>
    <dc:creator>
     <cc:Agent>
      <dc:title>Matplotlib v3.3.0, https://matplotlib.org/</dc:title>
     </cc:Agent>
    </dc:creator>
   </cc:Work>
  </rdf:RDF>
 </metadata>
 <defs>
  <style type="text/css">*{stroke-linecap:butt;stroke-linejoin:round;}</style>
 </defs>
 <g id="figure_1">
  <g id="patch_1">
   <path d="M 0 1080 
L 1080 1080 
L 1080 0 
L 0 0 
z
" style="fill:none;"/>
  </g>
  <g id="axes_1">
   <g id="patch_2">
    <path d="M 879.66 537.3 
C 879.66 496.979382 872.183215 457.006124 857.60957 419.411429 
C 843.035925 381.816734 821.616523 347.248354 794.43977 317.462849 
C 767.263017 287.677344 734.797166 263.187914 698.691937 245.238967 
C 662.586709 227.29002 623.464193 216.190814 583.312362 212.505344 
C 543.160531 208.819874 502.671197 212.611641 463.901787 223.687969 
C 425.132377 234.764298 388.750883 252.934344 356.605996 277.274815 
C 324.46111 301.615285 297.106684 331.706796 275.932707 366.020277 
C 254.758731 400.333757 240.130028 438.277989 232.789944 477.924872 
C 225.44986 517.571756 225.524863 558.23818 233.011142 597.857719 
C 240.49742 637.477257 255.265987 675.367271 276.566391 709.602414 
C 297.866795 743.837557 325.332033 773.827962 357.566484 798.049694 
C 389.800936 822.271427 426.249206 840.30715 465.059209 851.240396 
C 503.869212 862.173641 544.372258 865.81603 584.510221 861.982478 
C 624.648184 858.148927 663.729493 846.905485 699.768268 828.82348 
C 735.807043 810.741475 768.18234 786.132455 795.249039 756.246907 
C 822.315738 726.361358 843.607483 691.714204 858.042354 654.066007 
L 553.5 537.3 
L 879.66 537.3 
z
" style="fill:#1f77b4;"/>
   </g>
   <g id="patch_3">
    <path d="M 858.042354 654.066007 
C 859.67024 649.820247 861.209161 645.540908 862.658107 641.230798 
C 864.107052 636.920687 865.465705 632.580747 866.733175 628.213824 
L 553.5 537.3 
L 858.042354 654.066007 
z
" style="fill:#ff7f0e;"/>
   </g>
   <g id="patch_4">
    <path d="M 866.733175 628.213824 
C 867.784996 624.589897 868.773847 620.94799 869.699282 617.289746 
C 870.624717 613.631503 871.486597 609.957475 872.284533 606.269322 
L 553.5 537.3 
L 866.733175 628.213824 
z
" style="fill:#2ca02c;"/>
   </g>
   <g id="patch_5">
    <path d="M 872.284533 606.269322 
C 872.892066 603.461231 873.462469 600.645235 873.995592 597.822071 
C 874.528715 594.998907 875.024513 592.168823 875.482854 589.332558 
L 553.5 537.3 
L 872.284533 606.269322 
z
" style="fill:#d62728;"/>
   </g>
   <g id="patch_6">
    <path d="M 875.482854 589.332558 
C 875.812639 587.291819 876.123014 585.247992 876.413938 583.201352 
C 876.704863 581.154712 876.976323 579.105353 877.228282 577.053551 
L 553.5 537.3 
L 875.482854 589.332558 
z
" style="fill:#9467bd;"/>
   </g>
   <g id="patch_7">
    <path d="M 877.228282 577.053551 
C 877.378619 575.829302 877.52201 574.604209 877.658448 573.378333 
C 877.794886 572.152456 877.924369 570.925816 878.046891 569.698471 
L 553.5 537.3 
L 877.228282 577.053551 
z
" style="fill:#8c564b;"/>
   </g>
   <g id="patch_8">
    <path d="M 878.046891 569.698471 
C 878.138676 568.779032 878.226553 567.859207 878.31052 566.939021 
C 878.394487 566.018836 878.474544 565.098297 878.550687 564.177431 
L 553.5 537.3 
L 878.046891 569.698471 
z
" style="fill:#e377c2;"/>
   </g>
   <g id="patch_9">
    <path d="M 878.550687 564.177431 
C 878.61231 563.432173 878.67137 562.686704 878.727866 561.941039 
C 878.784362 561.195375 878.838293 560.449518 878.889658 559.703482 
L 553.5 537.3 
L 878.550687 564.177431 
z
" style="fill:#7f7f7f;"/>
   </g>
   <g id="patch_10">
    <path d="M 878.889658 559.703482 
C 878.927887 559.148243 878.964695 558.592907 879.000081 558.037479 
C 879.035467 557.482052 879.069431 556.926534 879.101973 556.370933 
L 553.5 537.3 
L 878.889658 559.703482 
z
" style="fill:#bcbd22;"/>
   </g>
   <g id="patch_11">
    <path d="M 879.101973 556.370933 
C 879.131249 555.871106 879.159373 555.371213 879.186347 554.871257 
C 879.21332 554.371301 879.239142 553.871283 879.263813 553.371208 
L 553.5 537.3 
L 879.101973 556.370933 
z
" style="fill:#17becf;"/>
   </g>
   <g id="patch_12">
    <path d="M 879.263813 553.371208 
C 879.283401 552.974153 879.302264 552.577062 879.3204 552.179938 
C 879.338536 551.782813 879.355947 551.385656 879.372631 550.988468 
L 553.5 537.3 
L 879.263813 553.371208 
z
" style="fill:#1f77b4;"/>
   </g>
   <g id="patch_13">
    <path d="M 879.372631 550.988468 
C 879.386429 550.659983 879.39973 550.331477 879.412535 550.002952 
C 879.42534 549.674427 879.437648 549.345882 879.449459 549.01732 
L 553.5 537.3 
L 879.372631 550.988468 
z
" style="fill:#ff7f0e;"/>
   </g>
   <g id="patch_14">
    <path d="M 879.449459 549.01732 
C 879.460421 548.712379 879.470956 548.407424 879.481062 548.102454 
C 879.491168 547.797484 879.500846 547.4925 879.510096 547.187503 
L 553.5 537.3 
L 879.449459 549.01732 
z
" style="fill:#2ca02c;"/>
   </g>
   <g id="patch_15">
    <path d="M 879.510096 547.187503 
C 879.51863 546.906132 879.526799 546.62475 879.534604 546.343359 
C 879.542409 546.061967 879.54985 545.780565 879.556927 545.499154 
L 553.5 537.3 
L 879.510096 547.187503 
z
" style="fill:#d62728;"/>
   </g>
   <g id="patch_16">
    <path d="M 879.556927 545.499154 
C 879.562545 545.275744 879.567933 545.052328 879.573092 544.828907 
C 879.57825 544.605485 879.58318 544.382059 879.587879 544.158627 
L 553.5 537.3 
L 879.556927 545.499154 
z
" style="fill:#9467bd;"/>
   </g>
   <g id="patch_17">
    <path d="M 879.587879 544.158627 
C 879.592488 543.939493 879.596876 543.720353 879.601044 543.50121 
C 879.605211 543.282066 879.609157 543.062919 879.612883 542.843767 
L 553.5 537.3 
L 879.587879 544.158627 
z
" style="fill:#8c564b;"/>
   </g>
   <g id="patch_18">
    <path d="M 879.612883 542.843767 
C 879.614745 542.734191 879.616553 542.624615 879.618305 542.515037 
C 879.620057 542.40546 879.621755 542.295881 879.623396 542.186302 
L 553.5 537.3 
L 879.612883 542.843767 
z
" style="fill:#e377c2;"/>
   </g>
   <g id="patch_19">
    <path d="M 879.623396 542.186302 
C 879.625006 542.078871 879.626563 541.97144 879.628066 541.864008 
C 879.629569 541.756575 879.63102 541.649142 879.632417 541.541709 
L 553.5 537.3 
L 879.623396 542.186302 
z
" style="fill:#7f7f7f;"/>
   </g>
   <g id="patch_20">
    <path d="M 879.632417 541.541709 
C 879.633786 541.436424 879.635105 541.331138 879.636372 541.225852 
C 879.63764 541.120566 879.638856 541.015279 879.640021 540.909992 
L 553.5 537.3 
L 879.632417 541.541709 
z
" style="fill:#bcbd22;"/>
   </g>
   <g id="patch_21">
    <path d="M 879.640021 540.909992 
C 879.641044 540.817596 879.642028 540.725201 879.642972 540.632805 
C 879.643916 540.540409 879.644821 540.448013 879.645686 540.355616 
L 553.5 537.3 
L 879.640021 540.909992 
z
" style="fill:#17becf;"/>
   </g>
   <g id="patch_22">
    <path d="M 879.645686 540.355616 
C 879.646472 540.271814 879.647224 540.188012 879.647945 540.10421 
C 879.648665 540.020408 879.649354 539.936606 879.65001 539.852803 
L 553.5 537.3 
L 879.645686 540.355616 
z
" style="fill:#1f77b4;"/>
   </g>
   <g id="patch_23">
    <path d="M 879.65001 539.852803 
C 879.650565 539.781893 879.651097 539.710983 879.651605 539.640072 
C 879.652114 539.569162 879.6526 539.498251 879.653062 539.427341 
L 553.5 537.3 
L 879.65001 539.852803 
z
" style="fill:#ff7f0e;"/>
   </g>
   <g id="patch_24">
    <path d="M 879.653062 539.427341 
C 879.653455 539.367174 879.65383 539.307007 879.65419 539.24684 
C 879.654549 539.186673 879.654891 539.126507 879.655217 539.06634 
L 553.5 537.3 
L 879.653062 539.427341 
z
" style="fill:#2ca02c;"/>
   </g>
   <g id="patch_25">
    <path d="M 879.655217 539.06634 
C 879.655496 539.014768 879.655763 538.963196 879.656018 538.911624 
C 879.656273 538.860052 879.656516 538.80848 879.656746 538.756908 
L 553.5 537.3 
L 879.655217 539.06634 
z
" style="fill:#d62728;"/>
   </g>
   <g id="patch_26">
    <path d="M 879.656746 538.756908 
C 879.656957 538.709634 879.657158 538.66236 879.657349 538.615085 
C 879.657539 538.567811 879.65772 538.520536 879.65789 538.473262 
L 553.5 537.3 
L 879.656746 538.756908 
z
" style="fill:#9467bd;"/>
   </g>
   <g id="patch_27">
    <path d="M 879.65789 538.473262 
C 879.658052 538.428136 879.658205 538.38301 879.658349 538.337885 
C 879.658492 538.292759 879.658626 538.247633 879.658751 538.202508 
L 553.5 537.3 
L 879.65789 538.473262 
z
" style="fill:#8c564b;"/>
   </g>
   <g id="patch_28">
    <path d="M 879.658751 538.202508 
C 879.658841 538.170275 879.658925 538.138042 879.659005 538.105809 
C 879.659084 538.073577 879.659159 538.041344 879.659229 538.009111 
L 553.5 537.3 
L 879.658751 538.202508 
z
" style="fill:#e377c2;"/>
   </g>
   <g id="patch_29">
    <path d="M 879.659229 538.009111 
C 879.659295 537.979027 879.659356 537.948943 879.659413 537.91886 
C 879.65947 537.888776 879.659523 537.858692 879.659572 537.828608 
L 553.5 537.3 
L 879.659229 538.009111 
z
" style="fill:#7f7f7f;"/>
   </g>
   <g id="patch_30">
    <path d="M 879.659572 537.828608 
C 879.659613 537.802822 879.659652 537.777035 879.659688 537.751249 
C 879.659724 537.725463 879.659756 537.699677 879.659786 537.67389 
L 553.5 537.3 
L 879.659572 537.828608 
z
" style="fill:#bcbd22;"/>
   </g>
   <g id="patch_31">
    <path d="M 879.659786 537.67389 
C 879.6598 537.660997 879.659814 537.648104 879.659828 537.635211 
C 879.659841 537.622318 879.659853 537.609425 879.659865 537.596532 
L 553.5 537.3 
L 879.659786 537.67389 
z
" style="fill:#17becf;"/>
   </g>
   <g id="patch_32">
    <path d="M 879.659865 537.596532 
C 879.659877 537.583639 879.659888 537.570745 879.659898 537.557852 
C 879.659908 537.544959 879.659918 537.532066 879.659926 537.519173 
L 553.5 537.3 
L 879.659865 537.596532 
z
" style="fill:#1f77b4;"/>
   </g>
   <g id="patch_33">
    <path d="M 879.659926 537.519173 
C 879.659935 537.50628 879.659943 537.493387 879.65995 537.480494 
C 879.659957 537.4676 879.659964 537.454707 879.659969 537.441814 
L 553.5 537.3 
L 879.659926 537.519173 
z
" style="fill:#ff7f0e;"/>
   </g>
   <g id="patch_34">
    <path d="M 879.659969 537.441814 
C 879.659974 537.43107 879.659978 537.420326 879.659982 537.409581 
C 879.659985 537.398837 879.659988 537.388093 879.659991 537.377349 
L 553.5 537.3 
L 879.659969 537.441814 
z
" style="fill:#2ca02c;"/>
   </g>
   <g id="patch_35">
    <path d="M 879.659991 537.377349 
C 879.659992 537.370902 879.659994 537.364455 879.659995 537.358009 
C 879.659996 537.351562 879.659997 537.345116 879.659998 537.338669 
L 553.5 537.3 
L 879.659991 537.377349 
z
" style="fill:#d62728;"/>
   </g>
   <g id="patch_36">
    <path d="M 879.659998 537.338669 
C 879.659998 537.334372 879.659999 537.330074 879.659999 537.325776 
C 879.659999 537.321478 879.66 537.317181 879.66 537.312883 
L 553.5 537.3 
L 879.659998 537.338669 
z
" style="fill:#9467bd;"/>
   </g>
   <g id="patch_37">
    <path d="M 879.66 537.312883 
C 879.66 537.310734 879.66 537.308585 879.66 537.306436 
C 879.66 537.304288 879.66 537.302139 879.66 537.29999 
L 553.5 537.3 
L 879.66 537.312883 
z
" style="fill:#8c564b;"/>
   </g>
   <g id="matplotlib.axis_1"/>
   <g id="matplotlib.axis_2">
    <g id="text_1">
     <!-- count -->
     <g transform="translate(139.720313 551.40625)rotate(-90)scale(0.1 -0.1)">
      <defs>
       <path d="M 48.78125 52.59375 
L 48.78125 44.1875 
Q 44.96875 46.296875 41.140625 47.34375 
Q 37.3125 48.390625 33.40625 48.390625 
Q 24.65625 48.390625 19.8125 42.84375 
Q 14.984375 37.3125 14.984375 27.296875 
Q 14.984375 17.28125 19.8125 11.734375 
Q 24.65625 6.203125 33.40625 6.203125 
Q 37.3125 6.203125 41.140625 7.25 
Q 44.96875 8.296875 48.78125 10.40625 
L 48.78125 2.09375 
Q 45.015625 0.34375 40.984375 -0.53125 
Q 36.96875 -1.421875 32.421875 -1.421875 
Q 20.0625 -1.421875 12.78125 6.34375 
Q 5.515625 14.109375 5.515625 27.296875 
Q 5.515625 40.671875 12.859375 48.328125 
Q 20.21875 56 33.015625 56 
Q 37.15625 56 41.109375 55.140625 
Q 45.0625 54.296875 48.78125 52.59375 
z
" id="DejaVuSans-99"/>
       <path d="M 30.609375 48.390625 
Q 23.390625 48.390625 19.1875 42.75 
Q 14.984375 37.109375 14.984375 27.296875 
Q 14.984375 17.484375 19.15625 11.84375 
Q 23.34375 6.203125 30.609375 6.203125 
Q 37.796875 6.203125 41.984375 11.859375 
Q 46.1875 17.53125 46.1875 27.296875 
Q 46.1875 37.015625 41.984375 42.703125 
Q 37.796875 48.390625 30.609375 48.390625 
z
M 30.609375 56 
Q 42.328125 56 49.015625 48.375 
Q 55.71875 40.765625 55.71875 27.296875 
Q 55.71875 13.875 49.015625 6.21875 
Q 42.328125 -1.421875 30.609375 -1.421875 
Q 18.84375 -1.421875 12.171875 6.21875 
Q 5.515625 13.875 5.515625 27.296875 
Q 5.515625 40.765625 12.171875 48.375 
Q 18.84375 56 30.609375 56 
z
" id="DejaVuSans-111"/>
       <path d="M 8.5 21.578125 
L 8.5 54.6875 
L 17.484375 54.6875 
L 17.484375 21.921875 
Q 17.484375 14.15625 20.5 10.265625 
Q 23.53125 6.390625 29.59375 6.390625 
Q 36.859375 6.390625 41.078125 11.03125 
Q 45.3125 15.671875 45.3125 23.6875 
L 45.3125 54.6875 
L 54.296875 54.6875 
L 54.296875 0 
L 45.3125 0 
L 45.3125 8.40625 
Q 42.046875 3.421875 37.71875 1 
Q 33.40625 -1.421875 27.6875 -1.421875 
Q 18.265625 -1.421875 13.375 4.4375 
Q 8.5 10.296875 8.5 21.578125 
z
M 31.109375 56 
z
" id="DejaVuSans-117"/>
       <path d="M 54.890625 33.015625 
L 54.890625 0 
L 45.90625 0 
L 45.90625 32.71875 
Q 45.90625 40.484375 42.875 44.328125 
Q 39.84375 48.1875 33.796875 48.1875 
Q 26.515625 48.1875 22.3125 43.546875 
Q 18.109375 38.921875 18.109375 30.90625 
L 18.109375 0 
L 9.078125 0 
L 9.078125 54.6875 
L 18.109375 54.6875 
L 18.109375 46.1875 
Q 21.34375 51.125 25.703125 53.5625 
Q 30.078125 56 35.796875 56 
Q 45.21875 56 50.046875 50.171875 
Q 54.890625 44.34375 54.890625 33.015625 
z
" id="DejaVuSans-110"/>
       <path d="M 18.3125 70.21875 
L 18.3125 54.6875 
L 36.8125 54.6875 
L 36.8125 47.703125 
L 18.3125 47.703125 
L 18.3125 18.015625 
Q 18.3125 11.328125 20.140625 9.421875 
Q 21.96875 7.515625 27.59375 7.515625 
L 36.8125 7.515625 
L 36.8125 0 
L 27.59375 0 
Q 17.1875 0 13.234375 3.875 
Q 9.28125 7.765625 9.28125 18.015625 
L 9.28125 47.703125 
L 2.6875 47.703125 
L 2.6875 54.6875 
L 9.28125 54.6875 
L 9.28125 70.21875 
z
" id="DejaVuSans-116"/>
      </defs>
      <use xlink:href="#DejaVuSans-99"/>
      <use x="54.980469" xlink:href="#DejaVuSans-111"/>
      <use x="116.162109" xlink:href="#DejaVuSans-117"/>
      <use x="179.541016" xlink:href="#DejaVuSans-110"/>
      <use x="242.919922" xlink:href="#DejaVuSans-116"/>
     </g>
    </g>
   </g>
   <g id="text_2">
    <!-- en -->
    <g transform="translate(188.228314 474.746735)scale(0.1 -0.1)">
     <defs>
      <path d="M 56.203125 29.59375 
L 56.203125 25.203125 
L 14.890625 25.203125 
Q 15.484375 15.921875 20.484375 11.0625 
Q 25.484375 6.203125 34.421875 6.203125 
Q 39.59375 6.203125 44.453125 7.46875 
Q 49.3125 8.734375 54.109375 11.28125 
L 54.109375 2.78125 
Q 49.265625 0.734375 44.1875 -0.34375 
Q 39.109375 -1.421875 33.890625 -1.421875 
Q 20.796875 -1.421875 13.15625 6.1875 
Q 5.515625 13.8125 5.515625 26.8125 
Q 5.515625 40.234375 12.765625 48.109375 
Q 20.015625 56 32.328125 56 
Q 43.359375 56 49.78125 48.890625 
Q 56.203125 41.796875 56.203125 29.59375 
z
M 47.21875 32.234375 
Q 47.125 39.59375 43.09375 43.984375 
Q 39.0625 48.390625 32.421875 48.390625 
Q 24.90625 48.390625 20.390625 44.140625 
Q 15.875 39.890625 15.1875 32.171875 
z
" id="DejaVuSans-101"/>
     </defs>
     <use xlink:href="#DejaVuSans-101"/>
     <use x="61.523438" xlink:href="#DejaVuSans-110"/>
    </g>
   </g>
   <g id="text_3">
    <!-- de -->
    <g transform="translate(893.573917 654.383253)scale(0.1 -0.1)">
     <defs>
      <path d="M 45.40625 46.390625 
L 45.40625 75.984375 
L 54.390625 75.984375 
L 54.390625 0 
L 45.40625 0 
L 45.40625 8.203125 
Q 42.578125 3.328125 38.25 0.953125 
Q 33.9375 -1.421875 27.875 -1.421875 
Q 17.96875 -1.421875 11.734375 6.484375 
Q 5.515625 14.40625 5.515625 27.296875 
Q 5.515625 40.1875 11.734375 48.09375 
Q 17.96875 56 27.875 56 
Q 33.9375 56 38.25 53.625 
Q 42.578125 51.265625 45.40625 46.390625 
z
M 14.796875 27.296875 
Q 14.796875 17.390625 18.875 11.75 
Q 22.953125 6.109375 30.078125 6.109375 
Q 37.203125 6.109375 41.296875 11.75 
Q 45.40625 17.390625 45.40625 27.296875 
Q 45.40625 37.203125 41.296875 42.84375 
Q 37.203125 48.484375 30.078125 48.484375 
Q 22.953125 48.484375 18.875 42.84375 
Q 14.796875 37.203125 14.796875 27.296875 
z
" id="DejaVuSans-100"/>
     </defs>
     <use xlink:href="#DejaVuSans-100"/>
     <use x="63.476562" xlink:href="#DejaVuSans-101"/>
    </g>
   </g>
   <g id="text_4">
    <!-- fr -->
    <g transform="translate(901.31921 628.048096)scale(0.1 -0.1)">
     <defs>
      <path d="M 37.109375 75.984375 
L 37.109375 68.5 
L 28.515625 68.5 
Q 23.6875 68.5 21.796875 66.546875 
Q 19.921875 64.59375 19.921875 59.515625 
L 19.921875 54.6875 
L 34.71875 54.6875 
L 34.71875 47.703125 
L 19.921875 47.703125 
L 19.921875 0 
L 10.890625 0 
L 10.890625 47.703125 
L 2.296875 47.703125 
L 2.296875 54.6875 
L 10.890625 54.6875 
L 10.890625 58.5 
Q 10.890625 67.625 15.140625 71.796875 
Q 19.390625 75.984375 28.609375 75.984375 
z
" id="DejaVuSans-102"/>
      <path d="M 41.109375 46.296875 
Q 39.59375 47.171875 37.8125 47.578125 
Q 36.03125 48 33.890625 48 
Q 26.265625 48 22.1875 43.046875 
Q 18.109375 38.09375 18.109375 28.8125 
L 18.109375 0 
L 9.078125 0 
L 9.078125 54.6875 
L 18.109375 54.6875 
L 18.109375 46.1875 
Q 20.953125 51.171875 25.484375 53.578125 
Q 30.03125 56 36.53125 56 
Q 37.453125 56 38.578125 55.875 
Q 39.703125 55.765625 41.0625 55.515625 
z
" id="DejaVuSans-114"/>
     </defs>
     <use xlink:href="#DejaVuSans-102"/>
     <use x="35.205078" xlink:href="#DejaVuSans-114"/>
    </g>
   </g>
   <g id="text_5">
    <!-- es -->
    <g transform="translate(906.045151 606.633653)scale(0.1 -0.1)">
     <defs>
      <path d="M 44.28125 53.078125 
L 44.28125 44.578125 
Q 40.484375 46.53125 36.375 47.5 
Q 32.28125 48.484375 27.875 48.484375 
Q 21.1875 48.484375 17.84375 46.4375 
Q 14.5 44.390625 14.5 40.28125 
Q 14.5 37.15625 16.890625 35.375 
Q 19.28125 33.59375 26.515625 31.984375 
L 29.59375 31.296875 
Q 39.15625 29.25 43.1875 25.515625 
Q 47.21875 21.78125 47.21875 15.09375 
Q 47.21875 7.46875 41.1875 3.015625 
Q 35.15625 -1.421875 24.609375 -1.421875 
Q 20.21875 -1.421875 15.453125 -0.5625 
Q 10.6875 0.296875 5.421875 2 
L 5.421875 11.28125 
Q 10.40625 8.6875 15.234375 7.390625 
Q 20.0625 6.109375 24.8125 6.109375 
Q 31.15625 6.109375 34.5625 8.28125 
Q 37.984375 10.453125 37.984375 14.40625 
Q 37.984375 18.0625 35.515625 20.015625 
Q 33.0625 21.96875 24.703125 23.78125 
L 21.578125 24.515625 
Q 13.234375 26.265625 9.515625 29.90625 
Q 5.8125 33.546875 5.8125 39.890625 
Q 5.8125 47.609375 11.28125 51.796875 
Q 16.75 56 26.8125 56 
Q 31.78125 56 36.171875 55.265625 
Q 40.578125 54.546875 44.28125 53.078125 
z
" id="DejaVuSans-115"/>
     </defs>
     <use xlink:href="#DejaVuSans-101"/>
     <use x="61.523438" xlink:href="#DejaVuSans-115"/>
    </g>
   </g>
   <g id="text_6">
    <!-- it -->
    <g transform="translate(908.705332 590.550862)scale(0.1 -0.1)">
     <defs>
      <path d="M 9.421875 54.6875 
L 18.40625 54.6875 
L 18.40625 0 
L 9.421875 0 
z
M 9.421875 75.984375 
L 18.40625 75.984375 
L 18.40625 64.59375 
L 9.421875 64.59375 
z
" id="DejaVuSans-105"/>
     </defs>
     <use xlink:href="#DejaVuSans-105"/>
     <use x="27.783203" xlink:href="#DejaVuSans-116"/>
    </g>
   </g>
   <g id="text_7">
    <!-- ca -->
    <g transform="translate(910.074293 579.745541)scale(0.1 -0.1)">
     <defs>
      <path d="M 34.28125 27.484375 
Q 23.390625 27.484375 19.1875 25 
Q 14.984375 22.515625 14.984375 16.5 
Q 14.984375 11.71875 18.140625 8.90625 
Q 21.296875 6.109375 26.703125 6.109375 
Q 34.1875 6.109375 38.703125 11.40625 
Q 43.21875 16.703125 43.21875 25.484375 
L 43.21875 27.484375 
z
M 52.203125 31.203125 
L 52.203125 0 
L 43.21875 0 
L 43.21875 8.296875 
Q 40.140625 3.328125 35.546875 0.953125 
Q 30.953125 -1.421875 24.3125 -1.421875 
Q 15.921875 -1.421875 10.953125 3.296875 
Q 6 8.015625 6 15.921875 
Q 6 25.140625 12.171875 29.828125 
Q 18.359375 34.515625 30.609375 34.515625 
L 43.21875 34.515625 
L 43.21875 35.40625 
Q 43.21875 41.609375 39.140625 45 
Q 35.0625 48.390625 27.6875 48.390625 
Q 23 48.390625 18.546875 47.265625 
Q 14.109375 46.140625 10.015625 43.890625 
L 10.015625 52.203125 
Q 14.9375 54.109375 19.578125 55.046875 
Q 24.21875 56 28.609375 56 
Q 40.484375 56 46.34375 49.84375 
Q 52.203125 43.703125 52.203125 31.203125 
z
" id="DejaVuSans-97"/>
     </defs>
     <use xlink:href="#DejaVuSans-99"/>
     <use x="54.980469" xlink:href="#DejaVuSans-97"/>
    </g>
   </g>
   <g id="text_8">
    <!-- ro -->
    <g transform="translate(910.791572 572.662299)scale(0.1 -0.1)">
     <use xlink:href="#DejaVuSans-114"/>
     <use x="38.863281" xlink:href="#DejaVuSans-111"/>
    </g>
   </g>
   <g id="text_9">
    <!-- nl -->
    <g transform="translate(911.250653 567.164518)scale(0.1 -0.1)">
     <defs>
      <path d="M 9.421875 75.984375 
L 18.40625 75.984375 
L 18.40625 0 
L 9.421875 0 
z
" id="DejaVuSans-108"/>
     </defs>
     <use xlink:href="#DejaVuSans-110"/>
     <use x="63.378906" xlink:href="#DejaVuSans-108"/>
    </g>
   </g>
   <g id="text_10">
    <!-- pt -->
    <g transform="translate(911.550089 562.870602)scale(0.1 -0.1)">
     <defs>
      <path d="M 18.109375 8.203125 
L 18.109375 -20.796875 
L 9.078125 -20.796875 
L 9.078125 54.6875 
L 18.109375 54.6875 
L 18.109375 46.390625 
Q 20.953125 51.265625 25.265625 53.625 
Q 29.59375 56 35.59375 56 
Q 45.5625 56 51.78125 48.09375 
Q 58.015625 40.1875 58.015625 27.296875 
Q 58.015625 14.40625 51.78125 6.484375 
Q 45.5625 -1.421875 35.59375 -1.421875 
Q 29.59375 -1.421875 25.265625 0.953125 
Q 20.953125 3.328125 18.109375 8.203125 
z
M 48.6875 27.296875 
Q 48.6875 37.203125 44.609375 42.84375 
Q 40.53125 48.484375 33.40625 48.484375 
Q 26.265625 48.484375 22.1875 42.84375 
Q 18.109375 37.203125 18.109375 27.296875 
Q 18.109375 17.390625 22.1875 11.75 
Q 26.265625 6.109375 33.40625 6.109375 
Q 40.53125 6.109375 44.609375 11.75 
Q 48.6875 17.390625 48.6875 27.296875 
z
" id="DejaVuSans-112"/>
     </defs>
     <use xlink:href="#DejaVuSans-112"/>
     <use x="63.476562" xlink:href="#DejaVuSans-116"/>
    </g>
   </g>
   <g id="text_11">
    <!-- af -->
    <g transform="translate(911.754982 559.387757)scale(0.1 -0.1)">
     <use xlink:href="#DejaVuSans-97"/>
     <use x="61.279297" xlink:href="#DejaVuSans-102"/>
    </g>
   </g>
   <g id="text_12">
    <!-- tl -->
    <g transform="translate(911.90244 556.427306)scale(0.1 -0.1)">
     <use xlink:href="#DejaVuSans-116"/>
     <use x="39.208984" xlink:href="#DejaVuSans-108"/>
    </g>
   </g>
   <g id="text_13">
    <!-- da -->
    <g transform="translate(912.003789 554.032622)scale(0.1 -0.1)">
     <use xlink:href="#DejaVuSans-100"/>
     <use x="63.476562" xlink:href="#DejaVuSans-97"/>
    </g>
   </g>
   <g id="text_14">
    <!-- no -->
    <g transform="translate(912.079168 551.942074)scale(0.1 -0.1)">
     <use xlink:href="#DejaVuSans-110"/>
     <use x="63.378906" xlink:href="#DejaVuSans-111"/>
    </g>
   </g>
   <g id="text_15">
    <!-- et -->
    <g transform="translate(912.138065 550.00707)scale(0.1 -0.1)">
     <use xlink:href="#DejaVuSans-101"/>
     <use x="61.523438" xlink:href="#DejaVuSans-116"/>
    </g>
   </g>
   <g id="text_16">
    <!-- lt -->
    <g transform="translate(912.180401 548.341172)scale(0.1 -0.1)">
     <use xlink:href="#DejaVuSans-108"/>
     <use x="27.783203" xlink:href="#DejaVuSans-116"/>
    </g>
   </g>
   <g id="text_17">
    <!-- id -->
    <g transform="translate(912.211148 546.880706)scale(0.1 -0.1)">
     <use xlink:href="#DejaVuSans-105"/>
     <use x="27.783203" xlink:href="#DejaVuSans-100"/>
    </g>
   </g>
   <g id="text_18">
    <!-- cy -->
    <g transform="translate(912.230136 545.795916)scale(0.1 -0.1)">
     <defs>
      <path d="M 32.171875 -5.078125 
Q 28.375 -14.84375 24.75 -17.8125 
Q 21.140625 -20.796875 15.09375 -20.796875 
L 7.90625 -20.796875 
L 7.90625 -13.28125 
L 13.1875 -13.28125 
Q 16.890625 -13.28125 18.9375 -11.515625 
Q 21 -9.765625 23.484375 -3.21875 
L 25.09375 0.875 
L 2.984375 54.6875 
L 12.5 54.6875 
L 29.59375 11.921875 
L 46.6875 54.6875 
L 56.203125 54.6875 
z
" id="DejaVuSans-121"/>
     </defs>
     <use xlink:href="#DejaVuSans-99"/>
     <use x="54.980469" xlink:href="#DejaVuSans-121"/>
    </g>
   </g>
   <g id="text_19">
    <!-- vi -->
    <g transform="translate(912.240873 545.079783)scale(0.1 -0.1)">
     <defs>
      <path d="M 2.984375 54.6875 
L 12.5 54.6875 
L 29.59375 8.796875 
L 46.6875 54.6875 
L 56.203125 54.6875 
L 35.6875 0 
L 23.484375 0 
z
" id="DejaVuSans-118"/>
     </defs>
     <use xlink:href="#DejaVuSans-118"/>
     <use x="59.179688" xlink:href="#DejaVuSans-105"/>
    </g>
   </g>
   <g id="text_20">
    <!-- fi -->
    <g transform="translate(912.250009 544.377812)scale(0.1 -0.1)">
     <use xlink:href="#DejaVuSans-102"/>
     <use x="35.205078" xlink:href="#DejaVuSans-105"/>
    </g>
   </g>
   <g id="text_21">
    <!-- sv -->
    <g transform="translate(912.257269 543.72546)scale(0.1 -0.1)">
     <use xlink:href="#DejaVuSans-115"/>
     <use x="52.099609" xlink:href="#DejaVuSans-118"/>
    </g>
   </g>
   <g id="text_22">
    <!-- hu -->
    <g transform="translate(912.262739 543.144006)scale(0.1 -0.1)">
     <defs>
      <path d="M 54.890625 33.015625 
L 54.890625 0 
L 45.90625 0 
L 45.90625 32.71875 
Q 45.90625 40.484375 42.875 44.328125 
Q 39.84375 48.1875 33.796875 48.1875 
Q 26.515625 48.1875 22.3125 43.546875 
Q 18.109375 38.921875 18.109375 30.90625 
L 18.109375 0 
L 9.078125 0 
L 9.078125 75.984375 
L 18.109375 75.984375 
L 18.109375 46.1875 
Q 21.34375 51.125 25.703125 53.5625 
Q 30.078125 56 35.796875 56 
Q 45.21875 56 50.046875 50.171875 
Q 54.890625 44.34375 54.890625 33.015625 
z
" id="DejaVuSans-104"/>
     </defs>
     <use xlink:href="#DejaVuSans-104"/>
     <use x="63.378906" xlink:href="#DejaVuSans-117"/>
    </g>
   </g>
   <g id="text_23">
    <!-- pl -->
    <g transform="translate(912.266766 542.633454)scale(0.1 -0.1)">
     <use xlink:href="#DejaVuSans-112"/>
     <use x="63.476562" xlink:href="#DejaVuSans-108"/>
    </g>
   </g>
   <g id="text_24">
    <!-- sl -->
    <g transform="translate(912.269609 542.200899)scale(0.1 -0.1)">
     <use xlink:href="#DejaVuSans-115"/>
     <use x="52.099609" xlink:href="#DejaVuSans-108"/>
    </g>
   </g>
   <g id="text_25">
    <!-- sw -->
    <g transform="translate(912.27162 541.832161)scale(0.1 -0.1)">
     <defs>
      <path d="M 4.203125 54.6875 
L 13.1875 54.6875 
L 24.421875 12.015625 
L 35.59375 54.6875 
L 46.1875 54.6875 
L 57.421875 12.015625 
L 68.609375 54.6875 
L 77.59375 54.6875 
L 63.28125 0 
L 52.6875 0 
L 40.921875 44.828125 
L 29.109375 0 
L 18.5 0 
z
" id="DejaVuSans-119"/>
     </defs>
     <use xlink:href="#DejaVuSans-115"/>
     <use x="52.099609" xlink:href="#DejaVuSans-119"/>
    </g>
   </g>
   <g id="text_26">
    <!-- tr -->
    <g transform="translate(912.273084 541.505969)scale(0.1 -0.1)">
     <use xlink:href="#DejaVuSans-116"/>
     <use x="39.208984" xlink:href="#DejaVuSans-114"/>
    </g>
   </g>
   <g id="text_27">
    <!-- ja -->
    <g transform="translate(912.274184 541.201048)scale(0.1 -0.1)">
     <defs>
      <path d="M 9.421875 54.6875 
L 18.40625 54.6875 
L 18.40625 -0.984375 
Q 18.40625 -11.421875 14.421875 -16.109375 
Q 10.453125 -20.796875 1.609375 -20.796875 
L -1.8125 -20.796875 
L -1.8125 -13.1875 
L 0.59375 -13.1875 
Q 5.71875 -13.1875 7.5625 -10.8125 
Q 9.421875 -8.453125 9.421875 -0.984375 
z
M 9.421875 75.984375 
L 18.40625 75.984375 
L 18.40625 64.59375 
L 9.421875 64.59375 
z
" id="DejaVuSans-106"/>
     </defs>
     <use xlink:href="#DejaVuSans-106"/>
     <use x="27.783203" xlink:href="#DejaVuSans-97"/>
    </g>
   </g>
   <g id="text_28">
    <!-- so -->
    <g transform="translate(912.274905 540.945765)scale(0.1 -0.1)">
     <use xlink:href="#DejaVuSans-115"/>
     <use x="52.099609" xlink:href="#DejaVuSans-111"/>
    </g>
   </g>
   <g id="text_29">
    <!-- lv -->
    <g transform="translate(912.275354 540.74012)scale(0.1 -0.1)">
     <use xlink:href="#DejaVuSans-108"/>
     <use x="27.783203" xlink:href="#DejaVuSans-118"/>
    </g>
   </g>
   <g id="text_30">
    <!-- hr -->
    <g transform="translate(912.275657 540.555749)scale(0.1 -0.1)">
     <use xlink:href="#DejaVuSans-104"/>
     <use x="63.378906" xlink:href="#DejaVuSans-114"/>
    </g>
   </g>
   <g id="text_31">
    <!-- ru -->
    <g transform="translate(912.275811 540.428107)scale(0.1 -0.1)">
     <use xlink:href="#DejaVuSans-114"/>
     <use x="41.113281" xlink:href="#DejaVuSans-117"/>
    </g>
   </g>
   <g id="text_32">
    <!-- sk -->
    <g transform="translate(912.275888 540.343013)scale(0.1 -0.1)">
     <defs>
      <path d="M 9.078125 75.984375 
L 18.109375 75.984375 
L 18.109375 31.109375 
L 44.921875 54.6875 
L 56.390625 54.6875 
L 27.390625 29.109375 
L 57.625 0 
L 45.90625 0 
L 18.109375 26.703125 
L 18.109375 0 
L 9.078125 0 
z
" id="DejaVuSans-107"/>
     </defs>
     <use xlink:href="#DejaVuSans-115"/>
     <use x="52.099609" xlink:href="#DejaVuSans-107"/>
    </g>
   </g>
   <g id="text_33">
    <!-- ko -->
    <g transform="translate(912.275945 540.257918)scale(0.1 -0.1)">
     <use xlink:href="#DejaVuSans-107"/>
     <use x="54.285156" xlink:href="#DejaVuSans-111"/>
    </g>
   </g>
   <g id="text_34">
    <!-- zh-cn -->
    <g transform="translate(912.27598 540.179915)scale(0.1 -0.1)">
     <defs>
      <path d="M 5.515625 54.6875 
L 48.1875 54.6875 
L 48.1875 46.484375 
L 14.40625 7.171875 
L 48.1875 7.171875 
L 48.1875 0 
L 4.296875 0 
L 4.296875 8.203125 
L 38.09375 47.515625 
L 5.515625 47.515625 
z
" id="DejaVuSans-122"/>
      <path d="M 4.890625 31.390625 
L 31.203125 31.390625 
L 31.203125 23.390625 
L 4.890625 23.390625 
z
" id="DejaVuSans-45"/>
     </defs>
     <use xlink:href="#DejaVuSans-122"/>
     <use x="52.490234" xlink:href="#DejaVuSans-104"/>
     <use x="115.869141" xlink:href="#DejaVuSans-45"/>
     <use x="151.953125" xlink:href="#DejaVuSans-99"/>
     <use x="206.933594" xlink:href="#DejaVuSans-110"/>
    </g>
   </g>
   <g id="text_35">
    <!-- sq -->
    <g transform="translate(912.275994 540.123185)scale(0.1 -0.1)">
     <defs>
      <path d="M 14.796875 27.296875 
Q 14.796875 17.390625 18.875 11.75 
Q 22.953125 6.109375 30.078125 6.109375 
Q 37.203125 6.109375 41.296875 11.75 
Q 45.40625 17.390625 45.40625 27.296875 
Q 45.40625 37.203125 41.296875 42.84375 
Q 37.203125 48.484375 30.078125 48.484375 
Q 22.953125 48.484375 18.875 42.84375 
Q 14.796875 37.203125 14.796875 27.296875 
z
M 45.40625 8.203125 
Q 42.578125 3.328125 38.25 0.953125 
Q 33.9375 -1.421875 27.875 -1.421875 
Q 17.96875 -1.421875 11.734375 6.484375 
Q 5.515625 14.40625 5.515625 27.296875 
Q 5.515625 40.1875 11.734375 48.09375 
Q 17.96875 56 27.875 56 
Q 33.9375 56 38.25 53.625 
Q 42.578125 51.265625 45.40625 46.390625 
L 45.40625 54.6875 
L 54.390625 54.6875 
L 54.390625 -20.796875 
L 45.40625 -20.796875 
z
" id="DejaVuSans-113"/>
     </defs>
     <use xlink:href="#DejaVuSans-115"/>
     <use x="52.099609" xlink:href="#DejaVuSans-113"/>
    </g>
   </g>
   <g id="text_36">
    <!-- cs -->
    <g transform="translate(912.275999 540.087729)scale(0.1 -0.1)">
     <use xlink:href="#DejaVuSans-99"/>
     <use x="54.980469" xlink:href="#DejaVuSans-115"/>
    </g>
   </g>
   <g id="text_37">
    <!-- UNKNOWN -->
    <g transform="translate(912.276 540.066455)scale(0.1 -0.1)">
     <defs>
      <path d="M 8.6875 72.90625 
L 18.609375 72.90625 
L 18.609375 28.609375 
Q 18.609375 16.890625 22.84375 11.734375 
Q 27.09375 6.59375 36.625 6.59375 
Q 46.09375 6.59375 50.34375 11.734375 
Q 54.59375 16.890625 54.59375 28.609375 
L 54.59375 72.90625 
L 64.5 72.90625 
L 64.5 27.390625 
Q 64.5 13.140625 57.4375 5.859375 
Q 50.390625 -1.421875 36.625 -1.421875 
Q 22.796875 -1.421875 15.734375 5.859375 
Q 8.6875 13.140625 8.6875 27.390625 
z
" id="DejaVuSans-85"/>
      <path d="M 9.8125 72.90625 
L 23.09375 72.90625 
L 55.421875 11.921875 
L 55.421875 72.90625 
L 64.984375 72.90625 
L 64.984375 0 
L 51.703125 0 
L 19.390625 60.984375 
L 19.390625 0 
L 9.8125 0 
z
" id="DejaVuSans-78"/>
      <path d="M 9.8125 72.90625 
L 19.671875 72.90625 
L 19.671875 42.09375 
L 52.390625 72.90625 
L 65.09375 72.90625 
L 28.90625 38.921875 
L 67.671875 0 
L 54.6875 0 
L 19.671875 35.109375 
L 19.671875 0 
L 9.8125 0 
z
" id="DejaVuSans-75"/>
      <path d="M 39.40625 66.21875 
Q 28.65625 66.21875 22.328125 58.203125 
Q 16.015625 50.203125 16.015625 36.375 
Q 16.015625 22.609375 22.328125 14.59375 
Q 28.65625 6.59375 39.40625 6.59375 
Q 50.140625 6.59375 56.421875 14.59375 
Q 62.703125 22.609375 62.703125 36.375 
Q 62.703125 50.203125 56.421875 58.203125 
Q 50.140625 66.21875 39.40625 66.21875 
z
M 39.40625 74.21875 
Q 54.734375 74.21875 63.90625 63.9375 
Q 73.09375 53.65625 73.09375 36.375 
Q 73.09375 19.140625 63.90625 8.859375 
Q 54.734375 -1.421875 39.40625 -1.421875 
Q 24.03125 -1.421875 14.8125 8.828125 
Q 5.609375 19.09375 5.609375 36.375 
Q 5.609375 53.65625 14.8125 63.9375 
Q 24.03125 74.21875 39.40625 74.21875 
z
" id="DejaVuSans-79"/>
      <path d="M 3.328125 72.90625 
L 13.28125 72.90625 
L 28.609375 11.28125 
L 43.890625 72.90625 
L 54.984375 72.90625 
L 70.3125 11.28125 
L 85.59375 72.90625 
L 95.609375 72.90625 
L 77.296875 0 
L 64.890625 0 
L 49.515625 63.28125 
L 33.984375 0 
L 21.578125 0 
z
" id="DejaVuSans-87"/>
     </defs>
     <use xlink:href="#DejaVuSans-85"/>
     <use x="73.193359" xlink:href="#DejaVuSans-78"/>
     <use x="147.998047" xlink:href="#DejaVuSans-75"/>
     <use x="213.574219" xlink:href="#DejaVuSans-78"/>
     <use x="288.378906" xlink:href="#DejaVuSans-79"/>
     <use x="367.089844" xlink:href="#DejaVuSans-87"/>
     <use x="465.966797" xlink:href="#DejaVuSans-78"/>
    </g>
   </g>
   <g id="legend_1">
    <g id="patch_38">
     <path d="M 152.8 666.0125 
L 238.879688 666.0125 
Q 240.879688 666.0125 240.879688 664.0125 
L 240.879688 136.6 
Q 240.879688 134.6 238.879688 134.6 
L 152.8 134.6 
Q 150.8 134.6 150.8 136.6 
L 150.8 664.0125 
Q 150.8 666.0125 152.8 666.0125 
z
" style="fill:#ffffff;opacity:0.8;stroke:#cccccc;stroke-linejoin:miter;"/>
    </g>
    <g id="patch_39">
     <path d="M 154.8 146.198438 
L 174.8 146.198438 
L 174.8 139.198438 
L 154.8 139.198438 
z
" style="fill:#1f77b4;"/>
    </g>
    <g id="text_38">
     <!-- en -->
     <g transform="translate(182.8 146.198438)scale(0.1 -0.1)">
      <use xlink:href="#DejaVuSans-101"/>
      <use x="61.523438" xlink:href="#DejaVuSans-110"/>
     </g>
    </g>
    <g id="patch_40">
     <path d="M 154.8 160.876563 
L 174.8 160.876563 
L 174.8 153.876563 
L 154.8 153.876563 
z
" style="fill:#ff7f0e;"/>
    </g>
    <g id="text_39">
     <!-- de -->
     <g transform="translate(182.8 160.876563)scale(0.1 -0.1)">
      <use xlink:href="#DejaVuSans-100"/>
      <use x="63.476562" xlink:href="#DejaVuSans-101"/>
     </g>
    </g>
    <g id="patch_41">
     <path d="M 154.8 175.554688 
L 174.8 175.554688 
L 174.8 168.554688 
L 154.8 168.554688 
z
" style="fill:#2ca02c;"/>
    </g>
    <g id="text_40">
     <!-- fr -->
     <g transform="translate(182.8 175.554688)scale(0.1 -0.1)">
      <use xlink:href="#DejaVuSans-102"/>
      <use x="35.205078" xlink:href="#DejaVuSans-114"/>
     </g>
    </g>
    <g id="patch_42">
     <path d="M 154.8 190.232813 
L 174.8 190.232813 
L 174.8 183.232813 
L 154.8 183.232813 
z
" style="fill:#d62728;"/>
    </g>
    <g id="text_41">
     <!-- es -->
     <g transform="translate(182.8 190.232813)scale(0.1 -0.1)">
      <use xlink:href="#DejaVuSans-101"/>
      <use x="61.523438" xlink:href="#DejaVuSans-115"/>
     </g>
    </g>
    <g id="patch_43">
     <path d="M 154.8 204.910938 
L 174.8 204.910938 
L 174.8 197.910938 
L 154.8 197.910938 
z
" style="fill:#9467bd;"/>
    </g>
    <g id="text_42">
     <!-- it -->
     <g transform="translate(182.8 204.910938)scale(0.1 -0.1)">
      <use xlink:href="#DejaVuSans-105"/>
      <use x="27.783203" xlink:href="#DejaVuSans-116"/>
     </g>
    </g>
    <g id="patch_44">
     <path d="M 154.8 219.589062 
L 174.8 219.589062 
L 174.8 212.589062 
L 154.8 212.589062 
z
" style="fill:#8c564b;"/>
    </g>
    <g id="text_43">
     <!-- ca -->
     <g transform="translate(182.8 219.589062)scale(0.1 -0.1)">
      <use xlink:href="#DejaVuSans-99"/>
      <use x="54.980469" xlink:href="#DejaVuSans-97"/>
     </g>
    </g>
    <g id="patch_45">
     <path d="M 154.8 234.267188 
L 174.8 234.267188 
L 174.8 227.267188 
L 154.8 227.267188 
z
" style="fill:#e377c2;"/>
    </g>
    <g id="text_44">
     <!-- ro -->
     <g transform="translate(182.8 234.267188)scale(0.1 -0.1)">
      <use xlink:href="#DejaVuSans-114"/>
      <use x="38.863281" xlink:href="#DejaVuSans-111"/>
     </g>
    </g>
    <g id="patch_46">
     <path d="M 154.8 248.945312 
L 174.8 248.945312 
L 174.8 241.945312 
L 154.8 241.945312 
z
" style="fill:#7f7f7f;"/>
    </g>
    <g id="text_45">
     <!-- nl -->
     <g transform="translate(182.8 248.945312)scale(0.1 -0.1)">
      <use xlink:href="#DejaVuSans-110"/>
      <use x="63.378906" xlink:href="#DejaVuSans-108"/>
     </g>
    </g>
    <g id="patch_47">
     <path d="M 154.8 263.623438 
L 174.8 263.623438 
L 174.8 256.623438 
L 154.8 256.623438 
z
" style="fill:#bcbd22;"/>
    </g>
    <g id="text_46">
     <!-- pt -->
     <g transform="translate(182.8 263.623438)scale(0.1 -0.1)">
      <use xlink:href="#DejaVuSans-112"/>
      <use x="63.476562" xlink:href="#DejaVuSans-116"/>
     </g>
    </g>
    <g id="patch_48">
     <path d="M 154.8 278.301563 
L 174.8 278.301563 
L 174.8 271.301563 
L 154.8 271.301563 
z
" style="fill:#17becf;"/>
    </g>
    <g id="text_47">
     <!-- af -->
     <g transform="translate(182.8 278.301563)scale(0.1 -0.1)">
      <use xlink:href="#DejaVuSans-97"/>
      <use x="61.279297" xlink:href="#DejaVuSans-102"/>
     </g>
    </g>
    <g id="patch_49">
     <path d="M 154.8 292.979687 
L 174.8 292.979687 
L 174.8 285.979687 
L 154.8 285.979687 
z
" style="fill:#1f77b4;"/>
    </g>
    <g id="text_48">
     <!-- tl -->
     <g transform="translate(182.8 292.979687)scale(0.1 -0.1)">
      <use xlink:href="#DejaVuSans-116"/>
      <use x="39.208984" xlink:href="#DejaVuSans-108"/>
     </g>
    </g>
    <g id="patch_50">
     <path d="M 154.8 307.657812 
L 174.8 307.657812 
L 174.8 300.657812 
L 154.8 300.657812 
z
" style="fill:#ff7f0e;"/>
    </g>
    <g id="text_49">
     <!-- da -->
     <g transform="translate(182.8 307.657812)scale(0.1 -0.1)">
      <use xlink:href="#DejaVuSans-100"/>
      <use x="63.476562" xlink:href="#DejaVuSans-97"/>
     </g>
    </g>
    <g id="patch_51">
     <path d="M 154.8 322.335938 
L 174.8 322.335938 
L 174.8 315.335938 
L 154.8 315.335938 
z
" style="fill:#2ca02c;"/>
    </g>
    <g id="text_50">
     <!-- no -->
     <g transform="translate(182.8 322.335938)scale(0.1 -0.1)">
      <use xlink:href="#DejaVuSans-110"/>
      <use x="63.378906" xlink:href="#DejaVuSans-111"/>
     </g>
    </g>
    <g id="patch_52">
     <path d="M 154.8 337.014062 
L 174.8 337.014062 
L 174.8 330.014062 
L 154.8 330.014062 
z
" style="fill:#d62728;"/>
    </g>
    <g id="text_51">
     <!-- et -->
     <g transform="translate(182.8 337.014062)scale(0.1 -0.1)">
      <use xlink:href="#DejaVuSans-101"/>
      <use x="61.523438" xlink:href="#DejaVuSans-116"/>
     </g>
    </g>
    <g id="patch_53">
     <path d="M 154.8 351.692187 
L 174.8 351.692187 
L 174.8 344.692187 
L 154.8 344.692187 
z
" style="fill:#9467bd;"/>
    </g>
    <g id="text_52">
     <!-- lt -->
     <g transform="translate(182.8 351.692187)scale(0.1 -0.1)">
      <use xlink:href="#DejaVuSans-108"/>
      <use x="27.783203" xlink:href="#DejaVuSans-116"/>
     </g>
    </g>
    <g id="patch_54">
     <path d="M 154.8 366.370312 
L 174.8 366.370312 
L 174.8 359.370312 
L 154.8 359.370312 
z
" style="fill:#8c564b;"/>
    </g>
    <g id="text_53">
     <!-- id -->
     <g transform="translate(182.8 366.370312)scale(0.1 -0.1)">
      <use xlink:href="#DejaVuSans-105"/>
      <use x="27.783203" xlink:href="#DejaVuSans-100"/>
     </g>
    </g>
    <g id="patch_55">
     <path d="M 154.8 381.048437 
L 174.8 381.048437 
L 174.8 374.048437 
L 154.8 374.048437 
z
" style="fill:#e377c2;"/>
    </g>
    <g id="text_54">
     <!-- cy -->
     <g transform="translate(182.8 381.048437)scale(0.1 -0.1)">
      <use xlink:href="#DejaVuSans-99"/>
      <use x="54.980469" xlink:href="#DejaVuSans-121"/>
     </g>
    </g>
    <g id="patch_56">
     <path d="M 154.8 395.726562 
L 174.8 395.726562 
L 174.8 388.726562 
L 154.8 388.726562 
z
" style="fill:#7f7f7f;"/>
    </g>
    <g id="text_55">
     <!-- vi -->
     <g transform="translate(182.8 395.726562)scale(0.1 -0.1)">
      <use xlink:href="#DejaVuSans-118"/>
      <use x="59.179688" xlink:href="#DejaVuSans-105"/>
     </g>
    </g>
    <g id="patch_57">
     <path d="M 154.8 410.404687 
L 174.8 410.404687 
L 174.8 403.404687 
L 154.8 403.404687 
z
" style="fill:#bcbd22;"/>
    </g>
    <g id="text_56">
     <!-- fi -->
     <g transform="translate(182.8 410.404687)scale(0.1 -0.1)">
      <use xlink:href="#DejaVuSans-102"/>
      <use x="35.205078" xlink:href="#DejaVuSans-105"/>
     </g>
    </g>
    <g id="patch_58">
     <path d="M 154.8 425.082813 
L 174.8 425.082813 
L 174.8 418.082813 
L 154.8 418.082813 
z
" style="fill:#17becf;"/>
    </g>
    <g id="text_57">
     <!-- sv -->
     <g transform="translate(182.8 425.082813)scale(0.1 -0.1)">
      <use xlink:href="#DejaVuSans-115"/>
      <use x="52.099609" xlink:href="#DejaVuSans-118"/>
     </g>
    </g>
    <g id="patch_59">
     <path d="M 154.8 439.760937 
L 174.8 439.760937 
L 174.8 432.760937 
L 154.8 432.760937 
z
" style="fill:#1f77b4;"/>
    </g>
    <g id="text_58">
     <!-- hu -->
     <g transform="translate(182.8 439.760937)scale(0.1 -0.1)">
      <use xlink:href="#DejaVuSans-104"/>
      <use x="63.378906" xlink:href="#DejaVuSans-117"/>
     </g>
    </g>
    <g id="patch_60">
     <path d="M 154.8 454.439063 
L 174.8 454.439063 
L 174.8 447.439063 
L 154.8 447.439063 
z
" style="fill:#ff7f0e;"/>
    </g>
    <g id="text_59">
     <!-- pl -->
     <g transform="translate(182.8 454.439063)scale(0.1 -0.1)">
      <use xlink:href="#DejaVuSans-112"/>
      <use x="63.476562" xlink:href="#DejaVuSans-108"/>
     </g>
    </g>
    <g id="patch_61">
     <path d="M 154.8 469.117188 
L 174.8 469.117188 
L 174.8 462.117188 
L 154.8 462.117188 
z
" style="fill:#2ca02c;"/>
    </g>
    <g id="text_60">
     <!-- sl -->
     <g transform="translate(182.8 469.117188)scale(0.1 -0.1)">
      <use xlink:href="#DejaVuSans-115"/>
      <use x="52.099609" xlink:href="#DejaVuSans-108"/>
     </g>
    </g>
    <g id="patch_62">
     <path d="M 154.8 483.795313 
L 174.8 483.795313 
L 174.8 476.795313 
L 154.8 476.795313 
z
" style="fill:#d62728;"/>
    </g>
    <g id="text_61">
     <!-- sw -->
     <g transform="translate(182.8 483.795313)scale(0.1 -0.1)">
      <use xlink:href="#DejaVuSans-115"/>
      <use x="52.099609" xlink:href="#DejaVuSans-119"/>
     </g>
    </g>
    <g id="patch_63">
     <path d="M 154.8 498.473438 
L 174.8 498.473438 
L 174.8 491.473438 
L 154.8 491.473438 
z
" style="fill:#9467bd;"/>
    </g>
    <g id="text_62">
     <!-- tr -->
     <g transform="translate(182.8 498.473438)scale(0.1 -0.1)">
      <use xlink:href="#DejaVuSans-116"/>
      <use x="39.208984" xlink:href="#DejaVuSans-114"/>
     </g>
    </g>
    <g id="patch_64">
     <path d="M 154.8 513.151563 
L 174.8 513.151563 
L 174.8 506.151563 
L 154.8 506.151563 
z
" style="fill:#8c564b;"/>
    </g>
    <g id="text_63">
     <!-- ja -->
     <g transform="translate(182.8 513.151563)scale(0.1 -0.1)">
      <use xlink:href="#DejaVuSans-106"/>
      <use x="27.783203" xlink:href="#DejaVuSans-97"/>
     </g>
    </g>
    <g id="patch_65">
     <path d="M 154.8 527.829688 
L 174.8 527.829688 
L 174.8 520.829688 
L 154.8 520.829688 
z
" style="fill:#e377c2;"/>
    </g>
    <g id="text_64">
     <!-- so -->
     <g transform="translate(182.8 527.829688)scale(0.1 -0.1)">
      <use xlink:href="#DejaVuSans-115"/>
      <use x="52.099609" xlink:href="#DejaVuSans-111"/>
     </g>
    </g>
    <g id="patch_66">
     <path d="M 154.8 542.507813 
L 174.8 542.507813 
L 174.8 535.507813 
L 154.8 535.507813 
z
" style="fill:#7f7f7f;"/>
    </g>
    <g id="text_65">
     <!-- lv -->
     <g transform="translate(182.8 542.507813)scale(0.1 -0.1)">
      <use xlink:href="#DejaVuSans-108"/>
      <use x="27.783203" xlink:href="#DejaVuSans-118"/>
     </g>
    </g>
    <g id="patch_67">
     <path d="M 154.8 557.185938 
L 174.8 557.185938 
L 174.8 550.185938 
L 154.8 550.185938 
z
" style="fill:#bcbd22;"/>
    </g>
    <g id="text_66">
     <!-- hr -->
     <g transform="translate(182.8 557.185938)scale(0.1 -0.1)">
      <use xlink:href="#DejaVuSans-104"/>
      <use x="63.378906" xlink:href="#DejaVuSans-114"/>
     </g>
    </g>
    <g id="patch_68">
     <path d="M 154.8 571.864063 
L 174.8 571.864063 
L 174.8 564.864063 
L 154.8 564.864063 
z
" style="fill:#17becf;"/>
    </g>
    <g id="text_67">
     <!-- ru -->
     <g transform="translate(182.8 571.864063)scale(0.1 -0.1)">
      <use xlink:href="#DejaVuSans-114"/>
      <use x="41.113281" xlink:href="#DejaVuSans-117"/>
     </g>
    </g>
    <g id="patch_69">
     <path d="M 154.8 586.542188 
L 174.8 586.542188 
L 174.8 579.542188 
L 154.8 579.542188 
z
" style="fill:#1f77b4;"/>
    </g>
    <g id="text_68">
     <!-- sk -->
     <g transform="translate(182.8 586.542188)scale(0.1 -0.1)">
      <use xlink:href="#DejaVuSans-115"/>
      <use x="52.099609" xlink:href="#DejaVuSans-107"/>
     </g>
    </g>
    <g id="patch_70">
     <path d="M 154.8 601.220313 
L 174.8 601.220313 
L 174.8 594.220313 
L 154.8 594.220313 
z
" style="fill:#ff7f0e;"/>
    </g>
    <g id="text_69">
     <!-- ko -->
     <g transform="translate(182.8 601.220313)scale(0.1 -0.1)">
      <use xlink:href="#DejaVuSans-107"/>
      <use x="54.285156" xlink:href="#DejaVuSans-111"/>
     </g>
    </g>
    <g id="patch_71">
     <path d="M 154.8 615.898438 
L 174.8 615.898438 
L 174.8 608.898438 
L 154.8 608.898438 
z
" style="fill:#2ca02c;"/>
    </g>
    <g id="text_70">
     <!-- zh-cn -->
     <g transform="translate(182.8 615.898438)scale(0.1 -0.1)">
      <use xlink:href="#DejaVuSans-122"/>
      <use x="52.490234" xlink:href="#DejaVuSans-104"/>
      <use x="115.869141" xlink:href="#DejaVuSans-45"/>
      <use x="151.953125" xlink:href="#DejaVuSans-99"/>
      <use x="206.933594" xlink:href="#DejaVuSans-110"/>
     </g>
    </g>
    <g id="patch_72">
     <path d="M 154.8 630.576563 
L 174.8 630.576563 
L 174.8 623.576563 
L 154.8 623.576563 
z
" style="fill:#d62728;"/>
    </g>
    <g id="text_71">
     <!-- sq -->
     <g transform="translate(182.8 630.576563)scale(0.1 -0.1)">
      <use xlink:href="#DejaVuSans-115"/>
      <use x="52.099609" xlink:href="#DejaVuSans-113"/>
     </g>
    </g>
    <g id="patch_73">
     <path d="M 154.8 645.254688 
L 174.8 645.254688 
L 174.8 638.254688 
L 154.8 638.254688 
z
" style="fill:#9467bd;"/>
    </g>
    <g id="text_72">
     <!-- cs -->
     <g transform="translate(182.8 645.254688)scale(0.1 -0.1)">
      <use xlink:href="#DejaVuSans-99"/>
      <use x="54.980469" xlink:href="#DejaVuSans-115"/>
     </g>
    </g>
    <g id="patch_74">
     <path d="M 154.8 659.932813 
L 174.8 659.932813 
L 174.8 652.932813 
L 154.8 652.932813 
z
" style="fill:#8c564b;"/>
    </g>
    <g id="text_73">
     <!-- UNKNOWN -->
     <g transform="translate(182.8 659.932813)scale(0.1 -0.1)">
      <use xlink:href="#DejaVuSans-85"/>
      <use x="73.193359" xlink:href="#DejaVuSans-78"/>
      <use x="147.998047" xlink:href="#DejaVuSans-75"/>
      <use x="213.574219" xlink:href="#DejaVuSans-78"/>
      <use x="288.378906" xlink:href="#DejaVuSans-79"/>
      <use x="367.089844" xlink:href="#DejaVuSans-87"/>
      <use x="465.966797" xlink:href="#DejaVuSans-78"/>
     </g>
    </g>
   </g>
  </g>
 </g>
</svg>
